,drug2.conc,drug1.conc,effect,effect.95ci,drug1,drug2,sample,expt
0,0.0,0.0,346.40849999999995,47.08985,C3P,Ben,yeast,06-20-2018
1,2.9999999999999997e-06,0.0,150.34900000000005,47.08985,C3P,Ben,yeast,06-20-2018
2,5.999999999999999e-06,0.0,78.15950000000001,47.08985,C3P,Ben,yeast,06-20-2018
3,8.999999999999999e-06,0.0,46.583125000000024,47.08985,C3P,Ben,yeast,06-20-2018
4,1.1999999999999999e-05,0.0,29.42799999999997,47.08985,C3P,Ben,yeast,06-20-2018
5,1.4999999999999999e-05,0.0,19.007875000000013,47.08985,C3P,Ben,yeast,06-20-2018
6,1.7999999999999997e-05,0.0,17.91225,47.08985,C3P,Ben,yeast,06-20-2018
7,2.1e-05,0.0,13.551124999999985,47.08985,C3P,Ben,yeast,06-20-2018
8,0.0,4e-06,283.392,47.08985,C3P,Ben,yeast,06-20-2018
9,2.9999999999999997e-06,4e-06,86.81649999999996,47.08985,C3P,Ben,yeast,06-20-2018
10,5.999999999999999e-06,4e-06,38.541499999999985,47.08985,C3P,Ben,yeast,06-20-2018
11,8.999999999999999e-06,4e-06,25.526249999999976,47.08985,C3P,Ben,yeast,06-20-2018
12,1.1999999999999999e-05,4e-06,17.028999999999968,47.08985,C3P,Ben,yeast,06-20-2018
13,1.4999999999999999e-05,4e-06,11.73562499999997,47.08985,C3P,Ben,yeast,06-20-2018
14,1.7999999999999997e-05,4e-06,7.8785000000000025,47.08985,C3P,Ben,yeast,06-20-2018
15,2.1e-05,4e-06,9.75,47.08985,C3P,Ben,yeast,06-20-2018
16,0.0,8e-06,215.62525,47.08985,C3P,Ben,yeast,06-20-2018
17,2.9999999999999997e-06,8e-06,52.40087500000001,47.08985,C3P,Ben,yeast,06-20-2018
18,5.999999999999999e-06,8e-06,38.53887500000002,47.08985,C3P,Ben,yeast,06-20-2018
19,8.999999999999999e-06,8e-06,18.93549999999999,47.08985,C3P,Ben,yeast,06-20-2018
20,1.1999999999999999e-05,8e-06,13.809125000000023,47.08985,C3P,Ben,yeast,06-20-2018
21,1.4999999999999999e-05,8e-06,7.892124999999993,47.08985,C3P,Ben,yeast,06-20-2018
22,1.7999999999999997e-05,8e-06,8.425125000000008,47.08985,C3P,Ben,yeast,06-20-2018
23,2.1e-05,8e-06,8.433750000000003,47.08985,C3P,Ben,yeast,06-20-2018
24,0.0,1.2e-05,161.875,47.08985,C3P,Ben,yeast,06-20-2018
25,2.9999999999999997e-06,1.2e-05,41.190999999999974,47.08985,C3P,Ben,yeast,06-20-2018
26,5.999999999999999e-06,1.2e-05,15.68837499999998,47.08985,C3P,Ben,yeast,06-20-2018
27,8.999999999999999e-06,1.2e-05,10.268999999999977,47.08985,C3P,Ben,yeast,06-20-2018
28,1.1999999999999999e-05,1.2e-05,6.258749999999992,47.08985,C3P,Ben,yeast,06-20-2018
29,1.4999999999999999e-05,1.2e-05,3.294499999999985,47.08985,C3P,Ben,yeast,06-20-2018
30,1.7999999999999997e-05,1.2e-05,3.4189999999999827,47.08985,C3P,Ben,yeast,06-20-2018
31,2.1e-05,1.2e-05,3.625624999999985,47.08985,C3P,Ben,yeast,06-20-2018
32,0.0,1.6e-05,116.34799999999998,47.08985,C3P,Ben,yeast,06-20-2018
33,2.9999999999999997e-06,1.6e-05,22.56449999999998,47.08985,C3P,Ben,yeast,06-20-2018
34,5.999999999999999e-06,1.6e-05,11.316374999999994,47.08985,C3P,Ben,yeast,06-20-2018
35,8.999999999999999e-06,1.6e-05,5.361124999999959,47.08985,C3P,Ben,yeast,06-20-2018
36,1.1999999999999999e-05,1.6e-05,4.7253749999999854,47.08985,C3P,Ben,yeast,06-20-2018
37,1.4999999999999999e-05,1.6e-05,2.5802499999999924,47.08985,C3P,Ben,yeast,06-20-2018
38,1.7999999999999997e-05,1.6e-05,2.6088749999999976,47.08985,C3P,Ben,yeast,06-20-2018
39,2.1e-05,1.6e-05,3.6614999999999895,47.08985,C3P,Ben,yeast,06-20-2018
40,0.0,1.9999999999999998e-05,56.655374999999964,47.08985,C3P,Ben,yeast,06-20-2018
41,2.9999999999999997e-06,1.9999999999999998e-05,15.216249999999974,47.08985,C3P,Ben,yeast,06-20-2018
42,5.999999999999999e-06,1.9999999999999998e-05,5.7918750000000045,47.08985,C3P,Ben,yeast,06-20-2018
43,8.999999999999999e-06,1.9999999999999998e-05,3.5847499999999854,47.08985,C3P,Ben,yeast,06-20-2018
44,1.1999999999999999e-05,1.9999999999999998e-05,2.159124999999989,47.08985,C3P,Ben,yeast,06-20-2018
45,1.4999999999999999e-05,1.9999999999999998e-05,0.809749999999994,47.08985,C3P,Ben,yeast,06-20-2018
46,1.7999999999999997e-05,1.9999999999999998e-05,1.5262500000000045,47.08985,C3P,Ben,yeast,06-20-2018
47,2.1e-05,1.9999999999999998e-05,0.0,47.08985,C3P,Ben,yeast,06-20-2018
48,0.0,2.4e-05,24.764875000000018,47.08985,C3P,Ben,yeast,06-20-2018
49,2.9999999999999997e-06,2.4e-05,7.269499999999994,47.08985,C3P,Ben,yeast,06-20-2018
50,5.999999999999999e-06,2.4e-05,8.156124999999975,47.08985,C3P,Ben,yeast,06-20-2018
51,8.999999999999999e-06,2.4e-05,4.517124999999993,47.08985,C3P,Ben,yeast,06-20-2018
52,1.1999999999999999e-05,2.4e-05,3.2787500000000023,47.08985,C3P,Ben,yeast,06-20-2018
53,1.4999999999999999e-05,2.4e-05,2.9043750000000017,47.08985,C3P,Ben,yeast,06-20-2018
54,1.7999999999999997e-05,2.4e-05,2.853499999999997,47.08985,C3P,Ben,yeast,06-20-2018
55,2.1e-05,2.4e-05,2.341249999999988,47.08985,C3P,Ben,yeast,06-20-2018
56,0.0,2.8e-05,13.880124999999992,47.08985,C3P,Ben,yeast,06-20-2018
57,2.9999999999999997e-06,2.8e-05,8.460499999999996,47.08985,C3P,Ben,yeast,06-20-2018
58,5.999999999999999e-06,2.8e-05,8.88262499999999,47.08985,C3P,Ben,yeast,06-20-2018
59,8.999999999999999e-06,2.8e-05,6.337124999999986,47.08985,C3P,Ben,yeast,06-20-2018
60,1.1999999999999999e-05,2.8e-05,5.2637499999999875,47.08985,C3P,Ben,yeast,06-20-2018
61,1.4999999999999999e-05,2.8e-05,4.544624999999996,47.08985,C3P,Ben,yeast,06-20-2018
62,1.7999999999999997e-05,2.8e-05,4.943499999999972,47.08985,C3P,Ben,yeast,06-20-2018
63,2.1e-05,2.8e-05,4.35775000000001,47.08985,C3P,Ben,yeast,06-20-2018
