,drug2.conc,drug1.conc,effect,effect.95ci,drug1,drug2,sample,expt
0,0.0,0.0,427.60962499999994,56.053437499999994,Lat,Cyc,yeast,06-20-2018
1,2e-06,0.0,419.35749999999996,56.053437499999994,Lat,Cyc,yeast,06-20-2018
2,4e-06,0.0,405.284125,56.053437499999994,Lat,Cyc,yeast,06-20-2018
3,6e-06,0.0,390.77987499999995,56.053437499999994,Lat,Cyc,yeast,06-20-2018
4,8e-06,0.0,331.92387500000007,56.053437499999994,Lat,Cyc,yeast,06-20-2018
5,9.999999999999999e-06,0.0,217.77075,56.053437499999994,Lat,Cyc,yeast,06-20-2018
6,1.2e-05,0.0,75.83474999999999,56.053437499999994,Lat,Cyc,yeast,06-20-2018
7,1.4e-05,0.0,20.639375,56.053437499999994,Lat,Cyc,yeast,06-20-2018
8,0.0,1.3e-07,383.88812500000006,56.053437499999994,Lat,Cyc,yeast,06-20-2018
9,2e-06,1.3e-07,372.914,56.053437499999994,Lat,Cyc,yeast,06-20-2018
10,4e-06,1.3e-07,365.22175000000004,56.053437499999994,Lat,Cyc,yeast,06-20-2018
11,6e-06,1.3e-07,362.27075,56.053437499999994,Lat,Cyc,yeast,06-20-2018
12,8e-06,1.3e-07,310.83887500000003,56.053437499999994,Lat,Cyc,yeast,06-20-2018
13,9.999999999999999e-06,1.3e-07,253.35187499999998,56.053437499999994,Lat,Cyc,yeast,06-20-2018
14,1.2e-05,1.3e-07,179.93025000000003,56.053437499999994,Lat,Cyc,yeast,06-20-2018
15,1.4e-05,1.3e-07,52.29550000000003,56.053437499999994,Lat,Cyc,yeast,06-20-2018
16,0.0,2.6e-07,306.698625,56.053437499999994,Lat,Cyc,yeast,06-20-2018
17,2e-06,2.6e-07,305.20162500000004,56.053437499999994,Lat,Cyc,yeast,06-20-2018
18,4e-06,2.6e-07,301.66887499999996,56.053437499999994,Lat,Cyc,yeast,06-20-2018
19,6e-06,2.6e-07,282.818,56.053437499999994,Lat,Cyc,yeast,06-20-2018
20,8e-06,2.6e-07,257.18224999999995,56.053437499999994,Lat,Cyc,yeast,06-20-2018
21,9.999999999999999e-06,2.6e-07,198.658875,56.053437499999994,Lat,Cyc,yeast,06-20-2018
22,1.2e-05,2.6e-07,102.53162500000005,56.053437499999994,Lat,Cyc,yeast,06-20-2018
23,1.4e-05,2.6e-07,50.18237500000001,56.053437499999994,Lat,Cyc,yeast,06-20-2018
24,0.0,3.8999999999999997e-07,230.279375,56.053437499999994,Lat,Cyc,yeast,06-20-2018
25,2e-06,3.8999999999999997e-07,231.470875,56.053437499999994,Lat,Cyc,yeast,06-20-2018
26,4e-06,3.8999999999999997e-07,217.20112500000002,56.053437499999994,Lat,Cyc,yeast,06-20-2018
27,6e-06,3.8999999999999997e-07,215.127375,56.053437499999994,Lat,Cyc,yeast,06-20-2018
28,8e-06,3.8999999999999997e-07,184.30137500000004,56.053437499999994,Lat,Cyc,yeast,06-20-2018
29,9.999999999999999e-06,3.8999999999999997e-07,142.800875,56.053437499999994,Lat,Cyc,yeast,06-20-2018
30,1.2e-05,3.8999999999999997e-07,78.99462500000004,56.053437499999994,Lat,Cyc,yeast,06-20-2018
31,1.4e-05,3.8999999999999997e-07,33.037125,56.053437499999994,Lat,Cyc,yeast,06-20-2018
32,0.0,5.2e-07,164.2581250000001,56.053437499999994,Lat,Cyc,yeast,06-20-2018
33,2e-06,5.2e-07,150.733625,56.053437499999994,Lat,Cyc,yeast,06-20-2018
34,4e-06,5.2e-07,159.45337500000002,56.053437499999994,Lat,Cyc,yeast,06-20-2018
35,6e-06,5.2e-07,128.84625000000003,56.053437499999994,Lat,Cyc,yeast,06-20-2018
36,8e-06,5.2e-07,119.90475,56.053437499999994,Lat,Cyc,yeast,06-20-2018
37,9.999999999999999e-06,5.2e-07,87.12575000000001,56.053437499999994,Lat,Cyc,yeast,06-20-2018
38,1.2e-05,5.2e-07,58.578125,56.053437499999994,Lat,Cyc,yeast,06-20-2018
39,1.4e-05,5.2e-07,20.441125000000028,56.053437499999994,Lat,Cyc,yeast,06-20-2018
40,0.0,6.5e-07,78.96037500000003,56.053437499999994,Lat,Cyc,yeast,06-20-2018
41,2e-06,6.5e-07,82.85312499999998,56.053437499999994,Lat,Cyc,yeast,06-20-2018
42,4e-06,6.5e-07,67.28262500000002,56.053437499999994,Lat,Cyc,yeast,06-20-2018
43,6e-06,6.5e-07,72.97162500000002,56.053437499999994,Lat,Cyc,yeast,06-20-2018
44,8e-06,6.5e-07,59.70675,56.053437499999994,Lat,Cyc,yeast,06-20-2018
45,9.999999999999999e-06,6.5e-07,39.78375,56.053437499999994,Lat,Cyc,yeast,06-20-2018
46,1.2e-05,6.5e-07,24.354000000000042,56.053437499999994,Lat,Cyc,yeast,06-20-2018
47,1.4e-05,6.5e-07,12.709375000000023,56.053437499999994,Lat,Cyc,yeast,06-20-2018
48,0.0,7.799999999999999e-07,52.590125,56.053437499999994,Lat,Cyc,yeast,06-20-2018
49,2e-06,7.799999999999999e-07,39.915249999999986,56.053437499999994,Lat,Cyc,yeast,06-20-2018
50,4e-06,7.799999999999999e-07,46.95662500000003,56.053437499999994,Lat,Cyc,yeast,06-20-2018
51,6e-06,7.799999999999999e-07,40.10250000000002,56.053437499999994,Lat,Cyc,yeast,06-20-2018
52,8e-06,7.799999999999999e-07,36.259375000000006,56.053437499999994,Lat,Cyc,yeast,06-20-2018
53,9.999999999999999e-06,7.799999999999999e-07,24.84375,56.053437499999994,Lat,Cyc,yeast,06-20-2018
54,1.2e-05,7.799999999999999e-07,18.33375000000001,56.053437499999994,Lat,Cyc,yeast,06-20-2018
55,1.4e-05,7.799999999999999e-07,9.76000000000002,56.053437499999994,Lat,Cyc,yeast,06-20-2018
56,0.0,9.100000000000001e-07,24.79762500000001,56.053437499999994,Lat,Cyc,yeast,06-20-2018
57,2e-06,9.100000000000001e-07,20.664500000000004,56.053437499999994,Lat,Cyc,yeast,06-20-2018
58,4e-06,9.100000000000001e-07,15.16662500000001,56.053437499999994,Lat,Cyc,yeast,06-20-2018
59,6e-06,9.100000000000001e-07,18.459249999999997,56.053437499999994,Lat,Cyc,yeast,06-20-2018
60,8e-06,9.100000000000001e-07,14.222625000000022,56.053437499999994,Lat,Cyc,yeast,06-20-2018
61,9.999999999999999e-06,9.100000000000001e-07,8.671375000000012,56.053437499999994,Lat,Cyc,yeast,06-20-2018
62,1.2e-05,9.100000000000001e-07,7.760125000000016,56.053437499999994,Lat,Cyc,yeast,06-20-2018
63,1.4e-05,9.100000000000001e-07,0.0,56.053437499999994,Lat,Cyc,yeast,06-20-2018
