,drug2.conc,drug1.conc,effect,effect.95ci,drug1,drug2,sample,expt
0,0.0,0.0,220.25237499999997,35.6313,Lat,Cis,yeast,06-20-2018
1,2e-06,0.0,226.769,35.6313,Lat,Cis,yeast,06-20-2018
2,4e-06,0.0,234.58887500000003,35.6313,Lat,Cis,yeast,06-20-2018
3,6e-06,0.0,225.56262499999997,35.6313,Lat,Cis,yeast,06-20-2018
4,8e-06,0.0,153.178,35.6313,Lat,Cis,yeast,06-20-2018
5,9.999999999999999e-06,0.0,149.09987500000005,35.6313,Lat,Cis,yeast,06-20-2018
6,1.2e-05,0.0,125.73924999999996,35.6313,Lat,Cis,yeast,06-20-2018
7,1.4e-05,0.0,95.42649999999999,35.6313,Lat,Cis,yeast,06-20-2018
8,0.0,1.1428571428571429e-05,216.86062500000003,35.6313,Lat,Cis,yeast,06-20-2018
9,2e-06,1.1428571428571429e-05,217.13512500000002,35.6313,Lat,Cis,yeast,06-20-2018
10,4e-06,1.1428571428571429e-05,228.83262499999995,35.6313,Lat,Cis,yeast,06-20-2018
11,6e-06,1.1428571428571429e-05,205.00175000000002,35.6313,Lat,Cis,yeast,06-20-2018
12,8e-06,1.1428571428571429e-05,135.94937499999997,35.6313,Lat,Cis,yeast,06-20-2018
13,9.999999999999999e-06,1.1428571428571429e-05,124.536375,35.6313,Lat,Cis,yeast,06-20-2018
14,1.2e-05,1.1428571428571429e-05,88.68725000000002,35.6313,Lat,Cis,yeast,06-20-2018
15,1.4e-05,1.1428571428571429e-05,87.947625,35.6313,Lat,Cis,yeast,06-20-2018
16,0.0,2.2857142857142858e-05,181.517625,35.6313,Lat,Cis,yeast,06-20-2018
17,2e-06,2.2857142857142858e-05,179.56912499999999,35.6313,Lat,Cis,yeast,06-20-2018
18,4e-06,2.2857142857142858e-05,167.46175,35.6313,Lat,Cis,yeast,06-20-2018
19,6e-06,2.2857142857142858e-05,179.03162500000002,35.6313,Lat,Cis,yeast,06-20-2018
20,8e-06,2.2857142857142858e-05,91.0045,35.6313,Lat,Cis,yeast,06-20-2018
21,9.999999999999999e-06,2.2857142857142858e-05,96.15675,35.6313,Lat,Cis,yeast,06-20-2018
22,1.2e-05,2.2857142857142858e-05,60.55224999999997,35.6313,Lat,Cis,yeast,06-20-2018
23,1.4e-05,2.2857142857142858e-05,52.789625000000015,35.6313,Lat,Cis,yeast,06-20-2018
24,0.0,3.428571428571429e-05,136.08187499999997,35.6313,Lat,Cis,yeast,06-20-2018
25,2e-06,3.428571428571429e-05,136.40137500000003,35.6313,Lat,Cis,yeast,06-20-2018
26,4e-06,3.428571428571429e-05,136.13937500000003,35.6313,Lat,Cis,yeast,06-20-2018
27,6e-06,3.428571428571429e-05,196.98612499999996,35.6313,Lat,Cis,yeast,06-20-2018
28,8e-06,3.428571428571429e-05,62.08825,35.6313,Lat,Cis,yeast,06-20-2018
29,9.999999999999999e-06,3.428571428571429e-05,60.71725000000002,35.6313,Lat,Cis,yeast,06-20-2018
30,1.2e-05,3.428571428571429e-05,46.210750000000004,35.6313,Lat,Cis,yeast,06-20-2018
31,1.4e-05,3.428571428571429e-05,25.481374999999943,35.6313,Lat,Cis,yeast,06-20-2018
32,0.0,4.5714285714285716e-05,82.600375,35.6313,Lat,Cis,yeast,06-20-2018
33,2e-06,4.5714285714285716e-05,84.39599999999997,35.6313,Lat,Cis,yeast,06-20-2018
34,4e-06,4.5714285714285716e-05,104.05537499999998,35.6313,Lat,Cis,yeast,06-20-2018
35,6e-06,4.5714285714285716e-05,48.704250000000016,35.6313,Lat,Cis,yeast,06-20-2018
36,8e-06,4.5714285714285716e-05,32.01687500000001,35.6313,Lat,Cis,yeast,06-20-2018
37,9.999999999999999e-06,4.5714285714285716e-05,28.809125000000037,35.6313,Lat,Cis,yeast,06-20-2018
38,1.2e-05,4.5714285714285716e-05,30.507124999999988,35.6313,Lat,Cis,yeast,06-20-2018
39,1.4e-05,4.5714285714285716e-05,13.311624999999978,35.6313,Lat,Cis,yeast,06-20-2018
40,0.0,5.714285714285714e-05,36.524874999999966,35.6313,Lat,Cis,yeast,06-20-2018
41,2e-06,5.714285714285714e-05,54.42125,35.6313,Lat,Cis,yeast,06-20-2018
42,4e-06,5.714285714285714e-05,17.25700000000002,35.6313,Lat,Cis,yeast,06-20-2018
43,6e-06,5.714285714285714e-05,31.048874999999995,35.6313,Lat,Cis,yeast,06-20-2018
44,8e-06,5.714285714285714e-05,14.131499999999974,35.6313,Lat,Cis,yeast,06-20-2018
45,9.999999999999999e-06,5.714285714285714e-05,11.266125000000002,35.6313,Lat,Cis,yeast,06-20-2018
46,1.2e-05,5.714285714285714e-05,6.761125000000007,35.6313,Lat,Cis,yeast,06-20-2018
47,1.4e-05,5.714285714285714e-05,5.210000000000008,35.6313,Lat,Cis,yeast,06-20-2018
48,0.0,6.857142857142858e-05,22.64275000000002,35.6313,Lat,Cis,yeast,06-20-2018
49,2e-06,6.857142857142858e-05,19.106624999999994,35.6313,Lat,Cis,yeast,06-20-2018
50,4e-06,6.857142857142858e-05,23.896249999999995,35.6313,Lat,Cis,yeast,06-20-2018
51,6e-06,6.857142857142858e-05,19.382374999999982,35.6313,Lat,Cis,yeast,06-20-2018
52,8e-06,6.857142857142858e-05,6.878625000000014,35.6313,Lat,Cis,yeast,06-20-2018
53,9.999999999999999e-06,6.857142857142858e-05,8.646,35.6313,Lat,Cis,yeast,06-20-2018
54,1.2e-05,6.857142857142858e-05,7.2180000000000035,35.6313,Lat,Cis,yeast,06-20-2018
55,1.4e-05,6.857142857142858e-05,2.0576249999999874,35.6313,Lat,Cis,yeast,06-20-2018
56,0.0,8e-05,3.35612500000002,35.6313,Lat,Cis,yeast,06-20-2018
57,2e-06,8e-05,5.206875000000011,35.6313,Lat,Cis,yeast,06-20-2018
58,4e-06,8e-05,4.414749999999984,35.6313,Lat,Cis,yeast,06-20-2018
59,6e-06,8e-05,0.0,35.6313,Lat,Cis,yeast,06-20-2018
60,8e-06,8e-05,1.762749999999997,35.6313,Lat,Cis,yeast,06-20-2018
61,9.999999999999999e-06,8e-05,1.1266250000000042,35.6313,Lat,Cis,yeast,06-20-2018
62,1.2e-05,8e-05,0.5686249999999973,35.6313,Lat,Cis,yeast,06-20-2018
63,1.4e-05,8e-05,0.47799999999999443,35.6313,Lat,Cis,yeast,06-20-2018
