,drug2.conc,drug1.conc,effect,effect.95ci,drug1,drug2,sample,expt
0,0.0,0.0,278.0635,39.4050125,Lat,Can,yeast,06-20-2018
1,2e-06,0.0,279.23725,39.4050125,Lat,Can,yeast,06-20-2018
2,4e-06,0.0,281.88587500000006,39.4050125,Lat,Can,yeast,06-20-2018
3,6e-06,0.0,283.2925,39.4050125,Lat,Can,yeast,06-20-2018
4,8e-06,0.0,218.99525000000003,39.4050125,Lat,Can,yeast,06-20-2018
5,9.999999999999999e-06,0.0,205.50812500000004,39.4050125,Lat,Can,yeast,06-20-2018
6,1.2e-05,0.0,186.80987499999995,39.4050125,Lat,Can,yeast,06-20-2018
7,1.4e-05,0.0,133.27349999999998,39.4050125,Lat,Can,yeast,06-20-2018
8,0.0,1.9999999999999998e-05,189.23150000000007,39.4050125,Lat,Can,yeast,06-20-2018
9,2e-06,1.9999999999999998e-05,190.35887500000004,39.4050125,Lat,Can,yeast,06-20-2018
10,4e-06,1.9999999999999998e-05,194.100625,39.4050125,Lat,Can,yeast,06-20-2018
11,6e-06,1.9999999999999998e-05,204.134125,39.4050125,Lat,Can,yeast,06-20-2018
12,8e-06,1.9999999999999998e-05,179.6095,39.4050125,Lat,Can,yeast,06-20-2018
13,9.999999999999999e-06,1.9999999999999998e-05,138.77650000000003,39.4050125,Lat,Can,yeast,06-20-2018
14,1.2e-05,1.9999999999999998e-05,123.22825000000003,39.4050125,Lat,Can,yeast,06-20-2018
15,1.4e-05,1.9999999999999998e-05,64.99350000000001,39.4050125,Lat,Can,yeast,06-20-2018
16,0.0,3.9999999999999996e-05,121.715,39.4050125,Lat,Can,yeast,06-20-2018
17,2e-06,3.9999999999999996e-05,114.46312500000002,39.4050125,Lat,Can,yeast,06-20-2018
18,4e-06,3.9999999999999996e-05,117.83575000000002,39.4050125,Lat,Can,yeast,06-20-2018
19,6e-06,3.9999999999999996e-05,163.13249999999996,39.4050125,Lat,Can,yeast,06-20-2018
20,8e-06,3.9999999999999996e-05,114.93925000000002,39.4050125,Lat,Can,yeast,06-20-2018
21,9.999999999999999e-06,3.9999999999999996e-05,78.04875000000001,39.4050125,Lat,Can,yeast,06-20-2018
22,1.2e-05,3.9999999999999996e-05,56.77225000000004,39.4050125,Lat,Can,yeast,06-20-2018
23,1.4e-05,3.9999999999999996e-05,26.39212500000002,39.4050125,Lat,Can,yeast,06-20-2018
24,0.0,5.9999999999999995e-05,61.38249999999999,39.4050125,Lat,Can,yeast,06-20-2018
25,2e-06,5.9999999999999995e-05,70.80737500000001,39.4050125,Lat,Can,yeast,06-20-2018
26,4e-06,5.9999999999999995e-05,54.61975000000001,39.4050125,Lat,Can,yeast,06-20-2018
27,6e-06,5.9999999999999995e-05,57.88450000000003,39.4050125,Lat,Can,yeast,06-20-2018
28,8e-06,5.9999999999999995e-05,73.75099999999998,39.4050125,Lat,Can,yeast,06-20-2018
29,9.999999999999999e-06,5.9999999999999995e-05,48.00000000000003,39.4050125,Lat,Can,yeast,06-20-2018
30,1.2e-05,5.9999999999999995e-05,34.452124999999995,39.4050125,Lat,Can,yeast,06-20-2018
31,1.4e-05,5.9999999999999995e-05,19.83325000000002,39.4050125,Lat,Can,yeast,06-20-2018
32,0.0,7.999999999999999e-05,58.38937499999997,39.4050125,Lat,Can,yeast,06-20-2018
33,2e-06,7.999999999999999e-05,46.178000000000026,39.4050125,Lat,Can,yeast,06-20-2018
34,4e-06,7.999999999999999e-05,48.66025000000002,39.4050125,Lat,Can,yeast,06-20-2018
35,6e-06,7.999999999999999e-05,62.14287500000003,39.4050125,Lat,Can,yeast,06-20-2018
36,8e-06,7.999999999999999e-05,44.617624999999975,39.4050125,Lat,Can,yeast,06-20-2018
37,9.999999999999999e-06,7.999999999999999e-05,25.007374999999996,39.4050125,Lat,Can,yeast,06-20-2018
38,1.2e-05,7.999999999999999e-05,19.38862500000002,39.4050125,Lat,Can,yeast,06-20-2018
39,1.4e-05,7.999999999999999e-05,10.512000000000015,39.4050125,Lat,Can,yeast,06-20-2018
40,0.0,9.999999999999999e-05,18.959125,39.4050125,Lat,Can,yeast,06-20-2018
41,2e-06,9.999999999999999e-05,21.393625000000014,39.4050125,Lat,Can,yeast,06-20-2018
42,4e-06,9.999999999999999e-05,31.855500000000006,39.4050125,Lat,Can,yeast,06-20-2018
43,6e-06,9.999999999999999e-05,29.868375000000043,39.4050125,Lat,Can,yeast,06-20-2018
44,8e-06,9.999999999999999e-05,20.70637500000001,39.4050125,Lat,Can,yeast,06-20-2018
45,9.999999999999999e-06,9.999999999999999e-05,12.804749999999999,39.4050125,Lat,Can,yeast,06-20-2018
46,1.2e-05,9.999999999999999e-05,18.262500000000017,39.4050125,Lat,Can,yeast,06-20-2018
47,1.4e-05,9.999999999999999e-05,5.826000000000022,39.4050125,Lat,Can,yeast,06-20-2018
48,0.0,0.00011999999999999999,11.039000000000001,39.4050125,Lat,Can,yeast,06-20-2018
49,2e-06,0.00011999999999999999,19.153875,39.4050125,Lat,Can,yeast,06-20-2018
50,4e-06,0.00011999999999999999,21.150500000000022,39.4050125,Lat,Can,yeast,06-20-2018
51,6e-06,0.00011999999999999999,17.604750000000024,39.4050125,Lat,Can,yeast,06-20-2018
52,8e-06,0.00011999999999999999,6.03762500000002,39.4050125,Lat,Can,yeast,06-20-2018
53,9.999999999999999e-06,0.00011999999999999999,0.9926250000000181,39.4050125,Lat,Can,yeast,06-20-2018
54,1.2e-05,0.00011999999999999999,7.555500000000023,39.4050125,Lat,Can,yeast,06-20-2018
55,1.4e-05,0.00011999999999999999,3.040875000000014,39.4050125,Lat,Can,yeast,06-20-2018
56,0.0,0.00014,4.166250000000005,39.4050125,Lat,Can,yeast,06-20-2018
57,2e-06,0.00014,5.306125000000009,39.4050125,Lat,Can,yeast,06-20-2018
58,4e-06,0.00014,12.805624999999992,39.4050125,Lat,Can,yeast,06-20-2018
59,6e-06,0.00014,17.52475000000001,39.4050125,Lat,Can,yeast,06-20-2018
60,8e-06,0.00014,4.210250000000002,39.4050125,Lat,Can,yeast,06-20-2018
61,9.999999999999999e-06,0.00014,0.0,39.4050125,Lat,Can,yeast,06-20-2018
62,1.2e-05,0.00014,8.323000000000008,39.4050125,Lat,Can,yeast,06-20-2018
63,1.4e-05,0.00014,2.722625000000008,39.4050125,Lat,Can,yeast,06-20-2018
