,drug2.conc,drug1.conc,effect,effect.95ci,drug1,drug2,sample,expt
0,0.0,0.0,490.35487500000005,62.74454999999999,MMS,Lat,yeast,06-20-2018
1,2.5e-05,0.0,407.14974999999987,62.74454999999999,MMS,Lat,yeast,06-20-2018
2,5e-05,0.0,335.77574999999996,62.74454999999999,MMS,Lat,yeast,06-20-2018
3,7.500000000000001e-05,0.0,269.1325,62.74454999999999,MMS,Lat,yeast,06-20-2018
4,0.0001,0.0,171.70625,62.74454999999999,MMS,Lat,yeast,06-20-2018
5,0.000125,0.0,84.554625,62.74454999999999,MMS,Lat,yeast,06-20-2018
6,0.00015000000000000001,0.0,27.424999999999997,62.74454999999999,MMS,Lat,yeast,06-20-2018
7,0.000175,0.0,5.295749999999984,62.74454999999999,MMS,Lat,yeast,06-20-2018
8,0.0,2e-06,508.89224999999993,62.74454999999999,MMS,Lat,yeast,06-20-2018
9,2.5e-05,2e-06,420.610125,62.74454999999999,MMS,Lat,yeast,06-20-2018
10,5e-05,2e-06,347.711375,62.74454999999999,MMS,Lat,yeast,06-20-2018
11,7.500000000000001e-05,2e-06,263.36812499999996,62.74454999999999,MMS,Lat,yeast,06-20-2018
12,0.0001,2e-06,169.61325000000005,62.74454999999999,MMS,Lat,yeast,06-20-2018
13,0.000125,2e-06,64.78162499999998,62.74454999999999,MMS,Lat,yeast,06-20-2018
14,0.00015000000000000001,2e-06,18.222374999999985,62.74454999999999,MMS,Lat,yeast,06-20-2018
15,0.000175,2e-06,2.216249999999974,62.74454999999999,MMS,Lat,yeast,06-20-2018
16,0.0,4e-06,494.01737499999996,62.74454999999999,MMS,Lat,yeast,06-20-2018
17,2.5e-05,4e-06,408.481875,62.74454999999999,MMS,Lat,yeast,06-20-2018
18,5e-05,4e-06,317.00862500000005,62.74454999999999,MMS,Lat,yeast,06-20-2018
19,7.500000000000001e-05,4e-06,209.14162500000003,62.74454999999999,MMS,Lat,yeast,06-20-2018
20,0.0001,4e-06,103.655625,62.74454999999999,MMS,Lat,yeast,06-20-2018
21,0.000125,4e-06,36.19187499999997,62.74454999999999,MMS,Lat,yeast,06-20-2018
22,0.00015000000000000001,4e-06,7.913124999999994,62.74454999999999,MMS,Lat,yeast,06-20-2018
23,0.000175,4e-06,1.0598749999999768,62.74454999999999,MMS,Lat,yeast,06-20-2018
24,0.0,6e-06,491.667625,62.74454999999999,MMS,Lat,yeast,06-20-2018
25,2.5e-05,6e-06,402.94,62.74454999999999,MMS,Lat,yeast,06-20-2018
26,5e-05,6e-06,315.55125000000004,62.74454999999999,MMS,Lat,yeast,06-20-2018
27,7.500000000000001e-05,6e-06,184.00462499999998,62.74454999999999,MMS,Lat,yeast,06-20-2018
28,0.0001,6e-06,69.15137499999999,62.74454999999999,MMS,Lat,yeast,06-20-2018
29,0.000125,6e-06,19.718374999999966,62.74454999999999,MMS,Lat,yeast,06-20-2018
30,0.00015000000000000001,6e-06,5.917000000000002,62.74454999999999,MMS,Lat,yeast,06-20-2018
31,0.000175,6e-06,1.2522499999999894,62.74454999999999,MMS,Lat,yeast,06-20-2018
32,0.0,8e-06,438.39525,62.74454999999999,MMS,Lat,yeast,06-20-2018
33,2.5e-05,8e-06,344.00575,62.74454999999999,MMS,Lat,yeast,06-20-2018
34,5e-05,8e-06,237.31037500000002,62.74454999999999,MMS,Lat,yeast,06-20-2018
35,7.500000000000001e-05,8e-06,106.10175,62.74454999999999,MMS,Lat,yeast,06-20-2018
36,0.0001,8e-06,37.24212500000003,62.74454999999999,MMS,Lat,yeast,06-20-2018
37,0.000125,8e-06,14.349499999999964,62.74454999999999,MMS,Lat,yeast,06-20-2018
38,0.00015000000000000001,8e-06,3.0763749999999987,62.74454999999999,MMS,Lat,yeast,06-20-2018
39,0.000175,8e-06,0.9943750000000051,62.74454999999999,MMS,Lat,yeast,06-20-2018
40,0.0,9.999999999999999e-06,348.83512500000006,62.74454999999999,MMS,Lat,yeast,06-20-2018
41,2.5e-05,9.999999999999999e-06,215.39350000000002,62.74454999999999,MMS,Lat,yeast,06-20-2018
42,5e-05,9.999999999999999e-06,138.32912500000003,62.74454999999999,MMS,Lat,yeast,06-20-2018
43,7.500000000000001e-05,9.999999999999999e-06,44.36212499999998,62.74454999999999,MMS,Lat,yeast,06-20-2018
44,0.0001,9.999999999999999e-06,12.65124999999999,62.74454999999999,MMS,Lat,yeast,06-20-2018
45,0.000125,9.999999999999999e-06,4.909999999999982,62.74454999999999,MMS,Lat,yeast,06-20-2018
46,0.00015000000000000001,9.999999999999999e-06,2.1119999999999948,62.74454999999999,MMS,Lat,yeast,06-20-2018
47,0.000175,9.999999999999999e-06,0.7863749999999925,62.74454999999999,MMS,Lat,yeast,06-20-2018
48,0.0,1.2e-05,223.35837500000002,62.74454999999999,MMS,Lat,yeast,06-20-2018
49,2.5e-05,1.2e-05,95.04137499999997,62.74454999999999,MMS,Lat,yeast,06-20-2018
50,5e-05,1.2e-05,48.34675,62.74454999999999,MMS,Lat,yeast,06-20-2018
51,7.500000000000001e-05,1.2e-05,13.600624999999965,62.74454999999999,MMS,Lat,yeast,06-20-2018
52,0.0001,1.2e-05,5.4723749999999995,62.74454999999999,MMS,Lat,yeast,06-20-2018
53,0.000125,1.2e-05,3.3122499999999917,62.74454999999999,MMS,Lat,yeast,06-20-2018
54,0.00015000000000000001,1.2e-05,2.396000000000001,62.74454999999999,MMS,Lat,yeast,06-20-2018
55,0.000175,1.2e-05,0.0,62.74454999999999,MMS,Lat,yeast,06-20-2018
56,0.0,1.4e-05,68.54625,62.74454999999999,MMS,Lat,yeast,06-20-2018
57,2.5e-05,1.4e-05,24.656875,62.74454999999999,MMS,Lat,yeast,06-20-2018
58,5e-05,1.4e-05,13.066625000000002,62.74454999999999,MMS,Lat,yeast,06-20-2018
59,7.500000000000001e-05,1.4e-05,8.000249999999994,62.74454999999999,MMS,Lat,yeast,06-20-2018
60,0.0001,1.4e-05,3.703249999999997,62.74454999999999,MMS,Lat,yeast,06-20-2018
61,0.000125,1.4e-05,3.5702499999999873,62.74454999999999,MMS,Lat,yeast,06-20-2018
62,0.00015000000000000001,1.4e-05,2.7107499999999902,62.74454999999999,MMS,Lat,yeast,06-20-2018
63,0.000175,1.4e-05,0.8020000000000067,62.74454999999999,MMS,Lat,yeast,06-20-2018
