,drug2.conc,drug1.conc,effect,effect.95ci,drug1,drug2,sample,expt
0,0.0,0.0,460.22749999999996,58.58433750000002,Pen,AmB,yeast,06-20-2018
1,9.999999999999999e-06,0.0,406.31525,58.58433750000002,Pen,AmB,yeast,06-20-2018
2,1.9999999999999998e-05,0.0,366.95349999999996,58.58433750000002,Pen,AmB,yeast,06-20-2018
3,2.9999999999999997e-05,0.0,323.86987500000004,58.58433750000002,Pen,AmB,yeast,06-20-2018
4,3.9999999999999996e-05,0.0,241.71737499999995,58.58433750000002,Pen,AmB,yeast,06-20-2018
5,4.9999999999999996e-05,0.0,161.78862499999997,58.58433750000002,Pen,AmB,yeast,06-20-2018
6,5.9999999999999995e-05,0.0,117.46125000000005,58.58433750000002,Pen,AmB,yeast,06-20-2018
7,7e-05,0.0,88.93112500000002,58.58433750000002,Pen,AmB,yeast,06-20-2018
8,0.0,6.999999999999999e-08,458.6579999999999,58.58433750000002,Pen,AmB,yeast,06-20-2018
9,9.999999999999999e-06,6.999999999999999e-08,415.42075,58.58433750000002,Pen,AmB,yeast,06-20-2018
10,1.9999999999999998e-05,6.999999999999999e-08,357.16525,58.58433750000002,Pen,AmB,yeast,06-20-2018
11,2.9999999999999997e-05,6.999999999999999e-08,321.02912499999996,58.58433750000002,Pen,AmB,yeast,06-20-2018
12,3.9999999999999996e-05,6.999999999999999e-08,247.7185,58.58433750000002,Pen,AmB,yeast,06-20-2018
13,4.9999999999999996e-05,6.999999999999999e-08,183.3705,58.58433750000002,Pen,AmB,yeast,06-20-2018
14,5.9999999999999995e-05,6.999999999999999e-08,129.38450000000006,58.58433750000002,Pen,AmB,yeast,06-20-2018
15,7e-05,6.999999999999999e-08,103.198875,58.58433750000002,Pen,AmB,yeast,06-20-2018
16,0.0,1.3999999999999998e-07,465.43062499999985,58.58433750000002,Pen,AmB,yeast,06-20-2018
17,9.999999999999999e-06,1.3999999999999998e-07,414.51725,58.58433750000002,Pen,AmB,yeast,06-20-2018
18,1.9999999999999998e-05,1.3999999999999998e-07,352.3807499999999,58.58433750000002,Pen,AmB,yeast,06-20-2018
19,2.9999999999999997e-05,1.3999999999999998e-07,328.988,58.58433750000002,Pen,AmB,yeast,06-20-2018
20,3.9999999999999996e-05,1.3999999999999998e-07,261.12249999999995,58.58433750000002,Pen,AmB,yeast,06-20-2018
21,4.9999999999999996e-05,1.3999999999999998e-07,190.803625,58.58433750000002,Pen,AmB,yeast,06-20-2018
22,5.9999999999999995e-05,1.3999999999999998e-07,172.782625,58.58433750000002,Pen,AmB,yeast,06-20-2018
23,7e-05,1.3999999999999998e-07,135.85325000000006,58.58433750000002,Pen,AmB,yeast,06-20-2018
24,0.0,2.0999999999999997e-07,472.55600000000015,58.58433750000002,Pen,AmB,yeast,06-20-2018
25,9.999999999999999e-06,2.0999999999999997e-07,406.65487499999995,58.58433750000002,Pen,AmB,yeast,06-20-2018
26,1.9999999999999998e-05,2.0999999999999997e-07,341.04724999999996,58.58433750000002,Pen,AmB,yeast,06-20-2018
27,2.9999999999999997e-05,2.0999999999999997e-07,307.5079999999999,58.58433750000002,Pen,AmB,yeast,06-20-2018
28,3.9999999999999996e-05,2.0999999999999997e-07,260.330125,58.58433750000002,Pen,AmB,yeast,06-20-2018
29,4.9999999999999996e-05,2.0999999999999997e-07,218.28699999999998,58.58433750000002,Pen,AmB,yeast,06-20-2018
30,5.9999999999999995e-05,2.0999999999999997e-07,172.91825,58.58433750000002,Pen,AmB,yeast,06-20-2018
31,7e-05,2.0999999999999997e-07,141.22925000000004,58.58433750000002,Pen,AmB,yeast,06-20-2018
32,0.0,2.7999999999999997e-07,354.59900000000005,58.58433750000002,Pen,AmB,yeast,06-20-2018
33,9.999999999999999e-06,2.7999999999999997e-07,319.2305,58.58433750000002,Pen,AmB,yeast,06-20-2018
34,1.9999999999999998e-05,2.7999999999999997e-07,276.22937500000006,58.58433750000002,Pen,AmB,yeast,06-20-2018
35,2.9999999999999997e-05,2.7999999999999997e-07,236.85000000000002,58.58433750000002,Pen,AmB,yeast,06-20-2018
36,3.9999999999999996e-05,2.7999999999999997e-07,180.98874999999998,58.58433750000002,Pen,AmB,yeast,06-20-2018
37,4.9999999999999996e-05,2.7999999999999997e-07,92.749375,58.58433750000002,Pen,AmB,yeast,06-20-2018
38,5.9999999999999995e-05,2.7999999999999997e-07,53.471625,58.58433750000002,Pen,AmB,yeast,06-20-2018
39,7e-05,2.7999999999999997e-07,11.444000000000017,58.58433750000002,Pen,AmB,yeast,06-20-2018
40,0.0,3.4999999999999993e-07,286.43925,58.58433750000002,Pen,AmB,yeast,06-20-2018
41,9.999999999999999e-06,3.4999999999999993e-07,278.27175,58.58433750000002,Pen,AmB,yeast,06-20-2018
42,1.9999999999999998e-05,3.4999999999999993e-07,136.13687500000003,58.58433750000002,Pen,AmB,yeast,06-20-2018
43,2.9999999999999997e-05,3.4999999999999993e-07,49.31875000000004,58.58433750000002,Pen,AmB,yeast,06-20-2018
44,3.9999999999999996e-05,3.4999999999999993e-07,6.052500000000023,58.58433750000002,Pen,AmB,yeast,06-20-2018
45,4.9999999999999996e-05,3.4999999999999993e-07,5.355125000000015,58.58433750000002,Pen,AmB,yeast,06-20-2018
46,5.9999999999999995e-05,3.4999999999999993e-07,4.6936250000000115,58.58433750000002,Pen,AmB,yeast,06-20-2018
47,7e-05,3.4999999999999993e-07,1.979750000000024,58.58433750000002,Pen,AmB,yeast,06-20-2018
48,0.0,4.1999999999999995e-07,148.40237499999995,58.58433750000002,Pen,AmB,yeast,06-20-2018
49,9.999999999999999e-06,4.1999999999999995e-07,57.214749999999995,58.58433750000002,Pen,AmB,yeast,06-20-2018
50,1.9999999999999998e-05,4.1999999999999995e-07,5.664625000000029,58.58433750000002,Pen,AmB,yeast,06-20-2018
51,2.9999999999999997e-05,4.1999999999999995e-07,3.0883750000000276,58.58433750000002,Pen,AmB,yeast,06-20-2018
52,3.9999999999999996e-05,4.1999999999999995e-07,1.8680000000000092,58.58433750000002,Pen,AmB,yeast,06-20-2018
53,4.9999999999999996e-05,4.1999999999999995e-07,1.5620000000000118,58.58433750000002,Pen,AmB,yeast,06-20-2018
54,5.9999999999999995e-05,4.1999999999999995e-07,0.6442500000000138,58.58433750000002,Pen,AmB,yeast,06-20-2018
55,7e-05,4.1999999999999995e-07,7.437125000000009,58.58433750000002,Pen,AmB,yeast,06-20-2018
56,0.0,4.9e-07,14.197750000000013,58.58433750000002,Pen,AmB,yeast,06-20-2018
57,9.999999999999999e-06,4.9e-07,2.1015000000000157,58.58433750000002,Pen,AmB,yeast,06-20-2018
58,1.9999999999999998e-05,4.9e-07,1.314875000000015,58.58433750000002,Pen,AmB,yeast,06-20-2018
59,2.9999999999999997e-05,4.9e-07,1.6628750000000139,58.58433750000002,Pen,AmB,yeast,06-20-2018
60,3.9999999999999996e-05,4.9e-07,0.24400000000001398,58.58433750000002,Pen,AmB,yeast,06-20-2018
61,4.9999999999999996e-05,4.9e-07,0.9322500000000247,58.58433750000002,Pen,AmB,yeast,06-20-2018
62,5.9999999999999995e-05,4.9e-07,0.233750000000029,58.58433750000002,Pen,AmB,yeast,06-20-2018
63,7e-05,4.9e-07,0.0,58.58433750000002,Pen,AmB,yeast,06-20-2018
