,drug2.conc,drug1.conc,effect,effect.95ci,drug1,drug2,sample,expt
0,0.0,0.0,456.8265,56.9735625,Pen,Ani,yeast,06-20-2018
1,9.999999999999999e-06,0.0,407.59512499999994,56.9735625,Pen,Ani,yeast,06-20-2018
2,1.9999999999999998e-05,0.0,369.55724999999995,56.9735625,Pen,Ani,yeast,06-20-2018
3,2.9999999999999997e-05,0.0,320.88487499999997,56.9735625,Pen,Ani,yeast,06-20-2018
4,3.9999999999999996e-05,0.0,239.78550000000004,56.9735625,Pen,Ani,yeast,06-20-2018
5,4.9999999999999996e-05,0.0,183.50149999999994,56.9735625,Pen,Ani,yeast,06-20-2018
6,5.9999999999999995e-05,0.0,111.69862500000002,56.9735625,Pen,Ani,yeast,06-20-2018
7,7e-05,0.0,66.23237500000005,56.9735625,Pen,Ani,yeast,06-20-2018
8,0.0,5e-07,448.5400000000001,56.9735625,Pen,Ani,yeast,06-20-2018
9,9.999999999999999e-06,5e-07,414.2199999999999,56.9735625,Pen,Ani,yeast,06-20-2018
10,1.9999999999999998e-05,5e-07,369.3352500000001,56.9735625,Pen,Ani,yeast,06-20-2018
11,2.9999999999999997e-05,5e-07,322.834125,56.9735625,Pen,Ani,yeast,06-20-2018
12,3.9999999999999996e-05,5e-07,261.3731250000001,56.9735625,Pen,Ani,yeast,06-20-2018
13,4.9999999999999996e-05,5e-07,203.46699999999996,56.9735625,Pen,Ani,yeast,06-20-2018
14,5.9999999999999995e-05,5e-07,121.97400000000002,56.9735625,Pen,Ani,yeast,06-20-2018
15,7e-05,5e-07,84.25887499999999,56.9735625,Pen,Ani,yeast,06-20-2018
16,0.0,1e-06,437.20275000000004,56.9735625,Pen,Ani,yeast,06-20-2018
17,9.999999999999999e-06,1e-06,400.20174999999995,56.9735625,Pen,Ani,yeast,06-20-2018
18,1.9999999999999998e-05,1e-06,349.91712500000006,56.9735625,Pen,Ani,yeast,06-20-2018
19,2.9999999999999997e-05,1e-06,313.9415,56.9735625,Pen,Ani,yeast,06-20-2018
20,3.9999999999999996e-05,1e-06,250.64225000000002,56.9735625,Pen,Ani,yeast,06-20-2018
21,4.9999999999999996e-05,1e-06,154.5275,56.9735625,Pen,Ani,yeast,06-20-2018
22,5.9999999999999995e-05,1e-06,111.709125,56.9735625,Pen,Ani,yeast,06-20-2018
23,7e-05,1e-06,74.33037500000003,56.9735625,Pen,Ani,yeast,06-20-2018
24,0.0,1.5e-06,405.634625,56.9735625,Pen,Ani,yeast,06-20-2018
25,9.999999999999999e-06,1.5e-06,340.5055,56.9735625,Pen,Ani,yeast,06-20-2018
26,1.9999999999999998e-05,1.5e-06,281.72125000000005,56.9735625,Pen,Ani,yeast,06-20-2018
27,2.9999999999999997e-05,1.5e-06,219.08225000000002,56.9735625,Pen,Ani,yeast,06-20-2018
28,3.9999999999999996e-05,1.5e-06,189.10049999999998,56.9735625,Pen,Ani,yeast,06-20-2018
29,4.9999999999999996e-05,1.5e-06,100.12325000000004,56.9735625,Pen,Ani,yeast,06-20-2018
30,5.9999999999999995e-05,1.5e-06,52.44399999999999,56.9735625,Pen,Ani,yeast,06-20-2018
31,7e-05,1.5e-06,32.319875000000025,56.9735625,Pen,Ani,yeast,06-20-2018
32,0.0,2e-06,290.1896250000001,56.9735625,Pen,Ani,yeast,06-20-2018
33,9.999999999999999e-06,2e-06,229.98475,56.9735625,Pen,Ani,yeast,06-20-2018
34,1.9999999999999998e-05,2e-06,174.975875,56.9735625,Pen,Ani,yeast,06-20-2018
35,2.9999999999999997e-05,2e-06,132.945125,56.9735625,Pen,Ani,yeast,06-20-2018
36,3.9999999999999996e-05,2e-06,60.50625000000002,56.9735625,Pen,Ani,yeast,06-20-2018
37,4.9999999999999996e-05,2e-06,29.095625000000013,56.9735625,Pen,Ani,yeast,06-20-2018
38,5.9999999999999995e-05,2e-06,17.657999999999987,56.9735625,Pen,Ani,yeast,06-20-2018
39,7e-05,2e-06,14.333124999999995,56.9735625,Pen,Ani,yeast,06-20-2018
40,0.0,2.4999999999999998e-06,216.26712500000005,56.9735625,Pen,Ani,yeast,06-20-2018
41,9.999999999999999e-06,2.4999999999999998e-06,168.73125000000002,56.9735625,Pen,Ani,yeast,06-20-2018
42,1.9999999999999998e-05,2.4999999999999998e-06,82.94837500000006,56.9735625,Pen,Ani,yeast,06-20-2018
43,2.9999999999999997e-05,2.4999999999999998e-06,32.42675,56.9735625,Pen,Ani,yeast,06-20-2018
44,3.9999999999999996e-05,2.4999999999999998e-06,11.185750000000013,56.9735625,Pen,Ani,yeast,06-20-2018
45,4.9999999999999996e-05,2.4999999999999998e-06,7.119125000000011,56.9735625,Pen,Ani,yeast,06-20-2018
46,5.9999999999999995e-05,2.4999999999999998e-06,2.5955000000000155,56.9735625,Pen,Ani,yeast,06-20-2018
47,7e-05,2.4999999999999998e-06,4.537625000000034,56.9735625,Pen,Ani,yeast,06-20-2018
48,0.0,3e-06,131.621625,56.9735625,Pen,Ani,yeast,06-20-2018
49,9.999999999999999e-06,3e-06,87.96950000000004,56.9735625,Pen,Ani,yeast,06-20-2018
50,1.9999999999999998e-05,3e-06,6.687625000000011,56.9735625,Pen,Ani,yeast,06-20-2018
51,2.9999999999999997e-05,3e-06,4.7180000000000035,56.9735625,Pen,Ani,yeast,06-20-2018
52,3.9999999999999996e-05,3e-06,1.797625000000025,56.9735625,Pen,Ani,yeast,06-20-2018
53,4.9999999999999996e-05,3e-06,2.9603750000000133,56.9735625,Pen,Ani,yeast,06-20-2018
54,5.9999999999999995e-05,3e-06,0.26762500000000955,56.9735625,Pen,Ani,yeast,06-20-2018
55,7e-05,3e-06,2.280750000000012,56.9735625,Pen,Ani,yeast,06-20-2018
56,0.0,3.5e-06,71.95775000000003,56.9735625,Pen,Ani,yeast,06-20-2018
57,9.999999999999999e-06,3.5e-06,35.373500000000035,56.9735625,Pen,Ani,yeast,06-20-2018
58,1.9999999999999998e-05,3.5e-06,5.886000000000024,56.9735625,Pen,Ani,yeast,06-20-2018
59,2.9999999999999997e-05,3.5e-06,3.5370000000000203,56.9735625,Pen,Ani,yeast,06-20-2018
60,3.9999999999999996e-05,3.5e-06,0.0,56.9735625,Pen,Ani,yeast,06-20-2018
61,4.9999999999999996e-05,3.5e-06,2.2702500000000043,56.9735625,Pen,Ani,yeast,06-20-2018
62,5.9999999999999995e-05,3.5e-06,0.782250000000019,56.9735625,Pen,Ani,yeast,06-20-2018
63,7e-05,3.5e-06,9.880624999999995,56.9735625,Pen,Ani,yeast,06-20-2018
