,drug2.conc,drug1.conc,effect,effect.95ci,drug1,drug2,sample,expt
0,0.0,0.0,383.26862499999993,51.773649999999996,Qmy,Ben,yeast,06-20-2018
1,4.2857142857142855e-06,0.0,398.927125,51.773649999999996,Qmy,Ben,yeast,06-20-2018
2,8.571428571428571e-06,0.0,350.37050000000005,51.773649999999996,Qmy,Ben,yeast,06-20-2018
3,1.2857142857142856e-05,0.0,291.85275000000007,51.773649999999996,Qmy,Ben,yeast,06-20-2018
4,1.7142857142857142e-05,0.0,196.08950000000004,51.773649999999996,Qmy,Ben,yeast,06-20-2018
5,2.1428571428571428e-05,0.0,94.20175000000002,51.773649999999996,Qmy,Ben,yeast,06-20-2018
6,2.571428571428571e-05,0.0,55.168749999999974,51.773649999999996,Qmy,Ben,yeast,06-20-2018
7,3e-05,0.0,42.57412500000002,51.773649999999996,Qmy,Ben,yeast,06-20-2018
8,0.0,4e-06,341.11575000000005,51.773649999999996,Qmy,Ben,yeast,06-20-2018
9,4.2857142857142855e-06,4e-06,153.44362500000005,51.773649999999996,Qmy,Ben,yeast,06-20-2018
10,8.571428571428571e-06,4e-06,37.9645,51.773649999999996,Qmy,Ben,yeast,06-20-2018
11,1.2857142857142856e-05,4e-06,9.41974999999998,51.773649999999996,Qmy,Ben,yeast,06-20-2018
12,1.7142857142857142e-05,4e-06,7.4285,51.773649999999996,Qmy,Ben,yeast,06-20-2018
13,2.1428571428571428e-05,4e-06,5.9421250000000185,51.773649999999996,Qmy,Ben,yeast,06-20-2018
14,2.571428571428571e-05,4e-06,0.0,51.773649999999996,Qmy,Ben,yeast,06-20-2018
15,3e-05,4e-06,3.887875000000008,51.773649999999996,Qmy,Ben,yeast,06-20-2018
16,0.0,8e-06,241.947875,51.773649999999996,Qmy,Ben,yeast,06-20-2018
17,4.2857142857142855e-06,8e-06,8.076374999999985,51.773649999999996,Qmy,Ben,yeast,06-20-2018
18,8.571428571428571e-06,8e-06,8.262124999999997,51.773649999999996,Qmy,Ben,yeast,06-20-2018
19,1.2857142857142856e-05,8e-06,4.538000000000011,51.773649999999996,Qmy,Ben,yeast,06-20-2018
20,1.7142857142857142e-05,8e-06,6.038499999999985,51.773649999999996,Qmy,Ben,yeast,06-20-2018
21,2.1428571428571428e-05,8e-06,6.832624999999993,51.773649999999996,Qmy,Ben,yeast,06-20-2018
22,2.571428571428571e-05,8e-06,3.5631249999999994,51.773649999999996,Qmy,Ben,yeast,06-20-2018
23,3e-05,8e-06,4.875500000000002,51.773649999999996,Qmy,Ben,yeast,06-20-2018
24,0.0,1.2e-05,167.24787500000002,51.773649999999996,Qmy,Ben,yeast,06-20-2018
25,4.2857142857142855e-06,1.2e-05,6.082249999999988,51.773649999999996,Qmy,Ben,yeast,06-20-2018
26,8.571428571428571e-06,1.2e-05,5.868375,51.773649999999996,Qmy,Ben,yeast,06-20-2018
27,1.2857142857142856e-05,1.2e-05,5.7561250000000115,51.773649999999996,Qmy,Ben,yeast,06-20-2018
28,1.7142857142857142e-05,1.2e-05,5.442000000000007,51.773649999999996,Qmy,Ben,yeast,06-20-2018
29,2.1428571428571428e-05,1.2e-05,3.8279999999999887,51.773649999999996,Qmy,Ben,yeast,06-20-2018
30,2.571428571428571e-05,1.2e-05,10.497500000000016,51.773649999999996,Qmy,Ben,yeast,06-20-2018
31,3e-05,1.2e-05,4.968625000000003,51.773649999999996,Qmy,Ben,yeast,06-20-2018
32,0.0,1.6e-05,105.67799999999998,51.773649999999996,Qmy,Ben,yeast,06-20-2018
33,4.2857142857142855e-06,1.6e-05,4.32650000000001,51.773649999999996,Qmy,Ben,yeast,06-20-2018
34,8.571428571428571e-06,1.6e-05,5.411124999999998,51.773649999999996,Qmy,Ben,yeast,06-20-2018
35,1.2857142857142856e-05,1.6e-05,3.697749999999999,51.773649999999996,Qmy,Ben,yeast,06-20-2018
36,1.7142857142857142e-05,1.6e-05,7.230500000000006,51.773649999999996,Qmy,Ben,yeast,06-20-2018
37,2.1428571428571428e-05,1.6e-05,5.6965,51.773649999999996,Qmy,Ben,yeast,06-20-2018
38,2.571428571428571e-05,1.6e-05,8.57312499999999,51.773649999999996,Qmy,Ben,yeast,06-20-2018
39,3e-05,1.6e-05,7.768875000000008,51.773649999999996,Qmy,Ben,yeast,06-20-2018
40,0.0,1.9999999999999998e-05,66.67937500000001,51.773649999999996,Qmy,Ben,yeast,06-20-2018
41,4.2857142857142855e-06,1.9999999999999998e-05,6.246875000000003,51.773649999999996,Qmy,Ben,yeast,06-20-2018
42,8.571428571428571e-06,1.9999999999999998e-05,6.6597500000000025,51.773649999999996,Qmy,Ben,yeast,06-20-2018
43,1.2857142857142856e-05,1.9999999999999998e-05,6.888750000000002,51.773649999999996,Qmy,Ben,yeast,06-20-2018
44,1.7142857142857142e-05,1.9999999999999998e-05,7.961249999999993,51.773649999999996,Qmy,Ben,yeast,06-20-2018
45,2.1428571428571428e-05,1.9999999999999998e-05,11.710999999999999,51.773649999999996,Qmy,Ben,yeast,06-20-2018
46,2.571428571428571e-05,1.9999999999999998e-05,9.993749999999991,51.773649999999996,Qmy,Ben,yeast,06-20-2018
47,3e-05,1.9999999999999998e-05,11.789249999999996,51.773649999999996,Qmy,Ben,yeast,06-20-2018
48,0.0,2.4e-05,50.973249999999965,51.773649999999996,Qmy,Ben,yeast,06-20-2018
49,4.2857142857142855e-06,2.4e-05,11.714499999999973,51.773649999999996,Qmy,Ben,yeast,06-20-2018
50,8.571428571428571e-06,2.4e-05,10.277374999999992,51.773649999999996,Qmy,Ben,yeast,06-20-2018
51,1.2857142857142856e-05,2.4e-05,10.354875000000007,51.773649999999996,Qmy,Ben,yeast,06-20-2018
52,1.7142857142857142e-05,2.4e-05,11.298625000000001,51.773649999999996,Qmy,Ben,yeast,06-20-2018
53,2.1428571428571428e-05,2.4e-05,11.505374999999972,51.773649999999996,Qmy,Ben,yeast,06-20-2018
54,2.571428571428571e-05,2.4e-05,13.961375000000018,51.773649999999996,Qmy,Ben,yeast,06-20-2018
55,3e-05,2.4e-05,15.872875000000008,51.773649999999996,Qmy,Ben,yeast,06-20-2018
56,0.0,2.8e-05,47.50699999999999,51.773649999999996,Qmy,Ben,yeast,06-20-2018
57,4.2857142857142855e-06,2.8e-05,12.22699999999999,51.773649999999996,Qmy,Ben,yeast,06-20-2018
58,8.571428571428571e-06,2.8e-05,15.50137500000001,51.773649999999996,Qmy,Ben,yeast,06-20-2018
59,1.2857142857142856e-05,2.8e-05,14.009249999999994,51.773649999999996,Qmy,Ben,yeast,06-20-2018
60,1.7142857142857142e-05,2.8e-05,16.085374999999985,51.773649999999996,Qmy,Ben,yeast,06-20-2018
61,2.1428571428571428e-05,2.8e-05,16.313375000000022,51.773649999999996,Qmy,Ben,yeast,06-20-2018
62,2.571428571428571e-05,2.8e-05,23.232749999999996,51.773649999999996,Qmy,Ben,yeast,06-20-2018
63,3e-05,2.8e-05,20.13449999999999,51.773649999999996,Qmy,Ben,yeast,06-20-2018
