,drug2.conc,drug1.conc,effect,effect.95ci,drug1,drug2,sample,expt
0,0.0,0.0,396.86375,52.63755,Rad,Pen,yeast,06-20-2018
1,8e-06,0.0,390.04212500000006,52.63755,Rad,Pen,yeast,06-20-2018
2,1.6e-05,0.0,364.51762499999995,52.63755,Rad,Pen,yeast,06-20-2018
3,2.4e-05,0.0,323.376875,52.63755,Rad,Pen,yeast,06-20-2018
4,3.2e-05,0.0,243.18087499999996,52.63755,Rad,Pen,yeast,06-20-2018
5,3.9999999999999996e-05,0.0,176.64375,52.63755,Rad,Pen,yeast,06-20-2018
6,4.8e-05,0.0,130.890375,52.63755,Rad,Pen,yeast,06-20-2018
7,5.6e-05,0.0,98.18374999999997,52.63755,Rad,Pen,yeast,06-20-2018
8,0.0,9.999999999999999e-06,355.38374999999996,52.63755,Rad,Pen,yeast,06-20-2018
9,8e-06,9.999999999999999e-06,311.25925,52.63755,Rad,Pen,yeast,06-20-2018
10,1.6e-05,9.999999999999999e-06,233.431125,52.63755,Rad,Pen,yeast,06-20-2018
11,2.4e-05,9.999999999999999e-06,134.847375,52.63755,Rad,Pen,yeast,06-20-2018
12,3.2e-05,9.999999999999999e-06,82.72037500000002,52.63755,Rad,Pen,yeast,06-20-2018
13,3.9999999999999996e-05,9.999999999999999e-06,53.94624999999999,52.63755,Rad,Pen,yeast,06-20-2018
14,4.8e-05,9.999999999999999e-06,34.65412499999999,52.63755,Rad,Pen,yeast,06-20-2018
15,5.6e-05,9.999999999999999e-06,31.82374999999999,52.63755,Rad,Pen,yeast,06-20-2018
16,0.0,1.9999999999999998e-05,311.11224999999996,52.63755,Rad,Pen,yeast,06-20-2018
17,8e-06,1.9999999999999998e-05,247.802125,52.63755,Rad,Pen,yeast,06-20-2018
18,1.6e-05,1.9999999999999998e-05,130.750875,52.63755,Rad,Pen,yeast,06-20-2018
19,2.4e-05,1.9999999999999998e-05,72.88662500000001,52.63755,Rad,Pen,yeast,06-20-2018
20,3.2e-05,1.9999999999999998e-05,49.96562500000002,52.63755,Rad,Pen,yeast,06-20-2018
21,3.9999999999999996e-05,1.9999999999999998e-05,32.227374999999995,52.63755,Rad,Pen,yeast,06-20-2018
22,4.8e-05,1.9999999999999998e-05,24.241749999999996,52.63755,Rad,Pen,yeast,06-20-2018
23,5.6e-05,1.9999999999999998e-05,21.767374999999987,52.63755,Rad,Pen,yeast,06-20-2018
24,0.0,2.9999999999999997e-05,238.40087499999998,52.63755,Rad,Pen,yeast,06-20-2018
25,8e-06,2.9999999999999997e-05,151.212375,52.63755,Rad,Pen,yeast,06-20-2018
26,1.6e-05,2.9999999999999997e-05,68.46262499999997,52.63755,Rad,Pen,yeast,06-20-2018
27,2.4e-05,2.9999999999999997e-05,45.325625,52.63755,Rad,Pen,yeast,06-20-2018
28,3.2e-05,2.9999999999999997e-05,32.77975000000001,52.63755,Rad,Pen,yeast,06-20-2018
29,3.9999999999999996e-05,2.9999999999999997e-05,24.214999999999975,52.63755,Rad,Pen,yeast,06-20-2018
30,4.8e-05,2.9999999999999997e-05,17.364874999999984,52.63755,Rad,Pen,yeast,06-20-2018
31,5.6e-05,2.9999999999999997e-05,16.14737500000001,52.63755,Rad,Pen,yeast,06-20-2018
32,0.0,3.9999999999999996e-05,188.33324999999996,52.63755,Rad,Pen,yeast,06-20-2018
33,8e-06,3.9999999999999996e-05,78.04287499999995,52.63755,Rad,Pen,yeast,06-20-2018
34,1.6e-05,3.9999999999999996e-05,42.64949999999999,52.63755,Rad,Pen,yeast,06-20-2018
35,2.4e-05,3.9999999999999996e-05,30.641125000000017,52.63755,Rad,Pen,yeast,06-20-2018
36,3.2e-05,3.9999999999999996e-05,26.30850000000001,52.63755,Rad,Pen,yeast,06-20-2018
37,3.9999999999999996e-05,3.9999999999999996e-05,18.566125,52.63755,Rad,Pen,yeast,06-20-2018
38,4.8e-05,3.9999999999999996e-05,14.28925000000001,52.63755,Rad,Pen,yeast,06-20-2018
39,5.6e-05,3.9999999999999996e-05,14.205999999999989,52.63755,Rad,Pen,yeast,06-20-2018
40,0.0,4.9999999999999996e-05,152.64475,52.63755,Rad,Pen,yeast,06-20-2018
41,8e-06,4.9999999999999996e-05,54.48249999999999,52.63755,Rad,Pen,yeast,06-20-2018
42,1.6e-05,4.9999999999999996e-05,29.313999999999993,52.63755,Rad,Pen,yeast,06-20-2018
43,2.4e-05,4.9999999999999996e-05,21.047374999999988,52.63755,Rad,Pen,yeast,06-20-2018
44,3.2e-05,4.9999999999999996e-05,17.570625000000007,52.63755,Rad,Pen,yeast,06-20-2018
45,3.9999999999999996e-05,4.9999999999999996e-05,13.47150000000002,52.63755,Rad,Pen,yeast,06-20-2018
46,4.8e-05,4.9999999999999996e-05,10.06174999999999,52.63755,Rad,Pen,yeast,06-20-2018
47,5.6e-05,4.9999999999999996e-05,10.825874999999968,52.63755,Rad,Pen,yeast,06-20-2018
48,0.0,5.9999999999999995e-05,103.55725000000001,52.63755,Rad,Pen,yeast,06-20-2018
49,8e-06,5.9999999999999995e-05,32.83687499999999,52.63755,Rad,Pen,yeast,06-20-2018
50,1.6e-05,5.9999999999999995e-05,21.55337499999999,52.63755,Rad,Pen,yeast,06-20-2018
51,2.4e-05,5.9999999999999995e-05,15.491125000000011,52.63755,Rad,Pen,yeast,06-20-2018
52,3.2e-05,5.9999999999999995e-05,13.281624999999991,52.63755,Rad,Pen,yeast,06-20-2018
53,3.9999999999999996e-05,5.9999999999999995e-05,9.308250000000015,52.63755,Rad,Pen,yeast,06-20-2018
54,4.8e-05,5.9999999999999995e-05,6.728499999999997,52.63755,Rad,Pen,yeast,06-20-2018
55,5.6e-05,5.9999999999999995e-05,6.116250000000008,52.63755,Rad,Pen,yeast,06-20-2018
56,0.0,7e-05,73.437625,52.63755,Rad,Pen,yeast,06-20-2018
57,8e-06,7e-05,28.147750000000002,52.63755,Rad,Pen,yeast,06-20-2018
58,1.6e-05,7e-05,14.886749999999978,52.63755,Rad,Pen,yeast,06-20-2018
59,2.4e-05,7e-05,10.833500000000043,52.63755,Rad,Pen,yeast,06-20-2018
60,3.2e-05,7e-05,7.212375000000009,52.63755,Rad,Pen,yeast,06-20-2018
61,3.9999999999999996e-05,7e-05,4.165875,52.63755,Rad,Pen,yeast,06-20-2018
62,4.8e-05,7e-05,1.0351249999999936,52.63755,Rad,Pen,yeast,06-20-2018
63,5.6e-05,7e-05,0.0,52.63755,Rad,Pen,yeast,06-20-2018
