,drug2.conc,drug1.conc,effect,effect.95ci,drug1,drug2,sample,expt
0,0.0,0.0,199.22575000000003,35.022425,Sta,Cis,yeast,06-20-2018
1,1.8e-07,0.0,236.71124999999998,35.022425,Sta,Cis,yeast,06-20-2018
2,3.6e-07,0.0,165.53437499999998,35.022425,Sta,Cis,yeast,06-20-2018
3,5.4e-07,0.0,24.133125000000007,35.022425,Sta,Cis,yeast,06-20-2018
4,7.2e-07,0.0,8.39587499999999,35.022425,Sta,Cis,yeast,06-20-2018
5,9e-07,0.0,3.3294999999999817,35.022425,Sta,Cis,yeast,06-20-2018
6,1.08e-06,0.0,2.1291249999999877,35.022425,Sta,Cis,yeast,06-20-2018
7,1.26e-06,0.0,0.19487499999999613,35.022425,Sta,Cis,yeast,06-20-2018
8,0.0,1.1428571428571429e-05,200.92937499999996,35.022425,Sta,Cis,yeast,06-20-2018
9,1.8e-07,1.1428571428571429e-05,229.72262500000002,35.022425,Sta,Cis,yeast,06-20-2018
10,3.6e-07,1.1428571428571429e-05,210.73924999999994,35.022425,Sta,Cis,yeast,06-20-2018
11,5.4e-07,1.1428571428571429e-05,87.68687499999999,35.022425,Sta,Cis,yeast,06-20-2018
12,7.2e-07,1.1428571428571429e-05,18.663749999999965,35.022425,Sta,Cis,yeast,06-20-2018
13,9e-07,1.1428571428571429e-05,3.4256249999999824,35.022425,Sta,Cis,yeast,06-20-2018
14,1.08e-06,1.1428571428571429e-05,3.4726249999999794,35.022425,Sta,Cis,yeast,06-20-2018
15,1.26e-06,1.1428571428571429e-05,3.3134999999999764,35.022425,Sta,Cis,yeast,06-20-2018
16,0.0,2.2857142857142858e-05,179.09875000000002,35.022425,Sta,Cis,yeast,06-20-2018
17,1.8e-07,2.2857142857142858e-05,186.01037499999998,35.022425,Sta,Cis,yeast,06-20-2018
18,3.6e-07,2.2857142857142858e-05,158.66625000000002,35.022425,Sta,Cis,yeast,06-20-2018
19,5.4e-07,2.2857142857142858e-05,51.61249999999998,35.022425,Sta,Cis,yeast,06-20-2018
20,7.2e-07,2.2857142857142858e-05,17.014125000000007,35.022425,Sta,Cis,yeast,06-20-2018
21,9e-07,2.2857142857142858e-05,3.308624999999992,35.022425,Sta,Cis,yeast,06-20-2018
22,1.08e-06,2.2857142857142858e-05,1.5037500000000108,35.022425,Sta,Cis,yeast,06-20-2018
23,1.26e-06,2.2857142857142858e-05,0.9963749999999862,35.022425,Sta,Cis,yeast,06-20-2018
24,0.0,3.428571428571429e-05,151.09425000000002,35.022425,Sta,Cis,yeast,06-20-2018
25,1.8e-07,3.428571428571429e-05,141.1205,35.022425,Sta,Cis,yeast,06-20-2018
26,3.6e-07,3.428571428571429e-05,115.81262500000003,35.022425,Sta,Cis,yeast,06-20-2018
27,5.4e-07,3.428571428571429e-05,40.77324999999999,35.022425,Sta,Cis,yeast,06-20-2018
28,7.2e-07,3.428571428571429e-05,12.420749999999998,35.022425,Sta,Cis,yeast,06-20-2018
29,9e-07,3.428571428571429e-05,2.775374999999997,35.022425,Sta,Cis,yeast,06-20-2018
30,1.08e-06,3.428571428571429e-05,0.866874999999979,35.022425,Sta,Cis,yeast,06-20-2018
31,1.26e-06,3.428571428571429e-05,0.09324999999999761,35.022425,Sta,Cis,yeast,06-20-2018
32,0.0,4.5714285714285716e-05,107.13362499999997,35.022425,Sta,Cis,yeast,06-20-2018
33,1.8e-07,4.5714285714285716e-05,97.09574999999998,35.022425,Sta,Cis,yeast,06-20-2018
34,3.6e-07,4.5714285714285716e-05,82.562375,35.022425,Sta,Cis,yeast,06-20-2018
35,5.4e-07,4.5714285714285716e-05,27.70637500000001,35.022425,Sta,Cis,yeast,06-20-2018
36,7.2e-07,4.5714285714285716e-05,8.695999999999998,35.022425,Sta,Cis,yeast,06-20-2018
37,9e-07,4.5714285714285716e-05,3.11099999999999,35.022425,Sta,Cis,yeast,06-20-2018
38,1.08e-06,4.5714285714285716e-05,1.536999999999992,35.022425,Sta,Cis,yeast,06-20-2018
39,1.26e-06,4.5714285714285716e-05,0.8303749999999894,35.022425,Sta,Cis,yeast,06-20-2018
40,0.0,5.714285714285714e-05,41.35825000000003,35.022425,Sta,Cis,yeast,06-20-2018
41,1.8e-07,5.714285714285714e-05,42.271499999999975,35.022425,Sta,Cis,yeast,06-20-2018
42,3.6e-07,5.714285714285714e-05,37.02562500000002,35.022425,Sta,Cis,yeast,06-20-2018
43,5.4e-07,5.714285714285714e-05,13.598500000000001,35.022425,Sta,Cis,yeast,06-20-2018
44,7.2e-07,5.714285714285714e-05,4.915125000000003,35.022425,Sta,Cis,yeast,06-20-2018
45,9e-07,5.714285714285714e-05,3.3883749999999964,35.022425,Sta,Cis,yeast,06-20-2018
46,1.08e-06,5.714285714285714e-05,1.3431250000000006,35.022425,Sta,Cis,yeast,06-20-2018
47,1.26e-06,5.714285714285714e-05,0.16024999999999068,35.022425,Sta,Cis,yeast,06-20-2018
48,0.0,6.857142857142858e-05,48.43824999999998,35.022425,Sta,Cis,yeast,06-20-2018
49,1.8e-07,6.857142857142858e-05,29.574249999999978,35.022425,Sta,Cis,yeast,06-20-2018
50,3.6e-07,6.857142857142858e-05,24.259749999999997,35.022425,Sta,Cis,yeast,06-20-2018
51,5.4e-07,6.857142857142858e-05,7.861375000000024,35.022425,Sta,Cis,yeast,06-20-2018
52,7.2e-07,6.857142857142858e-05,4.9141249999999985,35.022425,Sta,Cis,yeast,06-20-2018
53,9e-07,6.857142857142858e-05,1.734250000000003,35.022425,Sta,Cis,yeast,06-20-2018
54,1.08e-06,6.857142857142858e-05,2.121124999999978,35.022425,Sta,Cis,yeast,06-20-2018
55,1.26e-06,6.857142857142858e-05,0.0,35.022425,Sta,Cis,yeast,06-20-2018
56,0.0,8e-05,17.663749999999965,35.022425,Sta,Cis,yeast,06-20-2018
57,1.8e-07,8e-05,11.242374999999996,35.022425,Sta,Cis,yeast,06-20-2018
58,3.6e-07,8e-05,7.283749999999998,35.022425,Sta,Cis,yeast,06-20-2018
59,5.4e-07,8e-05,5.804249999999996,35.022425,Sta,Cis,yeast,06-20-2018
60,7.2e-07,8e-05,3.8727499999999964,35.022425,Sta,Cis,yeast,06-20-2018
61,9e-07,8e-05,2.0009999999999906,35.022425,Sta,Cis,yeast,06-20-2018
62,1.08e-06,8e-05,1.1781249999999943,35.022425,Sta,Cis,yeast,06-20-2018
63,1.26e-06,8e-05,0.9989999999999952,35.022425,Sta,Cis,yeast,06-20-2018
