,drug2.conc,drug1.conc,effect,effect.95ci,drug1,drug2,sample,expt
0,0.0,0.0,414.36150000000004,54.1406875,Tac,C3P,yeast,06-20-2018
1,1.5714285714285715e-05,0.0,366.666,54.1406875,Tac,C3P,yeast,06-20-2018
2,3.142857142857143e-05,0.0,307.945375,54.1406875,Tac,C3P,yeast,06-20-2018
3,4.714285714285714e-05,0.0,304.40587500000004,54.1406875,Tac,C3P,yeast,06-20-2018
4,6.285714285714286e-05,0.0,256.59612500000003,54.1406875,Tac,C3P,yeast,06-20-2018
5,7.857142857142858e-05,0.0,177.98062500000003,54.1406875,Tac,C3P,yeast,06-20-2018
6,9.428571428571429e-05,0.0,139.389,54.1406875,Tac,C3P,yeast,06-20-2018
7,0.00011,0.0,142.22150000000005,54.1406875,Tac,C3P,yeast,06-20-2018
8,0.0,2.9999999999999997e-06,181.56637500000005,54.1406875,Tac,C3P,yeast,06-20-2018
9,1.5714285714285715e-05,2.9999999999999997e-06,264.4575000000001,54.1406875,Tac,C3P,yeast,06-20-2018
10,3.142857142857143e-05,2.9999999999999997e-06,228.60775000000007,54.1406875,Tac,C3P,yeast,06-20-2018
11,4.714285714285714e-05,2.9999999999999997e-06,261.56850000000003,54.1406875,Tac,C3P,yeast,06-20-2018
12,6.285714285714286e-05,2.9999999999999997e-06,161.851,54.1406875,Tac,C3P,yeast,06-20-2018
13,7.857142857142858e-05,2.9999999999999997e-06,121.62325000000003,54.1406875,Tac,C3P,yeast,06-20-2018
14,9.428571428571429e-05,2.9999999999999997e-06,95.66087500000002,54.1406875,Tac,C3P,yeast,06-20-2018
15,0.00011,2.9999999999999997e-06,101.71425,54.1406875,Tac,C3P,yeast,06-20-2018
16,0.0,5.999999999999999e-06,70.77074999999998,54.1406875,Tac,C3P,yeast,06-20-2018
17,1.5714285714285715e-05,5.999999999999999e-06,148.781,54.1406875,Tac,C3P,yeast,06-20-2018
18,3.142857142857143e-05,5.999999999999999e-06,137.340125,54.1406875,Tac,C3P,yeast,06-20-2018
19,4.714285714285714e-05,5.999999999999999e-06,128.37125000000003,54.1406875,Tac,C3P,yeast,06-20-2018
20,6.285714285714286e-05,5.999999999999999e-06,94.73900000000002,54.1406875,Tac,C3P,yeast,06-20-2018
21,7.857142857142858e-05,5.999999999999999e-06,75.79500000000003,54.1406875,Tac,C3P,yeast,06-20-2018
22,9.428571428571429e-05,5.999999999999999e-06,65.94337499999999,54.1406875,Tac,C3P,yeast,06-20-2018
23,0.00011,5.999999999999999e-06,81.06975000000001,54.1406875,Tac,C3P,yeast,06-20-2018
24,0.0,8.999999999999999e-06,30.602500000000035,54.1406875,Tac,C3P,yeast,06-20-2018
25,1.5714285714285715e-05,8.999999999999999e-06,83.75862500000001,54.1406875,Tac,C3P,yeast,06-20-2018
26,3.142857142857143e-05,8.999999999999999e-06,78.33024999999999,54.1406875,Tac,C3P,yeast,06-20-2018
27,4.714285714285714e-05,8.999999999999999e-06,80.088375,54.1406875,Tac,C3P,yeast,06-20-2018
28,6.285714285714286e-05,8.999999999999999e-06,54.04825000000001,54.1406875,Tac,C3P,yeast,06-20-2018
29,7.857142857142858e-05,8.999999999999999e-06,50.90887500000001,54.1406875,Tac,C3P,yeast,06-20-2018
30,9.428571428571429e-05,8.999999999999999e-06,46.781875,54.1406875,Tac,C3P,yeast,06-20-2018
31,0.00011,8.999999999999999e-06,64.03262500000001,54.1406875,Tac,C3P,yeast,06-20-2018
32,0.0,1.1999999999999999e-05,17.644500000000008,54.1406875,Tac,C3P,yeast,06-20-2018
33,1.5714285714285715e-05,1.1999999999999999e-05,53.711125000000024,54.1406875,Tac,C3P,yeast,06-20-2018
34,3.142857142857143e-05,1.1999999999999999e-05,52.750375000000034,54.1406875,Tac,C3P,yeast,06-20-2018
35,4.714285714285714e-05,1.1999999999999999e-05,50.44450000000002,54.1406875,Tac,C3P,yeast,06-20-2018
36,6.285714285714286e-05,1.1999999999999999e-05,42.24599999999997,54.1406875,Tac,C3P,yeast,06-20-2018
37,7.857142857142858e-05,1.1999999999999999e-05,42.467124999999996,54.1406875,Tac,C3P,yeast,06-20-2018
38,9.428571428571429e-05,1.1999999999999999e-05,39.673124999999985,54.1406875,Tac,C3P,yeast,06-20-2018
39,0.00011,1.1999999999999999e-05,62.17424999999999,54.1406875,Tac,C3P,yeast,06-20-2018
40,0.0,1.4999999999999999e-05,11.818124999999995,54.1406875,Tac,C3P,yeast,06-20-2018
41,1.5714285714285715e-05,1.4999999999999999e-05,26.37399999999998,54.1406875,Tac,C3P,yeast,06-20-2018
42,3.142857142857143e-05,1.4999999999999999e-05,32.024000000000015,54.1406875,Tac,C3P,yeast,06-20-2018
43,4.714285714285714e-05,1.4999999999999999e-05,25.292125000000013,54.1406875,Tac,C3P,yeast,06-20-2018
44,6.285714285714286e-05,1.4999999999999999e-05,26.122499999999988,54.1406875,Tac,C3P,yeast,06-20-2018
45,7.857142857142858e-05,1.4999999999999999e-05,24.14400000000002,54.1406875,Tac,C3P,yeast,06-20-2018
46,9.428571428571429e-05,1.4999999999999999e-05,28.911749999999998,54.1406875,Tac,C3P,yeast,06-20-2018
47,0.00011,1.4999999999999999e-05,66.42150000000002,54.1406875,Tac,C3P,yeast,06-20-2018
48,0.0,1.7999999999999997e-05,3.527249999999995,54.1406875,Tac,C3P,yeast,06-20-2018
49,1.5714285714285715e-05,1.7999999999999997e-05,14.035499999999999,54.1406875,Tac,C3P,yeast,06-20-2018
50,3.142857142857143e-05,1.7999999999999997e-05,13.731625000000022,54.1406875,Tac,C3P,yeast,06-20-2018
51,4.714285714285714e-05,1.7999999999999997e-05,17.508250000000046,54.1406875,Tac,C3P,yeast,06-20-2018
52,6.285714285714286e-05,1.7999999999999997e-05,12.52862500000002,54.1406875,Tac,C3P,yeast,06-20-2018
53,7.857142857142858e-05,1.7999999999999997e-05,24.47450000000002,54.1406875,Tac,C3P,yeast,06-20-2018
54,9.428571428571429e-05,1.7999999999999997e-05,25.33512499999999,54.1406875,Tac,C3P,yeast,06-20-2018
55,0.00011,1.7999999999999997e-05,26.768375000000006,54.1406875,Tac,C3P,yeast,06-20-2018
56,0.0,2.1e-05,0.0,54.1406875,Tac,C3P,yeast,06-20-2018
57,1.5714285714285715e-05,2.1e-05,13.45325000000004,54.1406875,Tac,C3P,yeast,06-20-2018
58,3.142857142857143e-05,2.1e-05,6.245249999999984,54.1406875,Tac,C3P,yeast,06-20-2018
59,4.714285714285714e-05,2.1e-05,8.123499999999993,54.1406875,Tac,C3P,yeast,06-20-2018
60,6.285714285714286e-05,2.1e-05,6.739250000000013,54.1406875,Tac,C3P,yeast,06-20-2018
61,7.857142857142858e-05,2.1e-05,12.50737500000001,54.1406875,Tac,C3P,yeast,06-20-2018
62,9.428571428571429e-05,2.1e-05,15.923249999999982,54.1406875,Tac,C3P,yeast,06-20-2018
63,0.00011,2.1e-05,15.734124999999992,54.1406875,Tac,C3P,yeast,06-20-2018
