,drug2.conc,drug1.conc,effect,effect.95ci,drug1,drug2,sample,expt
0,0.0,0.0,443.42637500000006,55.580337500000006,Tac,Dyc,yeast,06-20-2018
1,1.5714285714285715e-05,0.0,408.50562499999995,55.580337500000006,Tac,Dyc,yeast,06-20-2018
2,3.142857142857143e-05,0.0,382.908875,55.580337500000006,Tac,Dyc,yeast,06-20-2018
3,4.714285714285714e-05,0.0,369.938,55.580337500000006,Tac,Dyc,yeast,06-20-2018
4,6.285714285714286e-05,0.0,352.35512500000004,55.580337500000006,Tac,Dyc,yeast,06-20-2018
5,7.857142857142858e-05,0.0,258.21112500000004,55.580337500000006,Tac,Dyc,yeast,06-20-2018
6,9.428571428571429e-05,0.0,105.666125,55.580337500000006,Tac,Dyc,yeast,06-20-2018
7,0.00011,0.0,72.63049999999998,55.580337500000006,Tac,Dyc,yeast,06-20-2018
8,0.0,7e-06,362.170625,55.580337500000006,Tac,Dyc,yeast,06-20-2018
9,1.5714285714285715e-05,7e-06,344.829,55.580337500000006,Tac,Dyc,yeast,06-20-2018
10,3.142857142857143e-05,7e-06,301.10762500000004,55.580337500000006,Tac,Dyc,yeast,06-20-2018
11,4.714285714285714e-05,7e-06,283.002875,55.580337500000006,Tac,Dyc,yeast,06-20-2018
12,6.285714285714286e-05,7e-06,230.96587499999998,55.580337500000006,Tac,Dyc,yeast,06-20-2018
13,7.857142857142858e-05,7e-06,117.42125000000001,55.580337500000006,Tac,Dyc,yeast,06-20-2018
14,9.428571428571429e-05,7e-06,66.609375,55.580337500000006,Tac,Dyc,yeast,06-20-2018
15,0.00011,7e-06,62.291375000000016,55.580337500000006,Tac,Dyc,yeast,06-20-2018
16,0.0,1.4e-05,355.51399999999995,55.580337500000006,Tac,Dyc,yeast,06-20-2018
17,1.5714285714285715e-05,1.4e-05,320.798625,55.580337500000006,Tac,Dyc,yeast,06-20-2018
18,3.142857142857143e-05,1.4e-05,283.58437499999997,55.580337500000006,Tac,Dyc,yeast,06-20-2018
19,4.714285714285714e-05,1.4e-05,248.226875,55.580337500000006,Tac,Dyc,yeast,06-20-2018
20,6.285714285714286e-05,1.4e-05,194.49874999999997,55.580337500000006,Tac,Dyc,yeast,06-20-2018
21,7.857142857142858e-05,1.4e-05,89.85325,55.580337500000006,Tac,Dyc,yeast,06-20-2018
22,9.428571428571429e-05,1.4e-05,49.88424999999998,55.580337500000006,Tac,Dyc,yeast,06-20-2018
23,0.00011,1.4e-05,51.91062500000001,55.580337500000006,Tac,Dyc,yeast,06-20-2018
24,0.0,2.1e-05,338.054125,55.580337500000006,Tac,Dyc,yeast,06-20-2018
25,1.5714285714285715e-05,2.1e-05,296.57725,55.580337500000006,Tac,Dyc,yeast,06-20-2018
26,3.142857142857143e-05,2.1e-05,247.50962500000003,55.580337500000006,Tac,Dyc,yeast,06-20-2018
27,4.714285714285714e-05,2.1e-05,197.78162500000002,55.580337500000006,Tac,Dyc,yeast,06-20-2018
28,6.285714285714286e-05,2.1e-05,117.02837499999998,55.580337500000006,Tac,Dyc,yeast,06-20-2018
29,7.857142857142858e-05,2.1e-05,22.14987499999998,55.580337500000006,Tac,Dyc,yeast,06-20-2018
30,9.428571428571429e-05,2.1e-05,27.353375,55.580337500000006,Tac,Dyc,yeast,06-20-2018
31,0.00011,2.1e-05,28.944499999999977,55.580337500000006,Tac,Dyc,yeast,06-20-2018
32,0.0,2.8e-05,299.58324999999996,55.580337500000006,Tac,Dyc,yeast,06-20-2018
33,1.5714285714285715e-05,2.8e-05,211.56575000000004,55.580337500000006,Tac,Dyc,yeast,06-20-2018
34,3.142857142857143e-05,2.8e-05,120.681375,55.580337500000006,Tac,Dyc,yeast,06-20-2018
35,4.714285714285714e-05,2.8e-05,91.93112500000001,55.580337500000006,Tac,Dyc,yeast,06-20-2018
36,6.285714285714286e-05,2.8e-05,30.917125,55.580337500000006,Tac,Dyc,yeast,06-20-2018
37,7.857142857142858e-05,2.8e-05,9.511875000000003,55.580337500000006,Tac,Dyc,yeast,06-20-2018
38,9.428571428571429e-05,2.8e-05,12.817624999999992,55.580337500000006,Tac,Dyc,yeast,06-20-2018
39,0.00011,2.8e-05,13.98812500000001,55.580337500000006,Tac,Dyc,yeast,06-20-2018
40,0.0,3.5e-05,253.092125,55.580337500000006,Tac,Dyc,yeast,06-20-2018
41,1.5714285714285715e-05,3.5e-05,31.150874999999985,55.580337500000006,Tac,Dyc,yeast,06-20-2018
42,3.142857142857143e-05,3.5e-05,6.103999999999985,55.580337500000006,Tac,Dyc,yeast,06-20-2018
43,4.714285714285714e-05,3.5e-05,21.734624999999994,55.580337500000006,Tac,Dyc,yeast,06-20-2018
44,6.285714285714286e-05,3.5e-05,4.402999999999992,55.580337500000006,Tac,Dyc,yeast,06-20-2018
45,7.857142857142858e-05,3.5e-05,3.8079999999999785,55.580337500000006,Tac,Dyc,yeast,06-20-2018
46,9.428571428571429e-05,3.5e-05,8.079874999999987,55.580337500000006,Tac,Dyc,yeast,06-20-2018
47,0.00011,3.5e-05,14.896124999999998,55.580337500000006,Tac,Dyc,yeast,06-20-2018
48,0.0,4.2e-05,200.097875,55.580337500000006,Tac,Dyc,yeast,06-20-2018
49,1.5714285714285715e-05,4.2e-05,3.3178749999999866,55.580337500000006,Tac,Dyc,yeast,06-20-2018
50,3.142857142857143e-05,4.2e-05,2.2923749999999785,55.580337500000006,Tac,Dyc,yeast,06-20-2018
51,4.714285714285714e-05,4.2e-05,2.3472500000000025,55.580337500000006,Tac,Dyc,yeast,06-20-2018
52,6.285714285714286e-05,4.2e-05,2.9141249999999985,55.580337500000006,Tac,Dyc,yeast,06-20-2018
53,7.857142857142858e-05,4.2e-05,1.6162499999999795,55.580337500000006,Tac,Dyc,yeast,06-20-2018
54,9.428571428571429e-05,4.2e-05,6.719750000000005,55.580337500000006,Tac,Dyc,yeast,06-20-2018
55,0.00011,4.2e-05,12.301249999999982,55.580337500000006,Tac,Dyc,yeast,06-20-2018
56,0.0,4.9e-05,81.39987500000001,55.580337500000006,Tac,Dyc,yeast,06-20-2018
57,1.5714285714285715e-05,4.9e-05,1.3208749999999867,55.580337500000006,Tac,Dyc,yeast,06-20-2018
58,3.142857142857143e-05,4.9e-05,0.0,55.580337500000006,Tac,Dyc,yeast,06-20-2018
59,4.714285714285714e-05,4.9e-05,2.6901249999999948,55.580337500000006,Tac,Dyc,yeast,06-20-2018
60,6.285714285714286e-05,4.9e-05,1.569874999999982,55.580337500000006,Tac,Dyc,yeast,06-20-2018
61,7.857142857142858e-05,4.9e-05,0.08337499999998954,55.580337500000006,Tac,Dyc,yeast,06-20-2018
62,9.428571428571429e-05,4.9e-05,8.537625000000006,55.580337500000006,Tac,Dyc,yeast,06-20-2018
63,0.00011,4.9e-05,10.218874999999997,55.580337500000006,Tac,Dyc,yeast,06-20-2018
