,drug2.conc,drug1.conc,effect,effect.95ci,drug1,drug2,sample,expt
0,0.0,0.0,271.82550000000003,50.9181125,Tac,Qmy,yeast,06-20-2018
1,1.5714285714285715e-05,0.0,314.4870000000001,50.9181125,Tac,Qmy,yeast,06-20-2018
2,3.142857142857143e-05,0.0,270.4596250000001,50.9181125,Tac,Qmy,yeast,06-20-2018
3,4.714285714285714e-05,0.0,271.01824999999997,50.9181125,Tac,Qmy,yeast,06-20-2018
4,6.285714285714286e-05,0.0,209.21275000000006,50.9181125,Tac,Qmy,yeast,06-20-2018
5,7.857142857142858e-05,0.0,148.13575,50.9181125,Tac,Qmy,yeast,06-20-2018
6,9.428571428571429e-05,0.0,130.73062500000006,50.9181125,Tac,Qmy,yeast,06-20-2018
7,0.00011,0.0,125.13662500000001,50.9181125,Tac,Qmy,yeast,06-20-2018
8,0.0,4.2857142857142855e-06,373.01150000000007,50.9181125,Tac,Qmy,yeast,06-20-2018
9,1.5714285714285715e-05,4.2857142857142855e-06,319.11737500000004,50.9181125,Tac,Qmy,yeast,06-20-2018
10,3.142857142857143e-05,4.2857142857142855e-06,274.50725,50.9181125,Tac,Qmy,yeast,06-20-2018
11,4.714285714285714e-05,4.2857142857142855e-06,261.067,50.9181125,Tac,Qmy,yeast,06-20-2018
12,6.285714285714286e-05,4.2857142857142855e-06,199.39337500000008,50.9181125,Tac,Qmy,yeast,06-20-2018
13,7.857142857142858e-05,4.2857142857142855e-06,124.56025000000002,50.9181125,Tac,Qmy,yeast,06-20-2018
14,9.428571428571429e-05,4.2857142857142855e-06,120.83387500000006,50.9181125,Tac,Qmy,yeast,06-20-2018
15,0.00011,4.2857142857142855e-06,142.2006250000001,50.9181125,Tac,Qmy,yeast,06-20-2018
16,0.0,8.571428571428571e-06,338.31050000000005,50.9181125,Tac,Qmy,yeast,06-20-2018
17,1.5714285714285715e-05,8.571428571428571e-06,286.45112500000005,50.9181125,Tac,Qmy,yeast,06-20-2018
18,3.142857142857143e-05,8.571428571428571e-06,226.87812500000004,50.9181125,Tac,Qmy,yeast,06-20-2018
19,4.714285714285714e-05,8.571428571428571e-06,187.13537499999998,50.9181125,Tac,Qmy,yeast,06-20-2018
20,6.285714285714286e-05,8.571428571428571e-06,146.06337499999998,50.9181125,Tac,Qmy,yeast,06-20-2018
21,7.857142857142858e-05,8.571428571428571e-06,86.56587500000003,50.9181125,Tac,Qmy,yeast,06-20-2018
22,9.428571428571429e-05,8.571428571428571e-06,79.49025000000006,50.9181125,Tac,Qmy,yeast,06-20-2018
23,0.00011,8.571428571428571e-06,90.80762500000003,50.9181125,Tac,Qmy,yeast,06-20-2018
24,0.0,1.2857142857142856e-05,280.54999999999995,50.9181125,Tac,Qmy,yeast,06-20-2018
25,1.5714285714285715e-05,1.2857142857142856e-05,154.34062500000007,50.9181125,Tac,Qmy,yeast,06-20-2018
26,3.142857142857143e-05,1.2857142857142856e-05,119.20300000000003,50.9181125,Tac,Qmy,yeast,06-20-2018
27,4.714285714285714e-05,1.2857142857142856e-05,74.91100000000003,50.9181125,Tac,Qmy,yeast,06-20-2018
28,6.285714285714286e-05,1.2857142857142856e-05,74.01200000000003,50.9181125,Tac,Qmy,yeast,06-20-2018
29,7.857142857142858e-05,1.2857142857142856e-05,63.37687500000004,50.9181125,Tac,Qmy,yeast,06-20-2018
30,9.428571428571429e-05,1.2857142857142856e-05,60.885500000000064,50.9181125,Tac,Qmy,yeast,06-20-2018
31,0.00011,1.2857142857142856e-05,104.66400000000004,50.9181125,Tac,Qmy,yeast,06-20-2018
32,0.0,1.7142857142857142e-05,139.22925000000006,50.9181125,Tac,Qmy,yeast,06-20-2018
33,1.5714285714285715e-05,1.7142857142857142e-05,58.97237500000003,50.9181125,Tac,Qmy,yeast,06-20-2018
34,3.142857142857143e-05,1.7142857142857142e-05,20.533000000000044,50.9181125,Tac,Qmy,yeast,06-20-2018
35,4.714285714285714e-05,1.7142857142857142e-05,20.617375000000038,50.9181125,Tac,Qmy,yeast,06-20-2018
36,6.285714285714286e-05,1.7142857142857142e-05,23.413625000000053,50.9181125,Tac,Qmy,yeast,06-20-2018
37,7.857142857142858e-05,1.7142857142857142e-05,30.57687500000003,50.9181125,Tac,Qmy,yeast,06-20-2018
38,9.428571428571429e-05,1.7142857142857142e-05,43.63937500000003,50.9181125,Tac,Qmy,yeast,06-20-2018
39,0.00011,1.7142857142857142e-05,46.83775,50.9181125,Tac,Qmy,yeast,06-20-2018
40,0.0,2.1428571428571428e-05,36.37887500000002,50.9181125,Tac,Qmy,yeast,06-20-2018
41,1.5714285714285715e-05,2.1428571428571428e-05,8.47825000000006,50.9181125,Tac,Qmy,yeast,06-20-2018
42,3.142857142857143e-05,2.1428571428571428e-05,8.096250000000055,50.9181125,Tac,Qmy,yeast,06-20-2018
43,4.714285714285714e-05,2.1428571428571428e-05,12.583750000000038,50.9181125,Tac,Qmy,yeast,06-20-2018
44,6.285714285714286e-05,2.1428571428571428e-05,17.84287500000002,50.9181125,Tac,Qmy,yeast,06-20-2018
45,7.857142857142858e-05,2.1428571428571428e-05,24.440375000000074,50.9181125,Tac,Qmy,yeast,06-20-2018
46,9.428571428571429e-05,2.1428571428571428e-05,42.13100000000006,50.9181125,Tac,Qmy,yeast,06-20-2018
47,0.00011,2.1428571428571428e-05,46.74112500000004,50.9181125,Tac,Qmy,yeast,06-20-2018
48,0.0,2.571428571428571e-05,4.50312500000004,50.9181125,Tac,Qmy,yeast,06-20-2018
49,1.5714285714285715e-05,2.571428571428571e-05,0.01937500000002501,50.9181125,Tac,Qmy,yeast,06-20-2018
50,3.142857142857143e-05,2.571428571428571e-05,4.88250000000005,50.9181125,Tac,Qmy,yeast,06-20-2018
51,4.714285714285714e-05,2.571428571428571e-05,7.5853750000000275,50.9181125,Tac,Qmy,yeast,06-20-2018
52,6.285714285714286e-05,2.571428571428571e-05,13.340250000000054,50.9181125,Tac,Qmy,yeast,06-20-2018
53,7.857142857142858e-05,2.571428571428571e-05,14.902000000000044,50.9181125,Tac,Qmy,yeast,06-20-2018
54,9.428571428571429e-05,2.571428571428571e-05,40.44212500000003,50.9181125,Tac,Qmy,yeast,06-20-2018
55,0.00011,2.571428571428571e-05,55.047750000000036,50.9181125,Tac,Qmy,yeast,06-20-2018
56,0.0,3e-05,0.0,50.9181125,Tac,Qmy,yeast,06-20-2018
57,1.5714285714285715e-05,3e-05,2.1296250000000043,50.9181125,Tac,Qmy,yeast,06-20-2018
58,3.142857142857143e-05,3e-05,3.950750000000056,50.9181125,Tac,Qmy,yeast,06-20-2018
59,4.714285714285714e-05,3e-05,6.653375000000011,50.9181125,Tac,Qmy,yeast,06-20-2018
60,6.285714285714286e-05,3e-05,10.979000000000042,50.9181125,Tac,Qmy,yeast,06-20-2018
61,7.857142857142858e-05,3e-05,58.01387500000001,50.9181125,Tac,Qmy,yeast,06-20-2018
62,9.428571428571429e-05,3e-05,150.21287500000003,50.9181125,Tac,Qmy,yeast,06-20-2018
63,0.00011,3e-05,118.57275000000004,50.9181125,Tac,Qmy,yeast,06-20-2018
