,drug2.conc,drug1.conc,effect,effect.95ci,drug1,drug2,sample,expt
0,0.0,0.0,390.08262500000006,52.04495000000001,Tac,Cal,yeast,06-20-2018
1,1.5714285714285715e-05,0.0,351.43687500000004,52.04495000000001,Tac,Cal,yeast,06-20-2018
2,3.142857142857143e-05,0.0,320.72574999999995,52.04495000000001,Tac,Cal,yeast,06-20-2018
3,4.714285714285714e-05,0.0,305.82875,52.04495000000001,Tac,Cal,yeast,06-20-2018
4,6.285714285714286e-05,0.0,286.79675,52.04495000000001,Tac,Cal,yeast,06-20-2018
5,7.857142857142858e-05,0.0,236.91762500000004,52.04495000000001,Tac,Cal,yeast,06-20-2018
6,9.428571428571429e-05,0.0,127.75462500000003,52.04495000000001,Tac,Cal,yeast,06-20-2018
7,0.00011,0.0,67.53687499999998,52.04495000000001,Tac,Cal,yeast,06-20-2018
8,0.0,3.0000000000000004e-07,386.53625000000005,52.04495000000001,Tac,Cal,yeast,06-20-2018
9,1.5714285714285715e-05,3.0000000000000004e-07,337.54537500000004,52.04495000000001,Tac,Cal,yeast,06-20-2018
10,3.142857142857143e-05,3.0000000000000004e-07,300.53925000000004,52.04495000000001,Tac,Cal,yeast,06-20-2018
11,4.714285714285714e-05,3.0000000000000004e-07,294.7852500000001,52.04495000000001,Tac,Cal,yeast,06-20-2018
12,6.285714285714286e-05,3.0000000000000004e-07,262.9615,52.04495000000001,Tac,Cal,yeast,06-20-2018
13,7.857142857142858e-05,3.0000000000000004e-07,203.46575,52.04495000000001,Tac,Cal,yeast,06-20-2018
14,9.428571428571429e-05,3.0000000000000004e-07,102.37225000000001,52.04495000000001,Tac,Cal,yeast,06-20-2018
15,0.00011,3.0000000000000004e-07,110.63600000000002,52.04495000000001,Tac,Cal,yeast,06-20-2018
16,0.0,6.000000000000001e-07,366.13725000000005,52.04495000000001,Tac,Cal,yeast,06-20-2018
17,1.5714285714285715e-05,6.000000000000001e-07,319.214625,52.04495000000001,Tac,Cal,yeast,06-20-2018
18,3.142857142857143e-05,6.000000000000001e-07,280.137625,52.04495000000001,Tac,Cal,yeast,06-20-2018
19,4.714285714285714e-05,6.000000000000001e-07,271.656375,52.04495000000001,Tac,Cal,yeast,06-20-2018
20,6.285714285714286e-05,6.000000000000001e-07,241.83675,52.04495000000001,Tac,Cal,yeast,06-20-2018
21,7.857142857142858e-05,6.000000000000001e-07,167.37349999999998,52.04495000000001,Tac,Cal,yeast,06-20-2018
22,9.428571428571429e-05,6.000000000000001e-07,110.37225000000001,52.04495000000001,Tac,Cal,yeast,06-20-2018
23,0.00011,6.000000000000001e-07,71.52612500000001,52.04495000000001,Tac,Cal,yeast,06-20-2018
24,0.0,9.000000000000001e-07,364.8042500000001,52.04495000000001,Tac,Cal,yeast,06-20-2018
25,1.5714285714285715e-05,9.000000000000001e-07,305.1345,52.04495000000001,Tac,Cal,yeast,06-20-2018
26,3.142857142857143e-05,9.000000000000001e-07,271.49174999999997,52.04495000000001,Tac,Cal,yeast,06-20-2018
27,4.714285714285714e-05,9.000000000000001e-07,245.57300000000004,52.04495000000001,Tac,Cal,yeast,06-20-2018
28,6.285714285714286e-05,9.000000000000001e-07,218.47024999999996,52.04495000000001,Tac,Cal,yeast,06-20-2018
29,7.857142857142858e-05,9.000000000000001e-07,117.36612499999998,52.04495000000001,Tac,Cal,yeast,06-20-2018
30,9.428571428571429e-05,9.000000000000001e-07,109.765375,52.04495000000001,Tac,Cal,yeast,06-20-2018
31,0.00011,9.000000000000001e-07,53.08600000000001,52.04495000000001,Tac,Cal,yeast,06-20-2018
32,0.0,1.2000000000000002e-06,338.8212500000001,52.04495000000001,Tac,Cal,yeast,06-20-2018
33,1.5714285714285715e-05,1.2000000000000002e-06,256.185375,52.04495000000001,Tac,Cal,yeast,06-20-2018
34,3.142857142857143e-05,1.2000000000000002e-06,200.31600000000003,52.04495000000001,Tac,Cal,yeast,06-20-2018
35,4.714285714285714e-05,1.2000000000000002e-06,169.46125,52.04495000000001,Tac,Cal,yeast,06-20-2018
36,6.285714285714286e-05,1.2000000000000002e-06,98.737875,52.04495000000001,Tac,Cal,yeast,06-20-2018
37,7.857142857142858e-05,1.2000000000000002e-06,48.15262500000003,52.04495000000001,Tac,Cal,yeast,06-20-2018
38,9.428571428571429e-05,1.2000000000000002e-06,35.43199999999999,52.04495000000001,Tac,Cal,yeast,06-20-2018
39,0.00011,1.2000000000000002e-06,41.318250000000006,52.04495000000001,Tac,Cal,yeast,06-20-2018
40,0.0,1.5000000000000002e-06,318.458375,52.04495000000001,Tac,Cal,yeast,06-20-2018
41,1.5714285714285715e-05,1.5000000000000002e-06,214.9995,52.04495000000001,Tac,Cal,yeast,06-20-2018
42,3.142857142857143e-05,1.5000000000000002e-06,110.549125,52.04495000000001,Tac,Cal,yeast,06-20-2018
43,4.714285714285714e-05,1.5000000000000002e-06,86.50687500000001,52.04495000000001,Tac,Cal,yeast,06-20-2018
44,6.285714285714286e-05,1.5000000000000002e-06,48.71150000000003,52.04495000000001,Tac,Cal,yeast,06-20-2018
45,7.857142857142858e-05,1.5000000000000002e-06,33.11412500000003,52.04495000000001,Tac,Cal,yeast,06-20-2018
46,9.428571428571429e-05,1.5000000000000002e-06,14.47037499999999,52.04495000000001,Tac,Cal,yeast,06-20-2018
47,0.00011,1.5000000000000002e-06,21.113250000000022,52.04495000000001,Tac,Cal,yeast,06-20-2018
48,0.0,1.8000000000000001e-06,282.1013750000001,52.04495000000001,Tac,Cal,yeast,06-20-2018
49,1.5714285714285715e-05,1.8000000000000001e-06,87.67912500000003,52.04495000000001,Tac,Cal,yeast,06-20-2018
50,3.142857142857143e-05,1.8000000000000001e-06,30.44425000000001,52.04495000000001,Tac,Cal,yeast,06-20-2018
51,4.714285714285714e-05,1.8000000000000001e-06,29.22687499999998,52.04495000000001,Tac,Cal,yeast,06-20-2018
52,6.285714285714286e-05,1.8000000000000001e-06,13.377499999999998,52.04495000000001,Tac,Cal,yeast,06-20-2018
53,7.857142857142858e-05,1.8000000000000001e-06,3.8755000000000166,52.04495000000001,Tac,Cal,yeast,06-20-2018
54,9.428571428571429e-05,1.8000000000000001e-06,4.439249999999987,52.04495000000001,Tac,Cal,yeast,06-20-2018
55,0.00011,1.8000000000000001e-06,17.46150000000003,52.04495000000001,Tac,Cal,yeast,06-20-2018
56,0.0,2.1000000000000002e-06,168.33612500000004,52.04495000000001,Tac,Cal,yeast,06-20-2018
57,1.5714285714285715e-05,2.1000000000000002e-06,32.202499999999986,52.04495000000001,Tac,Cal,yeast,06-20-2018
58,3.142857142857143e-05,2.1000000000000002e-06,15.9375,52.04495000000001,Tac,Cal,yeast,06-20-2018
59,4.714285714285714e-05,2.1000000000000002e-06,7.431125000000009,52.04495000000001,Tac,Cal,yeast,06-20-2018
60,6.285714285714286e-05,2.1000000000000002e-06,1.1586250000000007,52.04495000000001,Tac,Cal,yeast,06-20-2018
61,7.857142857142858e-05,2.1000000000000002e-06,0.6230000000000189,52.04495000000001,Tac,Cal,yeast,06-20-2018
62,9.428571428571429e-05,2.1000000000000002e-06,0.0,52.04495000000001,Tac,Cal,yeast,06-20-2018
63,0.00011,2.1000000000000002e-06,5.941749999999985,52.04495000000001,Tac,Cal,yeast,06-20-2018
