,drug2.conc,drug1.conc,effect,effect.95ci,drug1,drug2,sample,expt
0,0.0,0.0,410.19737499999997,59.031937500000005,Tam,Sta,yeast,06-20-2018
1,4e-07,0.0,399.30899999999997,59.031937500000005,Tam,Sta,yeast,06-20-2018
2,8e-07,0.0,385.33275000000003,59.031937500000005,Tam,Sta,yeast,06-20-2018
3,1.2e-06,0.0,368.684625,59.031937500000005,Tam,Sta,yeast,06-20-2018
4,1.6e-06,0.0,354.668625,59.031937500000005,Tam,Sta,yeast,06-20-2018
5,2e-06,0.0,318.3365,59.031937500000005,Tam,Sta,yeast,06-20-2018
6,2.4e-06,0.0,277.53550000000007,59.031937500000005,Tam,Sta,yeast,06-20-2018
7,2.8e-06,0.0,276.42525,59.031937500000005,Tam,Sta,yeast,06-20-2018
8,0.0,1.8e-07,475.2710000000001,59.031937500000005,Tam,Sta,yeast,06-20-2018
9,4e-07,1.8e-07,467.5585000000001,59.031937500000005,Tam,Sta,yeast,06-20-2018
10,8e-07,1.8e-07,426.335875,59.031937500000005,Tam,Sta,yeast,06-20-2018
11,1.2e-06,1.8e-07,407.04987500000004,59.031937500000005,Tam,Sta,yeast,06-20-2018
12,1.6e-06,1.8e-07,386.70725000000004,59.031937500000005,Tam,Sta,yeast,06-20-2018
13,2e-06,1.8e-07,342.13775,59.031937500000005,Tam,Sta,yeast,06-20-2018
14,2.4e-06,1.8e-07,289.880625,59.031937500000005,Tam,Sta,yeast,06-20-2018
15,2.8e-06,1.8e-07,251.22712500000003,59.031937500000005,Tam,Sta,yeast,06-20-2018
16,0.0,3.6e-07,379.570875,59.031937500000005,Tam,Sta,yeast,06-20-2018
17,4e-07,3.6e-07,353.50800000000004,59.031937500000005,Tam,Sta,yeast,06-20-2018
18,8e-07,3.6e-07,294.3857499999999,59.031937500000005,Tam,Sta,yeast,06-20-2018
19,1.2e-06,3.6e-07,260.68549999999993,59.031937500000005,Tam,Sta,yeast,06-20-2018
20,1.6e-06,3.6e-07,204.94537500000004,59.031937500000005,Tam,Sta,yeast,06-20-2018
21,2e-06,3.6e-07,132.066875,59.031937500000005,Tam,Sta,yeast,06-20-2018
22,2.4e-06,3.6e-07,7.749749999999992,59.031937500000005,Tam,Sta,yeast,06-20-2018
23,2.8e-06,3.6e-07,8.137374999999992,59.031937500000005,Tam,Sta,yeast,06-20-2018
24,0.0,5.4e-07,296.866,59.031937500000005,Tam,Sta,yeast,06-20-2018
25,4e-07,5.4e-07,278.584875,59.031937500000005,Tam,Sta,yeast,06-20-2018
26,8e-07,5.4e-07,203.13525000000007,59.031937500000005,Tam,Sta,yeast,06-20-2018
27,1.2e-06,5.4e-07,89.014375,59.031937500000005,Tam,Sta,yeast,06-20-2018
28,1.6e-06,5.4e-07,15.968749999999972,59.031937500000005,Tam,Sta,yeast,06-20-2018
29,2e-06,5.4e-07,5.948250000000002,59.031937500000005,Tam,Sta,yeast,06-20-2018
30,2.4e-06,5.4e-07,2.294125000000008,59.031937500000005,Tam,Sta,yeast,06-20-2018
31,2.8e-06,5.4e-07,1.5863750000000039,59.031937500000005,Tam,Sta,yeast,06-20-2018
32,0.0,7.2e-07,138.96187500000002,59.031937500000005,Tam,Sta,yeast,06-20-2018
33,4e-07,7.2e-07,92.717625,59.031937500000005,Tam,Sta,yeast,06-20-2018
34,8e-07,7.2e-07,20.463750000000005,59.031937500000005,Tam,Sta,yeast,06-20-2018
35,1.2e-06,7.2e-07,7.548999999999992,59.031937500000005,Tam,Sta,yeast,06-20-2018
36,1.6e-06,7.2e-07,3.8710000000000093,59.031937500000005,Tam,Sta,yeast,06-20-2018
37,2e-06,7.2e-07,2.0402500000000003,59.031937500000005,Tam,Sta,yeast,06-20-2018
38,2.4e-06,7.2e-07,1.8557499999999862,59.031937500000005,Tam,Sta,yeast,06-20-2018
39,2.8e-06,7.2e-07,2.806000000000026,59.031937500000005,Tam,Sta,yeast,06-20-2018
40,0.0,9e-07,11.952625000000026,59.031937500000005,Tam,Sta,yeast,06-20-2018
41,4e-07,9e-07,4.983874999999983,59.031937500000005,Tam,Sta,yeast,06-20-2018
42,8e-07,9e-07,2.8490000000000038,59.031937500000005,Tam,Sta,yeast,06-20-2018
43,1.2e-06,9e-07,2.0770000000000266,59.031937500000005,Tam,Sta,yeast,06-20-2018
44,1.6e-06,9e-07,0.7197500000000048,59.031937500000005,Tam,Sta,yeast,06-20-2018
45,2e-06,9e-07,0.0,59.031937500000005,Tam,Sta,yeast,06-20-2018
46,2.4e-06,9e-07,0.07437500000001762,59.031937500000005,Tam,Sta,yeast,06-20-2018
47,2.8e-06,9e-07,0.19325000000002035,59.031937500000005,Tam,Sta,yeast,06-20-2018
48,0.0,1.08e-06,4.726749999999996,59.031937500000005,Tam,Sta,yeast,06-20-2018
49,4e-07,1.08e-06,2.569624999999988,59.031937500000005,Tam,Sta,yeast,06-20-2018
50,8e-07,1.08e-06,1.3243750000000176,59.031937500000005,Tam,Sta,yeast,06-20-2018
51,1.2e-06,1.08e-06,0.6673750000000069,59.031937500000005,Tam,Sta,yeast,06-20-2018
52,1.6e-06,1.08e-06,1.2424999999999926,59.031937500000005,Tam,Sta,yeast,06-20-2018
53,2e-06,1.08e-06,0.489750000000015,59.031937500000005,Tam,Sta,yeast,06-20-2018
54,2.4e-06,1.08e-06,0.3973750000000109,59.031937500000005,Tam,Sta,yeast,06-20-2018
55,2.8e-06,1.08e-06,1.0451249999999845,59.031937500000005,Tam,Sta,yeast,06-20-2018
56,0.0,1.26e-06,5.783750000000012,59.031937500000005,Tam,Sta,yeast,06-20-2018
57,4e-07,1.26e-06,2.515625,59.031937500000005,Tam,Sta,yeast,06-20-2018
58,8e-07,1.26e-06,1.0619999999999976,59.031937500000005,Tam,Sta,yeast,06-20-2018
59,1.2e-06,1.26e-06,0.46787499999999227,59.031937500000005,Tam,Sta,yeast,06-20-2018
60,1.6e-06,1.26e-06,0.9195000000000135,59.031937500000005,Tam,Sta,yeast,06-20-2018
61,2e-06,1.26e-06,0.3708750000000123,59.031937500000005,Tam,Sta,yeast,06-20-2018
62,2.4e-06,1.26e-06,0.6781250000000085,59.031937500000005,Tam,Sta,yeast,06-20-2018
63,2.8e-06,1.26e-06,0.6373750000000058,59.031937500000005,Tam,Sta,yeast,06-20-2018
