drug1.conc,drug2.conc,effect,effect.95ci,drug1,drug2,drug1.units,drug2.units,expt.date,sample
10.0,0.75,-10.079103,1.0,Cinacalcethydrochloride,Piperaquine,uM,uM,31,plasmodium_falciparum_3D7
10.0,0.1875,-17.211601,1.0,Cinacalcethydrochloride,Piperaquine,uM,uM,31,plasmodium_falciparum_3D7
10.0,0.09375,-7.079763000000001,1.0,Cinacalcethydrochloride,Piperaquine,uM,uM,31,plasmodium_falciparum_3D7
10.0,0.046875,0.973412,1.0,Cinacalcethydrochloride,Piperaquine,uM,uM,31,plasmodium_falciparum_3D7
10.0,0.0234375,37.721379999999996,1.0,Cinacalcethydrochloride,Piperaquine,uM,uM,31,plasmodium_falciparum_3D7
10.0,0.01171875,47.712590000000006,1.0,Cinacalcethydrochloride,Piperaquine,uM,uM,31,plasmodium_falciparum_3D7
10.0,0.005859375,30.404306,1.0,Cinacalcethydrochloride,Piperaquine,uM,uM,31,plasmodium_falciparum_3D7
10.0,0.00292975,88.94968399999999,1.0,Cinacalcethydrochloride,Piperaquine,uM,uM,31,plasmodium_falciparum_3D7
10.0,0.0,11.6392,1.0,Cinacalcethydrochloride,Piperaquine,uM,uM,31,plasmodium_falciparum_3D7
5.0,0.375,-10.99978,1.0,Cinacalcethydrochloride,Piperaquine,uM,uM,31,plasmodium_falciparum_3D7
5.0,0.1875,-0.45924,1.0,Cinacalcethydrochloride,Piperaquine,uM,uM,31,plasmodium_falciparum_3D7
5.0,0.09375,-2.907053,1.0,Cinacalcethydrochloride,Piperaquine,uM,uM,31,plasmodium_falciparum_3D7
5.0,0.046875,28.029004999999998,1.0,Cinacalcethydrochloride,Piperaquine,uM,uM,31,plasmodium_falciparum_3D7
5.0,0.0234375,36.405186,1.0,Cinacalcethydrochloride,Piperaquine,uM,uM,31,plasmodium_falciparum_3D7
5.0,0.01171875,38.87058,1.0,Cinacalcethydrochloride,Piperaquine,uM,uM,31,plasmodium_falciparum_3D7
5.0,0.005859375,101.010765,1.0,Cinacalcethydrochloride,Piperaquine,uM,uM,31,plasmodium_falciparum_3D7
5.0,0.00292975,112.36431999999999,1.0,Cinacalcethydrochloride,Piperaquine,uM,uM,31,plasmodium_falciparum_3D7
5.0,0.0,63.684902,1.0,Cinacalcethydrochloride,Piperaquine,uM,uM,31,plasmodium_falciparum_3D7
2.5,0.375,-7.365414,1.0,Cinacalcethydrochloride,Piperaquine,uM,uM,31,plasmodium_falciparum_3D7
2.5,0.1875,-7.407163000000001,1.0,Cinacalcethydrochloride,Piperaquine,uM,uM,31,plasmodium_falciparum_3D7
2.5,0.09375,47.596134,1.0,Cinacalcethydrochloride,Piperaquine,uM,uM,31,plasmodium_falciparum_3D7
2.5,0.046875,-19.96704,1.0,Cinacalcethydrochloride,Piperaquine,uM,uM,31,plasmodium_falciparum_3D7
2.5,0.0234375,34.862667,1.0,Cinacalcethydrochloride,Piperaquine,uM,uM,31,plasmodium_falciparum_3D7
2.5,0.01171875,83.7684,1.0,Cinacalcethydrochloride,Piperaquine,uM,uM,31,plasmodium_falciparum_3D7
2.5,0.005859375,101.001976,1.0,Cinacalcethydrochloride,Piperaquine,uM,uM,31,plasmodium_falciparum_3D7
2.5,0.0,45.765766,1.0,Cinacalcethydrochloride,Piperaquine,uM,uM,31,plasmodium_falciparum_3D7
1.25,0.75,-19.580313,1.0,Cinacalcethydrochloride,Piperaquine,uM,uM,31,plasmodium_falciparum_3D7
1.25,0.375,-2.2654360000000002,1.0,Cinacalcethydrochloride,Piperaquine,uM,uM,31,plasmodium_falciparum_3D7
1.25,0.1875,-15.99209,1.0,Cinacalcethydrochloride,Piperaquine,uM,uM,31,plasmodium_falciparum_3D7
1.25,0.09375,-18.580532,1.0,Cinacalcethydrochloride,Piperaquine,uM,uM,31,plasmodium_falciparum_3D7
1.25,0.046875,-14.034278,1.0,Cinacalcethydrochloride,Piperaquine,uM,uM,31,plasmodium_falciparum_3D7
1.25,0.0234375,9.468249,1.0,Cinacalcethydrochloride,Piperaquine,uM,uM,31,plasmodium_falciparum_3D7
1.25,0.01171875,91.586464,1.0,Cinacalcethydrochloride,Piperaquine,uM,uM,31,plasmodium_falciparum_3D7
1.25,0.00292975,59.865963,1.0,Cinacalcethydrochloride,Piperaquine,uM,uM,31,plasmodium_falciparum_3D7
1.25,0.0,57.96748,1.0,Cinacalcethydrochloride,Piperaquine,uM,uM,31,plasmodium_falciparum_3D7
0.625,0.75,-19.18919,1.0,Cinacalcethydrochloride,Piperaquine,uM,uM,31,plasmodium_falciparum_3D7
0.625,0.1875,-8.718963,1.0,Cinacalcethydrochloride,Piperaquine,uM,uM,31,plasmodium_falciparum_3D7
0.625,0.09375,-18.53219,1.0,Cinacalcethydrochloride,Piperaquine,uM,uM,31,plasmodium_falciparum_3D7
0.625,0.0234375,15.203251999999999,1.0,Cinacalcethydrochloride,Piperaquine,uM,uM,31,plasmodium_falciparum_3D7
0.625,0.01171875,87.585144,1.0,Cinacalcethydrochloride,Piperaquine,uM,uM,31,plasmodium_falciparum_3D7
0.625,0.005859375,76.897385,1.0,Cinacalcethydrochloride,Piperaquine,uM,uM,31,plasmodium_falciparum_3D7
0.625,0.00292975,100.10766600000001,1.0,Cinacalcethydrochloride,Piperaquine,uM,uM,31,plasmodium_falciparum_3D7
0.625,0.0,72.63678,1.0,Cinacalcethydrochloride,Piperaquine,uM,uM,31,plasmodium_falciparum_3D7
0.3125,0.75,-9.558339,1.0,Cinacalcethydrochloride,Piperaquine,uM,uM,31,plasmodium_falciparum_3D7
0.3125,0.1875,-3.09822,1.0,Cinacalcethydrochloride,Piperaquine,uM,uM,31,plasmodium_falciparum_3D7
0.3125,0.09375,-4.19688,1.0,Cinacalcethydrochloride,Piperaquine,uM,uM,31,plasmodium_falciparum_3D7
0.3125,0.046875,-8.176225,1.0,Cinacalcethydrochloride,Piperaquine,uM,uM,31,plasmodium_falciparum_3D7
0.3125,0.0234375,15.915182999999999,1.0,Cinacalcethydrochloride,Piperaquine,uM,uM,31,plasmodium_falciparum_3D7
0.3125,0.01171875,77.32585999999999,1.0,Cinacalcethydrochloride,Piperaquine,uM,uM,31,plasmodium_falciparum_3D7
0.3125,0.0,54.194683,1.0,Cinacalcethydrochloride,Piperaquine,uM,uM,31,plasmodium_falciparum_3D7
0.15625,0.75,2.096243,1.0,Cinacalcethydrochloride,Piperaquine,uM,uM,31,plasmodium_falciparum_3D7
0.15625,0.375,34.594597,1.0,Cinacalcethydrochloride,Piperaquine,uM,uM,31,plasmodium_falciparum_3D7
0.15625,0.1875,14.913206,1.0,Cinacalcethydrochloride,Piperaquine,uM,uM,31,plasmodium_falciparum_3D7
0.15625,0.09375,39.079322999999995,1.0,Cinacalcethydrochloride,Piperaquine,uM,uM,31,plasmodium_falciparum_3D7
0.15625,0.046875,34.084816,1.0,Cinacalcethydrochloride,Piperaquine,uM,uM,31,plasmodium_falciparum_3D7
0.15625,0.0234375,50.984398,1.0,Cinacalcethydrochloride,Piperaquine,uM,uM,31,plasmodium_falciparum_3D7
0.15625,0.005859375,109.77587,1.0,Cinacalcethydrochloride,Piperaquine,uM,uM,31,plasmodium_falciparum_3D7
0.15625,0.0,70.707535,1.0,Cinacalcethydrochloride,Piperaquine,uM,uM,31,plasmodium_falciparum_3D7
0.078125,0.75,-9.964843,1.0,Cinacalcethydrochloride,Piperaquine,uM,uM,31,plasmodium_falciparum_3D7
0.078125,0.375,3.260822,1.0,Cinacalcethydrochloride,Piperaquine,uM,uM,31,plasmodium_falciparum_3D7
0.078125,0.1875,-0.206548,1.0,Cinacalcethydrochloride,Piperaquine,uM,uM,31,plasmodium_falciparum_3D7
0.078125,0.046875,0.955834,1.0,Cinacalcethydrochloride,Piperaquine,uM,uM,31,plasmodium_falciparum_3D7
0.078125,0.0234375,23.89365,1.0,Cinacalcethydrochloride,Piperaquine,uM,uM,31,plasmodium_falciparum_3D7
0.078125,0.01171875,66.38320999999999,1.0,Cinacalcethydrochloride,Piperaquine,uM,uM,31,plasmodium_falciparum_3D7
0.078125,0.00292975,69.02,1.0,Cinacalcethydrochloride,Piperaquine,uM,uM,31,plasmodium_falciparum_3D7
0.078125,0.0,100.71852,1.0,Cinacalcethydrochloride,Piperaquine,uM,uM,31,plasmodium_falciparum_3D7
0.0390625,0.75,72.461,1.0,Cinacalcethydrochloride,Piperaquine,uM,uM,31,plasmodium_falciparum_3D7
0.0390625,0.375,79.07932,1.0,Cinacalcethydrochloride,Piperaquine,uM,uM,31,plasmodium_falciparum_3D7
0.0390625,0.1875,83.33553,1.0,Cinacalcethydrochloride,Piperaquine,uM,uM,31,plasmodium_falciparum_3D7
0.0390625,0.046875,72.74445,1.0,Cinacalcethydrochloride,Piperaquine,uM,uM,31,plasmodium_falciparum_3D7
0.0390625,0.0234375,109.36278,1.0,Cinacalcethydrochloride,Piperaquine,uM,uM,31,plasmodium_falciparum_3D7
0.0,0.75,76.25357,1.0,Cinacalcethydrochloride,Piperaquine,uM,uM,31,plasmodium_falciparum_3D7
0.0,0.375,52.896069999999995,1.0,Cinacalcethydrochloride,Piperaquine,uM,uM,31,plasmodium_falciparum_3D7
0.0,0.1875,25.405405,1.0,Cinacalcethydrochloride,Piperaquine,uM,uM,31,plasmodium_falciparum_3D7
0.0,0.09375,35.187870000000004,1.0,Cinacalcethydrochloride,Piperaquine,uM,uM,31,plasmodium_falciparum_3D7
0.0,0.046875,88.13008,1.0,Cinacalcethydrochloride,Piperaquine,uM,uM,31,plasmodium_falciparum_3D7
0.0,0.0234375,80.74928,1.0,Cinacalcethydrochloride,Piperaquine,uM,uM,31,plasmodium_falciparum_3D7
