drug1.conc,drug2.conc,effect,effect.95ci,drug1,drug2,drug1.units,drug2.units,expt.date,sample
5.0,0.025,42.481457,1.0,KN62,Artenimol,uM,uM,182,plasmodium_falciparum_3D7
5.0,0.0125,47.66666,1.0,KN62,Artenimol,uM,uM,182,plasmodium_falciparum_3D7
5.0,0.00625,77.85022,1.0,KN62,Artenimol,uM,uM,182,plasmodium_falciparum_3D7
5.0,0.003125,57.903603000000004,1.0,KN62,Artenimol,uM,uM,182,plasmodium_falciparum_3D7
5.0,0.0015625,61.331963,1.0,KN62,Artenimol,uM,uM,182,plasmodium_falciparum_3D7
5.0,0.00078125,77.90929399999999,1.0,KN62,Artenimol,uM,uM,182,plasmodium_falciparum_3D7
5.0,0.000390625,39.15155,1.0,KN62,Artenimol,uM,uM,182,plasmodium_falciparum_3D7
5.0,0.000195375,79.60706,1.0,KN62,Artenimol,uM,uM,182,plasmodium_falciparum_3D7
5.0,9.7625e-05,86.4069,1.0,KN62,Artenimol,uM,uM,182,plasmodium_falciparum_3D7
5.0,0.0,51.099396,1.0,KN62,Artenimol,uM,uM,182,plasmodium_falciparum_3D7
2.5,0.025,61.605442000000004,1.0,KN62,Artenimol,uM,uM,182,plasmodium_falciparum_3D7
2.5,0.0125,83.039795,1.0,KN62,Artenimol,uM,uM,182,plasmodium_falciparum_3D7
2.5,0.0015625,102.51821,1.0,KN62,Artenimol,uM,uM,182,plasmodium_falciparum_3D7
2.5,9.7625e-05,108.58293,1.0,KN62,Artenimol,uM,uM,182,plasmodium_falciparum_3D7
2.5,0.0,112.45761,1.0,KN62,Artenimol,uM,uM,182,plasmodium_falciparum_3D7
1.25,0.025,25.698470999999998,1.0,KN62,Artenimol,uM,uM,182,plasmodium_falciparum_3D7
1.25,0.0125,12.654517,1.0,KN62,Artenimol,uM,uM,182,plasmodium_falciparum_3D7
1.25,0.00625,69.798935,1.0,KN62,Artenimol,uM,uM,182,plasmodium_falciparum_3D7
1.25,0.003125,57.240685,1.0,KN62,Artenimol,uM,uM,182,plasmodium_falciparum_3D7
1.25,0.0015625,66.91973,1.0,KN62,Artenimol,uM,uM,182,plasmodium_falciparum_3D7
1.25,0.00078125,78.18276999999999,1.0,KN62,Artenimol,uM,uM,182,plasmodium_falciparum_3D7
1.25,0.000390625,84.11841,1.0,KN62,Artenimol,uM,uM,182,plasmodium_falciparum_3D7
1.25,0.000195375,97.98499,1.0,KN62,Artenimol,uM,uM,182,plasmodium_falciparum_3D7
1.25,9.7625e-05,100.750435,1.0,KN62,Artenimol,uM,uM,182,plasmodium_falciparum_3D7
1.25,0.0,116.14632399999999,1.0,KN62,Artenimol,uM,uM,182,plasmodium_falciparum_3D7
0.625,0.025,79.42985,1.0,KN62,Artenimol,uM,uM,182,plasmodium_falciparum_3D7
0.625,0.0125,8.381648,1.0,KN62,Artenimol,uM,uM,182,plasmodium_falciparum_3D7
0.625,0.00625,65.93519599999999,1.0,KN62,Artenimol,uM,uM,182,plasmodium_falciparum_3D7
0.625,0.003125,82.1931,1.0,KN62,Artenimol,uM,uM,182,plasmodium_falciparum_3D7
0.625,0.0015625,86.93854499999999,1.0,KN62,Artenimol,uM,uM,182,plasmodium_falciparum_3D7
0.3125,0.025,64.9791,1.0,KN62,Artenimol,uM,uM,182,plasmodium_falciparum_3D7
0.3125,0.0125,68.995995,1.0,KN62,Artenimol,uM,uM,182,plasmodium_falciparum_3D7
0.3125,0.00625,18.187586,1.0,KN62,Artenimol,uM,uM,182,plasmodium_falciparum_3D7
0.3125,0.003125,72.63656999999999,1.0,KN62,Artenimol,uM,uM,182,plasmodium_falciparum_3D7
0.3125,0.0015625,88.18780500000001,1.0,KN62,Artenimol,uM,uM,182,plasmodium_falciparum_3D7
0.3125,0.00078125,114.49668,1.0,KN62,Artenimol,uM,uM,182,plasmodium_falciparum_3D7
0.3125,0.000390625,97.84496999999999,1.0,KN62,Artenimol,uM,uM,182,plasmodium_falciparum_3D7
0.3125,9.7625e-05,114.47261999999999,1.0,KN62,Artenimol,uM,uM,182,plasmodium_falciparum_3D7
0.15625,0.025,50.690265999999994,1.0,KN62,Artenimol,uM,uM,182,plasmodium_falciparum_3D7
0.15625,0.0125,30.708645,1.0,KN62,Artenimol,uM,uM,182,plasmodium_falciparum_3D7
0.15625,0.00625,44.986546000000004,1.0,KN62,Artenimol,uM,uM,182,plasmodium_falciparum_3D7
0.15625,0.003125,58.809371999999996,1.0,KN62,Artenimol,uM,uM,182,plasmodium_falciparum_3D7
0.15625,0.0015625,80.075264,1.0,KN62,Artenimol,uM,uM,182,plasmodium_falciparum_3D7
0.15625,0.0,110.204124,1.0,KN62,Artenimol,uM,uM,182,plasmodium_falciparum_3D7
0.078125,0.025,53.455707999999994,1.0,KN62,Artenimol,uM,uM,182,plasmodium_falciparum_3D7
0.078125,0.0125,59.402280000000005,1.0,KN62,Artenimol,uM,uM,182,plasmodium_falciparum_3D7
0.078125,0.00625,64.52841,1.0,KN62,Artenimol,uM,uM,182,plasmodium_falciparum_3D7
0.078125,0.003125,83.842735,1.0,KN62,Artenimol,uM,uM,182,plasmodium_falciparum_3D7
0.0390625,0.025,22.477957,1.0,KN62,Artenimol,uM,uM,182,plasmodium_falciparum_3D7
0.0390625,0.0125,22.285427,1.0,KN62,Artenimol,uM,uM,182,plasmodium_falciparum_3D7
0.0390625,0.00625,48.780273,1.0,KN62,Artenimol,uM,uM,182,plasmodium_falciparum_3D7
0.0390625,0.003125,55.07909,1.0,KN62,Artenimol,uM,uM,182,plasmodium_falciparum_3D7
0.0390625,0.0015625,82.79038,1.0,KN62,Artenimol,uM,uM,182,plasmodium_falciparum_3D7
0.0390625,9.7625e-05,105.7803,1.0,KN62,Artenimol,uM,uM,182,plasmodium_falciparum_3D7
0.01953125,0.025,23.062113,1.0,KN62,Artenimol,uM,uM,182,plasmodium_falciparum_3D7
0.01953125,0.0125,26.341697999999997,1.0,KN62,Artenimol,uM,uM,182,plasmodium_falciparum_3D7
0.01953125,0.00625,28.969303000000004,1.0,KN62,Artenimol,uM,uM,182,plasmodium_falciparum_3D7
0.01953125,0.003125,88.767586,1.0,KN62,Artenimol,uM,uM,182,plasmodium_falciparum_3D7
0.01953125,0.0015625,112.45323,1.0,KN62,Artenimol,uM,uM,182,plasmodium_falciparum_3D7
0.01953125,0.00078125,105.96189,1.0,KN62,Artenimol,uM,uM,182,plasmodium_falciparum_3D7
0.01953125,0.000390625,106.1216,1.0,KN62,Artenimol,uM,uM,182,plasmodium_falciparum_3D7
0.0,0.025,53.696369999999995,1.0,KN62,Artenimol,uM,uM,182,plasmodium_falciparum_3D7
0.0,0.0125,51.35756,1.0,KN62,Artenimol,uM,uM,182,plasmodium_falciparum_3D7
0.0,0.00625,33.425953,1.0,KN62,Artenimol,uM,uM,182,plasmodium_falciparum_3D7
0.0,0.003125,78.87195,1.0,KN62,Artenimol,uM,uM,182,plasmodium_falciparum_3D7
0.0,0.0015625,83.79898,1.0,KN62,Artenimol,uM,uM,182,plasmodium_falciparum_3D7
0.0,9.7625e-05,108.33788999999999,1.0,KN62,Artenimol,uM,uM,182,plasmodium_falciparum_3D7
