,drug2.conc,drug1.conc,effect,effect.95ci,drug1,drug2,sample,expt.date,drug1.units,drug2.units
0,0.0,0.0,398.30037500000003,58.062175,Lat,Hyg,yeast,06-20-2018,g/ml,g/ml
1,2e-06,0.0,451.961375,58.062175,Lat,Hyg,yeast,06-20-2018,g/ml,g/ml
2,4e-06,0.0,389.65712499999995,58.062175,Lat,Hyg,yeast,06-20-2018,g/ml,g/ml
3,6e-06,0.0,398.77699999999993,58.062175,Lat,Hyg,yeast,06-20-2018,g/ml,g/ml
4,8e-06,0.0,371.6575,58.062175,Lat,Hyg,yeast,06-20-2018,g/ml,g/ml
5,9.999999999999999e-06,0.0,351.73249999999996,58.062175,Lat,Hyg,yeast,06-20-2018,g/ml,g/ml
6,1.2e-05,0.0,281.48574999999994,58.062175,Lat,Hyg,yeast,06-20-2018,g/ml,g/ml
7,1.4e-05,0.0,213.408125,58.062175,Lat,Hyg,yeast,06-20-2018,g/ml,g/ml
8,0.0,1e-06,367.72462500000006,58.062175,Lat,Hyg,yeast,06-20-2018,g/ml,g/ml
9,2e-06,1e-06,421.81725000000006,58.062175,Lat,Hyg,yeast,06-20-2018,g/ml,g/ml
10,4e-06,1e-06,351.944875,58.062175,Lat,Hyg,yeast,06-20-2018,g/ml,g/ml
11,6e-06,1e-06,359.56399999999996,58.062175,Lat,Hyg,yeast,06-20-2018,g/ml,g/ml
12,8e-06,1e-06,334.56174999999996,58.062175,Lat,Hyg,yeast,06-20-2018,g/ml,g/ml
13,9.999999999999999e-06,1e-06,324.40762499999994,58.062175,Lat,Hyg,yeast,06-20-2018,g/ml,g/ml
14,1.2e-05,1e-06,267.4231249999999,58.062175,Lat,Hyg,yeast,06-20-2018,g/ml,g/ml
15,1.4e-05,1e-06,245.11000000000004,58.062175,Lat,Hyg,yeast,06-20-2018,g/ml,g/ml
16,0.0,2e-06,340.3649999999999,58.062175,Lat,Hyg,yeast,06-20-2018,g/ml,g/ml
17,2e-06,2e-06,396.2774999999999,58.062175,Lat,Hyg,yeast,06-20-2018,g/ml,g/ml
18,4e-06,2e-06,324.1954999999999,58.062175,Lat,Hyg,yeast,06-20-2018,g/ml,g/ml
19,6e-06,2e-06,334.43600000000004,58.062175,Lat,Hyg,yeast,06-20-2018,g/ml,g/ml
20,8e-06,2e-06,300.64225,58.062175,Lat,Hyg,yeast,06-20-2018,g/ml,g/ml
21,9.999999999999999e-06,2e-06,285.038625,58.062175,Lat,Hyg,yeast,06-20-2018,g/ml,g/ml
22,1.2e-05,2e-06,236.06249999999997,58.062175,Lat,Hyg,yeast,06-20-2018,g/ml,g/ml
23,1.4e-05,2e-06,210.81837500000003,58.062175,Lat,Hyg,yeast,06-20-2018,g/ml,g/ml
24,0.0,3e-06,300.55887500000006,58.062175,Lat,Hyg,yeast,06-20-2018,g/ml,g/ml
25,2e-06,3e-06,364.30437499999994,58.062175,Lat,Hyg,yeast,06-20-2018,g/ml,g/ml
26,4e-06,3e-06,298.3810000000001,58.062175,Lat,Hyg,yeast,06-20-2018,g/ml,g/ml
27,6e-06,3e-06,280.08500000000004,58.062175,Lat,Hyg,yeast,06-20-2018,g/ml,g/ml
28,8e-06,3e-06,260.31049999999993,58.062175,Lat,Hyg,yeast,06-20-2018,g/ml,g/ml
29,9.999999999999999e-06,3e-06,238.43999999999997,58.062175,Lat,Hyg,yeast,06-20-2018,g/ml,g/ml
30,1.2e-05,3e-06,186.34374999999997,58.062175,Lat,Hyg,yeast,06-20-2018,g/ml,g/ml
31,1.4e-05,3e-06,158.09037499999997,58.062175,Lat,Hyg,yeast,06-20-2018,g/ml,g/ml
32,0.0,4e-06,233.61937499999996,58.062175,Lat,Hyg,yeast,06-20-2018,g/ml,g/ml
33,2e-06,4e-06,217.56812499999998,58.062175,Lat,Hyg,yeast,06-20-2018,g/ml,g/ml
34,4e-06,4e-06,190.25637500000002,58.062175,Lat,Hyg,yeast,06-20-2018,g/ml,g/ml
35,6e-06,4e-06,198.59937500000004,58.062175,Lat,Hyg,yeast,06-20-2018,g/ml,g/ml
36,8e-06,4e-06,171.571875,58.062175,Lat,Hyg,yeast,06-20-2018,g/ml,g/ml
37,9.999999999999999e-06,4e-06,157.92599999999996,58.062175,Lat,Hyg,yeast,06-20-2018,g/ml,g/ml
38,1.2e-05,4e-06,107.57949999999997,58.062175,Lat,Hyg,yeast,06-20-2018,g/ml,g/ml
39,1.4e-05,4e-06,85.73162499999998,58.062175,Lat,Hyg,yeast,06-20-2018,g/ml,g/ml
40,0.0,4.9999999999999996e-06,169.80050000000003,58.062175,Lat,Hyg,yeast,06-20-2018,g/ml,g/ml
41,2e-06,4.9999999999999996e-06,175.77525,58.062175,Lat,Hyg,yeast,06-20-2018,g/ml,g/ml
42,4e-06,4.9999999999999996e-06,153.49387499999997,58.062175,Lat,Hyg,yeast,06-20-2018,g/ml,g/ml
43,6e-06,4.9999999999999996e-06,145.149125,58.062175,Lat,Hyg,yeast,06-20-2018,g/ml,g/ml
44,8e-06,4.9999999999999996e-06,113.73712499999999,58.062175,Lat,Hyg,yeast,06-20-2018,g/ml,g/ml
45,9.999999999999999e-06,4.9999999999999996e-06,106.96162499999997,58.062175,Lat,Hyg,yeast,06-20-2018,g/ml,g/ml
46,1.2e-05,4.9999999999999996e-06,40.662499999999966,58.062175,Lat,Hyg,yeast,06-20-2018,g/ml,g/ml
47,1.4e-05,4.9999999999999996e-06,33.94662499999998,58.062175,Lat,Hyg,yeast,06-20-2018,g/ml,g/ml
48,0.0,6e-06,142.09312500000001,58.062175,Lat,Hyg,yeast,06-20-2018,g/ml,g/ml
49,2e-06,6e-06,148.32124999999994,58.062175,Lat,Hyg,yeast,06-20-2018,g/ml,g/ml
50,4e-06,6e-06,118.916,58.062175,Lat,Hyg,yeast,06-20-2018,g/ml,g/ml
51,6e-06,6e-06,113.24562499999999,58.062175,Lat,Hyg,yeast,06-20-2018,g/ml,g/ml
52,8e-06,6e-06,117.7695,58.062175,Lat,Hyg,yeast,06-20-2018,g/ml,g/ml
53,9.999999999999999e-06,6e-06,54.86174999999997,58.062175,Lat,Hyg,yeast,06-20-2018,g/ml,g/ml
54,1.2e-05,6e-06,19.863875000000007,58.062175,Lat,Hyg,yeast,06-20-2018,g/ml,g/ml
55,1.4e-05,6e-06,14.360874999999993,58.062175,Lat,Hyg,yeast,06-20-2018,g/ml,g/ml
56,0.0,7e-06,117.573375,58.062175,Lat,Hyg,yeast,06-20-2018,g/ml,g/ml
57,2e-06,7e-06,122.60774999999998,58.062175,Lat,Hyg,yeast,06-20-2018,g/ml,g/ml
58,4e-06,7e-06,90.44837499999997,58.062175,Lat,Hyg,yeast,06-20-2018,g/ml,g/ml
59,6e-06,7e-06,79.90174999999999,58.062175,Lat,Hyg,yeast,06-20-2018,g/ml,g/ml
60,8e-06,7e-06,49.892124999999965,58.062175,Lat,Hyg,yeast,06-20-2018,g/ml,g/ml
61,9.999999999999999e-06,7e-06,28.705375000000004,58.062175,Lat,Hyg,yeast,06-20-2018,g/ml,g/ml
62,1.2e-05,7e-06,6.64224999999999,58.062175,Lat,Hyg,yeast,06-20-2018,g/ml,g/ml
63,1.4e-05,7e-06,0.0,58.062175,Lat,Hyg,yeast,06-20-2018,g/ml,g/ml
