,drug2.conc,drug1.conc,effect,effect.95ci,drug1,drug2,sample,expt.date,drug1.units,drug2.units
0,0.0,0.0,459.267125,57.47345,Lat,Bro,yeast,06-20-2018,g/ml,g/ml
1,2e-06,0.0,450.2141249999999,57.47345,Lat,Bro,yeast,06-20-2018,g/ml,g/ml
2,4e-06,0.0,442.81312500000007,57.47345,Lat,Bro,yeast,06-20-2018,g/ml,g/ml
3,6e-06,0.0,431.48387500000007,57.47345,Lat,Bro,yeast,06-20-2018,g/ml,g/ml
4,8e-06,0.0,293.625375,57.47345,Lat,Bro,yeast,06-20-2018,g/ml,g/ml
5,9.999999999999999e-06,0.0,189.43412500000005,57.47345,Lat,Bro,yeast,06-20-2018,g/ml,g/ml
6,1.2e-05,0.0,115.327125,57.47345,Lat,Bro,yeast,06-20-2018,g/ml,g/ml
7,1.4e-05,0.0,31.126374999999996,57.47345,Lat,Bro,yeast,06-20-2018,g/ml,g/ml
8,0.0,7e-05,455.281,57.47345,Lat,Bro,yeast,06-20-2018,g/ml,g/ml
9,2e-06,7e-05,455.08175,57.47345,Lat,Bro,yeast,06-20-2018,g/ml,g/ml
10,4e-06,7e-05,449.054875,57.47345,Lat,Bro,yeast,06-20-2018,g/ml,g/ml
11,6e-06,7e-05,431.9163750000001,57.47345,Lat,Bro,yeast,06-20-2018,g/ml,g/ml
12,8e-06,7e-05,300.93275,57.47345,Lat,Bro,yeast,06-20-2018,g/ml,g/ml
13,9.999999999999999e-06,7e-05,233.953375,57.47345,Lat,Bro,yeast,06-20-2018,g/ml,g/ml
14,1.2e-05,7e-05,124.10974999999999,57.47345,Lat,Bro,yeast,06-20-2018,g/ml,g/ml
15,1.4e-05,7e-05,20.119250000000022,57.47345,Lat,Bro,yeast,06-20-2018,g/ml,g/ml
16,0.0,0.00014,419.90462500000007,57.47345,Lat,Bro,yeast,06-20-2018,g/ml,g/ml
17,2e-06,0.00014,421.121875,57.47345,Lat,Bro,yeast,06-20-2018,g/ml,g/ml
18,4e-06,0.00014,400.796625,57.47345,Lat,Bro,yeast,06-20-2018,g/ml,g/ml
19,6e-06,0.00014,410.17350000000005,57.47345,Lat,Bro,yeast,06-20-2018,g/ml,g/ml
20,8e-06,0.00014,300.6825,57.47345,Lat,Bro,yeast,06-20-2018,g/ml,g/ml
21,9.999999999999999e-06,0.00014,179.54112500000002,57.47345,Lat,Bro,yeast,06-20-2018,g/ml,g/ml
22,1.2e-05,0.00014,103.06962499999997,57.47345,Lat,Bro,yeast,06-20-2018,g/ml,g/ml
23,1.4e-05,0.00014,26.426500000000004,57.47345,Lat,Bro,yeast,06-20-2018,g/ml,g/ml
24,0.0,0.00020999999999999998,400.30962500000004,57.47345,Lat,Bro,yeast,06-20-2018,g/ml,g/ml
25,2e-06,0.00020999999999999998,414.8880000000001,57.47345,Lat,Bro,yeast,06-20-2018,g/ml,g/ml
26,4e-06,0.00020999999999999998,390.76149999999996,57.47345,Lat,Bro,yeast,06-20-2018,g/ml,g/ml
27,6e-06,0.00020999999999999998,334.2023750000001,57.47345,Lat,Bro,yeast,06-20-2018,g/ml,g/ml
28,8e-06,0.00020999999999999998,248.25262499999997,57.47345,Lat,Bro,yeast,06-20-2018,g/ml,g/ml
29,9.999999999999999e-06,0.00020999999999999998,186.87062499999996,57.47345,Lat,Bro,yeast,06-20-2018,g/ml,g/ml
30,1.2e-05,0.00020999999999999998,73.79012499999999,57.47345,Lat,Bro,yeast,06-20-2018,g/ml,g/ml
31,1.4e-05,0.00020999999999999998,19.792125,57.47345,Lat,Bro,yeast,06-20-2018,g/ml,g/ml
32,0.0,0.00028,339.77950000000004,57.47345,Lat,Bro,yeast,06-20-2018,g/ml,g/ml
33,2e-06,0.00028,312.3615,57.47345,Lat,Bro,yeast,06-20-2018,g/ml,g/ml
34,4e-06,0.00028,308.0165,57.47345,Lat,Bro,yeast,06-20-2018,g/ml,g/ml
35,6e-06,0.00028,266.42049999999995,57.47345,Lat,Bro,yeast,06-20-2018,g/ml,g/ml
36,8e-06,0.00028,171.1015,57.47345,Lat,Bro,yeast,06-20-2018,g/ml,g/ml
37,9.999999999999999e-06,0.00028,119.39462499999999,57.47345,Lat,Bro,yeast,06-20-2018,g/ml,g/ml
38,1.2e-05,0.00028,50.43674999999999,57.47345,Lat,Bro,yeast,06-20-2018,g/ml,g/ml
39,1.4e-05,0.00028,16.089125000000024,57.47345,Lat,Bro,yeast,06-20-2018,g/ml,g/ml
40,0.0,0.00034999999999999994,303.63062500000007,57.47345,Lat,Bro,yeast,06-20-2018,g/ml,g/ml
41,2e-06,0.00034999999999999994,247.76274999999993,57.47345,Lat,Bro,yeast,06-20-2018,g/ml,g/ml
42,4e-06,0.00034999999999999994,219.46287500000005,57.47345,Lat,Bro,yeast,06-20-2018,g/ml,g/ml
43,6e-06,0.00034999999999999994,189.72787499999998,57.47345,Lat,Bro,yeast,06-20-2018,g/ml,g/ml
44,8e-06,0.00034999999999999994,93.21700000000001,57.47345,Lat,Bro,yeast,06-20-2018,g/ml,g/ml
45,9.999999999999999e-06,0.00034999999999999994,40.45237499999999,57.47345,Lat,Bro,yeast,06-20-2018,g/ml,g/ml
46,1.2e-05,0.00034999999999999994,23.12700000000001,57.47345,Lat,Bro,yeast,06-20-2018,g/ml,g/ml
47,1.4e-05,0.00034999999999999994,15.863874999999979,57.47345,Lat,Bro,yeast,06-20-2018,g/ml,g/ml
48,0.0,0.00041999999999999996,133.724,57.47345,Lat,Bro,yeast,06-20-2018,g/ml,g/ml
49,2e-06,0.00041999999999999996,65.59662500000002,57.47345,Lat,Bro,yeast,06-20-2018,g/ml,g/ml
50,4e-06,0.00041999999999999996,48.44662499999998,57.47345,Lat,Bro,yeast,06-20-2018,g/ml,g/ml
51,6e-06,0.00041999999999999996,35.65587500000001,57.47345,Lat,Bro,yeast,06-20-2018,g/ml,g/ml
52,8e-06,0.00041999999999999996,10.57374999999999,57.47345,Lat,Bro,yeast,06-20-2018,g/ml,g/ml
53,9.999999999999999e-06,0.00041999999999999996,10.674875,57.47345,Lat,Bro,yeast,06-20-2018,g/ml,g/ml
54,1.2e-05,0.00041999999999999996,2.882249999999985,57.47345,Lat,Bro,yeast,06-20-2018,g/ml,g/ml
55,1.4e-05,0.00041999999999999996,4.333749999999981,57.47345,Lat,Bro,yeast,06-20-2018,g/ml,g/ml
56,0.0,0.00049,3.18912499999999,57.47345,Lat,Bro,yeast,06-20-2018,g/ml,g/ml
57,2e-06,0.00049,0.3397499999999951,57.47345,Lat,Bro,yeast,06-20-2018,g/ml,g/ml
58,4e-06,0.00049,0.6222500000000082,57.47345,Lat,Bro,yeast,06-20-2018,g/ml,g/ml
59,6e-06,0.00049,0.0,57.47345,Lat,Bro,yeast,06-20-2018,g/ml,g/ml
60,8e-06,0.00049,2.7411249999999967,57.47345,Lat,Bro,yeast,06-20-2018,g/ml,g/ml
61,9.999999999999999e-06,0.00049,1.4223750000000024,57.47345,Lat,Bro,yeast,06-20-2018,g/ml,g/ml
62,1.2e-05,0.00049,2.188749999999999,57.47345,Lat,Bro,yeast,06-20-2018,g/ml,g/ml
63,1.4e-05,0.00049,1.9751249999999914,57.47345,Lat,Bro,yeast,06-20-2018,g/ml,g/ml
