,drug2.conc,drug1.conc,effect,effect.95ci,drug1,drug2,sample,expt.date,drug1.units,drug2.units
0,0.0,0.0,427.340375,55.009675,Lat,C3P,yeast,06-20-2018,g/ml,g/ml
1,2e-06,0.0,427.53774999999996,55.009675,Lat,C3P,yeast,06-20-2018,g/ml,g/ml
2,4e-06,0.0,411.03,55.009675,Lat,C3P,yeast,06-20-2018,g/ml,g/ml
3,6e-06,0.0,432.23300000000006,55.009675,Lat,C3P,yeast,06-20-2018,g/ml,g/ml
4,8e-06,0.0,412.162875,55.009675,Lat,C3P,yeast,06-20-2018,g/ml,g/ml
5,9.999999999999999e-06,0.0,369.05550000000005,55.009675,Lat,C3P,yeast,06-20-2018,g/ml,g/ml
6,1.2e-05,0.0,291.998375,55.009675,Lat,C3P,yeast,06-20-2018,g/ml,g/ml
7,1.4e-05,0.0,153.518625,55.009675,Lat,C3P,yeast,06-20-2018,g/ml,g/ml
8,0.0,2.9999999999999997e-06,197.13737500000002,55.009675,Lat,C3P,yeast,06-20-2018,g/ml,g/ml
9,2e-06,2.9999999999999997e-06,186.340625,55.009675,Lat,C3P,yeast,06-20-2018,g/ml,g/ml
10,4e-06,2.9999999999999997e-06,169.65000000000003,55.009675,Lat,C3P,yeast,06-20-2018,g/ml,g/ml
11,6e-06,2.9999999999999997e-06,162.632875,55.009675,Lat,C3P,yeast,06-20-2018,g/ml,g/ml
12,8e-06,2.9999999999999997e-06,148.29862499999996,55.009675,Lat,C3P,yeast,06-20-2018,g/ml,g/ml
13,9.999999999999999e-06,2.9999999999999997e-06,108.99600000000002,55.009675,Lat,C3P,yeast,06-20-2018,g/ml,g/ml
14,1.2e-05,2.9999999999999997e-06,77.16874999999997,55.009675,Lat,C3P,yeast,06-20-2018,g/ml,g/ml
15,1.4e-05,2.9999999999999997e-06,62.76799999999999,55.009675,Lat,C3P,yeast,06-20-2018,g/ml,g/ml
16,0.0,5.999999999999999e-06,55.59562499999997,55.009675,Lat,C3P,yeast,06-20-2018,g/ml,g/ml
17,2e-06,5.999999999999999e-06,52.00425000000003,55.009675,Lat,C3P,yeast,06-20-2018,g/ml,g/ml
18,4e-06,5.999999999999999e-06,47.321625000000026,55.009675,Lat,C3P,yeast,06-20-2018,g/ml,g/ml
19,6e-06,5.999999999999999e-06,53.183375,55.009675,Lat,C3P,yeast,06-20-2018,g/ml,g/ml
20,8e-06,5.999999999999999e-06,45.25812500000002,55.009675,Lat,C3P,yeast,06-20-2018,g/ml,g/ml
21,9.999999999999999e-06,5.999999999999999e-06,43.12037500000001,55.009675,Lat,C3P,yeast,06-20-2018,g/ml,g/ml
22,1.2e-05,5.999999999999999e-06,33.46525000000001,55.009675,Lat,C3P,yeast,06-20-2018,g/ml,g/ml
23,1.4e-05,5.999999999999999e-06,34.06862499999998,55.009675,Lat,C3P,yeast,06-20-2018,g/ml,g/ml
24,0.0,8.999999999999999e-06,27.292500000000004,55.009675,Lat,C3P,yeast,06-20-2018,g/ml,g/ml
25,2e-06,8.999999999999999e-06,25.355250000000026,55.009675,Lat,C3P,yeast,06-20-2018,g/ml,g/ml
26,4e-06,8.999999999999999e-06,26.928375000000003,55.009675,Lat,C3P,yeast,06-20-2018,g/ml,g/ml
27,6e-06,8.999999999999999e-06,29.187875000000005,55.009675,Lat,C3P,yeast,06-20-2018,g/ml,g/ml
28,8e-06,8.999999999999999e-06,23.81625000000001,55.009675,Lat,C3P,yeast,06-20-2018,g/ml,g/ml
29,9.999999999999999e-06,8.999999999999999e-06,23.048625,55.009675,Lat,C3P,yeast,06-20-2018,g/ml,g/ml
30,1.2e-05,8.999999999999999e-06,17.507500000000007,55.009675,Lat,C3P,yeast,06-20-2018,g/ml,g/ml
31,1.4e-05,8.999999999999999e-06,18.751124999999988,55.009675,Lat,C3P,yeast,06-20-2018,g/ml,g/ml
32,0.0,1.1999999999999999e-05,14.133749999999978,55.009675,Lat,C3P,yeast,06-20-2018,g/ml,g/ml
33,2e-06,1.1999999999999999e-05,14.669750000000008,55.009675,Lat,C3P,yeast,06-20-2018,g/ml,g/ml
34,4e-06,1.1999999999999999e-05,13.081249999999969,55.009675,Lat,C3P,yeast,06-20-2018,g/ml,g/ml
35,6e-06,1.1999999999999999e-05,13.586375000000018,55.009675,Lat,C3P,yeast,06-20-2018,g/ml,g/ml
36,8e-06,1.1999999999999999e-05,13.341625000000008,55.009675,Lat,C3P,yeast,06-20-2018,g/ml,g/ml
37,9.999999999999999e-06,1.1999999999999999e-05,11.828125000000014,55.009675,Lat,C3P,yeast,06-20-2018,g/ml,g/ml
38,1.2e-05,1.1999999999999999e-05,11.104875000000007,55.009675,Lat,C3P,yeast,06-20-2018,g/ml,g/ml
39,1.4e-05,1.1999999999999999e-05,9.105125000000001,55.009675,Lat,C3P,yeast,06-20-2018,g/ml,g/ml
40,0.0,1.4999999999999999e-05,10.64800000000001,55.009675,Lat,C3P,yeast,06-20-2018,g/ml,g/ml
41,2e-06,1.4999999999999999e-05,10.709874999999997,55.009675,Lat,C3P,yeast,06-20-2018,g/ml,g/ml
42,4e-06,1.4999999999999999e-05,9.637374999999992,55.009675,Lat,C3P,yeast,06-20-2018,g/ml,g/ml
43,6e-06,1.4999999999999999e-05,7.230250000000012,55.009675,Lat,C3P,yeast,06-20-2018,g/ml,g/ml
44,8e-06,1.4999999999999999e-05,5.553875000000005,55.009675,Lat,C3P,yeast,06-20-2018,g/ml,g/ml
45,9.999999999999999e-06,1.4999999999999999e-05,7.809750000000008,55.009675,Lat,C3P,yeast,06-20-2018,g/ml,g/ml
46,1.2e-05,1.4999999999999999e-05,5.432124999999999,55.009675,Lat,C3P,yeast,06-20-2018,g/ml,g/ml
47,1.4e-05,1.4999999999999999e-05,6.210624999999993,55.009675,Lat,C3P,yeast,06-20-2018,g/ml,g/ml
48,0.0,1.7999999999999997e-05,5.529125000000008,55.009675,Lat,C3P,yeast,06-20-2018,g/ml,g/ml
49,2e-06,1.7999999999999997e-05,5.121250000000018,55.009675,Lat,C3P,yeast,06-20-2018,g/ml,g/ml
50,4e-06,1.7999999999999997e-05,3.810750000000013,55.009675,Lat,C3P,yeast,06-20-2018,g/ml,g/ml
51,6e-06,1.7999999999999997e-05,4.040625000000006,55.009675,Lat,C3P,yeast,06-20-2018,g/ml,g/ml
52,8e-06,1.7999999999999997e-05,3.8443750000000136,55.009675,Lat,C3P,yeast,06-20-2018,g/ml,g/ml
53,9.999999999999999e-06,1.7999999999999997e-05,2.8060000000000116,55.009675,Lat,C3P,yeast,06-20-2018,g/ml,g/ml
54,1.2e-05,1.7999999999999997e-05,3.8999999999999915,55.009675,Lat,C3P,yeast,06-20-2018,g/ml,g/ml
55,1.4e-05,1.7999999999999997e-05,3.0657500000000084,55.009675,Lat,C3P,yeast,06-20-2018,g/ml,g/ml
56,0.0,2.1e-05,1.3082500000000152,55.009675,Lat,C3P,yeast,06-20-2018,g/ml,g/ml
57,2e-06,2.1e-05,2.890500000000003,55.009675,Lat,C3P,yeast,06-20-2018,g/ml,g/ml
58,4e-06,2.1e-05,1.446124999999995,55.009675,Lat,C3P,yeast,06-20-2018,g/ml,g/ml
59,6e-06,2.1e-05,3.310999999999993,55.009675,Lat,C3P,yeast,06-20-2018,g/ml,g/ml
60,8e-06,2.1e-05,1.5541249999999849,55.009675,Lat,C3P,yeast,06-20-2018,g/ml,g/ml
61,9.999999999999999e-06,2.1e-05,2.5180000000000007,55.009675,Lat,C3P,yeast,06-20-2018,g/ml,g/ml
62,1.2e-05,2.1e-05,0.0,55.009675,Lat,C3P,yeast,06-20-2018,g/ml,g/ml
63,1.4e-05,2.1e-05,1.8737500000000153,55.009675,Lat,C3P,yeast,06-20-2018,g/ml,g/ml
