drug1.conc,drug2.conc,effect,effect.95ci,drug1,drug2,drug1.units,drug2.units,expt.date,sample
0.05,0.025,80.978966,1.0,Lumefantrine,Artenimol,uM,uM,42,plasmodium_falciparum_3D7
0.05,0.003125,45.119556,1.0,Lumefantrine,Artenimol,uM,uM,42,plasmodium_falciparum_3D7
0.05,0.0015625,27.30126,1.0,Lumefantrine,Artenimol,uM,uM,42,plasmodium_falciparum_3D7
0.05,0.00078125,31.371890999999998,1.0,Lumefantrine,Artenimol,uM,uM,42,plasmodium_falciparum_3D7
0.05,0.000390625,14.370598000000001,1.0,Lumefantrine,Artenimol,uM,uM,42,plasmodium_falciparum_3D7
0.05,0.000195375,13.421822,1.0,Lumefantrine,Artenimol,uM,uM,42,plasmodium_falciparum_3D7
0.05,9.7625e-05,46.53553,1.0,Lumefantrine,Artenimol,uM,uM,42,plasmodium_falciparum_3D7
0.05,0.0,23.930231,1.0,Lumefantrine,Artenimol,uM,uM,42,plasmodium_falciparum_3D7
0.025,0.0125,45.325603,1.0,Lumefantrine,Artenimol,uM,uM,42,plasmodium_falciparum_3D7
0.025,0.00625,49.84427,1.0,Lumefantrine,Artenimol,uM,uM,42,plasmodium_falciparum_3D7
0.025,0.0015625,48.76851,1.0,Lumefantrine,Artenimol,uM,uM,42,plasmodium_falciparum_3D7
0.025,0.00078125,66.34241999999999,1.0,Lumefantrine,Artenimol,uM,uM,42,plasmodium_falciparum_3D7
0.025,0.000390625,36.640471999999995,1.0,Lumefantrine,Artenimol,uM,uM,42,plasmodium_falciparum_3D7
0.025,0.000195375,34.680626000000004,1.0,Lumefantrine,Artenimol,uM,uM,42,plasmodium_falciparum_3D7
0.025,9.7625e-05,46.71283,1.0,Lumefantrine,Artenimol,uM,uM,42,plasmodium_falciparum_3D7
0.025,0.0,77.43543000000001,1.0,Lumefantrine,Artenimol,uM,uM,42,plasmodium_falciparum_3D7
0.0125,0.025,87.96300500000001,1.0,Lumefantrine,Artenimol,uM,uM,42,plasmodium_falciparum_3D7
0.0125,0.0125,73.034164,1.0,Lumefantrine,Artenimol,uM,uM,42,plasmodium_falciparum_3D7
0.0125,0.00625,40.981840000000005,1.0,Lumefantrine,Artenimol,uM,uM,42,plasmodium_falciparum_3D7
0.0125,0.003125,64.79467,1.0,Lumefantrine,Artenimol,uM,uM,42,plasmodium_falciparum_3D7
0.0125,0.0015625,15.566151000000001,1.0,Lumefantrine,Artenimol,uM,uM,42,plasmodium_falciparum_3D7
0.0125,0.000390625,92.65178,1.0,Lumefantrine,Artenimol,uM,uM,42,plasmodium_falciparum_3D7
0.0125,0.000195375,96.27198,1.0,Lumefantrine,Artenimol,uM,uM,42,plasmodium_falciparum_3D7
0.0125,0.0,116.373566,1.0,Lumefantrine,Artenimol,uM,uM,42,plasmodium_falciparum_3D7
0.00625,0.0125,114.55268999999998,1.0,Lumefantrine,Artenimol,uM,uM,42,plasmodium_falciparum_3D7
0.00625,0.00625,37.186737,1.0,Lumefantrine,Artenimol,uM,uM,42,plasmodium_falciparum_3D7
0.00625,0.003125,65.937515,1.0,Lumefantrine,Artenimol,uM,uM,42,plasmodium_falciparum_3D7
0.00625,0.0,117.911736,1.0,Lumefantrine,Artenimol,uM,uM,42,plasmodium_falciparum_3D7
0.003125,0.025,2.451004,1.0,Lumefantrine,Artenimol,uM,uM,42,plasmodium_falciparum_3D7
0.003125,0.00625,-8.320955,1.0,Lumefantrine,Artenimol,uM,uM,42,plasmodium_falciparum_3D7
0.003125,0.003125,3.689683,1.0,Lumefantrine,Artenimol,uM,uM,42,plasmodium_falciparum_3D7
0.003125,0.0015625,17.063587,1.0,Lumefantrine,Artenimol,uM,uM,42,plasmodium_falciparum_3D7
0.003125,0.00078125,44.297764,1.0,Lumefantrine,Artenimol,uM,uM,42,plasmodium_falciparum_3D7
0.003125,0.000390625,103.14820999999999,1.0,Lumefantrine,Artenimol,uM,uM,42,plasmodium_falciparum_3D7
0.003125,0.000195375,93.29388399999999,1.0,Lumefantrine,Artenimol,uM,uM,42,plasmodium_falciparum_3D7
0.003125,9.7625e-05,72.81614,1.0,Lumefantrine,Artenimol,uM,uM,42,plasmodium_falciparum_3D7
0.0015625,0.025,8.541377,1.0,Lumefantrine,Artenimol,uM,uM,42,plasmodium_falciparum_3D7
0.0015625,0.0125,10.494034,1.0,Lumefantrine,Artenimol,uM,uM,42,plasmodium_falciparum_3D7
0.0015625,0.00625,46.71043,1.0,Lumefantrine,Artenimol,uM,uM,42,plasmodium_falciparum_3D7
0.0015625,0.003125,33.37726,1.0,Lumefantrine,Artenimol,uM,uM,42,plasmodium_falciparum_3D7
0.0015625,0.0015625,37.713833,1.0,Lumefantrine,Artenimol,uM,uM,42,plasmodium_falciparum_3D7
0.0015625,0.00078125,101.23149000000001,1.0,Lumefantrine,Artenimol,uM,uM,42,plasmodium_falciparum_3D7
0.0015625,0.000195375,99.03685,1.0,Lumefantrine,Artenimol,uM,uM,42,plasmodium_falciparum_3D7
0.0015625,0.0,113.06244,1.0,Lumefantrine,Artenimol,uM,uM,42,plasmodium_falciparum_3D7
0.00078125,0.025,21.639753,1.0,Lumefantrine,Artenimol,uM,uM,42,plasmodium_falciparum_3D7
0.00078125,0.0125,57.003212,1.0,Lumefantrine,Artenimol,uM,uM,42,plasmodium_falciparum_3D7
0.00078125,0.00625,-8.011884,1.0,Lumefantrine,Artenimol,uM,uM,42,plasmodium_falciparum_3D7
0.00078125,0.003125,-4.223969,1.0,Lumefantrine,Artenimol,uM,uM,42,plasmodium_falciparum_3D7
0.00078125,0.0015625,48.239014000000005,1.0,Lumefantrine,Artenimol,uM,uM,42,plasmodium_falciparum_3D7
0.00078125,0.00078125,98.02099,1.0,Lumefantrine,Artenimol,uM,uM,42,plasmodium_falciparum_3D7
0.00078125,0.000390625,117.540375,1.0,Lumefantrine,Artenimol,uM,uM,42,plasmodium_falciparum_3D7
0.00078125,0.000195375,88.63386,1.0,Lumefantrine,Artenimol,uM,uM,42,plasmodium_falciparum_3D7
0.000390625,0.025,29.802578000000004,1.0,Lumefantrine,Artenimol,uM,uM,42,plasmodium_falciparum_3D7
0.000390625,0.0125,26.261440000000004,1.0,Lumefantrine,Artenimol,uM,uM,42,plasmodium_falciparum_3D7
0.000390625,0.00625,40.941109999999995,1.0,Lumefantrine,Artenimol,uM,uM,42,plasmodium_falciparum_3D7
0.000390625,0.003125,20.57837,1.0,Lumefantrine,Artenimol,uM,uM,42,plasmodium_falciparum_3D7
0.000390625,0.0015625,56.679764,1.0,Lumefantrine,Artenimol,uM,uM,42,plasmodium_falciparum_3D7
0.000390625,0.00078125,83.89238,1.0,Lumefantrine,Artenimol,uM,uM,42,plasmodium_falciparum_3D7
0.000390625,0.000390625,100.88409,1.0,Lumefantrine,Artenimol,uM,uM,42,plasmodium_falciparum_3D7
0.000390625,0.000195375,118.42685,1.0,Lumefantrine,Artenimol,uM,uM,42,plasmodium_falciparum_3D7
0.000390625,0.0,119.181564,1.0,Lumefantrine,Artenimol,uM,uM,42,plasmodium_falciparum_3D7
0.000195375,0.025,38.104366,1.0,Lumefantrine,Artenimol,uM,uM,42,plasmodium_falciparum_3D7
0.000195375,0.0125,43.861709999999995,1.0,Lumefantrine,Artenimol,uM,uM,42,plasmodium_falciparum_3D7
0.000195375,0.00625,10.379031,1.0,Lumefantrine,Artenimol,uM,uM,42,plasmodium_falciparum_3D7
0.000195375,0.003125,28.666921999999996,1.0,Lumefantrine,Artenimol,uM,uM,42,plasmodium_falciparum_3D7
0.000195375,0.0015625,19.905123,1.0,Lumefantrine,Artenimol,uM,uM,42,plasmodium_falciparum_3D7
0.000195375,0.00078125,68.06747,1.0,Lumefantrine,Artenimol,uM,uM,42,plasmodium_falciparum_3D7
0.000195375,0.000195375,86.520676,1.0,Lumefantrine,Artenimol,uM,uM,42,plasmodium_falciparum_3D7
0.000195375,9.7625e-05,70.930565,1.0,Lumefantrine,Artenimol,uM,uM,42,plasmodium_falciparum_3D7
0.000195375,0.0,83.39403,1.0,Lumefantrine,Artenimol,uM,uM,42,plasmodium_falciparum_3D7
0.0,0.025,8.687527000000001,1.0,Lumefantrine,Artenimol,uM,uM,42,plasmodium_falciparum_3D7
0.0,0.0125,24.20576,1.0,Lumefantrine,Artenimol,uM,uM,42,plasmodium_falciparum_3D7
0.0,0.00625,43.35857,1.0,Lumefantrine,Artenimol,uM,uM,42,plasmodium_falciparum_3D7
0.0,0.003125,62.547318000000004,1.0,Lumefantrine,Artenimol,uM,uM,42,plasmodium_falciparum_3D7
0.0,0.0015625,70.27409,1.0,Lumefantrine,Artenimol,uM,uM,42,plasmodium_falciparum_3D7
0.0,0.0,110.49163999999999,1.0,Lumefantrine,Artenimol,uM,uM,42,plasmodium_falciparum_3D7
