drug1.conc,drug2.conc,effect,effect.95ci,drug1,drug2,drug1.units,drug2.units,expt.date,sample
10.0,0.05,9.02162,1.0,Manoalide,Artesunate,uM,uM,21,plasmodium_falciparum_HB3
10.0,0.025,3.621889,1.0,Manoalide,Artesunate,uM,uM,21,plasmodium_falciparum_HB3
10.0,0.0125,8.80038,1.0,Manoalide,Artesunate,uM,uM,21,plasmodium_falciparum_HB3
10.0,0.00625,10.188365,1.0,Manoalide,Artesunate,uM,uM,21,plasmodium_falciparum_HB3
10.0,0.003125,11.081531,1.0,Manoalide,Artesunate,uM,uM,21,plasmodium_falciparum_HB3
10.0,0.0015625,63.068732999999995,1.0,Manoalide,Artesunate,uM,uM,21,plasmodium_falciparum_HB3
10.0,0.00078125,12.291279,1.0,Manoalide,Artesunate,uM,uM,21,plasmodium_falciparum_HB3
10.0,0.000390625,82.02946999999999,1.0,Manoalide,Artesunate,uM,uM,21,plasmodium_falciparum_HB3
10.0,0.000195375,97.50101,1.0,Manoalide,Artesunate,uM,uM,21,plasmodium_falciparum_HB3
10.0,0.0,94.58216,1.0,Manoalide,Artesunate,uM,uM,21,plasmodium_falciparum_HB3
5.0,0.05,10.816156,1.0,Manoalide,Artesunate,uM,uM,21,plasmodium_falciparum_HB3
5.0,0.025,9.599617,1.0,Manoalide,Artesunate,uM,uM,21,plasmodium_falciparum_HB3
5.0,0.0125,15.115345000000001,1.0,Manoalide,Artesunate,uM,uM,21,plasmodium_falciparum_HB3
5.0,0.00625,15.901001999999998,1.0,Manoalide,Artesunate,uM,uM,21,plasmodium_falciparum_HB3
5.0,0.003125,116.02831,1.0,Manoalide,Artesunate,uM,uM,21,plasmodium_falciparum_HB3
5.0,0.0015625,78.78386,1.0,Manoalide,Artesunate,uM,uM,21,plasmodium_falciparum_HB3
5.0,0.00078125,95.61395,1.0,Manoalide,Artesunate,uM,uM,21,plasmodium_falciparum_HB3
5.0,0.000390625,104.30881,1.0,Manoalide,Artesunate,uM,uM,21,plasmodium_falciparum_HB3
5.0,0.0,82.89972,1.0,Manoalide,Artesunate,uM,uM,21,plasmodium_falciparum_HB3
2.5,0.05,10.904991,1.0,Manoalide,Artesunate,uM,uM,21,plasmodium_falciparum_HB3
2.5,0.025,11.047298,1.0,Manoalide,Artesunate,uM,uM,21,plasmodium_falciparum_HB3
2.5,0.0125,10.780791,1.0,Manoalide,Artesunate,uM,uM,21,plasmodium_falciparum_HB3
2.5,0.00625,53.765609999999995,1.0,Manoalide,Artesunate,uM,uM,21,plasmodium_falciparum_HB3
2.5,0.003125,108.40458000000001,1.0,Manoalide,Artesunate,uM,uM,21,plasmodium_falciparum_HB3
2.5,0.0015625,114.00688000000001,1.0,Manoalide,Artesunate,uM,uM,21,plasmodium_falciparum_HB3
2.5,0.000390625,109.24682,1.0,Manoalide,Artesunate,uM,uM,21,plasmodium_falciparum_HB3
1.25,0.05,11.266275,1.0,Manoalide,Artesunate,uM,uM,21,plasmodium_falciparum_HB3
1.25,0.025,15.297260000000001,1.0,Manoalide,Artesunate,uM,uM,21,plasmodium_falciparum_HB3
1.25,0.0125,15.984461999999999,1.0,Manoalide,Artesunate,uM,uM,21,plasmodium_falciparum_HB3
1.25,0.00625,43.706534999999995,1.0,Manoalide,Artesunate,uM,uM,21,plasmodium_falciparum_HB3
0.625,0.05,4.023063,1.0,Manoalide,Artesunate,uM,uM,21,plasmodium_falciparum_HB3
0.625,0.025,7.724168,1.0,Manoalide,Artesunate,uM,uM,21,plasmodium_falciparum_HB3
0.625,0.0125,22.608654,1.0,Manoalide,Artesunate,uM,uM,21,plasmodium_falciparum_HB3
0.625,0.00625,53.286632999999995,1.0,Manoalide,Artesunate,uM,uM,21,plasmodium_falciparum_HB3
0.625,0.003125,79.45692,1.0,Manoalide,Artesunate,uM,uM,21,plasmodium_falciparum_HB3
0.625,0.0015625,100.23765,1.0,Manoalide,Artesunate,uM,uM,21,plasmodium_falciparum_HB3
0.625,0.00078125,115.70833600000002,1.0,Manoalide,Artesunate,uM,uM,21,plasmodium_falciparum_HB3
0.625,0.000390625,111.72912600000001,1.0,Manoalide,Artesunate,uM,uM,21,plasmodium_falciparum_HB3
0.625,0.000195375,111.07531000000002,1.0,Manoalide,Artesunate,uM,uM,21,plasmodium_falciparum_HB3
0.3125,0.05,8.018684,1.0,Manoalide,Artesunate,uM,uM,21,plasmodium_falciparum_HB3
0.3125,0.025,10.388953,1.0,Manoalide,Artesunate,uM,uM,21,plasmodium_falciparum_HB3
0.3125,0.0125,53.583130000000004,1.0,Manoalide,Artesunate,uM,uM,21,plasmodium_falciparum_HB3
0.3125,0.00625,55.888045999999996,1.0,Manoalide,Artesunate,uM,uM,21,plasmodium_falciparum_HB3
0.3125,0.003125,95.94383,1.0,Manoalide,Artesunate,uM,uM,21,plasmodium_falciparum_HB3
0.3125,0.000390625,113.14088000000001,1.0,Manoalide,Artesunate,uM,uM,21,plasmodium_falciparum_HB3
0.15625,0.05,15.324137,1.0,Manoalide,Artesunate,uM,uM,21,plasmodium_falciparum_HB3
0.15625,0.025,16.335278,1.0,Manoalide,Artesunate,uM,uM,21,plasmodium_falciparum_HB3
0.15625,0.0125,12.683117,1.0,Manoalide,Artesunate,uM,uM,21,plasmodium_falciparum_HB3
0.15625,0.00625,100.11769,1.0,Manoalide,Artesunate,uM,uM,21,plasmodium_falciparum_HB3
0.15625,0.0015625,106.40776000000001,1.0,Manoalide,Artesunate,uM,uM,21,plasmodium_falciparum_HB3
0.078125,0.05,12.704902,1.0,Manoalide,Artesunate,uM,uM,21,plasmodium_falciparum_HB3
0.078125,0.025,20.258754999999997,1.0,Manoalide,Artesunate,uM,uM,21,plasmodium_falciparum_HB3
0.078125,0.0125,56.9337,1.0,Manoalide,Artesunate,uM,uM,21,plasmodium_falciparum_HB3
0.078125,0.00625,57.34874,1.0,Manoalide,Artesunate,uM,uM,21,plasmodium_falciparum_HB3
0.078125,0.0015625,116.14855,1.0,Manoalide,Artesunate,uM,uM,21,plasmodium_falciparum_HB3
0.078125,0.00078125,112.5111,1.0,Manoalide,Artesunate,uM,uM,21,plasmodium_falciparum_HB3
0.078125,0.000390625,118.02004,1.0,Manoalide,Artesunate,uM,uM,21,plasmodium_falciparum_HB3
0.0390625,0.05,22.519535,1.0,Manoalide,Artesunate,uM,uM,21,plasmodium_falciparum_HB3
0.0390625,0.025,23.468718,1.0,Manoalide,Artesunate,uM,uM,21,plasmodium_falciparum_HB3
0.0390625,0.0125,17.162523,1.0,Manoalide,Artesunate,uM,uM,21,plasmodium_falciparum_HB3
0.0390625,0.00625,74.71298,1.0,Manoalide,Artesunate,uM,uM,21,plasmodium_falciparum_HB3
0.0390625,0.003125,113.61306,1.0,Manoalide,Artesunate,uM,uM,21,plasmodium_falciparum_HB3
0.0390625,0.000195375,116.4309,1.0,Manoalide,Artesunate,uM,uM,21,plasmodium_falciparum_HB3
0.0390625,0.0,115.996346,1.0,Manoalide,Artesunate,uM,uM,21,plasmodium_falciparum_HB3
0.0,0.05,26.080029999999997,1.0,Manoalide,Artesunate,uM,uM,21,plasmodium_falciparum_HB3
0.0,0.025,32.68725,1.0,Manoalide,Artesunate,uM,uM,21,plasmodium_falciparum_HB3
0.0,0.0125,50.22237,1.0,Manoalide,Artesunate,uM,uM,21,plasmodium_falciparum_HB3
