drug1.conc,drug2.conc,effect,effect.95ci,drug1,drug2,drug1.units,drug2.units,expt.date,sample
0.01,0.05,56.696167,1.0,NVPBGT226,Lumefantrine,uM,uM,228,plasmodium_falciparum_3D7
0.01,0.025,46.615852000000004,1.0,NVPBGT226,Lumefantrine,uM,uM,228,plasmodium_falciparum_3D7
0.01,0.0125,60.750907999999995,1.0,NVPBGT226,Lumefantrine,uM,uM,228,plasmodium_falciparum_3D7
0.01,0.003125,66.100044,1.0,NVPBGT226,Lumefantrine,uM,uM,228,plasmodium_falciparum_3D7
0.01,0.0015625,47.508675,1.0,NVPBGT226,Lumefantrine,uM,uM,228,plasmodium_falciparum_3D7
0.01,0.00078125,56.056767,1.0,NVPBGT226,Lumefantrine,uM,uM,228,plasmodium_falciparum_3D7
0.01,0.000390625,98.62568,1.0,NVPBGT226,Lumefantrine,uM,uM,228,plasmodium_falciparum_3D7
0.01,0.000195375,46.344887,1.0,NVPBGT226,Lumefantrine,uM,uM,228,plasmodium_falciparum_3D7
0.01,0.0,55.099613,1.0,NVPBGT226,Lumefantrine,uM,uM,228,plasmodium_falciparum_3D7
0.005,0.05,110.83863000000001,1.0,NVPBGT226,Lumefantrine,uM,uM,228,plasmodium_falciparum_3D7
0.005,0.025,105.83649,1.0,NVPBGT226,Lumefantrine,uM,uM,228,plasmodium_falciparum_3D7
0.005,0.003125,111.45853400000001,1.0,NVPBGT226,Lumefantrine,uM,uM,228,plasmodium_falciparum_3D7
0.005,0.0015625,99.432724,1.0,NVPBGT226,Lumefantrine,uM,uM,228,plasmodium_falciparum_3D7
0.005,0.00078125,111.29868,1.0,NVPBGT226,Lumefantrine,uM,uM,228,plasmodium_falciparum_3D7
0.005,0.0,91.17705,1.0,NVPBGT226,Lumefantrine,uM,uM,228,plasmodium_falciparum_3D7
0.0025,0.025,58.138718000000004,1.0,NVPBGT226,Lumefantrine,uM,uM,228,plasmodium_falciparum_3D7
0.0025,0.0125,53.44263,1.0,NVPBGT226,Lumefantrine,uM,uM,228,plasmodium_falciparum_3D7
0.0025,0.00625,87.74806,1.0,NVPBGT226,Lumefantrine,uM,uM,228,plasmodium_falciparum_3D7
0.0025,0.003125,72.815704,1.0,NVPBGT226,Lumefantrine,uM,uM,228,plasmodium_falciparum_3D7
0.0025,0.0015625,92.604,1.0,NVPBGT226,Lumefantrine,uM,uM,228,plasmodium_falciparum_3D7
0.0025,0.00078125,72.651955,1.0,NVPBGT226,Lumefantrine,uM,uM,228,plasmodium_falciparum_3D7
0.0025,0.000390625,87.057976,1.0,NVPBGT226,Lumefantrine,uM,uM,228,plasmodium_falciparum_3D7
0.0025,0.000195375,90.2004,1.0,NVPBGT226,Lumefantrine,uM,uM,228,plasmodium_falciparum_3D7
0.0025,0.0,88.61554,1.0,NVPBGT226,Lumefantrine,uM,uM,228,plasmodium_falciparum_3D7
0.00125,0.05,90.63511,1.0,NVPBGT226,Lumefantrine,uM,uM,228,plasmodium_falciparum_3D7
0.00125,0.025,109.52473400000001,1.0,NVPBGT226,Lumefantrine,uM,uM,228,plasmodium_falciparum_3D7
0.000625,0.05,40.92752,1.0,NVPBGT226,Lumefantrine,uM,uM,228,plasmodium_falciparum_3D7
0.000625,0.025,39.95867,1.0,NVPBGT226,Lumefantrine,uM,uM,228,plasmodium_falciparum_3D7
0.000625,0.0125,99.64520999999999,1.0,NVPBGT226,Lumefantrine,uM,uM,228,plasmodium_falciparum_3D7
0.000625,0.0,106.5987,1.0,NVPBGT226,Lumefantrine,uM,uM,228,plasmodium_falciparum_3D7
0.0003125,0.05,47.94534,1.0,NVPBGT226,Lumefantrine,uM,uM,228,plasmodium_falciparum_3D7
0.0003125,0.025,74.841125,1.0,NVPBGT226,Lumefantrine,uM,uM,228,plasmodium_falciparum_3D7
0.0003125,0.0125,84.00717,1.0,NVPBGT226,Lumefantrine,uM,uM,228,plasmodium_falciparum_3D7
0.0003125,0.00625,107.60654,1.0,NVPBGT226,Lumefantrine,uM,uM,228,plasmodium_falciparum_3D7
0.00015625,0.05,75.81387,1.0,NVPBGT226,Lumefantrine,uM,uM,228,plasmodium_falciparum_3D7
0.00015625,0.025,37.04433,1.0,NVPBGT226,Lumefantrine,uM,uM,228,plasmodium_falciparum_3D7
0.00015625,0.0125,69.22686999999999,1.0,NVPBGT226,Lumefantrine,uM,uM,228,plasmodium_falciparum_3D7
0.00015625,0.003125,107.81512,1.0,NVPBGT226,Lumefantrine,uM,uM,228,plasmodium_falciparum_3D7
0.00015625,0.000390625,107.68061000000002,1.0,NVPBGT226,Lumefantrine,uM,uM,228,plasmodium_falciparum_3D7
0.00015625,0.0,118.11377,1.0,NVPBGT226,Lumefantrine,uM,uM,228,plasmodium_falciparum_3D7
7.8125e-05,0.05,28.020585999999998,1.0,NVPBGT226,Lumefantrine,uM,uM,228,plasmodium_falciparum_3D7
7.8125e-05,0.025,54.27502,1.0,NVPBGT226,Lumefantrine,uM,uM,228,plasmodium_falciparum_3D7
7.8125e-05,0.0125,86.60766600000001,1.0,NVPBGT226,Lumefantrine,uM,uM,228,plasmodium_falciparum_3D7
7.8125e-05,0.00625,104.79160999999999,1.0,NVPBGT226,Lumefantrine,uM,uM,228,plasmodium_falciparum_3D7
7.8125e-05,0.003125,97.80693000000001,1.0,NVPBGT226,Lumefantrine,uM,uM,228,plasmodium_falciparum_3D7
7.8125e-05,0.0015625,113.31436000000001,1.0,NVPBGT226,Lumefantrine,uM,uM,228,plasmodium_falciparum_3D7
3.9125e-05,0.05,60.78599499999999,1.0,NVPBGT226,Lumefantrine,uM,uM,228,plasmodium_falciparum_3D7
3.9125e-05,0.025,74.11985,1.0,NVPBGT226,Lumefantrine,uM,uM,228,plasmodium_falciparum_3D7
3.9125e-05,0.0125,104.35104,1.0,NVPBGT226,Lumefantrine,uM,uM,228,plasmodium_falciparum_3D7
3.9125e-05,0.00625,89.414795,1.0,NVPBGT226,Lumefantrine,uM,uM,228,plasmodium_falciparum_3D7
3.9125e-05,0.000195375,100.28265999999999,1.0,NVPBGT226,Lumefantrine,uM,uM,228,plasmodium_falciparum_3D7
0.0,0.05,101.9377,1.0,NVPBGT226,Lumefantrine,uM,uM,228,plasmodium_falciparum_3D7
0.0,0.025,86.53554,1.0,NVPBGT226,Lumefantrine,uM,uM,228,plasmodium_falciparum_3D7
0.0,0.00625,116.89538999999999,1.0,NVPBGT226,Lumefantrine,uM,uM,228,plasmodium_falciparum_3D7
