drug1.conc,drug2.conc,effect,effect.95ci,drug1,drug2,drug1.units,drug2.units,expt.date,sample
0.01,0.05,21.490116,1.0,NVPBGT226,Artemether,uM,uM,225,plasmodium_falciparum_3D7
0.01,0.025,69.694725,1.0,NVPBGT226,Artemether,uM,uM,225,plasmodium_falciparum_3D7
0.01,0.0125,52.78958000000001,1.0,NVPBGT226,Artemether,uM,uM,225,plasmodium_falciparum_3D7
0.01,0.00625,35.60568,1.0,NVPBGT226,Artemether,uM,uM,225,plasmodium_falciparum_3D7
0.01,0.003125,66.17412,1.0,NVPBGT226,Artemether,uM,uM,225,plasmodium_falciparum_3D7
0.01,0.0015625,102.692116,1.0,NVPBGT226,Artemether,uM,uM,225,plasmodium_falciparum_3D7
0.01,0.00078125,87.10280999999999,1.0,NVPBGT226,Artemether,uM,uM,225,plasmodium_falciparum_3D7
0.01,0.000390625,64.37093,1.0,NVPBGT226,Artemether,uM,uM,225,plasmodium_falciparum_3D7
0.01,0.0,118.60501000000001,1.0,NVPBGT226,Artemether,uM,uM,225,plasmodium_falciparum_3D7
0.005,0.05,19.58556,1.0,NVPBGT226,Artemether,uM,uM,225,plasmodium_falciparum_3D7
0.005,0.025,39.5493,1.0,NVPBGT226,Artemether,uM,uM,225,plasmodium_falciparum_3D7
0.005,0.0125,54.411476,1.0,NVPBGT226,Artemether,uM,uM,225,plasmodium_falciparum_3D7
0.005,0.00625,49.298218,1.0,NVPBGT226,Artemether,uM,uM,225,plasmodium_falciparum_3D7
0.005,0.003125,32.200084999999994,1.0,NVPBGT226,Artemether,uM,uM,225,plasmodium_falciparum_3D7
0.005,0.0015625,93.83991,1.0,NVPBGT226,Artemether,uM,uM,225,plasmodium_falciparum_3D7
0.005,0.00078125,75.71835,1.0,NVPBGT226,Artemether,uM,uM,225,plasmodium_falciparum_3D7
0.005,0.000390625,89.02686,1.0,NVPBGT226,Artemether,uM,uM,225,plasmodium_falciparum_3D7
0.005,0.000195375,118.68494,1.0,NVPBGT226,Artemether,uM,uM,225,plasmodium_falciparum_3D7
0.005,0.0,104.14831,1.0,NVPBGT226,Artemether,uM,uM,225,plasmodium_falciparum_3D7
0.0025,0.05,45.522242999999996,1.0,NVPBGT226,Artemether,uM,uM,225,plasmodium_falciparum_3D7
0.0025,0.025,62.255835999999995,1.0,NVPBGT226,Artemether,uM,uM,225,plasmodium_falciparum_3D7
0.0025,0.0125,46.71917,1.0,NVPBGT226,Artemether,uM,uM,225,plasmodium_falciparum_3D7
0.0025,0.00625,81.74393,1.0,NVPBGT226,Artemether,uM,uM,225,plasmodium_falciparum_3D7
0.0025,0.003125,87.16519,1.0,NVPBGT226,Artemether,uM,uM,225,plasmodium_falciparum_3D7
0.0025,0.00078125,83.57245999999999,1.0,NVPBGT226,Artemether,uM,uM,225,plasmodium_falciparum_3D7
0.0025,0.000195375,102.2535,1.0,NVPBGT226,Artemether,uM,uM,225,plasmodium_falciparum_3D7
0.0025,0.0,54.690243,1.0,NVPBGT226,Artemether,uM,uM,225,plasmodium_falciparum_3D7
0.00125,0.05,35.991657000000004,1.0,NVPBGT226,Artemether,uM,uM,225,plasmodium_falciparum_3D7
0.00125,0.025,64.41966,1.0,NVPBGT226,Artemether,uM,uM,225,plasmodium_falciparum_3D7
0.00125,0.0125,70.42965,1.0,NVPBGT226,Artemether,uM,uM,225,plasmodium_falciparum_3D7
0.000625,0.05,54.553782999999996,1.0,NVPBGT226,Artemether,uM,uM,225,plasmodium_falciparum_3D7
0.000625,0.025,2.350969,1.0,NVPBGT226,Artemether,uM,uM,225,plasmodium_falciparum_3D7
0.000625,0.00625,59.594917,1.0,NVPBGT226,Artemether,uM,uM,225,plasmodium_falciparum_3D7
0.000625,0.003125,109.44481999999999,1.0,NVPBGT226,Artemether,uM,uM,225,plasmodium_falciparum_3D7
0.000625,0.000390625,106.021675,1.0,NVPBGT226,Artemether,uM,uM,225,plasmodium_falciparum_3D7
0.000625,0.000195375,99.74658000000001,1.0,NVPBGT226,Artemether,uM,uM,225,plasmodium_falciparum_3D7
0.0003125,0.05,-0.506842,1.0,NVPBGT226,Artemether,uM,uM,225,plasmodium_falciparum_3D7
0.0003125,0.025,14.521034,1.0,NVPBGT226,Artemether,uM,uM,225,plasmodium_falciparum_3D7
0.0003125,0.0125,51.399665999999996,1.0,NVPBGT226,Artemether,uM,uM,225,plasmodium_falciparum_3D7
0.0003125,0.003125,97.82448000000001,1.0,NVPBGT226,Artemether,uM,uM,225,plasmodium_falciparum_3D7
0.0003125,0.000390625,97.945335,1.0,NVPBGT226,Artemether,uM,uM,225,plasmodium_falciparum_3D7
0.00015625,0.05,30.036259,1.0,NVPBGT226,Artemether,uM,uM,225,plasmodium_falciparum_3D7
0.00015625,0.025,54.840343000000004,1.0,NVPBGT226,Artemether,uM,uM,225,plasmodium_falciparum_3D7
0.00015625,0.0125,40.175056,1.0,NVPBGT226,Artemether,uM,uM,225,plasmodium_falciparum_3D7
0.00015625,0.00625,65.68677,1.0,NVPBGT226,Artemether,uM,uM,225,plasmodium_falciparum_3D7
0.00015625,0.003125,66.0786,1.0,NVPBGT226,Artemether,uM,uM,225,plasmodium_falciparum_3D7
0.00015625,0.0015625,115.62048999999999,1.0,NVPBGT226,Artemether,uM,uM,225,plasmodium_falciparum_3D7
7.8125e-05,0.05,18.029943,1.0,NVPBGT226,Artemether,uM,uM,225,plasmodium_falciparum_3D7
7.8125e-05,0.0125,80.956375,1.0,NVPBGT226,Artemether,uM,uM,225,plasmodium_falciparum_3D7
7.8125e-05,0.00625,98.2124,1.0,NVPBGT226,Artemether,uM,uM,225,plasmodium_falciparum_3D7
7.8125e-05,0.0015625,116.0786,1.0,NVPBGT226,Artemether,uM,uM,225,plasmodium_falciparum_3D7
7.8125e-05,0.000390625,119.094315,1.0,NVPBGT226,Artemether,uM,uM,225,plasmodium_falciparum_3D7
7.8125e-05,0.000195375,90.407036,1.0,NVPBGT226,Artemether,uM,uM,225,plasmodium_falciparum_3D7
3.9125e-05,0.05,30.459276000000003,1.0,NVPBGT226,Artemether,uM,uM,225,plasmodium_falciparum_3D7
3.9125e-05,0.025,76.765175,1.0,NVPBGT226,Artemether,uM,uM,225,plasmodium_falciparum_3D7
3.9125e-05,0.0125,108.52665,1.0,NVPBGT226,Artemether,uM,uM,225,plasmodium_falciparum_3D7
3.9125e-05,0.00625,106.02753,1.0,NVPBGT226,Artemether,uM,uM,225,plasmodium_falciparum_3D7
0.0,0.05,88.477135,1.0,NVPBGT226,Artemether,uM,uM,225,plasmodium_falciparum_3D7
0.0,0.025,83.18843000000001,1.0,NVPBGT226,Artemether,uM,uM,225,plasmodium_falciparum_3D7
