,drug2.conc,drug1.conc,effect,effect.95ci,drug1,drug2,sample,expt.date,drug1.units,drug2.units
0,0.0,0.0,460.41825000000006,57.90517500000001,Pen,C3P,yeast,06-20-2018,g/ml,g/ml
1,9.999999999999999e-06,0.0,437.765625,57.90517500000001,Pen,C3P,yeast,06-20-2018,g/ml,g/ml
2,1.9999999999999998e-05,0.0,353.554,57.90517500000001,Pen,C3P,yeast,06-20-2018,g/ml,g/ml
3,2.9999999999999997e-05,0.0,367.62037499999997,57.90517500000001,Pen,C3P,yeast,06-20-2018,g/ml,g/ml
4,3.9999999999999996e-05,0.0,303.881,57.90517500000001,Pen,C3P,yeast,06-20-2018,g/ml,g/ml
5,4.9999999999999996e-05,0.0,250.30612499999998,57.90517500000001,Pen,C3P,yeast,06-20-2018,g/ml,g/ml
6,5.9999999999999995e-05,0.0,174.636625,57.90517500000001,Pen,C3P,yeast,06-20-2018,g/ml,g/ml
7,7e-05,0.0,125.533625,57.90517500000001,Pen,C3P,yeast,06-20-2018,g/ml,g/ml
8,0.0,2.9999999999999997e-06,295.41575,57.90517500000001,Pen,C3P,yeast,06-20-2018,g/ml,g/ml
9,9.999999999999999e-06,2.9999999999999997e-06,70.948375,57.90517500000001,Pen,C3P,yeast,06-20-2018,g/ml,g/ml
10,1.9999999999999998e-05,2.9999999999999997e-06,42.602000000000004,57.90517500000001,Pen,C3P,yeast,06-20-2018,g/ml,g/ml
11,2.9999999999999997e-05,2.9999999999999997e-06,38.47399999999999,57.90517500000001,Pen,C3P,yeast,06-20-2018,g/ml,g/ml
12,3.9999999999999996e-05,2.9999999999999997e-06,32.957750000000004,57.90517500000001,Pen,C3P,yeast,06-20-2018,g/ml,g/ml
13,4.9999999999999996e-05,2.9999999999999997e-06,30.162000000000006,57.90517500000001,Pen,C3P,yeast,06-20-2018,g/ml,g/ml
14,5.9999999999999995e-05,2.9999999999999997e-06,24.524374999999992,57.90517500000001,Pen,C3P,yeast,06-20-2018,g/ml,g/ml
15,7e-05,2.9999999999999997e-06,21.468500000000006,57.90517500000001,Pen,C3P,yeast,06-20-2018,g/ml,g/ml
16,0.0,5.999999999999999e-06,184.96775000000005,57.90517500000001,Pen,C3P,yeast,06-20-2018,g/ml,g/ml
17,9.999999999999999e-06,5.999999999999999e-06,43.486125000000015,57.90517500000001,Pen,C3P,yeast,06-20-2018,g/ml,g/ml
18,1.9999999999999998e-05,5.999999999999999e-06,26.471749999999986,57.90517500000001,Pen,C3P,yeast,06-20-2018,g/ml,g/ml
19,2.9999999999999997e-05,5.999999999999999e-06,23.756625000000014,57.90517500000001,Pen,C3P,yeast,06-20-2018,g/ml,g/ml
20,3.9999999999999996e-05,5.999999999999999e-06,22.31174999999999,57.90517500000001,Pen,C3P,yeast,06-20-2018,g/ml,g/ml
21,4.9999999999999996e-05,5.999999999999999e-06,19.944874999999996,57.90517500000001,Pen,C3P,yeast,06-20-2018,g/ml,g/ml
22,5.9999999999999995e-05,5.999999999999999e-06,15.495750000000015,57.90517500000001,Pen,C3P,yeast,06-20-2018,g/ml,g/ml
23,7e-05,5.999999999999999e-06,14.036625000000015,57.90517500000001,Pen,C3P,yeast,06-20-2018,g/ml,g/ml
24,0.0,8.999999999999999e-06,125.15100000000001,57.90517500000001,Pen,C3P,yeast,06-20-2018,g/ml,g/ml
25,9.999999999999999e-06,8.999999999999999e-06,33.46950000000001,57.90517500000001,Pen,C3P,yeast,06-20-2018,g/ml,g/ml
26,1.9999999999999998e-05,8.999999999999999e-06,29.79325,57.90517500000001,Pen,C3P,yeast,06-20-2018,g/ml,g/ml
27,2.9999999999999997e-05,8.999999999999999e-06,24.111999999999966,57.90517500000001,Pen,C3P,yeast,06-20-2018,g/ml,g/ml
28,3.9999999999999996e-05,8.999999999999999e-06,20.310000000000002,57.90517500000001,Pen,C3P,yeast,06-20-2018,g/ml,g/ml
29,4.9999999999999996e-05,8.999999999999999e-06,16.709250000000026,57.90517500000001,Pen,C3P,yeast,06-20-2018,g/ml,g/ml
30,5.9999999999999995e-05,8.999999999999999e-06,14.359875000000017,57.90517500000001,Pen,C3P,yeast,06-20-2018,g/ml,g/ml
31,7e-05,8.999999999999999e-06,11.310750000000013,57.90517500000001,Pen,C3P,yeast,06-20-2018,g/ml,g/ml
32,0.0,1.1999999999999999e-05,63.671875,57.90517500000001,Pen,C3P,yeast,06-20-2018,g/ml,g/ml
33,9.999999999999999e-06,1.1999999999999999e-05,9.549374999999998,57.90517500000001,Pen,C3P,yeast,06-20-2018,g/ml,g/ml
34,1.9999999999999998e-05,1.1999999999999999e-05,6.764125000000007,57.90517500000001,Pen,C3P,yeast,06-20-2018,g/ml,g/ml
35,2.9999999999999997e-05,1.1999999999999999e-05,8.173124999999999,57.90517500000001,Pen,C3P,yeast,06-20-2018,g/ml,g/ml
36,3.9999999999999996e-05,1.1999999999999999e-05,4.921124999999989,57.90517500000001,Pen,C3P,yeast,06-20-2018,g/ml,g/ml
37,4.9999999999999996e-05,1.1999999999999999e-05,5.505749999999992,57.90517500000001,Pen,C3P,yeast,06-20-2018,g/ml,g/ml
38,5.9999999999999995e-05,1.1999999999999999e-05,5.263375000000025,57.90517500000001,Pen,C3P,yeast,06-20-2018,g/ml,g/ml
39,7e-05,1.1999999999999999e-05,4.1597500000000025,57.90517500000001,Pen,C3P,yeast,06-20-2018,g/ml,g/ml
40,0.0,1.4999999999999999e-05,42.62975000000003,57.90517500000001,Pen,C3P,yeast,06-20-2018,g/ml,g/ml
41,9.999999999999999e-06,1.4999999999999999e-05,8.081000000000003,57.90517500000001,Pen,C3P,yeast,06-20-2018,g/ml,g/ml
42,1.9999999999999998e-05,1.4999999999999999e-05,4.836875000000006,57.90517500000001,Pen,C3P,yeast,06-20-2018,g/ml,g/ml
43,2.9999999999999997e-05,1.4999999999999999e-05,6.554375000000007,57.90517500000001,Pen,C3P,yeast,06-20-2018,g/ml,g/ml
44,3.9999999999999996e-05,1.4999999999999999e-05,4.668000000000006,57.90517500000001,Pen,C3P,yeast,06-20-2018,g/ml,g/ml
45,4.9999999999999996e-05,1.4999999999999999e-05,4.643500000000003,57.90517500000001,Pen,C3P,yeast,06-20-2018,g/ml,g/ml
46,5.9999999999999995e-05,1.4999999999999999e-05,3.3216249999999974,57.90517500000001,Pen,C3P,yeast,06-20-2018,g/ml,g/ml
47,7e-05,1.4999999999999999e-05,7.765625,57.90517500000001,Pen,C3P,yeast,06-20-2018,g/ml,g/ml
48,0.0,1.7999999999999997e-05,31.058750000000003,57.90517500000001,Pen,C3P,yeast,06-20-2018,g/ml,g/ml
49,9.999999999999999e-06,1.7999999999999997e-05,7.213000000000008,57.90517500000001,Pen,C3P,yeast,06-20-2018,g/ml,g/ml
50,1.9999999999999998e-05,1.7999999999999997e-05,4.805250000000015,57.90517500000001,Pen,C3P,yeast,06-20-2018,g/ml,g/ml
51,2.9999999999999997e-05,1.7999999999999997e-05,4.484125000000006,57.90517500000001,Pen,C3P,yeast,06-20-2018,g/ml,g/ml
52,3.9999999999999996e-05,1.7999999999999997e-05,3.4645000000000152,57.90517500000001,Pen,C3P,yeast,06-20-2018,g/ml,g/ml
53,4.9999999999999996e-05,1.7999999999999997e-05,3.660499999999999,57.90517500000001,Pen,C3P,yeast,06-20-2018,g/ml,g/ml
54,5.9999999999999995e-05,1.7999999999999997e-05,1.8496250000000032,57.90517500000001,Pen,C3P,yeast,06-20-2018,g/ml,g/ml
55,7e-05,1.7999999999999997e-05,0.627750000000006,57.90517500000001,Pen,C3P,yeast,06-20-2018,g/ml,g/ml
56,0.0,2.1e-05,22.299125000000032,57.90517500000001,Pen,C3P,yeast,06-20-2018,g/ml,g/ml
57,9.999999999999999e-06,2.1e-05,5.3019999999999925,57.90517500000001,Pen,C3P,yeast,06-20-2018,g/ml,g/ml
58,1.9999999999999998e-05,2.1e-05,3.5842499999999973,57.90517500000001,Pen,C3P,yeast,06-20-2018,g/ml,g/ml
59,2.9999999999999997e-05,2.1e-05,3.9904999999999973,57.90517500000001,Pen,C3P,yeast,06-20-2018,g/ml,g/ml
60,3.9999999999999996e-05,2.1e-05,2.4422500000000014,57.90517500000001,Pen,C3P,yeast,06-20-2018,g/ml,g/ml
61,4.9999999999999996e-05,2.1e-05,2.9924999999999926,57.90517500000001,Pen,C3P,yeast,06-20-2018,g/ml,g/ml
62,5.9999999999999995e-05,2.1e-05,0.21812500000000057,57.90517500000001,Pen,C3P,yeast,06-20-2018,g/ml,g/ml
63,7e-05,2.1e-05,0.0,57.90517500000001,Pen,C3P,yeast,06-20-2018,g/ml,g/ml
