,drug2.conc,drug1.conc,effect,effect.95ci,drug1,drug2,sample,expt.date,drug1.units,drug2.units
0,0.0,0.0,248.72837499999997,35.727549999999994,Pen,Chl,yeast,06-20-2018,g/ml,g/ml
1,9.999999999999999e-06,0.0,101.10325,35.727549999999994,Pen,Chl,yeast,06-20-2018,g/ml,g/ml
2,1.9999999999999998e-05,0.0,22.572750000000013,35.727549999999994,Pen,Chl,yeast,06-20-2018,g/ml,g/ml
3,2.9999999999999997e-05,0.0,18.605500000000006,35.727549999999994,Pen,Chl,yeast,06-20-2018,g/ml,g/ml
4,3.9999999999999996e-05,0.0,13.382125000000002,35.727549999999994,Pen,Chl,yeast,06-20-2018,g/ml,g/ml
5,4.9999999999999996e-05,0.0,10.651125000000008,35.727549999999994,Pen,Chl,yeast,06-20-2018,g/ml,g/ml
6,5.9999999999999995e-05,0.0,8.209249999999997,35.727549999999994,Pen,Chl,yeast,06-20-2018,g/ml,g/ml
7,7e-05,0.0,9.527750000000012,35.727549999999994,Pen,Chl,yeast,06-20-2018,g/ml,g/ml
8,0.0,5e-05,203.47087500000004,35.727549999999994,Pen,Chl,yeast,06-20-2018,g/ml,g/ml
9,9.999999999999999e-06,5e-05,83.04575000000003,35.727549999999994,Pen,Chl,yeast,06-20-2018,g/ml,g/ml
10,1.9999999999999998e-05,5e-05,21.460000000000008,35.727549999999994,Pen,Chl,yeast,06-20-2018,g/ml,g/ml
11,2.9999999999999997e-05,5e-05,16.514250000000004,35.727549999999994,Pen,Chl,yeast,06-20-2018,g/ml,g/ml
12,3.9999999999999996e-05,5e-05,9.562624999999997,35.727549999999994,Pen,Chl,yeast,06-20-2018,g/ml,g/ml
13,4.9999999999999996e-05,5e-05,8.530375000000006,35.727549999999994,Pen,Chl,yeast,06-20-2018,g/ml,g/ml
14,5.9999999999999995e-05,5e-05,7.534125000000017,35.727549999999994,Pen,Chl,yeast,06-20-2018,g/ml,g/ml
15,7e-05,5e-05,9.272875000000013,35.727549999999994,Pen,Chl,yeast,06-20-2018,g/ml,g/ml
16,0.0,0.0001,165.575625,35.727549999999994,Pen,Chl,yeast,06-20-2018,g/ml,g/ml
17,9.999999999999999e-06,0.0001,55.912874999999985,35.727549999999994,Pen,Chl,yeast,06-20-2018,g/ml,g/ml
18,1.9999999999999998e-05,0.0001,17.348000000000013,35.727549999999994,Pen,Chl,yeast,06-20-2018,g/ml,g/ml
19,2.9999999999999997e-05,0.0001,12.67562500000001,35.727549999999994,Pen,Chl,yeast,06-20-2018,g/ml,g/ml
20,3.9999999999999996e-05,0.0001,9.319000000000017,35.727549999999994,Pen,Chl,yeast,06-20-2018,g/ml,g/ml
21,4.9999999999999996e-05,0.0001,7.661625000000015,35.727549999999994,Pen,Chl,yeast,06-20-2018,g/ml,g/ml
22,5.9999999999999995e-05,0.0001,7.187500000000014,35.727549999999994,Pen,Chl,yeast,06-20-2018,g/ml,g/ml
23,7e-05,0.0001,8.88800000000002,35.727549999999994,Pen,Chl,yeast,06-20-2018,g/ml,g/ml
24,0.0,0.00015000000000000001,106.65525,35.727549999999994,Pen,Chl,yeast,06-20-2018,g/ml,g/ml
25,9.999999999999999e-06,0.00015000000000000001,28.231874999999974,35.727549999999994,Pen,Chl,yeast,06-20-2018,g/ml,g/ml
26,1.9999999999999998e-05,0.00015000000000000001,11.999625000000009,35.727549999999994,Pen,Chl,yeast,06-20-2018,g/ml,g/ml
27,2.9999999999999997e-05,0.00015000000000000001,10.097375000000014,35.727549999999994,Pen,Chl,yeast,06-20-2018,g/ml,g/ml
28,3.9999999999999996e-05,0.00015000000000000001,7.407999999999987,35.727549999999994,Pen,Chl,yeast,06-20-2018,g/ml,g/ml
29,4.9999999999999996e-05,0.00015000000000000001,5.879250000000013,35.727549999999994,Pen,Chl,yeast,06-20-2018,g/ml,g/ml
30,5.9999999999999995e-05,0.00015000000000000001,6.289000000000016,35.727549999999994,Pen,Chl,yeast,06-20-2018,g/ml,g/ml
31,7e-05,0.00015000000000000001,6.9211250000000035,35.727549999999994,Pen,Chl,yeast,06-20-2018,g/ml,g/ml
32,0.0,0.0002,52.47762500000002,35.727549999999994,Pen,Chl,yeast,06-20-2018,g/ml,g/ml
33,9.999999999999999e-06,0.0002,10.58550000000001,35.727549999999994,Pen,Chl,yeast,06-20-2018,g/ml,g/ml
34,1.9999999999999998e-05,0.0002,4.416249999999991,35.727549999999994,Pen,Chl,yeast,06-20-2018,g/ml,g/ml
35,2.9999999999999997e-05,0.0002,4.170500000000004,35.727549999999994,Pen,Chl,yeast,06-20-2018,g/ml,g/ml
36,3.9999999999999996e-05,0.0002,3.1783750000000026,35.727549999999994,Pen,Chl,yeast,06-20-2018,g/ml,g/ml
37,4.9999999999999996e-05,0.0002,3.970249999999993,35.727549999999994,Pen,Chl,yeast,06-20-2018,g/ml,g/ml
38,5.9999999999999995e-05,0.0002,8.962250000000012,35.727549999999994,Pen,Chl,yeast,06-20-2018,g/ml,g/ml
39,7e-05,0.0002,2.3631249999999966,35.727549999999994,Pen,Chl,yeast,06-20-2018,g/ml,g/ml
40,0.0,0.00025,20.30924999999999,35.727549999999994,Pen,Chl,yeast,06-20-2018,g/ml,g/ml
41,9.999999999999999e-06,0.00025,6.187375000000017,35.727549999999994,Pen,Chl,yeast,06-20-2018,g/ml,g/ml
42,1.9999999999999998e-05,0.00025,4.195000000000007,35.727549999999994,Pen,Chl,yeast,06-20-2018,g/ml,g/ml
43,2.9999999999999997e-05,0.00025,2.5661250000000138,35.727549999999994,Pen,Chl,yeast,06-20-2018,g/ml,g/ml
44,3.9999999999999996e-05,0.00025,0.9634999999999962,35.727549999999994,Pen,Chl,yeast,06-20-2018,g/ml,g/ml
45,4.9999999999999996e-05,0.00025,2.10475000000001,35.727549999999994,Pen,Chl,yeast,06-20-2018,g/ml,g/ml
46,5.9999999999999995e-05,0.00025,0.0,35.727549999999994,Pen,Chl,yeast,06-20-2018,g/ml,g/ml
47,7e-05,0.00025,1.6397499999999923,35.727549999999994,Pen,Chl,yeast,06-20-2018,g/ml,g/ml
48,0.0,0.00030000000000000003,19.413749999999993,35.727549999999994,Pen,Chl,yeast,06-20-2018,g/ml,g/ml
49,9.999999999999999e-06,0.00030000000000000003,5.254000000000005,35.727549999999994,Pen,Chl,yeast,06-20-2018,g/ml,g/ml
50,1.9999999999999998e-05,0.00030000000000000003,0.8901249999999976,35.727549999999994,Pen,Chl,yeast,06-20-2018,g/ml,g/ml
51,2.9999999999999997e-05,0.00030000000000000003,2.8376250000000027,35.727549999999994,Pen,Chl,yeast,06-20-2018,g/ml,g/ml
52,3.9999999999999996e-05,0.00030000000000000003,0.994125000000011,35.727549999999994,Pen,Chl,yeast,06-20-2018,g/ml,g/ml
53,4.9999999999999996e-05,0.00030000000000000003,1.7430000000000092,35.727549999999994,Pen,Chl,yeast,06-20-2018,g/ml,g/ml
54,5.9999999999999995e-05,0.00030000000000000003,0.6715000000000089,35.727549999999994,Pen,Chl,yeast,06-20-2018,g/ml,g/ml
55,7e-05,0.00030000000000000003,2.8465000000000202,35.727549999999994,Pen,Chl,yeast,06-20-2018,g/ml,g/ml
56,0.0,0.00035,3.5076250000000044,35.727549999999994,Pen,Chl,yeast,06-20-2018,g/ml,g/ml
57,9.999999999999999e-06,0.00035,8.542749999999998,35.727549999999994,Pen,Chl,yeast,06-20-2018,g/ml,g/ml
58,1.9999999999999998e-05,0.00035,3.026875000000004,35.727549999999994,Pen,Chl,yeast,06-20-2018,g/ml,g/ml
59,2.9999999999999997e-05,0.00035,3.663000000000011,35.727549999999994,Pen,Chl,yeast,06-20-2018,g/ml,g/ml
60,3.9999999999999996e-05,0.00035,0.8822500000000133,35.727549999999994,Pen,Chl,yeast,06-20-2018,g/ml,g/ml
61,4.9999999999999996e-05,0.00035,0.9878750000000167,35.727549999999994,Pen,Chl,yeast,06-20-2018,g/ml,g/ml
62,5.9999999999999995e-05,0.00035,1.379125000000002,35.727549999999994,Pen,Chl,yeast,06-20-2018,g/ml,g/ml
63,7e-05,0.00035,8.009500000000003,35.727549999999994,Pen,Chl,yeast,06-20-2018,g/ml,g/ml
