,drug2.conc,drug1.conc,effect,effect.95ci,drug1,drug2,sample,expt.date,drug1.units,drug2.units
0,0.0,0.0,448.19925,56.392525,Pen,Cal,yeast,06-20-2018,g/ml,g/ml
1,9.999999999999999e-06,0.0,421.09337500000004,56.392525,Pen,Cal,yeast,06-20-2018,g/ml,g/ml
2,1.9999999999999998e-05,0.0,373.23175000000003,56.392525,Pen,Cal,yeast,06-20-2018,g/ml,g/ml
3,2.9999999999999997e-05,0.0,330.650125,56.392525,Pen,Cal,yeast,06-20-2018,g/ml,g/ml
4,3.9999999999999996e-05,0.0,260.01574999999997,56.392525,Pen,Cal,yeast,06-20-2018,g/ml,g/ml
5,4.9999999999999996e-05,0.0,160.79837499999996,56.392525,Pen,Cal,yeast,06-20-2018,g/ml,g/ml
6,5.9999999999999995e-05,0.0,106.63662500000002,56.392525,Pen,Cal,yeast,06-20-2018,g/ml,g/ml
7,7e-05,0.0,69.46600000000002,56.392525,Pen,Cal,yeast,06-20-2018,g/ml,g/ml
8,0.0,3.0000000000000004e-07,440.22225000000003,56.392525,Pen,Cal,yeast,06-20-2018,g/ml,g/ml
9,9.999999999999999e-06,3.0000000000000004e-07,413.2308750000001,56.392525,Pen,Cal,yeast,06-20-2018,g/ml,g/ml
10,1.9999999999999998e-05,3.0000000000000004e-07,330.61762500000003,56.392525,Pen,Cal,yeast,06-20-2018,g/ml,g/ml
11,2.9999999999999997e-05,3.0000000000000004e-07,147.4395,56.392525,Pen,Cal,yeast,06-20-2018,g/ml,g/ml
12,3.9999999999999996e-05,3.0000000000000004e-07,45.357750000000024,56.392525,Pen,Cal,yeast,06-20-2018,g/ml,g/ml
13,4.9999999999999996e-05,3.0000000000000004e-07,17.823375000000013,56.392525,Pen,Cal,yeast,06-20-2018,g/ml,g/ml
14,5.9999999999999995e-05,3.0000000000000004e-07,11.774874999999994,56.392525,Pen,Cal,yeast,06-20-2018,g/ml,g/ml
15,7e-05,3.0000000000000004e-07,8.30762500000003,56.392525,Pen,Cal,yeast,06-20-2018,g/ml,g/ml
16,0.0,6.000000000000001e-07,431.92049999999995,56.392525,Pen,Cal,yeast,06-20-2018,g/ml,g/ml
17,9.999999999999999e-06,6.000000000000001e-07,293.94387500000005,56.392525,Pen,Cal,yeast,06-20-2018,g/ml,g/ml
18,1.9999999999999998e-05,6.000000000000001e-07,33.96962500000002,56.392525,Pen,Cal,yeast,06-20-2018,g/ml,g/ml
19,2.9999999999999997e-05,6.000000000000001e-07,16.323875,56.392525,Pen,Cal,yeast,06-20-2018,g/ml,g/ml
20,3.9999999999999996e-05,6.000000000000001e-07,9.661375000000021,56.392525,Pen,Cal,yeast,06-20-2018,g/ml,g/ml
21,4.9999999999999996e-05,6.000000000000001e-07,5.274000000000015,56.392525,Pen,Cal,yeast,06-20-2018,g/ml,g/ml
22,5.9999999999999995e-05,6.000000000000001e-07,4.716875000000002,56.392525,Pen,Cal,yeast,06-20-2018,g/ml,g/ml
23,7e-05,6.000000000000001e-07,4.599250000000026,56.392525,Pen,Cal,yeast,06-20-2018,g/ml,g/ml
24,0.0,9.000000000000001e-07,386.41425,56.392525,Pen,Cal,yeast,06-20-2018,g/ml,g/ml
25,9.999999999999999e-06,9.000000000000001e-07,48.62987500000001,56.392525,Pen,Cal,yeast,06-20-2018,g/ml,g/ml
26,1.9999999999999998e-05,9.000000000000001e-07,24.7085,56.392525,Pen,Cal,yeast,06-20-2018,g/ml,g/ml
27,2.9999999999999997e-05,9.000000000000001e-07,10.458625000000012,56.392525,Pen,Cal,yeast,06-20-2018,g/ml,g/ml
28,3.9999999999999996e-05,9.000000000000001e-07,5.136500000000012,56.392525,Pen,Cal,yeast,06-20-2018,g/ml,g/ml
29,4.9999999999999996e-05,9.000000000000001e-07,3.3633750000000333,56.392525,Pen,Cal,yeast,06-20-2018,g/ml,g/ml
30,5.9999999999999995e-05,9.000000000000001e-07,2.7906250000000057,56.392525,Pen,Cal,yeast,06-20-2018,g/ml,g/ml
31,7e-05,9.000000000000001e-07,2.5470000000000255,56.392525,Pen,Cal,yeast,06-20-2018,g/ml,g/ml
32,0.0,1.2000000000000002e-06,248.65450000000004,56.392525,Pen,Cal,yeast,06-20-2018,g/ml,g/ml
33,9.999999999999999e-06,1.2000000000000002e-06,17.01100000000004,56.392525,Pen,Cal,yeast,06-20-2018,g/ml,g/ml
34,1.9999999999999998e-05,1.2000000000000002e-06,7.491125000000011,56.392525,Pen,Cal,yeast,06-20-2018,g/ml,g/ml
35,2.9999999999999997e-05,1.2000000000000002e-06,3.9561250000000143,56.392525,Pen,Cal,yeast,06-20-2018,g/ml,g/ml
36,3.9999999999999996e-05,1.2000000000000002e-06,3.3128750000000053,56.392525,Pen,Cal,yeast,06-20-2018,g/ml,g/ml
37,4.9999999999999996e-05,1.2000000000000002e-06,2.9063750000000113,56.392525,Pen,Cal,yeast,06-20-2018,g/ml,g/ml
38,5.9999999999999995e-05,1.2000000000000002e-06,2.0106250000000045,56.392525,Pen,Cal,yeast,06-20-2018,g/ml,g/ml
39,7e-05,1.2000000000000002e-06,2.0036250000000138,56.392525,Pen,Cal,yeast,06-20-2018,g/ml,g/ml
40,0.0,1.5000000000000002e-06,76.20625000000003,56.392525,Pen,Cal,yeast,06-20-2018,g/ml,g/ml
41,9.999999999999999e-06,1.5000000000000002e-06,11.262375000000034,56.392525,Pen,Cal,yeast,06-20-2018,g/ml,g/ml
42,1.9999999999999998e-05,1.5000000000000002e-06,5.313250000000011,56.392525,Pen,Cal,yeast,06-20-2018,g/ml,g/ml
43,2.9999999999999997e-05,1.5000000000000002e-06,2.3448750000000302,56.392525,Pen,Cal,yeast,06-20-2018,g/ml,g/ml
44,3.9999999999999996e-05,1.5000000000000002e-06,2.231375,56.392525,Pen,Cal,yeast,06-20-2018,g/ml,g/ml
45,4.9999999999999996e-05,1.5000000000000002e-06,1.1622500000000144,56.392525,Pen,Cal,yeast,06-20-2018,g/ml,g/ml
46,5.9999999999999995e-05,1.5000000000000002e-06,1.393500000000003,56.392525,Pen,Cal,yeast,06-20-2018,g/ml,g/ml
47,7e-05,1.5000000000000002e-06,1.7886250000000103,56.392525,Pen,Cal,yeast,06-20-2018,g/ml,g/ml
48,0.0,1.8000000000000001e-06,38.96600000000005,56.392525,Pen,Cal,yeast,06-20-2018,g/ml,g/ml
49,9.999999999999999e-06,1.8000000000000001e-06,8.45750000000001,56.392525,Pen,Cal,yeast,06-20-2018,g/ml,g/ml
50,1.9999999999999998e-05,1.8000000000000001e-06,3.475500000000025,56.392525,Pen,Cal,yeast,06-20-2018,g/ml,g/ml
51,2.9999999999999997e-05,1.8000000000000001e-06,2.466500000000025,56.392525,Pen,Cal,yeast,06-20-2018,g/ml,g/ml
52,3.9999999999999996e-05,1.8000000000000001e-06,1.377250000000032,56.392525,Pen,Cal,yeast,06-20-2018,g/ml,g/ml
53,4.9999999999999996e-05,1.8000000000000001e-06,0.6097499999999911,56.392525,Pen,Cal,yeast,06-20-2018,g/ml,g/ml
54,5.9999999999999995e-05,1.8000000000000001e-06,0.41925000000001944,56.392525,Pen,Cal,yeast,06-20-2018,g/ml,g/ml
55,7e-05,1.8000000000000001e-06,1.0328750000000184,56.392525,Pen,Cal,yeast,06-20-2018,g/ml,g/ml
56,0.0,2.1000000000000002e-06,23.30100000000003,56.392525,Pen,Cal,yeast,06-20-2018,g/ml,g/ml
57,9.999999999999999e-06,2.1000000000000002e-06,5.493625000000009,56.392525,Pen,Cal,yeast,06-20-2018,g/ml,g/ml
58,1.9999999999999998e-05,2.1000000000000002e-06,3.0393749999999926,56.392525,Pen,Cal,yeast,06-20-2018,g/ml,g/ml
59,2.9999999999999997e-05,2.1000000000000002e-06,1.7358750000000214,56.392525,Pen,Cal,yeast,06-20-2018,g/ml,g/ml
60,3.9999999999999996e-05,2.1000000000000002e-06,1.9645000000000294,56.392525,Pen,Cal,yeast,06-20-2018,g/ml,g/ml
61,4.9999999999999996e-05,2.1000000000000002e-06,1.0175000000000125,56.392525,Pen,Cal,yeast,06-20-2018,g/ml,g/ml
62,5.9999999999999995e-05,2.1000000000000002e-06,0.0,56.392525,Pen,Cal,yeast,06-20-2018,g/ml,g/ml
63,7e-05,2.1000000000000002e-06,1.41562500000002,56.392525,Pen,Cal,yeast,06-20-2018,g/ml,g/ml
