,drug2.conc,drug1.conc,effect,effect.95ci,drug1,drug2,sample,expt.date,drug1.units,drug2.units
0,0.0,0.0,409.85087500000003,52.678875000000005,Pen,Lat,yeast,06-20-2018,g/ml,g/ml
1,9.999999999999999e-06,0.0,360.57475,52.678875000000005,Pen,Lat,yeast,06-20-2018,g/ml,g/ml
2,1.9999999999999998e-05,0.0,295.42974999999996,52.678875000000005,Pen,Lat,yeast,06-20-2018,g/ml,g/ml
3,2.9999999999999997e-05,0.0,223.47587499999992,52.678875000000005,Pen,Lat,yeast,06-20-2018,g/ml,g/ml
4,3.9999999999999996e-05,0.0,87.6835,52.678875000000005,Pen,Lat,yeast,06-20-2018,g/ml,g/ml
5,4.9999999999999996e-05,0.0,72.90687500000003,52.678875000000005,Pen,Lat,yeast,06-20-2018,g/ml,g/ml
6,5.9999999999999995e-05,0.0,53.04137500000003,52.678875000000005,Pen,Lat,yeast,06-20-2018,g/ml,g/ml
7,7e-05,0.0,37.335874999999945,52.678875000000005,Pen,Lat,yeast,06-20-2018,g/ml,g/ml
8,0.0,2e-06,399.5138749999999,52.678875000000005,Pen,Lat,yeast,06-20-2018,g/ml,g/ml
9,9.999999999999999e-06,2e-06,352.22900000000004,52.678875000000005,Pen,Lat,yeast,06-20-2018,g/ml,g/ml
10,1.9999999999999998e-05,2e-06,268.59825,52.678875000000005,Pen,Lat,yeast,06-20-2018,g/ml,g/ml
11,2.9999999999999997e-05,2e-06,181.17887499999995,52.678875000000005,Pen,Lat,yeast,06-20-2018,g/ml,g/ml
12,3.9999999999999996e-05,2e-06,71.74624999999999,52.678875000000005,Pen,Lat,yeast,06-20-2018,g/ml,g/ml
13,4.9999999999999996e-05,2e-06,27.837749999999986,52.678875000000005,Pen,Lat,yeast,06-20-2018,g/ml,g/ml
14,5.9999999999999995e-05,2e-06,13.699499999999986,52.678875000000005,Pen,Lat,yeast,06-20-2018,g/ml,g/ml
15,7e-05,2e-06,10.294749999999993,52.678875000000005,Pen,Lat,yeast,06-20-2018,g/ml,g/ml
16,0.0,4e-06,401.662,52.678875000000005,Pen,Lat,yeast,06-20-2018,g/ml,g/ml
17,9.999999999999999e-06,4e-06,334.545625,52.678875000000005,Pen,Lat,yeast,06-20-2018,g/ml,g/ml
18,1.9999999999999998e-05,4e-06,198.40574999999995,52.678875000000005,Pen,Lat,yeast,06-20-2018,g/ml,g/ml
19,2.9999999999999997e-05,4e-06,41.44412500000003,52.678875000000005,Pen,Lat,yeast,06-20-2018,g/ml,g/ml
20,3.9999999999999996e-05,4e-06,11.656875,52.678875000000005,Pen,Lat,yeast,06-20-2018,g/ml,g/ml
21,4.9999999999999996e-05,4e-06,3.6296250000000043,52.678875000000005,Pen,Lat,yeast,06-20-2018,g/ml,g/ml
22,5.9999999999999995e-05,4e-06,3.8357499999999902,52.678875000000005,Pen,Lat,yeast,06-20-2018,g/ml,g/ml
23,7e-05,4e-06,4.842749999999981,52.678875000000005,Pen,Lat,yeast,06-20-2018,g/ml,g/ml
24,0.0,6e-06,389.366125,52.678875000000005,Pen,Lat,yeast,06-20-2018,g/ml,g/ml
25,9.999999999999999e-06,6e-06,107.3445,52.678875000000005,Pen,Lat,yeast,06-20-2018,g/ml,g/ml
26,1.9999999999999998e-05,6e-06,7.243125000000006,52.678875000000005,Pen,Lat,yeast,06-20-2018,g/ml,g/ml
27,2.9999999999999997e-05,6e-06,5.791124999999994,52.678875000000005,Pen,Lat,yeast,06-20-2018,g/ml,g/ml
28,3.9999999999999996e-05,6e-06,2.741375000000005,52.678875000000005,Pen,Lat,yeast,06-20-2018,g/ml,g/ml
29,4.9999999999999996e-05,6e-06,5.08637499999999,52.678875000000005,Pen,Lat,yeast,06-20-2018,g/ml,g/ml
30,5.9999999999999995e-05,6e-06,3.7337499999999864,52.678875000000005,Pen,Lat,yeast,06-20-2018,g/ml,g/ml
31,7e-05,6e-06,4.046874999999986,52.678875000000005,Pen,Lat,yeast,06-20-2018,g/ml,g/ml
32,0.0,8e-06,376.69075,52.678875000000005,Pen,Lat,yeast,06-20-2018,g/ml,g/ml
33,9.999999999999999e-06,8e-06,16.66137499999998,52.678875000000005,Pen,Lat,yeast,06-20-2018,g/ml,g/ml
34,1.9999999999999998e-05,8e-06,4.820249999999987,52.678875000000005,Pen,Lat,yeast,06-20-2018,g/ml,g/ml
35,2.9999999999999997e-05,8e-06,2.4867499999999865,52.678875000000005,Pen,Lat,yeast,06-20-2018,g/ml,g/ml
36,3.9999999999999996e-05,8e-06,5.875374999999991,52.678875000000005,Pen,Lat,yeast,06-20-2018,g/ml,g/ml
37,4.9999999999999996e-05,8e-06,5.079875000000001,52.678875000000005,Pen,Lat,yeast,06-20-2018,g/ml,g/ml
38,5.9999999999999995e-05,8e-06,10.846125,52.678875000000005,Pen,Lat,yeast,06-20-2018,g/ml,g/ml
39,7e-05,8e-06,13.67574999999998,52.678875000000005,Pen,Lat,yeast,06-20-2018,g/ml,g/ml
40,0.0,9.999999999999999e-06,249.9755,52.678875000000005,Pen,Lat,yeast,06-20-2018,g/ml,g/ml
41,9.999999999999999e-06,9.999999999999999e-06,3.759999999999991,52.678875000000005,Pen,Lat,yeast,06-20-2018,g/ml,g/ml
42,1.9999999999999998e-05,9.999999999999999e-06,2.1723750000000024,52.678875000000005,Pen,Lat,yeast,06-20-2018,g/ml,g/ml
43,2.9999999999999997e-05,9.999999999999999e-06,1.5220000000000056,52.678875000000005,Pen,Lat,yeast,06-20-2018,g/ml,g/ml
44,3.9999999999999996e-05,9.999999999999999e-06,0.0,52.678875000000005,Pen,Lat,yeast,06-20-2018,g/ml,g/ml
45,4.9999999999999996e-05,9.999999999999999e-06,4.644624999999991,52.678875000000005,Pen,Lat,yeast,06-20-2018,g/ml,g/ml
46,5.9999999999999995e-05,9.999999999999999e-06,5.768250000000009,52.678875000000005,Pen,Lat,yeast,06-20-2018,g/ml,g/ml
47,7e-05,9.999999999999999e-06,8.336249999999978,52.678875000000005,Pen,Lat,yeast,06-20-2018,g/ml,g/ml
48,0.0,1.2e-05,133.13949999999994,52.678875000000005,Pen,Lat,yeast,06-20-2018,g/ml,g/ml
49,9.999999999999999e-06,1.2e-05,6.22012500000001,52.678875000000005,Pen,Lat,yeast,06-20-2018,g/ml,g/ml
50,1.9999999999999998e-05,1.2e-05,1.1844999999999999,52.678875000000005,Pen,Lat,yeast,06-20-2018,g/ml,g/ml
51,2.9999999999999997e-05,1.2e-05,2.5598750000000052,52.678875000000005,Pen,Lat,yeast,06-20-2018,g/ml,g/ml
52,3.9999999999999996e-05,1.2e-05,2.1340000000000003,52.678875000000005,Pen,Lat,yeast,06-20-2018,g/ml,g/ml
53,4.9999999999999996e-05,1.2e-05,2.5658750000000055,52.678875000000005,Pen,Lat,yeast,06-20-2018,g/ml,g/ml
54,5.9999999999999995e-05,1.2e-05,3.1913749999999936,52.678875000000005,Pen,Lat,yeast,06-20-2018,g/ml,g/ml
55,7e-05,1.2e-05,6.948374999999984,52.678875000000005,Pen,Lat,yeast,06-20-2018,g/ml,g/ml
56,0.0,1.4e-05,46.604500000000044,52.678875000000005,Pen,Lat,yeast,06-20-2018,g/ml,g/ml
57,9.999999999999999e-06,1.4e-05,1.9992500000000035,52.678875000000005,Pen,Lat,yeast,06-20-2018,g/ml,g/ml
58,1.9999999999999998e-05,1.4e-05,0.6729999999999876,52.678875000000005,Pen,Lat,yeast,06-20-2018,g/ml,g/ml
59,2.9999999999999997e-05,1.4e-05,4.2326249999999845,52.678875000000005,Pen,Lat,yeast,06-20-2018,g/ml,g/ml
60,3.9999999999999996e-05,1.4e-05,1.7736249999999814,52.678875000000005,Pen,Lat,yeast,06-20-2018,g/ml,g/ml
61,4.9999999999999996e-05,1.4e-05,1.8644999999999925,52.678875000000005,Pen,Lat,yeast,06-20-2018,g/ml,g/ml
62,5.9999999999999995e-05,1.4e-05,1.4407499999999942,52.678875000000005,Pen,Lat,yeast,06-20-2018,g/ml,g/ml
63,7e-05,1.4e-05,11.806124999999994,52.678875000000005,Pen,Lat,yeast,06-20-2018,g/ml,g/ml
