,drug2.conc,drug1.conc,effect,effect.95ci,drug1,drug2,sample,expt.date,drug1.units,drug2.units
0,0.0,0.0,429.561375,55.790912500000005,Rap,Bro,yeast,06-20-2018,g/ml,g/ml
1,7e-10,0.0,434.1627500000001,55.790912500000005,Rap,Bro,yeast,06-20-2018,g/ml,g/ml
2,1.4e-09,0.0,429.963125,55.790912500000005,Rap,Bro,yeast,06-20-2018,g/ml,g/ml
3,2.0999999999999998e-09,0.0,426.84675000000004,55.790912500000005,Rap,Bro,yeast,06-20-2018,g/ml,g/ml
4,2.8e-09,0.0,370.100375,55.790912500000005,Rap,Bro,yeast,06-20-2018,g/ml,g/ml
5,3.5e-09,0.0,239.58912500000002,55.790912500000005,Rap,Bro,yeast,06-20-2018,g/ml,g/ml
6,4.1999999999999996e-09,0.0,79.22137500000005,55.790912500000005,Rap,Bro,yeast,06-20-2018,g/ml,g/ml
7,4.9e-09,0.0,46.892375000000015,55.790912500000005,Rap,Bro,yeast,06-20-2018,g/ml,g/ml
8,0.0,7e-05,440.5098750000001,55.790912500000005,Rap,Bro,yeast,06-20-2018,g/ml,g/ml
9,7e-10,7e-05,448.233375,55.790912500000005,Rap,Bro,yeast,06-20-2018,g/ml,g/ml
10,1.4e-09,7e-05,446.298625,55.790912500000005,Rap,Bro,yeast,06-20-2018,g/ml,g/ml
11,2.0999999999999998e-09,7e-05,445.382875,55.790912500000005,Rap,Bro,yeast,06-20-2018,g/ml,g/ml
12,2.8e-09,7e-05,374.877625,55.790912500000005,Rap,Bro,yeast,06-20-2018,g/ml,g/ml
13,3.5e-09,7e-05,314.439875,55.790912500000005,Rap,Bro,yeast,06-20-2018,g/ml,g/ml
14,4.1999999999999996e-09,7e-05,118.41825,55.790912500000005,Rap,Bro,yeast,06-20-2018,g/ml,g/ml
15,4.9e-09,7e-05,67.44800000000001,55.790912500000005,Rap,Bro,yeast,06-20-2018,g/ml,g/ml
16,0.0,0.00014,410.747875,55.790912500000005,Rap,Bro,yeast,06-20-2018,g/ml,g/ml
17,7e-10,0.00014,404.044125,55.790912500000005,Rap,Bro,yeast,06-20-2018,g/ml,g/ml
18,1.4e-09,0.00014,414.52199999999993,55.790912500000005,Rap,Bro,yeast,06-20-2018,g/ml,g/ml
19,2.0999999999999998e-09,0.00014,414.91075,55.790912500000005,Rap,Bro,yeast,06-20-2018,g/ml,g/ml
20,2.8e-09,0.00014,353.876125,55.790912500000005,Rap,Bro,yeast,06-20-2018,g/ml,g/ml
21,3.5e-09,0.00014,310.5191250000001,55.790912500000005,Rap,Bro,yeast,06-20-2018,g/ml,g/ml
22,4.1999999999999996e-09,0.00014,115.79724999999999,55.790912500000005,Rap,Bro,yeast,06-20-2018,g/ml,g/ml
23,4.9e-09,0.00014,68.19899999999998,55.790912500000005,Rap,Bro,yeast,06-20-2018,g/ml,g/ml
24,0.0,0.00020999999999999998,403.716625,55.790912500000005,Rap,Bro,yeast,06-20-2018,g/ml,g/ml
25,7e-10,0.00020999999999999998,400.82849999999996,55.790912500000005,Rap,Bro,yeast,06-20-2018,g/ml,g/ml
26,1.4e-09,0.00020999999999999998,403.452,55.790912500000005,Rap,Bro,yeast,06-20-2018,g/ml,g/ml
27,2.0999999999999998e-09,0.00020999999999999998,399.09387499999997,55.790912500000005,Rap,Bro,yeast,06-20-2018,g/ml,g/ml
28,2.8e-09,0.00020999999999999998,317.844625,55.790912500000005,Rap,Bro,yeast,06-20-2018,g/ml,g/ml
29,3.5e-09,0.00020999999999999998,245.715375,55.790912500000005,Rap,Bro,yeast,06-20-2018,g/ml,g/ml
30,4.1999999999999996e-09,0.00020999999999999998,92.9805,55.790912500000005,Rap,Bro,yeast,06-20-2018,g/ml,g/ml
31,4.9e-09,0.00020999999999999998,75.86787500000003,55.790912500000005,Rap,Bro,yeast,06-20-2018,g/ml,g/ml
32,0.0,0.00028,367.115625,55.790912500000005,Rap,Bro,yeast,06-20-2018,g/ml,g/ml
33,7e-10,0.00028,361.3165,55.790912500000005,Rap,Bro,yeast,06-20-2018,g/ml,g/ml
34,1.4e-09,0.00028,353.5405,55.790912500000005,Rap,Bro,yeast,06-20-2018,g/ml,g/ml
35,2.0999999999999998e-09,0.00028,335.337,55.790912500000005,Rap,Bro,yeast,06-20-2018,g/ml,g/ml
36,2.8e-09,0.00028,286.04699999999997,55.790912500000005,Rap,Bro,yeast,06-20-2018,g/ml,g/ml
37,3.5e-09,0.00028,227.27612499999998,55.790912500000005,Rap,Bro,yeast,06-20-2018,g/ml,g/ml
38,4.1999999999999996e-09,0.00028,182.56862500000005,55.790912500000005,Rap,Bro,yeast,06-20-2018,g/ml,g/ml
39,4.9e-09,0.00028,59.148375000000016,55.790912500000005,Rap,Bro,yeast,06-20-2018,g/ml,g/ml
40,0.0,0.00034999999999999994,323.813125,55.790912500000005,Rap,Bro,yeast,06-20-2018,g/ml,g/ml
41,7e-10,0.00034999999999999994,297.33050000000003,55.790912500000005,Rap,Bro,yeast,06-20-2018,g/ml,g/ml
42,1.4e-09,0.00034999999999999994,278.207625,55.790912500000005,Rap,Bro,yeast,06-20-2018,g/ml,g/ml
43,2.0999999999999998e-09,0.00034999999999999994,264.082125,55.790912500000005,Rap,Bro,yeast,06-20-2018,g/ml,g/ml
44,2.8e-09,0.00034999999999999994,221.66912499999995,55.790912500000005,Rap,Bro,yeast,06-20-2018,g/ml,g/ml
45,3.5e-09,0.00034999999999999994,172.22275000000002,55.790912500000005,Rap,Bro,yeast,06-20-2018,g/ml,g/ml
46,4.1999999999999996e-09,0.00034999999999999994,133.558125,55.790912500000005,Rap,Bro,yeast,06-20-2018,g/ml,g/ml
47,4.9e-09,0.00034999999999999994,44.114499999999964,55.790912500000005,Rap,Bro,yeast,06-20-2018,g/ml,g/ml
48,0.0,0.00041999999999999996,187.44400000000007,55.790912500000005,Rap,Bro,yeast,06-20-2018,g/ml,g/ml
49,7e-10,0.00041999999999999996,148.157875,55.790912500000005,Rap,Bro,yeast,06-20-2018,g/ml,g/ml
50,1.4e-09,0.00041999999999999996,101.83875,55.790912500000005,Rap,Bro,yeast,06-20-2018,g/ml,g/ml
51,2.0999999999999998e-09,0.00041999999999999996,88.91087499999998,55.790912500000005,Rap,Bro,yeast,06-20-2018,g/ml,g/ml
52,2.8e-09,0.00041999999999999996,60.29687500000003,55.790912500000005,Rap,Bro,yeast,06-20-2018,g/ml,g/ml
53,3.5e-09,0.00041999999999999996,56.0145,55.790912500000005,Rap,Bro,yeast,06-20-2018,g/ml,g/ml
54,4.1999999999999996e-09,0.00041999999999999996,18.136499999999998,55.790912500000005,Rap,Bro,yeast,06-20-2018,g/ml,g/ml
55,4.9e-09,0.00041999999999999996,8.810000000000002,55.790912500000005,Rap,Bro,yeast,06-20-2018,g/ml,g/ml
56,0.0,0.00049,27.761374999999987,55.790912500000005,Rap,Bro,yeast,06-20-2018,g/ml,g/ml
57,7e-10,0.00049,2.6154999999999973,55.790912500000005,Rap,Bro,yeast,06-20-2018,g/ml,g/ml
58,1.4e-09,0.00049,3.2803750000000207,55.790912500000005,Rap,Bro,yeast,06-20-2018,g/ml,g/ml
59,2.0999999999999998e-09,0.00049,0.4242500000000149,55.790912500000005,Rap,Bro,yeast,06-20-2018,g/ml,g/ml
60,2.8e-09,0.00049,3.052374999999998,55.790912500000005,Rap,Bro,yeast,06-20-2018,g/ml,g/ml
61,3.5e-09,0.00049,5.023875000000018,55.790912500000005,Rap,Bro,yeast,06-20-2018,g/ml,g/ml
62,4.1999999999999996e-09,0.00049,0.7578749999999843,55.790912500000005,Rap,Bro,yeast,06-20-2018,g/ml,g/ml
63,4.9e-09,0.00049,0.0,55.790912500000005,Rap,Bro,yeast,06-20-2018,g/ml,g/ml
