,drug2.conc,drug1.conc,effect,effect.95ci,drug1,drug2,sample,expt.date,drug1.units,drug2.units
0,0.0,0.0,306.8056249999999,45.601099999999995,Rap,Rad,yeast,06-20-2018,g/ml,g/ml
1,7e-10,0.0,309.14637500000003,45.601099999999995,Rap,Rad,yeast,06-20-2018,g/ml,g/ml
2,1.4e-09,0.0,310.293125,45.601099999999995,Rap,Rad,yeast,06-20-2018,g/ml,g/ml
3,2.0999999999999998e-09,0.0,312.174,45.601099999999995,Rap,Rad,yeast,06-20-2018,g/ml,g/ml
4,2.8e-09,0.0,339.69537499999996,45.601099999999995,Rap,Rad,yeast,06-20-2018,g/ml,g/ml
5,3.5e-09,0.0,84.45862499999998,45.601099999999995,Rap,Rad,yeast,06-20-2018,g/ml,g/ml
6,4.1999999999999996e-09,0.0,52.641624999999976,45.601099999999995,Rap,Rad,yeast,06-20-2018,g/ml,g/ml
7,4.9e-09,0.0,15.201624999999979,45.601099999999995,Rap,Rad,yeast,06-20-2018,g/ml,g/ml
8,0.0,8e-06,300.89075,45.601099999999995,Rap,Rad,yeast,06-20-2018,g/ml,g/ml
9,7e-10,8e-06,314.55525000000006,45.601099999999995,Rap,Rad,yeast,06-20-2018,g/ml,g/ml
10,1.4e-09,8e-06,295.33325,45.601099999999995,Rap,Rad,yeast,06-20-2018,g/ml,g/ml
11,2.0999999999999998e-09,8e-06,250.70262500000007,45.601099999999995,Rap,Rad,yeast,06-20-2018,g/ml,g/ml
12,2.8e-09,8e-06,32.44962499999997,45.601099999999995,Rap,Rad,yeast,06-20-2018,g/ml,g/ml
13,3.5e-09,8e-06,9.917624999999987,45.601099999999995,Rap,Rad,yeast,06-20-2018,g/ml,g/ml
14,4.1999999999999996e-09,8e-06,6.628499999999974,45.601099999999995,Rap,Rad,yeast,06-20-2018,g/ml,g/ml
15,4.9e-09,8e-06,4.61999999999999,45.601099999999995,Rap,Rad,yeast,06-20-2018,g/ml,g/ml
16,0.0,1.6e-05,240.92987499999998,45.601099999999995,Rap,Rad,yeast,06-20-2018,g/ml,g/ml
17,7e-10,1.6e-05,243.685,45.601099999999995,Rap,Rad,yeast,06-20-2018,g/ml,g/ml
18,1.4e-09,1.6e-05,210.51624999999996,45.601099999999995,Rap,Rad,yeast,06-20-2018,g/ml,g/ml
19,2.0999999999999998e-09,1.6e-05,129.902625,45.601099999999995,Rap,Rad,yeast,06-20-2018,g/ml,g/ml
20,2.8e-09,1.6e-05,12.32737499999999,45.601099999999995,Rap,Rad,yeast,06-20-2018,g/ml,g/ml
21,3.5e-09,1.6e-05,16.679750000000013,45.601099999999995,Rap,Rad,yeast,06-20-2018,g/ml,g/ml
22,4.1999999999999996e-09,1.6e-05,4.307624999999987,45.601099999999995,Rap,Rad,yeast,06-20-2018,g/ml,g/ml
23,4.9e-09,1.6e-05,0.3842499999999802,45.601099999999995,Rap,Rad,yeast,06-20-2018,g/ml,g/ml
24,0.0,2.4e-05,168.02974999999998,45.601099999999995,Rap,Rad,yeast,06-20-2018,g/ml,g/ml
25,7e-10,2.4e-05,161.43087499999996,45.601099999999995,Rap,Rad,yeast,06-20-2018,g/ml,g/ml
26,1.4e-09,2.4e-05,139.97837499999997,45.601099999999995,Rap,Rad,yeast,06-20-2018,g/ml,g/ml
27,2.0999999999999998e-09,2.4e-05,44.79662499999998,45.601099999999995,Rap,Rad,yeast,06-20-2018,g/ml,g/ml
28,2.8e-09,2.4e-05,7.131499999999988,45.601099999999995,Rap,Rad,yeast,06-20-2018,g/ml,g/ml
29,3.5e-09,2.4e-05,5.8678749999999695,45.601099999999995,Rap,Rad,yeast,06-20-2018,g/ml,g/ml
30,4.1999999999999996e-09,2.4e-05,3.0607499999999987,45.601099999999995,Rap,Rad,yeast,06-20-2018,g/ml,g/ml
31,4.9e-09,2.4e-05,0.6049999999999756,45.601099999999995,Rap,Rad,yeast,06-20-2018,g/ml,g/ml
32,0.0,3.2e-05,110.94662499999998,45.601099999999995,Rap,Rad,yeast,06-20-2018,g/ml,g/ml
33,7e-10,3.2e-05,96.06424999999999,45.601099999999995,Rap,Rad,yeast,06-20-2018,g/ml,g/ml
34,1.4e-09,3.2e-05,74.44162499999999,45.601099999999995,Rap,Rad,yeast,06-20-2018,g/ml,g/ml
35,2.0999999999999998e-09,3.2e-05,33.75675000000001,45.601099999999995,Rap,Rad,yeast,06-20-2018,g/ml,g/ml
36,2.8e-09,3.2e-05,6.354499999999987,45.601099999999995,Rap,Rad,yeast,06-20-2018,g/ml,g/ml
37,3.5e-09,3.2e-05,3.9131249999999937,45.601099999999995,Rap,Rad,yeast,06-20-2018,g/ml,g/ml
38,4.1999999999999996e-09,3.2e-05,0.8683749999999861,45.601099999999995,Rap,Rad,yeast,06-20-2018,g/ml,g/ml
39,4.9e-09,3.2e-05,3.0993749999999807,45.601099999999995,Rap,Rad,yeast,06-20-2018,g/ml,g/ml
40,0.0,3.9999999999999996e-05,85.24462499999998,45.601099999999995,Rap,Rad,yeast,06-20-2018,g/ml,g/ml
41,7e-10,3.9999999999999996e-05,67.36212499999999,45.601099999999995,Rap,Rad,yeast,06-20-2018,g/ml,g/ml
42,1.4e-09,3.9999999999999996e-05,55.844374999999985,45.601099999999995,Rap,Rad,yeast,06-20-2018,g/ml,g/ml
43,2.0999999999999998e-09,3.9999999999999996e-05,27.748625000000004,45.601099999999995,Rap,Rad,yeast,06-20-2018,g/ml,g/ml
44,2.8e-09,3.9999999999999996e-05,6.390124999999998,45.601099999999995,Rap,Rad,yeast,06-20-2018,g/ml,g/ml
45,3.5e-09,3.9999999999999996e-05,4.2314999999999685,45.601099999999995,Rap,Rad,yeast,06-20-2018,g/ml,g/ml
46,4.1999999999999996e-09,3.9999999999999996e-05,29.75724999999997,45.601099999999995,Rap,Rad,yeast,06-20-2018,g/ml,g/ml
47,4.9e-09,3.9999999999999996e-05,1.3009999999999877,45.601099999999995,Rap,Rad,yeast,06-20-2018,g/ml,g/ml
48,0.0,4.8e-05,57.67775,45.601099999999995,Rap,Rad,yeast,06-20-2018,g/ml,g/ml
49,7e-10,4.8e-05,52.001000000000005,45.601099999999995,Rap,Rad,yeast,06-20-2018,g/ml,g/ml
50,1.4e-09,4.8e-05,38.244249999999994,45.601099999999995,Rap,Rad,yeast,06-20-2018,g/ml,g/ml
51,2.0999999999999998e-09,4.8e-05,14.077249999999992,45.601099999999995,Rap,Rad,yeast,06-20-2018,g/ml,g/ml
52,2.8e-09,4.8e-05,3.4073749999999734,45.601099999999995,Rap,Rad,yeast,06-20-2018,g/ml,g/ml
53,3.5e-09,4.8e-05,62.844374999999985,45.601099999999995,Rap,Rad,yeast,06-20-2018,g/ml,g/ml
54,4.1999999999999996e-09,4.8e-05,0.3066249999999968,45.601099999999995,Rap,Rad,yeast,06-20-2018,g/ml,g/ml
55,4.9e-09,4.8e-05,0.3359999999999985,45.601099999999995,Rap,Rad,yeast,06-20-2018,g/ml,g/ml
56,0.0,5.6e-05,52.5975,45.601099999999995,Rap,Rad,yeast,06-20-2018,g/ml,g/ml
57,7e-10,5.6e-05,42.74762499999997,45.601099999999995,Rap,Rad,yeast,06-20-2018,g/ml,g/ml
58,1.4e-09,5.6e-05,31.30775,45.601099999999995,Rap,Rad,yeast,06-20-2018,g/ml,g/ml
59,2.0999999999999998e-09,5.6e-05,15.672624999999982,45.601099999999995,Rap,Rad,yeast,06-20-2018,g/ml,g/ml
60,2.8e-09,5.6e-05,4.169874999999976,45.601099999999995,Rap,Rad,yeast,06-20-2018,g/ml,g/ml
61,3.5e-09,5.6e-05,2.3604999999999876,45.601099999999995,Rap,Rad,yeast,06-20-2018,g/ml,g/ml
62,4.1999999999999996e-09,5.6e-05,1.7416249999999849,45.601099999999995,Rap,Rad,yeast,06-20-2018,g/ml,g/ml
63,4.9e-09,5.6e-05,0.0,45.601099999999995,Rap,Rad,yeast,06-20-2018,g/ml,g/ml
