,drug2.conc,drug1.conc,effect,effect.95ci,drug1,drug2,sample,expt.date,drug1.units,drug2.units
0,0.0,0.0,431.74512500000003,55.395225,Rap,Pen,yeast,06-20-2018,g/ml,g/ml
1,7e-10,0.0,437.992875,55.395225,Rap,Pen,yeast,06-20-2018,g/ml,g/ml
2,1.4e-09,0.0,72.17412500000002,55.395225,Rap,Pen,yeast,06-20-2018,g/ml,g/ml
3,2.0999999999999998e-09,0.0,22.99537499999998,55.395225,Rap,Pen,yeast,06-20-2018,g/ml,g/ml
4,2.8e-09,0.0,9.896875000000009,55.395225,Rap,Pen,yeast,06-20-2018,g/ml,g/ml
5,3.5e-09,0.0,8.501749999999987,55.395225,Rap,Pen,yeast,06-20-2018,g/ml,g/ml
6,4.1999999999999996e-09,0.0,7.0448749999999905,55.395225,Rap,Pen,yeast,06-20-2018,g/ml,g/ml
7,4.9e-09,0.0,6.092624999999984,55.395225,Rap,Pen,yeast,06-20-2018,g/ml,g/ml
8,0.0,9.999999999999999e-06,412.86812499999996,55.395225,Rap,Pen,yeast,06-20-2018,g/ml,g/ml
9,7e-10,9.999999999999999e-06,376.17212499999994,55.395225,Rap,Pen,yeast,06-20-2018,g/ml,g/ml
10,1.4e-09,9.999999999999999e-06,18.44062499999997,55.395225,Rap,Pen,yeast,06-20-2018,g/ml,g/ml
11,2.0999999999999998e-09,9.999999999999999e-06,10.785999999999987,55.395225,Rap,Pen,yeast,06-20-2018,g/ml,g/ml
12,2.8e-09,9.999999999999999e-06,8.400750000000002,55.395225,Rap,Pen,yeast,06-20-2018,g/ml,g/ml
13,3.5e-09,9.999999999999999e-06,7.93612499999999,55.395225,Rap,Pen,yeast,06-20-2018,g/ml,g/ml
14,4.1999999999999996e-09,9.999999999999999e-06,7.437749999999994,55.395225,Rap,Pen,yeast,06-20-2018,g/ml,g/ml
15,4.9e-09,9.999999999999999e-06,6.090000000000003,55.395225,Rap,Pen,yeast,06-20-2018,g/ml,g/ml
16,0.0,1.9999999999999998e-05,354.997375,55.395225,Rap,Pen,yeast,06-20-2018,g/ml,g/ml
17,7e-10,1.9999999999999998e-05,221.19600000000003,55.395225,Rap,Pen,yeast,06-20-2018,g/ml,g/ml
18,1.4e-09,1.9999999999999998e-05,11.860499999999988,55.395225,Rap,Pen,yeast,06-20-2018,g/ml,g/ml
19,2.0999999999999998e-09,1.9999999999999998e-05,9.940749999999994,55.395225,Rap,Pen,yeast,06-20-2018,g/ml,g/ml
20,2.8e-09,1.9999999999999998e-05,5.611499999999978,55.395225,Rap,Pen,yeast,06-20-2018,g/ml,g/ml
21,3.5e-09,1.9999999999999998e-05,3.8878749999999798,55.395225,Rap,Pen,yeast,06-20-2018,g/ml,g/ml
22,4.1999999999999996e-09,1.9999999999999998e-05,2.441999999999993,55.395225,Rap,Pen,yeast,06-20-2018,g/ml,g/ml
23,4.9e-09,1.9999999999999998e-05,2.5420000000000016,55.395225,Rap,Pen,yeast,06-20-2018,g/ml,g/ml
24,0.0,2.9999999999999997e-05,297.02462499999996,55.395225,Rap,Pen,yeast,06-20-2018,g/ml,g/ml
25,7e-10,2.9999999999999997e-05,36.35362499999998,55.395225,Rap,Pen,yeast,06-20-2018,g/ml,g/ml
26,1.4e-09,2.9999999999999997e-05,8.503749999999982,55.395225,Rap,Pen,yeast,06-20-2018,g/ml,g/ml
27,2.0999999999999998e-09,2.9999999999999997e-05,5.583499999999987,55.395225,Rap,Pen,yeast,06-20-2018,g/ml,g/ml
28,2.8e-09,2.9999999999999997e-05,3.839749999999995,55.395225,Rap,Pen,yeast,06-20-2018,g/ml,g/ml
29,3.5e-09,2.9999999999999997e-05,4.8418749999999875,55.395225,Rap,Pen,yeast,06-20-2018,g/ml,g/ml
30,4.1999999999999996e-09,2.9999999999999997e-05,3.8571249999999964,55.395225,Rap,Pen,yeast,06-20-2018,g/ml,g/ml
31,4.9e-09,2.9999999999999997e-05,3.078749999999985,55.395225,Rap,Pen,yeast,06-20-2018,g/ml,g/ml
32,0.0,3.9999999999999996e-05,206.285375,55.395225,Rap,Pen,yeast,06-20-2018,g/ml,g/ml
33,7e-10,3.9999999999999996e-05,22.87400000000001,55.395225,Rap,Pen,yeast,06-20-2018,g/ml,g/ml
34,1.4e-09,3.9999999999999996e-05,6.917750000000012,55.395225,Rap,Pen,yeast,06-20-2018,g/ml,g/ml
35,2.0999999999999998e-09,3.9999999999999996e-05,5.9383749999999935,55.395225,Rap,Pen,yeast,06-20-2018,g/ml,g/ml
36,2.8e-09,3.9999999999999996e-05,1.4583749999999895,55.395225,Rap,Pen,yeast,06-20-2018,g/ml,g/ml
37,3.5e-09,3.9999999999999996e-05,0.8359999999999843,55.395225,Rap,Pen,yeast,06-20-2018,g/ml,g/ml
38,4.1999999999999996e-09,3.9999999999999996e-05,0.16087500000000432,55.395225,Rap,Pen,yeast,06-20-2018,g/ml,g/ml
39,4.9e-09,3.9999999999999996e-05,0.258624999999995,55.395225,Rap,Pen,yeast,06-20-2018,g/ml,g/ml
40,0.0,4.9999999999999996e-05,134.88712499999997,55.395225,Rap,Pen,yeast,06-20-2018,g/ml,g/ml
41,7e-10,4.9999999999999996e-05,12.782499999999985,55.395225,Rap,Pen,yeast,06-20-2018,g/ml,g/ml
42,1.4e-09,4.9999999999999996e-05,6.331749999999985,55.395225,Rap,Pen,yeast,06-20-2018,g/ml,g/ml
43,2.0999999999999998e-09,4.9999999999999996e-05,2.7017499999999757,55.395225,Rap,Pen,yeast,06-20-2018,g/ml,g/ml
44,2.8e-09,4.9999999999999996e-05,4.018374999999992,55.395225,Rap,Pen,yeast,06-20-2018,g/ml,g/ml
45,3.5e-09,4.9999999999999996e-05,4.7808749999999804,55.395225,Rap,Pen,yeast,06-20-2018,g/ml,g/ml
46,4.1999999999999996e-09,4.9999999999999996e-05,4.055500000000009,55.395225,Rap,Pen,yeast,06-20-2018,g/ml,g/ml
47,4.9e-09,4.9999999999999996e-05,4.587124999999972,55.395225,Rap,Pen,yeast,06-20-2018,g/ml,g/ml
48,0.0,5.9999999999999995e-05,82.958625,55.395225,Rap,Pen,yeast,06-20-2018,g/ml,g/ml
49,7e-10,5.9999999999999995e-05,8.860749999999996,55.395225,Rap,Pen,yeast,06-20-2018,g/ml,g/ml
50,1.4e-09,5.9999999999999995e-05,6.456874999999982,55.395225,Rap,Pen,yeast,06-20-2018,g/ml,g/ml
51,2.0999999999999998e-09,5.9999999999999995e-05,4.80612499999998,55.395225,Rap,Pen,yeast,06-20-2018,g/ml,g/ml
52,2.8e-09,5.9999999999999995e-05,2.766249999999985,55.395225,Rap,Pen,yeast,06-20-2018,g/ml,g/ml
53,3.5e-09,5.9999999999999995e-05,0.5338749999999948,55.395225,Rap,Pen,yeast,06-20-2018,g/ml,g/ml
54,4.1999999999999996e-09,5.9999999999999995e-05,0.17574999999999363,55.395225,Rap,Pen,yeast,06-20-2018,g/ml,g/ml
55,4.9e-09,5.9999999999999995e-05,0.0,55.395225,Rap,Pen,yeast,06-20-2018,g/ml,g/ml
56,0.0,7e-05,58.62287500000001,55.395225,Rap,Pen,yeast,06-20-2018,g/ml,g/ml
57,7e-10,7e-05,9.633874999999989,55.395225,Rap,Pen,yeast,06-20-2018,g/ml,g/ml
58,1.4e-09,7e-05,6.869500000000002,55.395225,Rap,Pen,yeast,06-20-2018,g/ml,g/ml
59,2.0999999999999998e-09,7e-05,2.397874999999999,55.395225,Rap,Pen,yeast,06-20-2018,g/ml,g/ml
60,2.8e-09,7e-05,1.990000000000009,55.395225,Rap,Pen,yeast,06-20-2018,g/ml,g/ml
61,3.5e-09,7e-05,1.7085000000000008,55.395225,Rap,Pen,yeast,06-20-2018,g/ml,g/ml
62,4.1999999999999996e-09,7e-05,1.1532499999999857,55.395225,Rap,Pen,yeast,06-20-2018,g/ml,g/ml
63,4.9e-09,7e-05,2.5702499999999873,55.395225,Rap,Pen,yeast,06-20-2018,g/ml,g/ml
