,drug2.conc,drug1.conc,effect,effect.95ci,drug1,drug2,sample,expt.date,drug1.units,drug2.units
0,0.0,0.0,444.8631250000001,61.59917499999999,Sta,MMS,yeast,06-20-2018,g/ml,g/ml
1,1.8e-07,0.0,498.9197499999999,61.59917499999999,Sta,MMS,yeast,06-20-2018,g/ml,g/ml
2,3.6e-07,0.0,379.1225,61.59917499999999,Sta,MMS,yeast,06-20-2018,g/ml,g/ml
3,5.4e-07,0.0,273.710125,61.59917499999999,Sta,MMS,yeast,06-20-2018,g/ml,g/ml
4,7.2e-07,0.0,63.38024999999999,61.59917499999999,Sta,MMS,yeast,06-20-2018,g/ml,g/ml
5,9e-07,0.0,6.2083749999999895,61.59917499999999,Sta,MMS,yeast,06-20-2018,g/ml,g/ml
6,1.08e-06,0.0,0.0,61.59917499999999,Sta,MMS,yeast,06-20-2018,g/ml,g/ml
7,1.26e-06,0.0,2.7652499999999947,61.59917499999999,Sta,MMS,yeast,06-20-2018,g/ml,g/ml
8,0.0,2.5e-05,370.9085,61.59917499999999,Sta,MMS,yeast,06-20-2018,g/ml,g/ml
9,1.8e-07,2.5e-05,420.69049999999993,61.59917499999999,Sta,MMS,yeast,06-20-2018,g/ml,g/ml
10,3.6e-07,2.5e-05,305.338375,61.59917499999999,Sta,MMS,yeast,06-20-2018,g/ml,g/ml
11,5.4e-07,2.5e-05,192.710625,61.59917499999999,Sta,MMS,yeast,06-20-2018,g/ml,g/ml
12,7.2e-07,2.5e-05,27.143624999999986,61.59917499999999,Sta,MMS,yeast,06-20-2018,g/ml,g/ml
13,9e-07,2.5e-05,4.226749999999996,61.59917499999999,Sta,MMS,yeast,06-20-2018,g/ml,g/ml
14,1.08e-06,2.5e-05,2.761499999999998,61.59917499999999,Sta,MMS,yeast,06-20-2018,g/ml,g/ml
15,1.26e-06,2.5e-05,2.878,61.59917499999999,Sta,MMS,yeast,06-20-2018,g/ml,g/ml
16,0.0,5e-05,285.26300000000003,61.59917499999999,Sta,MMS,yeast,06-20-2018,g/ml,g/ml
17,1.8e-07,5e-05,330.49512500000003,61.59917499999999,Sta,MMS,yeast,06-20-2018,g/ml,g/ml
18,3.6e-07,5e-05,211.83349999999996,61.59917499999999,Sta,MMS,yeast,06-20-2018,g/ml,g/ml
19,5.4e-07,5e-05,88.27337500000002,61.59917499999999,Sta,MMS,yeast,06-20-2018,g/ml,g/ml
20,7.2e-07,5e-05,10.408875000000009,61.59917499999999,Sta,MMS,yeast,06-20-2018,g/ml,g/ml
21,9e-07,5e-05,2.288250000000005,61.59917499999999,Sta,MMS,yeast,06-20-2018,g/ml,g/ml
22,1.08e-06,5e-05,3.5047500000000014,61.59917499999999,Sta,MMS,yeast,06-20-2018,g/ml,g/ml
23,1.26e-06,5e-05,1.2398749999999836,61.59917499999999,Sta,MMS,yeast,06-20-2018,g/ml,g/ml
24,0.0,7.500000000000001e-05,226.258875,61.59917499999999,Sta,MMS,yeast,06-20-2018,g/ml,g/ml
25,1.8e-07,7.500000000000001e-05,259.014,61.59917499999999,Sta,MMS,yeast,06-20-2018,g/ml,g/ml
26,3.6e-07,7.500000000000001e-05,122.1865,61.59917499999999,Sta,MMS,yeast,06-20-2018,g/ml,g/ml
27,5.4e-07,7.500000000000001e-05,12.309625000000011,61.59917499999999,Sta,MMS,yeast,06-20-2018,g/ml,g/ml
28,7.2e-07,7.500000000000001e-05,6.717124999999996,61.59917499999999,Sta,MMS,yeast,06-20-2018,g/ml,g/ml
29,9e-07,7.500000000000001e-05,0.3884999999999934,61.59917499999999,Sta,MMS,yeast,06-20-2018,g/ml,g/ml
30,1.08e-06,7.500000000000001e-05,2.9068749999999994,61.59917499999999,Sta,MMS,yeast,06-20-2018,g/ml,g/ml
31,1.26e-06,7.500000000000001e-05,0.1632499999999908,61.59917499999999,Sta,MMS,yeast,06-20-2018,g/ml,g/ml
32,0.0,0.0001,69.054125,61.59917499999999,Sta,MMS,yeast,06-20-2018,g/ml,g/ml
33,1.8e-07,0.0001,44.99325000000002,61.59917499999999,Sta,MMS,yeast,06-20-2018,g/ml,g/ml
34,3.6e-07,0.0001,19.422124999999994,61.59917499999999,Sta,MMS,yeast,06-20-2018,g/ml,g/ml
35,5.4e-07,0.0001,12.849874999999997,61.59917499999999,Sta,MMS,yeast,06-20-2018,g/ml,g/ml
36,7.2e-07,0.0001,4.9766249999999985,61.59917499999999,Sta,MMS,yeast,06-20-2018,g/ml,g/ml
37,9e-07,0.0001,27.230999999999995,61.59917499999999,Sta,MMS,yeast,06-20-2018,g/ml,g/ml
38,1.08e-06,0.0001,2.7734999999999843,61.59917499999999,Sta,MMS,yeast,06-20-2018,g/ml,g/ml
39,1.26e-06,0.0001,4.150625000000005,61.59917499999999,Sta,MMS,yeast,06-20-2018,g/ml,g/ml
40,0.0,0.000125,19.007874999999984,61.59917499999999,Sta,MMS,yeast,06-20-2018,g/ml,g/ml
41,1.8e-07,0.000125,9.355249999999998,61.59917499999999,Sta,MMS,yeast,06-20-2018,g/ml,g/ml
42,3.6e-07,0.000125,8.043374999999997,61.59917499999999,Sta,MMS,yeast,06-20-2018,g/ml,g/ml
43,5.4e-07,0.000125,4.592249999999993,61.59917499999999,Sta,MMS,yeast,06-20-2018,g/ml,g/ml
44,7.2e-07,0.000125,6.587500000000006,61.59917499999999,Sta,MMS,yeast,06-20-2018,g/ml,g/ml
45,9e-07,0.000125,11.549374999999998,61.59917499999999,Sta,MMS,yeast,06-20-2018,g/ml,g/ml
46,1.08e-06,0.000125,4.670875000000024,61.59917499999999,Sta,MMS,yeast,06-20-2018,g/ml,g/ml
47,1.26e-06,0.000125,2.3862499999999898,61.59917499999999,Sta,MMS,yeast,06-20-2018,g/ml,g/ml
48,0.0,0.00015000000000000001,0.772750000000002,61.59917499999999,Sta,MMS,yeast,06-20-2018,g/ml,g/ml
49,1.8e-07,0.00015000000000000001,3.210374999999999,61.59917499999999,Sta,MMS,yeast,06-20-2018,g/ml,g/ml
50,3.6e-07,0.00015000000000000001,1.8987499999999926,61.59917499999999,Sta,MMS,yeast,06-20-2018,g/ml,g/ml
51,5.4e-07,0.00015000000000000001,3.4081249999999983,61.59917499999999,Sta,MMS,yeast,06-20-2018,g/ml,g/ml
52,7.2e-07,0.00015000000000000001,2.533750000000012,61.59917499999999,Sta,MMS,yeast,06-20-2018,g/ml,g/ml
53,9e-07,0.00015000000000000001,7.241749999999996,61.59917499999999,Sta,MMS,yeast,06-20-2018,g/ml,g/ml
54,1.08e-06,0.00015000000000000001,3.412000000000006,61.59917499999999,Sta,MMS,yeast,06-20-2018,g/ml,g/ml
55,1.26e-06,0.00015000000000000001,3.9353749999999934,61.59917499999999,Sta,MMS,yeast,06-20-2018,g/ml,g/ml
56,0.0,0.000175,2.4495000000000147,61.59917499999999,Sta,MMS,yeast,06-20-2018,g/ml,g/ml
57,1.8e-07,0.000175,1.9891249999999872,61.59917499999999,Sta,MMS,yeast,06-20-2018,g/ml,g/ml
58,3.6e-07,0.000175,2.355000000000004,61.59917499999999,Sta,MMS,yeast,06-20-2018,g/ml,g/ml
59,5.4e-07,0.000175,3.4066250000000053,61.59917499999999,Sta,MMS,yeast,06-20-2018,g/ml,g/ml
60,7.2e-07,0.000175,2.608125000000001,61.59917499999999,Sta,MMS,yeast,06-20-2018,g/ml,g/ml
61,9e-07,0.000175,7.257374999999996,61.59917499999999,Sta,MMS,yeast,06-20-2018,g/ml,g/ml
62,1.08e-06,0.000175,3.4174999999999898,61.59917499999999,Sta,MMS,yeast,06-20-2018,g/ml,g/ml
63,1.26e-06,0.000175,3.9626249999999885,61.59917499999999,Sta,MMS,yeast,06-20-2018,g/ml,g/ml
