,drug2.conc,drug1.conc,effect,effect.95ci,drug1,drug2,sample,expt.date,drug1.units,drug2.units
0,0.0,0.0,455.742625,57.276775,Sta,Lit,yeast,06-20-2018,g/ml,g/ml
1,1.8e-07,0.0,448.408375,57.276775,Sta,Lit,yeast,06-20-2018,g/ml,g/ml
2,3.6e-07,0.0,430.14599999999996,57.276775,Sta,Lit,yeast,06-20-2018,g/ml,g/ml
3,5.4e-07,0.0,321.7477500000001,57.276775,Sta,Lit,yeast,06-20-2018,g/ml,g/ml
4,7.2e-07,0.0,161.27562500000005,57.276775,Sta,Lit,yeast,06-20-2018,g/ml,g/ml
5,9e-07,0.0,21.289874999999967,57.276775,Sta,Lit,yeast,06-20-2018,g/ml,g/ml
6,1.08e-06,0.0,1.1965000000000003,57.276775,Sta,Lit,yeast,06-20-2018,g/ml,g/ml
7,1.26e-06,0.0,1.7481250000000017,57.276775,Sta,Lit,yeast,06-20-2018,g/ml,g/ml
8,0.0,0.0006428571428571428,406.87850000000003,57.276775,Sta,Lit,yeast,06-20-2018,g/ml,g/ml
9,1.8e-07,0.0006428571428571428,409.2103750000001,57.276775,Sta,Lit,yeast,06-20-2018,g/ml,g/ml
10,3.6e-07,0.0006428571428571428,360.61474999999996,57.276775,Sta,Lit,yeast,06-20-2018,g/ml,g/ml
11,5.4e-07,0.0006428571428571428,244.25474999999994,57.276775,Sta,Lit,yeast,06-20-2018,g/ml,g/ml
12,7.2e-07,0.0006428571428571428,77.384875,57.276775,Sta,Lit,yeast,06-20-2018,g/ml,g/ml
13,9e-07,0.0006428571428571428,14.884624999999971,57.276775,Sta,Lit,yeast,06-20-2018,g/ml,g/ml
14,1.08e-06,0.0006428571428571428,1.4203749999999928,57.276775,Sta,Lit,yeast,06-20-2018,g/ml,g/ml
15,1.26e-06,0.0006428571428571428,1.5463749999999976,57.276775,Sta,Lit,yeast,06-20-2018,g/ml,g/ml
16,0.0,0.0012857142857142856,366.987125,57.276775,Sta,Lit,yeast,06-20-2018,g/ml,g/ml
17,1.8e-07,0.0012857142857142856,353.70225,57.276775,Sta,Lit,yeast,06-20-2018,g/ml,g/ml
18,3.6e-07,0.0012857142857142856,296.260125,57.276775,Sta,Lit,yeast,06-20-2018,g/ml,g/ml
19,5.4e-07,0.0012857142857142856,148.65237499999995,57.276775,Sta,Lit,yeast,06-20-2018,g/ml,g/ml
20,7.2e-07,0.0012857142857142856,35.396625,57.276775,Sta,Lit,yeast,06-20-2018,g/ml,g/ml
21,9e-07,0.0012857142857142856,7.479624999999999,57.276775,Sta,Lit,yeast,06-20-2018,g/ml,g/ml
22,1.08e-06,0.0012857142857142856,1.3911249999999882,57.276775,Sta,Lit,yeast,06-20-2018,g/ml,g/ml
23,1.26e-06,0.0012857142857142856,1.1302499999999895,57.276775,Sta,Lit,yeast,06-20-2018,g/ml,g/ml
24,0.0,0.0019285714285714284,314.46450000000004,57.276775,Sta,Lit,yeast,06-20-2018,g/ml,g/ml
25,1.8e-07,0.0019285714285714284,288.29974999999996,57.276775,Sta,Lit,yeast,06-20-2018,g/ml,g/ml
26,3.6e-07,0.0019285714285714284,216.68499999999995,57.276775,Sta,Lit,yeast,06-20-2018,g/ml,g/ml
27,5.4e-07,0.0019285714285714284,76.47562500000001,57.276775,Sta,Lit,yeast,06-20-2018,g/ml,g/ml
28,7.2e-07,0.0019285714285714284,11.866124999999982,57.276775,Sta,Lit,yeast,06-20-2018,g/ml,g/ml
29,9e-07,0.0019285714285714284,3.7388750000000073,57.276775,Sta,Lit,yeast,06-20-2018,g/ml,g/ml
30,1.08e-06,0.0019285714285714284,1.378124999999983,57.276775,Sta,Lit,yeast,06-20-2018,g/ml,g/ml
31,1.26e-06,0.0019285714285714284,1.6968749999999915,57.276775,Sta,Lit,yeast,06-20-2018,g/ml,g/ml
32,0.0,0.0025714285714285713,248.55812500000002,57.276775,Sta,Lit,yeast,06-20-2018,g/ml,g/ml
33,1.8e-07,0.0025714285714285713,213.225125,57.276775,Sta,Lit,yeast,06-20-2018,g/ml,g/ml
34,3.6e-07,0.0025714285714285713,150.735,57.276775,Sta,Lit,yeast,06-20-2018,g/ml,g/ml
35,5.4e-07,0.0025714285714285713,42.12025,57.276775,Sta,Lit,yeast,06-20-2018,g/ml,g/ml
36,7.2e-07,0.0025714285714285713,11.393499999999989,57.276775,Sta,Lit,yeast,06-20-2018,g/ml,g/ml
37,9e-07,0.0025714285714285713,5.345250000000007,57.276775,Sta,Lit,yeast,06-20-2018,g/ml,g/ml
38,1.08e-06,0.0025714285714285713,0.0,57.276775,Sta,Lit,yeast,06-20-2018,g/ml,g/ml
39,1.26e-06,0.0025714285714285713,2.970249999999993,57.276775,Sta,Lit,yeast,06-20-2018,g/ml,g/ml
40,0.0,0.0032142857142857142,181.45099999999996,57.276775,Sta,Lit,yeast,06-20-2018,g/ml,g/ml
41,1.8e-07,0.0032142857142857142,145.84550000000002,57.276775,Sta,Lit,yeast,06-20-2018,g/ml,g/ml
42,3.6e-07,0.0032142857142857142,101.35049999999998,57.276775,Sta,Lit,yeast,06-20-2018,g/ml,g/ml
43,5.4e-07,0.0032142857142857142,30.255124999999992,57.276775,Sta,Lit,yeast,06-20-2018,g/ml,g/ml
44,7.2e-07,0.0032142857142857142,3.6430000000000007,57.276775,Sta,Lit,yeast,06-20-2018,g/ml,g/ml
45,9e-07,0.0032142857142857142,3.9122500000000002,57.276775,Sta,Lit,yeast,06-20-2018,g/ml,g/ml
46,1.08e-06,0.0032142857142857142,1.0037499999999966,57.276775,Sta,Lit,yeast,06-20-2018,g/ml,g/ml
47,1.26e-06,0.0032142857142857142,2.791375000000002,57.276775,Sta,Lit,yeast,06-20-2018,g/ml,g/ml
48,0.0,0.0038571428571428567,147.98287500000004,57.276775,Sta,Lit,yeast,06-20-2018,g/ml,g/ml
49,1.8e-07,0.0038571428571428567,105.73262500000001,57.276775,Sta,Lit,yeast,06-20-2018,g/ml,g/ml
50,3.6e-07,0.0038571428571428567,73.27550000000002,57.276775,Sta,Lit,yeast,06-20-2018,g/ml,g/ml
51,5.4e-07,0.0038571428571428567,26.317125000000004,57.276775,Sta,Lit,yeast,06-20-2018,g/ml,g/ml
52,7.2e-07,0.0038571428571428567,8.521375000000006,57.276775,Sta,Lit,yeast,06-20-2018,g/ml,g/ml
53,9e-07,0.0038571428571428567,3.224249999999998,57.276775,Sta,Lit,yeast,06-20-2018,g/ml,g/ml
54,1.08e-06,0.0038571428571428567,0.2701250000000073,57.276775,Sta,Lit,yeast,06-20-2018,g/ml,g/ml
55,1.26e-06,0.0038571428571428567,6.117374999999981,57.276775,Sta,Lit,yeast,06-20-2018,g/ml,g/ml
56,0.0,0.0045,101.72537499999999,57.276775,Sta,Lit,yeast,06-20-2018,g/ml,g/ml
57,1.8e-07,0.0045,78.310375,57.276775,Sta,Lit,yeast,06-20-2018,g/ml,g/ml
58,3.6e-07,0.0045,48.23075,57.276775,Sta,Lit,yeast,06-20-2018,g/ml,g/ml
59,5.4e-07,0.0045,17.658749999999998,57.276775,Sta,Lit,yeast,06-20-2018,g/ml,g/ml
60,7.2e-07,0.0045,6.516500000000008,57.276775,Sta,Lit,yeast,06-20-2018,g/ml,g/ml
61,9e-07,0.0045,4.114750000000001,57.276775,Sta,Lit,yeast,06-20-2018,g/ml,g/ml
62,1.08e-06,0.0045,0.2621249999999975,57.276775,Sta,Lit,yeast,06-20-2018,g/ml,g/ml
63,1.26e-06,0.0045,1.8583750000000094,57.276775,Sta,Lit,yeast,06-20-2018,g/ml,g/ml
