,drug2.conc,drug1.conc,effect,effect.95ci,drug1,drug2,sample,expt.date,drug1.units,drug2.units
0,0.0,0.0,430.18750000000006,56.12726250000001,Sta,Cyc,yeast,06-20-2018,g/ml,g/ml
1,1.8e-07,0.0,416.92725,56.12726250000001,Sta,Cyc,yeast,06-20-2018,g/ml,g/ml
2,3.6e-07,0.0,406.35862500000013,56.12726250000001,Sta,Cyc,yeast,06-20-2018,g/ml,g/ml
3,5.4e-07,0.0,339.62012500000003,56.12726250000001,Sta,Cyc,yeast,06-20-2018,g/ml,g/ml
4,7.2e-07,0.0,251.20387500000004,56.12726250000001,Sta,Cyc,yeast,06-20-2018,g/ml,g/ml
5,9e-07,0.0,116.59887499999999,56.12726250000001,Sta,Cyc,yeast,06-20-2018,g/ml,g/ml
6,1.08e-06,0.0,17.374750000000006,56.12726250000001,Sta,Cyc,yeast,06-20-2018,g/ml,g/ml
7,1.26e-06,0.0,0.0,56.12726250000001,Sta,Cyc,yeast,06-20-2018,g/ml,g/ml
8,0.0,1.3e-07,392.70324999999997,56.12726250000001,Sta,Cyc,yeast,06-20-2018,g/ml,g/ml
9,1.8e-07,1.3e-07,376.581,56.12726250000001,Sta,Cyc,yeast,06-20-2018,g/ml,g/ml
10,3.6e-07,1.3e-07,366.57062500000006,56.12726250000001,Sta,Cyc,yeast,06-20-2018,g/ml,g/ml
11,5.4e-07,1.3e-07,333.78637499999996,56.12726250000001,Sta,Cyc,yeast,06-20-2018,g/ml,g/ml
12,7.2e-07,1.3e-07,267.52575,56.12726250000001,Sta,Cyc,yeast,06-20-2018,g/ml,g/ml
13,9e-07,1.3e-07,165.77362500000004,56.12726250000001,Sta,Cyc,yeast,06-20-2018,g/ml,g/ml
14,1.08e-06,1.3e-07,101.58887499999997,56.12726250000001,Sta,Cyc,yeast,06-20-2018,g/ml,g/ml
15,1.26e-06,1.3e-07,9.973124999999982,56.12726250000001,Sta,Cyc,yeast,06-20-2018,g/ml,g/ml
16,0.0,2.6e-07,327.04025,56.12726250000001,Sta,Cyc,yeast,06-20-2018,g/ml,g/ml
17,1.8e-07,2.6e-07,314.23525,56.12726250000001,Sta,Cyc,yeast,06-20-2018,g/ml,g/ml
18,3.6e-07,2.6e-07,314.00487499999997,56.12726250000001,Sta,Cyc,yeast,06-20-2018,g/ml,g/ml
19,5.4e-07,2.6e-07,281.33125,56.12726250000001,Sta,Cyc,yeast,06-20-2018,g/ml,g/ml
20,7.2e-07,2.6e-07,229.71912500000002,56.12726250000001,Sta,Cyc,yeast,06-20-2018,g/ml,g/ml
21,9e-07,2.6e-07,176.40437500000002,56.12726250000001,Sta,Cyc,yeast,06-20-2018,g/ml,g/ml
22,1.08e-06,2.6e-07,91.71400000000003,56.12726250000001,Sta,Cyc,yeast,06-20-2018,g/ml,g/ml
23,1.26e-06,2.6e-07,44.41075000000001,56.12726250000001,Sta,Cyc,yeast,06-20-2018,g/ml,g/ml
24,0.0,3.8999999999999997e-07,249.33274999999998,56.12726250000001,Sta,Cyc,yeast,06-20-2018,g/ml,g/ml
25,1.8e-07,3.8999999999999997e-07,238.945,56.12726250000001,Sta,Cyc,yeast,06-20-2018,g/ml,g/ml
26,3.6e-07,3.8999999999999997e-07,230.77475000000004,56.12726250000001,Sta,Cyc,yeast,06-20-2018,g/ml,g/ml
27,5.4e-07,3.8999999999999997e-07,204.85037499999999,56.12726250000001,Sta,Cyc,yeast,06-20-2018,g/ml,g/ml
28,7.2e-07,3.8999999999999997e-07,165.83937500000002,56.12726250000001,Sta,Cyc,yeast,06-20-2018,g/ml,g/ml
29,9e-07,3.8999999999999997e-07,121.48400000000001,56.12726250000001,Sta,Cyc,yeast,06-20-2018,g/ml,g/ml
30,1.08e-06,3.8999999999999997e-07,64.77612499999998,56.12726250000001,Sta,Cyc,yeast,06-20-2018,g/ml,g/ml
31,1.26e-06,3.8999999999999997e-07,23.005375000000015,56.12726250000001,Sta,Cyc,yeast,06-20-2018,g/ml,g/ml
32,0.0,5.2e-07,172.13874999999996,56.12726250000001,Sta,Cyc,yeast,06-20-2018,g/ml,g/ml
33,1.8e-07,5.2e-07,161.64862499999992,56.12726250000001,Sta,Cyc,yeast,06-20-2018,g/ml,g/ml
34,3.6e-07,5.2e-07,141.5595,56.12726250000001,Sta,Cyc,yeast,06-20-2018,g/ml,g/ml
35,5.4e-07,5.2e-07,117.429125,56.12726250000001,Sta,Cyc,yeast,06-20-2018,g/ml,g/ml
36,7.2e-07,5.2e-07,96.43862500000003,56.12726250000001,Sta,Cyc,yeast,06-20-2018,g/ml,g/ml
37,9e-07,5.2e-07,62.159875,56.12726250000001,Sta,Cyc,yeast,06-20-2018,g/ml,g/ml
38,1.08e-06,5.2e-07,32.73437499999997,56.12726250000001,Sta,Cyc,yeast,06-20-2018,g/ml,g/ml
39,1.26e-06,5.2e-07,12.304249999999968,56.12726250000001,Sta,Cyc,yeast,06-20-2018,g/ml,g/ml
40,0.0,6.5e-07,117.01087500000003,56.12726250000001,Sta,Cyc,yeast,06-20-2018,g/ml,g/ml
41,1.8e-07,6.5e-07,109.12412499999999,56.12726250000001,Sta,Cyc,yeast,06-20-2018,g/ml,g/ml
42,3.6e-07,6.5e-07,97.59949999999998,56.12726250000001,Sta,Cyc,yeast,06-20-2018,g/ml,g/ml
43,5.4e-07,6.5e-07,68.28999999999996,56.12726250000001,Sta,Cyc,yeast,06-20-2018,g/ml,g/ml
44,7.2e-07,6.5e-07,52.36812499999999,56.12726250000001,Sta,Cyc,yeast,06-20-2018,g/ml,g/ml
45,9e-07,6.5e-07,39.9785,56.12726250000001,Sta,Cyc,yeast,06-20-2018,g/ml,g/ml
46,1.08e-06,6.5e-07,14.70799999999997,56.12726250000001,Sta,Cyc,yeast,06-20-2018,g/ml,g/ml
47,1.26e-06,6.5e-07,8.911749999999984,56.12726250000001,Sta,Cyc,yeast,06-20-2018,g/ml,g/ml
48,0.0,7.799999999999999e-07,54.85424999999998,56.12726250000001,Sta,Cyc,yeast,06-20-2018,g/ml,g/ml
49,1.8e-07,7.799999999999999e-07,48.17662499999997,56.12726250000001,Sta,Cyc,yeast,06-20-2018,g/ml,g/ml
50,3.6e-07,7.799999999999999e-07,44.82499999999999,56.12726250000001,Sta,Cyc,yeast,06-20-2018,g/ml,g/ml
51,5.4e-07,7.799999999999999e-07,27.44749999999999,56.12726250000001,Sta,Cyc,yeast,06-20-2018,g/ml,g/ml
52,7.2e-07,7.799999999999999e-07,32.56925000000001,56.12726250000001,Sta,Cyc,yeast,06-20-2018,g/ml,g/ml
53,9e-07,7.799999999999999e-07,10.940124999999966,56.12726250000001,Sta,Cyc,yeast,06-20-2018,g/ml,g/ml
54,1.08e-06,7.799999999999999e-07,5.485749999999996,56.12726250000001,Sta,Cyc,yeast,06-20-2018,g/ml,g/ml
55,1.26e-06,7.799999999999999e-07,4.486750000000001,56.12726250000001,Sta,Cyc,yeast,06-20-2018,g/ml,g/ml
56,0.0,9.100000000000001e-07,36.78312500000001,56.12726250000001,Sta,Cyc,yeast,06-20-2018,g/ml,g/ml
57,1.8e-07,9.100000000000001e-07,29.230000000000018,56.12726250000001,Sta,Cyc,yeast,06-20-2018,g/ml,g/ml
58,3.6e-07,9.100000000000001e-07,21.72075000000001,56.12726250000001,Sta,Cyc,yeast,06-20-2018,g/ml,g/ml
59,5.4e-07,9.100000000000001e-07,15.342249999999979,56.12726250000001,Sta,Cyc,yeast,06-20-2018,g/ml,g/ml
60,7.2e-07,9.100000000000001e-07,12.414249999999981,56.12726250000001,Sta,Cyc,yeast,06-20-2018,g/ml,g/ml
61,9e-07,9.100000000000001e-07,4.240000000000009,56.12726250000001,Sta,Cyc,yeast,06-20-2018,g/ml,g/ml
62,1.08e-06,9.100000000000001e-07,2.731625000000008,56.12726250000001,Sta,Cyc,yeast,06-20-2018,g/ml,g/ml
63,1.26e-06,9.100000000000001e-07,2.2292500000000075,56.12726250000001,Sta,Cyc,yeast,06-20-2018,g/ml,g/ml
