,drug2.conc,drug1.conc,effect,effect.95ci,drug1,drug2,sample,expt.date,drug1.units,drug2.units
0,0.0,0.0,396.04587500000014,51.93911250000001,Tac,5FU,yeast,06-20-2018,g/ml,g/ml
1,1.5714285714285715e-05,0.0,345.046375,51.93911250000001,Tac,5FU,yeast,06-20-2018,g/ml,g/ml
2,3.142857142857143e-05,0.0,289.63975000000005,51.93911250000001,Tac,5FU,yeast,06-20-2018,g/ml,g/ml
3,4.714285714285714e-05,0.0,286.54449999999997,51.93911250000001,Tac,5FU,yeast,06-20-2018,g/ml,g/ml
4,6.285714285714286e-05,0.0,219.48850000000002,51.93911250000001,Tac,5FU,yeast,06-20-2018,g/ml,g/ml
5,7.857142857142858e-05,0.0,128.09237499999998,51.93911250000001,Tac,5FU,yeast,06-20-2018,g/ml,g/ml
6,9.428571428571429e-05,0.0,121.14874999999998,51.93911250000001,Tac,5FU,yeast,06-20-2018,g/ml,g/ml
7,0.00011,0.0,83.878375,51.93911250000001,Tac,5FU,yeast,06-20-2018,g/ml,g/ml
8,0.0,4e-06,213.97599999999997,51.93911250000001,Tac,5FU,yeast,06-20-2018,g/ml,g/ml
9,1.5714285714285715e-05,4e-06,174.60350000000003,51.93911250000001,Tac,5FU,yeast,06-20-2018,g/ml,g/ml
10,3.142857142857143e-05,4e-06,124.032625,51.93911250000001,Tac,5FU,yeast,06-20-2018,g/ml,g/ml
11,4.714285714285714e-05,4e-06,111.03325000000001,51.93911250000001,Tac,5FU,yeast,06-20-2018,g/ml,g/ml
12,6.285714285714286e-05,4e-06,77.03075000000001,51.93911250000001,Tac,5FU,yeast,06-20-2018,g/ml,g/ml
13,7.857142857142858e-05,4e-06,65.87187499999999,51.93911250000001,Tac,5FU,yeast,06-20-2018,g/ml,g/ml
14,9.428571428571429e-05,4e-06,47.945374999999984,51.93911250000001,Tac,5FU,yeast,06-20-2018,g/ml,g/ml
15,0.00011,4e-06,61.24974999999998,51.93911250000001,Tac,5FU,yeast,06-20-2018,g/ml,g/ml
16,0.0,8e-06,124.44300000000001,51.93911250000001,Tac,5FU,yeast,06-20-2018,g/ml,g/ml
17,1.5714285714285715e-05,8e-06,83.760875,51.93911250000001,Tac,5FU,yeast,06-20-2018,g/ml,g/ml
18,3.142857142857143e-05,8e-06,54.202500000000015,51.93911250000001,Tac,5FU,yeast,06-20-2018,g/ml,g/ml
19,4.714285714285714e-05,8e-06,48.994,51.93911250000001,Tac,5FU,yeast,06-20-2018,g/ml,g/ml
20,6.285714285714286e-05,8e-06,28.814750000000004,51.93911250000001,Tac,5FU,yeast,06-20-2018,g/ml,g/ml
21,7.857142857142858e-05,8e-06,26.911125000000027,51.93911250000001,Tac,5FU,yeast,06-20-2018,g/ml,g/ml
22,9.428571428571429e-05,8e-06,20.369749999999982,51.93911250000001,Tac,5FU,yeast,06-20-2018,g/ml,g/ml
23,0.00011,8e-06,38.272249999999985,51.93911250000001,Tac,5FU,yeast,06-20-2018,g/ml,g/ml
24,0.0,1.2e-05,81.19837499999997,51.93911250000001,Tac,5FU,yeast,06-20-2018,g/ml,g/ml
25,1.5714285714285715e-05,1.2e-05,43.765750000000025,51.93911250000001,Tac,5FU,yeast,06-20-2018,g/ml,g/ml
26,3.142857142857143e-05,1.2e-05,28.38175000000001,51.93911250000001,Tac,5FU,yeast,06-20-2018,g/ml,g/ml
27,4.714285714285714e-05,1.2e-05,23.66587499999997,51.93911250000001,Tac,5FU,yeast,06-20-2018,g/ml,g/ml
28,6.285714285714286e-05,1.2e-05,17.495374999999996,51.93911250000001,Tac,5FU,yeast,06-20-2018,g/ml,g/ml
29,7.857142857142858e-05,1.2e-05,7.749625000000009,51.93911250000001,Tac,5FU,yeast,06-20-2018,g/ml,g/ml
30,9.428571428571429e-05,1.2e-05,13.167750000000012,51.93911250000001,Tac,5FU,yeast,06-20-2018,g/ml,g/ml
31,0.00011,1.2e-05,21.05937499999999,51.93911250000001,Tac,5FU,yeast,06-20-2018,g/ml,g/ml
32,0.0,1.6e-05,56.182499999999976,51.93911250000001,Tac,5FU,yeast,06-20-2018,g/ml,g/ml
33,1.5714285714285715e-05,1.6e-05,29.89262500000001,51.93911250000001,Tac,5FU,yeast,06-20-2018,g/ml,g/ml
34,3.142857142857143e-05,1.6e-05,20.503749999999997,51.93911250000001,Tac,5FU,yeast,06-20-2018,g/ml,g/ml
35,4.714285714285714e-05,1.6e-05,21.536374999999992,51.93911250000001,Tac,5FU,yeast,06-20-2018,g/ml,g/ml
36,6.285714285714286e-05,1.6e-05,7.862000000000023,51.93911250000001,Tac,5FU,yeast,06-20-2018,g/ml,g/ml
37,7.857142857142858e-05,1.6e-05,9.489375000000024,51.93911250000001,Tac,5FU,yeast,06-20-2018,g/ml,g/ml
38,9.428571428571429e-05,1.6e-05,7.648500000000013,51.93911250000001,Tac,5FU,yeast,06-20-2018,g/ml,g/ml
39,0.00011,1.6e-05,26.846625000000046,51.93911250000001,Tac,5FU,yeast,06-20-2018,g/ml,g/ml
40,0.0,1.9999999999999998e-05,38.068250000000035,51.93911250000001,Tac,5FU,yeast,06-20-2018,g/ml,g/ml
41,1.5714285714285715e-05,1.9999999999999998e-05,17.976625000000013,51.93911250000001,Tac,5FU,yeast,06-20-2018,g/ml,g/ml
42,3.142857142857143e-05,1.9999999999999998e-05,13.429250000000025,51.93911250000001,Tac,5FU,yeast,06-20-2018,g/ml,g/ml
43,4.714285714285714e-05,1.9999999999999998e-05,12.275374999999997,51.93911250000001,Tac,5FU,yeast,06-20-2018,g/ml,g/ml
44,6.285714285714286e-05,1.9999999999999998e-05,3.799500000000009,51.93911250000001,Tac,5FU,yeast,06-20-2018,g/ml,g/ml
45,7.857142857142858e-05,1.9999999999999998e-05,5.780624999999986,51.93911250000001,Tac,5FU,yeast,06-20-2018,g/ml,g/ml
46,9.428571428571429e-05,1.9999999999999998e-05,6.2463750000000005,51.93911250000001,Tac,5FU,yeast,06-20-2018,g/ml,g/ml
47,0.00011,1.9999999999999998e-05,12.450375000000037,51.93911250000001,Tac,5FU,yeast,06-20-2018,g/ml,g/ml
48,0.0,2.4e-05,32.085499999999996,51.93911250000001,Tac,5FU,yeast,06-20-2018,g/ml,g/ml
49,1.5714285714285715e-05,2.4e-05,15.478874999999988,51.93911250000001,Tac,5FU,yeast,06-20-2018,g/ml,g/ml
50,3.142857142857143e-05,2.4e-05,11.704750000000018,51.93911250000001,Tac,5FU,yeast,06-20-2018,g/ml,g/ml
51,4.714285714285714e-05,2.4e-05,11.29525000000001,51.93911250000001,Tac,5FU,yeast,06-20-2018,g/ml,g/ml
52,6.285714285714286e-05,2.4e-05,3.188500000000019,51.93911250000001,Tac,5FU,yeast,06-20-2018,g/ml,g/ml
53,7.857142857142858e-05,2.4e-05,5.23875000000001,51.93911250000001,Tac,5FU,yeast,06-20-2018,g/ml,g/ml
54,9.428571428571429e-05,2.4e-05,8.245000000000005,51.93911250000001,Tac,5FU,yeast,06-20-2018,g/ml,g/ml
55,0.00011,2.4e-05,18.03562500000001,51.93911250000001,Tac,5FU,yeast,06-20-2018,g/ml,g/ml
56,0.0,2.8e-05,18.263124999999974,51.93911250000001,Tac,5FU,yeast,06-20-2018,g/ml,g/ml
57,1.5714285714285715e-05,2.8e-05,9.156250000000028,51.93911250000001,Tac,5FU,yeast,06-20-2018,g/ml,g/ml
58,3.142857142857143e-05,2.8e-05,5.647625000000005,51.93911250000001,Tac,5FU,yeast,06-20-2018,g/ml,g/ml
59,4.714285714285714e-05,2.8e-05,4.109375000000014,51.93911250000001,Tac,5FU,yeast,06-20-2018,g/ml,g/ml
60,6.285714285714286e-05,2.8e-05,1.4418750000000102,51.93911250000001,Tac,5FU,yeast,06-20-2018,g/ml,g/ml
61,7.857142857142858e-05,2.8e-05,3.6726250000000107,51.93911250000001,Tac,5FU,yeast,06-20-2018,g/ml,g/ml
62,9.428571428571429e-05,2.8e-05,0.0,51.93911250000001,Tac,5FU,yeast,06-20-2018,g/ml,g/ml
63,0.00011,2.8e-05,28.48150000000001,51.93911250000001,Tac,5FU,yeast,06-20-2018,g/ml,g/ml
