drug1.conc,drug2.conc,effect,effect.95ci,drug1,drug2,drug1.units,drug2.units,expt.date,sample
0.75,0.05,20.614476999999997,1.0,Tafenoquine,Artesunate,uM,uM,144,plasmodium_falciparum_3D7
0.75,0.025,65.27273000000001,1.0,Tafenoquine,Artesunate,uM,uM,144,plasmodium_falciparum_3D7
0.75,0.0125,59.4569,1.0,Tafenoquine,Artesunate,uM,uM,144,plasmodium_falciparum_3D7
0.75,0.00625,49.482918,1.0,Tafenoquine,Artesunate,uM,uM,144,plasmodium_falciparum_3D7
0.75,0.003125,58.622692,1.0,Tafenoquine,Artesunate,uM,uM,144,plasmodium_falciparum_3D7
0.75,0.0015625,34.437016,1.0,Tafenoquine,Artesunate,uM,uM,144,plasmodium_falciparum_3D7
0.75,0.00078125,26.62381,1.0,Tafenoquine,Artesunate,uM,uM,144,plasmodium_falciparum_3D7
0.75,0.000390625,69.60074,1.0,Tafenoquine,Artesunate,uM,uM,144,plasmodium_falciparum_3D7
0.75,0.000195375,28.21268,1.0,Tafenoquine,Artesunate,uM,uM,144,plasmodium_falciparum_3D7
0.75,0.0,88.48014,1.0,Tafenoquine,Artesunate,uM,uM,144,plasmodium_falciparum_3D7
0.375,0.025,114.7535,1.0,Tafenoquine,Artesunate,uM,uM,144,plasmodium_falciparum_3D7
0.375,0.00078125,117.93553999999999,1.0,Tafenoquine,Artesunate,uM,uM,144,plasmodium_falciparum_3D7
0.1875,0.05,86.31936999999999,1.0,Tafenoquine,Artesunate,uM,uM,144,plasmodium_falciparum_3D7
0.1875,0.025,110.49213999999999,1.0,Tafenoquine,Artesunate,uM,uM,144,plasmodium_falciparum_3D7
0.1875,0.0125,69.42659,1.0,Tafenoquine,Artesunate,uM,uM,144,plasmodium_falciparum_3D7
0.1875,0.00625,67.23571,1.0,Tafenoquine,Artesunate,uM,uM,144,plasmodium_falciparum_3D7
0.1875,0.0015625,98.875534,1.0,Tafenoquine,Artesunate,uM,uM,144,plasmodium_falciparum_3D7
0.1875,0.00078125,93.41660999999999,1.0,Tafenoquine,Artesunate,uM,uM,144,plasmodium_falciparum_3D7
0.1875,0.000195375,43.90359,1.0,Tafenoquine,Artesunate,uM,uM,144,plasmodium_falciparum_3D7
0.1875,0.0,104.60321,1.0,Tafenoquine,Artesunate,uM,uM,144,plasmodium_falciparum_3D7
0.09375,0.05,77.8031,1.0,Tafenoquine,Artesunate,uM,uM,144,plasmodium_falciparum_3D7
0.09375,0.025,114.40733999999999,1.0,Tafenoquine,Artesunate,uM,uM,144,plasmodium_falciparum_3D7
0.09375,0.000195375,108.55067,1.0,Tafenoquine,Artesunate,uM,uM,144,plasmodium_falciparum_3D7
0.046875,0.05,61.243576000000004,1.0,Tafenoquine,Artesunate,uM,uM,144,plasmodium_falciparum_3D7
0.046875,0.025,32.276237,1.0,Tafenoquine,Artesunate,uM,uM,144,plasmodium_falciparum_3D7
0.046875,0.00625,39.747585,1.0,Tafenoquine,Artesunate,uM,uM,144,plasmodium_falciparum_3D7
0.046875,0.003125,97.13616,1.0,Tafenoquine,Artesunate,uM,uM,144,plasmodium_falciparum_3D7
0.046875,0.0015625,114.03538999999999,1.0,Tafenoquine,Artesunate,uM,uM,144,plasmodium_falciparum_3D7
0.046875,0.00078125,97.87361999999999,1.0,Tafenoquine,Artesunate,uM,uM,144,plasmodium_falciparum_3D7
0.046875,0.0,102.24463,1.0,Tafenoquine,Artesunate,uM,uM,144,plasmodium_falciparum_3D7
0.0234375,0.05,56.868267,1.0,Tafenoquine,Artesunate,uM,uM,144,plasmodium_falciparum_3D7
0.0234375,0.025,86.66982,1.0,Tafenoquine,Artesunate,uM,uM,144,plasmodium_falciparum_3D7
0.0234375,0.0125,83.829636,1.0,Tafenoquine,Artesunate,uM,uM,144,plasmodium_falciparum_3D7
0.0234375,0.00625,102.25753,1.0,Tafenoquine,Artesunate,uM,uM,144,plasmodium_falciparum_3D7
0.01171875,0.05,10.689944,1.0,Tafenoquine,Artesunate,uM,uM,144,plasmodium_falciparum_3D7
0.01171875,0.025,5.17512,1.0,Tafenoquine,Artesunate,uM,uM,144,plasmodium_falciparum_3D7
0.01171875,0.0125,67.49586,1.0,Tafenoquine,Artesunate,uM,uM,144,plasmodium_falciparum_3D7
0.01171875,0.00625,94.571175,1.0,Tafenoquine,Artesunate,uM,uM,144,plasmodium_falciparum_3D7
0.01171875,0.000195375,100.65146,1.0,Tafenoquine,Artesunate,uM,uM,144,plasmodium_falciparum_3D7
0.005859375,0.05,25.602547,1.0,Tafenoquine,Artesunate,uM,uM,144,plasmodium_falciparum_3D7
0.005859375,0.025,12.730322,1.0,Tafenoquine,Artesunate,uM,uM,144,plasmodium_falciparum_3D7
0.005859375,0.0125,47.861796999999996,1.0,Tafenoquine,Artesunate,uM,uM,144,plasmodium_falciparum_3D7
0.005859375,0.00625,109.51818,1.0,Tafenoquine,Artesunate,uM,uM,144,plasmodium_falciparum_3D7
0.005859375,0.003125,96.1923,1.0,Tafenoquine,Artesunate,uM,uM,144,plasmodium_falciparum_3D7
0.00292975,0.05,39.031628000000005,1.0,Tafenoquine,Artesunate,uM,uM,144,plasmodium_falciparum_3D7
0.00292975,0.025,49.58612,1.0,Tafenoquine,Artesunate,uM,uM,144,plasmodium_falciparum_3D7
0.00292975,0.0125,79.38767,1.0,Tafenoquine,Artesunate,uM,uM,144,plasmodium_falciparum_3D7
0.00292975,0.000390625,73.06659,1.0,Tafenoquine,Artesunate,uM,uM,144,plasmodium_falciparum_3D7
0.00292975,0.000195375,113.07002,1.0,Tafenoquine,Artesunate,uM,uM,144,plasmodium_falciparum_3D7
0.0,0.05,99.09484,1.0,Tafenoquine,Artesunate,uM,uM,144,plasmodium_falciparum_3D7
