,drug2.conc,drug1.conc,effect,effect.95ci,drug1,drug2,sample,expt.date,drug1.units,drug2.units
0,0.0,0.0,421.66499999999996,54.0214125,Tam,Tac,yeast,06-20-2018,g/ml,g/ml
1,4e-07,0.0,411.75649999999996,54.0214125,Tam,Tac,yeast,06-20-2018,g/ml,g/ml
2,8e-07,0.0,407.89874999999995,54.0214125,Tam,Tac,yeast,06-20-2018,g/ml,g/ml
3,1.2e-06,0.0,396.84337500000004,54.0214125,Tam,Tac,yeast,06-20-2018,g/ml,g/ml
4,1.6e-06,0.0,391.28312500000004,54.0214125,Tam,Tac,yeast,06-20-2018,g/ml,g/ml
5,2e-06,0.0,355.22587500000003,54.0214125,Tam,Tac,yeast,06-20-2018,g/ml,g/ml
6,2.4e-06,0.0,325.41525,54.0214125,Tam,Tac,yeast,06-20-2018,g/ml,g/ml
7,2.8e-06,0.0,271.618375,54.0214125,Tam,Tac,yeast,06-20-2018,g/ml,g/ml
8,0.0,1.5714285714285715e-05,355.92650000000003,54.0214125,Tam,Tac,yeast,06-20-2018,g/ml,g/ml
9,4e-07,1.5714285714285715e-05,347.903625,54.0214125,Tam,Tac,yeast,06-20-2018,g/ml,g/ml
10,8e-07,1.5714285714285715e-05,352.95775,54.0214125,Tam,Tac,yeast,06-20-2018,g/ml,g/ml
11,1.2e-06,1.5714285714285715e-05,334.79925000000003,54.0214125,Tam,Tac,yeast,06-20-2018,g/ml,g/ml
12,1.6e-06,1.5714285714285715e-05,286.62162499999994,54.0214125,Tam,Tac,yeast,06-20-2018,g/ml,g/ml
13,2e-06,1.5714285714285715e-05,75.78162499999996,54.0214125,Tam,Tac,yeast,06-20-2018,g/ml,g/ml
14,2.4e-06,1.5714285714285715e-05,11.347624999999994,54.0214125,Tam,Tac,yeast,06-20-2018,g/ml,g/ml
15,2.8e-06,1.5714285714285715e-05,2.066625000000002,54.0214125,Tam,Tac,yeast,06-20-2018,g/ml,g/ml
16,0.0,3.142857142857143e-05,322.17974999999996,54.0214125,Tam,Tac,yeast,06-20-2018,g/ml,g/ml
17,4e-07,3.142857142857143e-05,306.684,54.0214125,Tam,Tac,yeast,06-20-2018,g/ml,g/ml
18,8e-07,3.142857142857143e-05,272.710125,54.0214125,Tam,Tac,yeast,06-20-2018,g/ml,g/ml
19,1.2e-06,3.142857142857143e-05,264.757375,54.0214125,Tam,Tac,yeast,06-20-2018,g/ml,g/ml
20,1.6e-06,3.142857142857143e-05,183.72125,54.0214125,Tam,Tac,yeast,06-20-2018,g/ml,g/ml
21,2e-06,3.142857142857143e-05,25.19637499999999,54.0214125,Tam,Tac,yeast,06-20-2018,g/ml,g/ml
22,2.4e-06,3.142857142857143e-05,2.5041249999999877,54.0214125,Tam,Tac,yeast,06-20-2018,g/ml,g/ml
23,2.8e-06,3.142857142857143e-05,0.5142500000000041,54.0214125,Tam,Tac,yeast,06-20-2018,g/ml,g/ml
24,0.0,4.714285714285714e-05,310.086375,54.0214125,Tam,Tac,yeast,06-20-2018,g/ml,g/ml
25,4e-07,4.714285714285714e-05,293.261625,54.0214125,Tam,Tac,yeast,06-20-2018,g/ml,g/ml
26,8e-07,4.714285714285714e-05,217.108,54.0214125,Tam,Tac,yeast,06-20-2018,g/ml,g/ml
27,1.2e-06,4.714285714285714e-05,116.86912499999997,54.0214125,Tam,Tac,yeast,06-20-2018,g/ml,g/ml
28,1.6e-06,4.714285714285714e-05,12.539375000000007,54.0214125,Tam,Tac,yeast,06-20-2018,g/ml,g/ml
29,2e-06,4.714285714285714e-05,3.904749999999993,54.0214125,Tam,Tac,yeast,06-20-2018,g/ml,g/ml
30,2.4e-06,4.714285714285714e-05,0.14587499999998954,54.0214125,Tam,Tac,yeast,06-20-2018,g/ml,g/ml
31,2.8e-06,4.714285714285714e-05,0.0,54.0214125,Tam,Tac,yeast,06-20-2018,g/ml,g/ml
32,0.0,6.285714285714286e-05,262.482125,54.0214125,Tam,Tac,yeast,06-20-2018,g/ml,g/ml
33,4e-07,6.285714285714286e-05,187.17362500000002,54.0214125,Tam,Tac,yeast,06-20-2018,g/ml,g/ml
34,8e-07,6.285714285714286e-05,67.02050000000003,54.0214125,Tam,Tac,yeast,06-20-2018,g/ml,g/ml
35,1.2e-06,6.285714285714286e-05,9.261749999999992,54.0214125,Tam,Tac,yeast,06-20-2018,g/ml,g/ml
36,1.6e-06,6.285714285714286e-05,5.4087499999999835,54.0214125,Tam,Tac,yeast,06-20-2018,g/ml,g/ml
37,2e-06,6.285714285714286e-05,2.344875000000002,54.0214125,Tam,Tac,yeast,06-20-2018,g/ml,g/ml
38,2.4e-06,6.285714285714286e-05,1.3416250000000076,54.0214125,Tam,Tac,yeast,06-20-2018,g/ml,g/ml
39,2.8e-06,6.285714285714286e-05,1.0632499999999965,54.0214125,Tam,Tac,yeast,06-20-2018,g/ml,g/ml
40,0.0,7.857142857142858e-05,117.94974999999997,54.0214125,Tam,Tac,yeast,06-20-2018,g/ml,g/ml
41,4e-07,7.857142857142858e-05,29.191499999999962,54.0214125,Tam,Tac,yeast,06-20-2018,g/ml,g/ml
42,8e-07,7.857142857142858e-05,8.421125000000004,54.0214125,Tam,Tac,yeast,06-20-2018,g/ml,g/ml
43,1.2e-06,7.857142857142858e-05,3.931999999999988,54.0214125,Tam,Tac,yeast,06-20-2018,g/ml,g/ml
44,1.6e-06,7.857142857142858e-05,2.8903749999999917,54.0214125,Tam,Tac,yeast,06-20-2018,g/ml,g/ml
45,2e-06,7.857142857142858e-05,3.1043750000000045,54.0214125,Tam,Tac,yeast,06-20-2018,g/ml,g/ml
46,2.4e-06,7.857142857142858e-05,2.0153749999999917,54.0214125,Tam,Tac,yeast,06-20-2018,g/ml,g/ml
47,2.8e-06,7.857142857142858e-05,0.0158750000000083,54.0214125,Tam,Tac,yeast,06-20-2018,g/ml,g/ml
48,0.0,9.428571428571429e-05,45.58949999999999,54.0214125,Tam,Tac,yeast,06-20-2018,g/ml,g/ml
49,4e-07,9.428571428571429e-05,19.77687499999999,54.0214125,Tam,Tac,yeast,06-20-2018,g/ml,g/ml
50,8e-07,9.428571428571429e-05,12.35250000000002,54.0214125,Tam,Tac,yeast,06-20-2018,g/ml,g/ml
51,1.2e-06,9.428571428571429e-05,14.507125000000002,54.0214125,Tam,Tac,yeast,06-20-2018,g/ml,g/ml
52,1.6e-06,9.428571428571429e-05,9.695374999999984,54.0214125,Tam,Tac,yeast,06-20-2018,g/ml,g/ml
53,2e-06,9.428571428571429e-05,6.227249999999984,54.0214125,Tam,Tac,yeast,06-20-2018,g/ml,g/ml
54,2.4e-06,9.428571428571429e-05,5.994375000000005,54.0214125,Tam,Tac,yeast,06-20-2018,g/ml,g/ml
55,2.8e-06,9.428571428571429e-05,8.472625000000008,54.0214125,Tam,Tac,yeast,06-20-2018,g/ml,g/ml
56,0.0,0.00011,51.775125,54.0214125,Tam,Tac,yeast,06-20-2018,g/ml,g/ml
57,4e-07,0.00011,37.52087499999999,54.0214125,Tam,Tac,yeast,06-20-2018,g/ml,g/ml
58,8e-07,0.00011,17.458124999999995,54.0214125,Tam,Tac,yeast,06-20-2018,g/ml,g/ml
59,1.2e-06,0.00011,16.93950000000001,54.0214125,Tam,Tac,yeast,06-20-2018,g/ml,g/ml
60,1.6e-06,0.00011,22.47399999999999,54.0214125,Tam,Tac,yeast,06-20-2018,g/ml,g/ml
61,2e-06,0.00011,17.047750000000008,54.0214125,Tam,Tac,yeast,06-20-2018,g/ml,g/ml
62,2.4e-06,0.00011,20.02925000000002,54.0214125,Tam,Tac,yeast,06-20-2018,g/ml,g/ml
63,2.8e-06,0.00011,12.677624999999978,54.0214125,Tam,Tac,yeast,06-20-2018,g/ml,g/ml
