,drug2.conc,drug1.conc,effect,effect.95ci,drug1,drug2,sample,expt.date,drug1.units,drug2.units
0,0.0,0.0,445.81112499999995,55.9433375,Ter,Lat,yeast,06-20-2018,g/ml,g/ml
1,1.4999999999999998e-06,0.0,307.805875,55.9433375,Ter,Lat,yeast,06-20-2018,g/ml,g/ml
2,2.9999999999999997e-06,0.0,223.13800000000003,55.9433375,Ter,Lat,yeast,06-20-2018,g/ml,g/ml
3,4.499999999999999e-06,0.0,145.59850000000006,55.9433375,Ter,Lat,yeast,06-20-2018,g/ml,g/ml
4,5.999999999999999e-06,0.0,118.863,55.9433375,Ter,Lat,yeast,06-20-2018,g/ml,g/ml
5,7.499999999999999e-06,0.0,101.04124999999999,55.9433375,Ter,Lat,yeast,06-20-2018,g/ml,g/ml
6,8.999999999999999e-06,0.0,89.18062500000002,55.9433375,Ter,Lat,yeast,06-20-2018,g/ml,g/ml
7,1.05e-05,0.0,83.40537499999996,55.9433375,Ter,Lat,yeast,06-20-2018,g/ml,g/ml
8,0.0,2e-06,442.85299999999995,55.9433375,Ter,Lat,yeast,06-20-2018,g/ml,g/ml
9,1.4999999999999998e-06,2e-06,171.390625,55.9433375,Ter,Lat,yeast,06-20-2018,g/ml,g/ml
10,2.9999999999999997e-06,2e-06,74.136875,55.9433375,Ter,Lat,yeast,06-20-2018,g/ml,g/ml
11,4.499999999999999e-06,2e-06,13.741249999999994,55.9433375,Ter,Lat,yeast,06-20-2018,g/ml,g/ml
12,5.999999999999999e-06,2e-06,9.332624999999979,55.9433375,Ter,Lat,yeast,06-20-2018,g/ml,g/ml
13,7.499999999999999e-06,2e-06,7.4061249999999745,55.9433375,Ter,Lat,yeast,06-20-2018,g/ml,g/ml
14,8.999999999999999e-06,2e-06,6.094124999999977,55.9433375,Ter,Lat,yeast,06-20-2018,g/ml,g/ml
15,1.05e-05,2e-06,4.989749999999987,55.9433375,Ter,Lat,yeast,06-20-2018,g/ml,g/ml
16,0.0,4e-06,429.047,55.9433375,Ter,Lat,yeast,06-20-2018,g/ml,g/ml
17,1.4999999999999998e-06,4e-06,103.11375000000001,55.9433375,Ter,Lat,yeast,06-20-2018,g/ml,g/ml
18,2.9999999999999997e-06,4e-06,17.52449999999999,55.9433375,Ter,Lat,yeast,06-20-2018,g/ml,g/ml
19,4.499999999999999e-06,4e-06,6.839749999999995,55.9433375,Ter,Lat,yeast,06-20-2018,g/ml,g/ml
20,5.999999999999999e-06,4e-06,5.869124999999968,55.9433375,Ter,Lat,yeast,06-20-2018,g/ml,g/ml
21,7.499999999999999e-06,4e-06,4.4226249999999965,55.9433375,Ter,Lat,yeast,06-20-2018,g/ml,g/ml
22,8.999999999999999e-06,4e-06,4.261499999999998,55.9433375,Ter,Lat,yeast,06-20-2018,g/ml,g/ml
23,1.05e-05,4e-06,4.885125000000002,55.9433375,Ter,Lat,yeast,06-20-2018,g/ml,g/ml
24,0.0,6e-06,402.746125,55.9433375,Ter,Lat,yeast,06-20-2018,g/ml,g/ml
25,1.4999999999999998e-06,6e-06,53.80875,55.9433375,Ter,Lat,yeast,06-20-2018,g/ml,g/ml
26,2.9999999999999997e-06,6e-06,7.59837499999999,55.9433375,Ter,Lat,yeast,06-20-2018,g/ml,g/ml
27,4.499999999999999e-06,6e-06,3.6047499999999957,55.9433375,Ter,Lat,yeast,06-20-2018,g/ml,g/ml
28,5.999999999999999e-06,6e-06,1.9222499999999911,55.9433375,Ter,Lat,yeast,06-20-2018,g/ml,g/ml
29,7.499999999999999e-06,6e-06,3.1887499999999847,55.9433375,Ter,Lat,yeast,06-20-2018,g/ml,g/ml
30,8.999999999999999e-06,6e-06,2.9497499999999945,55.9433375,Ter,Lat,yeast,06-20-2018,g/ml,g/ml
31,1.05e-05,6e-06,2.7821249999999935,55.9433375,Ter,Lat,yeast,06-20-2018,g/ml,g/ml
32,0.0,8e-06,348.47912499999995,55.9433375,Ter,Lat,yeast,06-20-2018,g/ml,g/ml
33,1.4999999999999998e-06,8e-06,17.65549999999999,55.9433375,Ter,Lat,yeast,06-20-2018,g/ml,g/ml
34,2.9999999999999997e-06,8e-06,3.815125000000009,55.9433375,Ter,Lat,yeast,06-20-2018,g/ml,g/ml
35,4.499999999999999e-06,8e-06,7.002125000000007,55.9433375,Ter,Lat,yeast,06-20-2018,g/ml,g/ml
36,5.999999999999999e-06,8e-06,1.545749999999984,55.9433375,Ter,Lat,yeast,06-20-2018,g/ml,g/ml
37,7.499999999999999e-06,8e-06,1.9453749999999985,55.9433375,Ter,Lat,yeast,06-20-2018,g/ml,g/ml
38,8.999999999999999e-06,8e-06,1.326999999999984,55.9433375,Ter,Lat,yeast,06-20-2018,g/ml,g/ml
39,1.05e-05,8e-06,2.4238750000000095,55.9433375,Ter,Lat,yeast,06-20-2018,g/ml,g/ml
40,0.0,9.999999999999999e-06,253.017875,55.9433375,Ter,Lat,yeast,06-20-2018,g/ml,g/ml
41,1.4999999999999998e-06,9.999999999999999e-06,11.468499999999992,55.9433375,Ter,Lat,yeast,06-20-2018,g/ml,g/ml
42,2.9999999999999997e-06,9.999999999999999e-06,2.7527499999999776,55.9433375,Ter,Lat,yeast,06-20-2018,g/ml,g/ml
43,4.499999999999999e-06,9.999999999999999e-06,1.4152499999999861,55.9433375,Ter,Lat,yeast,06-20-2018,g/ml,g/ml
44,5.999999999999999e-06,9.999999999999999e-06,0.5427499999999839,55.9433375,Ter,Lat,yeast,06-20-2018,g/ml,g/ml
45,7.499999999999999e-06,9.999999999999999e-06,0.0,55.9433375,Ter,Lat,yeast,06-20-2018,g/ml,g/ml
46,8.999999999999999e-06,9.999999999999999e-06,1.3204999999999814,55.9433375,Ter,Lat,yeast,06-20-2018,g/ml,g/ml
47,1.05e-05,9.999999999999999e-06,0.8464999999999918,55.9433375,Ter,Lat,yeast,06-20-2018,g/ml,g/ml
48,0.0,1.2e-05,107.115375,55.9433375,Ter,Lat,yeast,06-20-2018,g/ml,g/ml
49,1.4999999999999998e-06,1.2e-05,4.35275,55.9433375,Ter,Lat,yeast,06-20-2018,g/ml,g/ml
50,2.9999999999999997e-06,1.2e-05,5.078125,55.9433375,Ter,Lat,yeast,06-20-2018,g/ml,g/ml
51,4.499999999999999e-06,1.2e-05,3.413249999999991,55.9433375,Ter,Lat,yeast,06-20-2018,g/ml,g/ml
52,5.999999999999999e-06,1.2e-05,0.829624999999993,55.9433375,Ter,Lat,yeast,06-20-2018,g/ml,g/ml
53,7.499999999999999e-06,1.2e-05,0.7031249999999858,55.9433375,Ter,Lat,yeast,06-20-2018,g/ml,g/ml
54,8.999999999999999e-06,1.2e-05,0.8829999999999956,55.9433375,Ter,Lat,yeast,06-20-2018,g/ml,g/ml
55,1.05e-05,1.2e-05,1.3699999999999761,55.9433375,Ter,Lat,yeast,06-20-2018,g/ml,g/ml
56,0.0,1.4e-05,43.49399999999997,55.9433375,Ter,Lat,yeast,06-20-2018,g/ml,g/ml
57,1.4999999999999998e-06,1.4e-05,4.094624999999979,55.9433375,Ter,Lat,yeast,06-20-2018,g/ml,g/ml
58,2.9999999999999997e-06,1.4e-05,2.7838749999999806,55.9433375,Ter,Lat,yeast,06-20-2018,g/ml,g/ml
59,4.499999999999999e-06,1.4e-05,1.4178749999999951,55.9433375,Ter,Lat,yeast,06-20-2018,g/ml,g/ml
60,5.999999999999999e-06,1.4e-05,0.954874999999987,55.9433375,Ter,Lat,yeast,06-20-2018,g/ml,g/ml
61,7.499999999999999e-06,1.4e-05,0.04112499999997965,55.9433375,Ter,Lat,yeast,06-20-2018,g/ml,g/ml
62,8.999999999999999e-06,1.4e-05,0.9120000000000061,55.9433375,Ter,Lat,yeast,06-20-2018,g/ml,g/ml
63,1.05e-05,1.4e-05,1.5024999999999977,55.9433375,Ter,Lat,yeast,06-20-2018,g/ml,g/ml
