,drug2.conc,drug1.conc,effect,effect.95ci,drug1,drug2,sample,expt.date,drug1.units,drug2.units
0,0.0,0.0,359.276625,46.88001250000001,Ter,C3P,yeast,06-20-2018,g/ml,g/ml
1,1.4999999999999998e-06,0.0,250.58712500000001,46.88001250000001,Ter,C3P,yeast,06-20-2018,g/ml,g/ml
2,2.9999999999999997e-06,0.0,136.77937500000002,46.88001250000001,Ter,C3P,yeast,06-20-2018,g/ml,g/ml
3,4.499999999999999e-06,0.0,83.144875,46.88001250000001,Ter,C3P,yeast,06-20-2018,g/ml,g/ml
4,5.999999999999999e-06,0.0,64.49787500000001,46.88001250000001,Ter,C3P,yeast,06-20-2018,g/ml,g/ml
5,7.499999999999999e-06,0.0,52.73350000000001,46.88001250000001,Ter,C3P,yeast,06-20-2018,g/ml,g/ml
6,8.999999999999999e-06,0.0,36.444,46.88001250000001,Ter,C3P,yeast,06-20-2018,g/ml,g/ml
7,1.05e-05,0.0,26.177374999999998,46.88001250000001,Ter,C3P,yeast,06-20-2018,g/ml,g/ml
8,0.0,2.9999999999999997e-06,176.70625,46.88001250000001,Ter,C3P,yeast,06-20-2018,g/ml,g/ml
9,1.4999999999999998e-06,2.9999999999999997e-06,109.6845,46.88001250000001,Ter,C3P,yeast,06-20-2018,g/ml,g/ml
10,2.9999999999999997e-06,2.9999999999999997e-06,60.83200000000001,46.88001250000001,Ter,C3P,yeast,06-20-2018,g/ml,g/ml
11,4.499999999999999e-06,2.9999999999999997e-06,34.50837499999999,46.88001250000001,Ter,C3P,yeast,06-20-2018,g/ml,g/ml
12,5.999999999999999e-06,2.9999999999999997e-06,17.10074999999999,46.88001250000001,Ter,C3P,yeast,06-20-2018,g/ml,g/ml
13,7.499999999999999e-06,2.9999999999999997e-06,13.32050000000001,46.88001250000001,Ter,C3P,yeast,06-20-2018,g/ml,g/ml
14,8.999999999999999e-06,2.9999999999999997e-06,9.606375000000014,46.88001250000001,Ter,C3P,yeast,06-20-2018,g/ml,g/ml
15,1.05e-05,2.9999999999999997e-06,5.412750000000017,46.88001250000001,Ter,C3P,yeast,06-20-2018,g/ml,g/ml
16,0.0,5.999999999999999e-06,68.23149999999997,46.88001250000001,Ter,C3P,yeast,06-20-2018,g/ml,g/ml
17,1.4999999999999998e-06,5.999999999999999e-06,41.387499999999974,46.88001250000001,Ter,C3P,yeast,06-20-2018,g/ml,g/ml
18,2.9999999999999997e-06,5.999999999999999e-06,22.632125000000016,46.88001250000001,Ter,C3P,yeast,06-20-2018,g/ml,g/ml
19,4.499999999999999e-06,5.999999999999999e-06,15.312375000000003,46.88001250000001,Ter,C3P,yeast,06-20-2018,g/ml,g/ml
20,5.999999999999999e-06,5.999999999999999e-06,9.225375,46.88001250000001,Ter,C3P,yeast,06-20-2018,g/ml,g/ml
21,7.499999999999999e-06,5.999999999999999e-06,6.839500000000001,46.88001250000001,Ter,C3P,yeast,06-20-2018,g/ml,g/ml
22,8.999999999999999e-06,5.999999999999999e-06,3.9420000000000073,46.88001250000001,Ter,C3P,yeast,06-20-2018,g/ml,g/ml
23,1.05e-05,5.999999999999999e-06,2.576750000000004,46.88001250000001,Ter,C3P,yeast,06-20-2018,g/ml,g/ml
24,0.0,8.999999999999999e-06,38.96024999999999,46.88001250000001,Ter,C3P,yeast,06-20-2018,g/ml,g/ml
25,1.4999999999999998e-06,8.999999999999999e-06,20.658125,46.88001250000001,Ter,C3P,yeast,06-20-2018,g/ml,g/ml
26,2.9999999999999997e-06,8.999999999999999e-06,11.600875000000016,46.88001250000001,Ter,C3P,yeast,06-20-2018,g/ml,g/ml
27,4.499999999999999e-06,8.999999999999999e-06,8.619375000000005,46.88001250000001,Ter,C3P,yeast,06-20-2018,g/ml,g/ml
28,5.999999999999999e-06,8.999999999999999e-06,5.084000000000017,46.88001250000001,Ter,C3P,yeast,06-20-2018,g/ml,g/ml
29,7.499999999999999e-06,8.999999999999999e-06,3.843125000000015,46.88001250000001,Ter,C3P,yeast,06-20-2018,g/ml,g/ml
30,8.999999999999999e-06,8.999999999999999e-06,1.318249999999992,46.88001250000001,Ter,C3P,yeast,06-20-2018,g/ml,g/ml
31,1.05e-05,8.999999999999999e-06,2.1997499999999945,46.88001250000001,Ter,C3P,yeast,06-20-2018,g/ml,g/ml
32,0.0,1.1999999999999999e-05,23.730625000000018,46.88001250000001,Ter,C3P,yeast,06-20-2018,g/ml,g/ml
33,1.4999999999999998e-06,1.1999999999999999e-05,14.004125000000016,46.88001250000001,Ter,C3P,yeast,06-20-2018,g/ml,g/ml
34,2.9999999999999997e-06,1.1999999999999999e-05,6.822625000000002,46.88001250000001,Ter,C3P,yeast,06-20-2018,g/ml,g/ml
35,4.499999999999999e-06,1.1999999999999999e-05,5.132125000000002,46.88001250000001,Ter,C3P,yeast,06-20-2018,g/ml,g/ml
36,5.999999999999999e-06,1.1999999999999999e-05,3.2083750000000038,46.88001250000001,Ter,C3P,yeast,06-20-2018,g/ml,g/ml
37,7.499999999999999e-06,1.1999999999999999e-05,2.3821250000000163,46.88001250000001,Ter,C3P,yeast,06-20-2018,g/ml,g/ml
38,8.999999999999999e-06,1.1999999999999999e-05,1.1866250000000065,46.88001250000001,Ter,C3P,yeast,06-20-2018,g/ml,g/ml
39,1.05e-05,1.1999999999999999e-05,1.0463750000000118,46.88001250000001,Ter,C3P,yeast,06-20-2018,g/ml,g/ml
40,0.0,1.4999999999999999e-05,16.120250000000013,46.88001250000001,Ter,C3P,yeast,06-20-2018,g/ml,g/ml
41,1.4999999999999998e-06,1.4999999999999999e-05,9.251625000000004,46.88001250000001,Ter,C3P,yeast,06-20-2018,g/ml,g/ml
42,2.9999999999999997e-06,1.4999999999999999e-05,5.145125000000007,46.88001250000001,Ter,C3P,yeast,06-20-2018,g/ml,g/ml
43,4.499999999999999e-06,1.4999999999999999e-05,4.239999999999995,46.88001250000001,Ter,C3P,yeast,06-20-2018,g/ml,g/ml
44,5.999999999999999e-06,1.4999999999999999e-05,2.50162499999999,46.88001250000001,Ter,C3P,yeast,06-20-2018,g/ml,g/ml
45,7.499999999999999e-06,1.4999999999999999e-05,2.8999999999999915,46.88001250000001,Ter,C3P,yeast,06-20-2018,g/ml,g/ml
46,8.999999999999999e-06,1.4999999999999999e-05,0.0,46.88001250000001,Ter,C3P,yeast,06-20-2018,g/ml,g/ml
47,1.05e-05,1.4999999999999999e-05,0.20699999999999363,46.88001250000001,Ter,C3P,yeast,06-20-2018,g/ml,g/ml
48,0.0,1.7999999999999997e-05,12.379249999999999,46.88001250000001,Ter,C3P,yeast,06-20-2018,g/ml,g/ml
49,1.4999999999999998e-06,1.7999999999999997e-05,7.22337499999999,46.88001250000001,Ter,C3P,yeast,06-20-2018,g/ml,g/ml
50,2.9999999999999997e-06,1.7999999999999997e-05,3.5788750000000107,46.88001250000001,Ter,C3P,yeast,06-20-2018,g/ml,g/ml
51,4.499999999999999e-06,1.7999999999999997e-05,3.3122499999999917,46.88001250000001,Ter,C3P,yeast,06-20-2018,g/ml,g/ml
52,5.999999999999999e-06,1.7999999999999997e-05,2.0492500000000007,46.88001250000001,Ter,C3P,yeast,06-20-2018,g/ml,g/ml
53,7.499999999999999e-06,1.7999999999999997e-05,0.690250000000006,46.88001250000001,Ter,C3P,yeast,06-20-2018,g/ml,g/ml
54,8.999999999999999e-06,1.7999999999999997e-05,0.3640000000000043,46.88001250000001,Ter,C3P,yeast,06-20-2018,g/ml,g/ml
55,1.05e-05,1.7999999999999997e-05,0.7941250000000082,46.88001250000001,Ter,C3P,yeast,06-20-2018,g/ml,g/ml
56,0.0,2.1e-05,7.918875000000014,46.88001250000001,Ter,C3P,yeast,06-20-2018,g/ml,g/ml
57,1.4999999999999998e-06,2.1e-05,3.4937499999999915,46.88001250000001,Ter,C3P,yeast,06-20-2018,g/ml,g/ml
58,2.9999999999999997e-06,2.1e-05,2.5122500000000088,46.88001250000001,Ter,C3P,yeast,06-20-2018,g/ml,g/ml
59,4.499999999999999e-06,2.1e-05,1.5145000000000124,46.88001250000001,Ter,C3P,yeast,06-20-2018,g/ml,g/ml
60,5.999999999999999e-06,2.1e-05,1.6417500000000018,46.88001250000001,Ter,C3P,yeast,06-20-2018,g/ml,g/ml
61,7.499999999999999e-06,2.1e-05,1.3966250000000144,46.88001250000001,Ter,C3P,yeast,06-20-2018,g/ml,g/ml
62,8.999999999999999e-06,2.1e-05,1.206000000000003,46.88001250000001,Ter,C3P,yeast,06-20-2018,g/ml,g/ml
63,1.05e-05,2.1e-05,0.2892500000000098,46.88001250000001,Ter,C3P,yeast,06-20-2018,g/ml,g/ml
