,drug2.conc,drug1.conc,effect,effect.95ci,drug1,drug2,sample,expt.date,drug1.units,drug2.units
0,0.0,0.0,446.62750000000005,56.94870000000001,Tun,Lat,yeast,06-20-2018,g/ml,g/ml
1,5e-08,0.0,444.1217499999999,56.94870000000001,Tun,Lat,yeast,06-20-2018,g/ml,g/ml
2,1e-07,0.0,378.85575000000006,56.94870000000001,Tun,Lat,yeast,06-20-2018,g/ml,g/ml
3,1.5e-07,0.0,344.0925000000001,56.94870000000001,Tun,Lat,yeast,06-20-2018,g/ml,g/ml
4,2e-07,0.0,177.77275,56.94870000000001,Tun,Lat,yeast,06-20-2018,g/ml,g/ml
5,2.5e-07,0.0,148.5065,56.94870000000001,Tun,Lat,yeast,06-20-2018,g/ml,g/ml
6,3e-07,0.0,59.256875000000036,56.94870000000001,Tun,Lat,yeast,06-20-2018,g/ml,g/ml
7,3.5e-07,0.0,18.34024999999997,56.94870000000001,Tun,Lat,yeast,06-20-2018,g/ml,g/ml
8,0.0,2e-06,439.99637499999983,56.94870000000001,Tun,Lat,yeast,06-20-2018,g/ml,g/ml
9,5e-08,2e-06,443.4872499999999,56.94870000000001,Tun,Lat,yeast,06-20-2018,g/ml,g/ml
10,1e-07,2e-06,363.68875,56.94870000000001,Tun,Lat,yeast,06-20-2018,g/ml,g/ml
11,1.5e-07,2e-06,292.49525000000006,56.94870000000001,Tun,Lat,yeast,06-20-2018,g/ml,g/ml
12,2e-07,2e-06,107.12424999999999,56.94870000000001,Tun,Lat,yeast,06-20-2018,g/ml,g/ml
13,2.5e-07,2e-06,72.41300000000001,56.94870000000001,Tun,Lat,yeast,06-20-2018,g/ml,g/ml
14,3e-07,2e-06,59.597624999999994,56.94870000000001,Tun,Lat,yeast,06-20-2018,g/ml,g/ml
15,3.5e-07,2e-06,13.424500000000023,56.94870000000001,Tun,Lat,yeast,06-20-2018,g/ml,g/ml
16,0.0,4e-06,421.05575,56.94870000000001,Tun,Lat,yeast,06-20-2018,g/ml,g/ml
17,5e-08,4e-06,419.4323750000001,56.94870000000001,Tun,Lat,yeast,06-20-2018,g/ml,g/ml
18,1e-07,4e-06,331.854375,56.94870000000001,Tun,Lat,yeast,06-20-2018,g/ml,g/ml
19,1.5e-07,4e-06,151.614,56.94870000000001,Tun,Lat,yeast,06-20-2018,g/ml,g/ml
20,2e-07,4e-06,122.66287500000001,56.94870000000001,Tun,Lat,yeast,06-20-2018,g/ml,g/ml
21,2.5e-07,4e-06,58.09812499999998,56.94870000000001,Tun,Lat,yeast,06-20-2018,g/ml,g/ml
22,3e-07,4e-06,32.420375000000035,56.94870000000001,Tun,Lat,yeast,06-20-2018,g/ml,g/ml
23,3.5e-07,4e-06,32.777499999999975,56.94870000000001,Tun,Lat,yeast,06-20-2018,g/ml,g/ml
24,0.0,6e-06,397.73425,56.94870000000001,Tun,Lat,yeast,06-20-2018,g/ml,g/ml
25,5e-08,6e-06,390.964375,56.94870000000001,Tun,Lat,yeast,06-20-2018,g/ml,g/ml
26,1e-07,6e-06,305.322625,56.94870000000001,Tun,Lat,yeast,06-20-2018,g/ml,g/ml
27,1.5e-07,6e-06,176.61512499999995,56.94870000000001,Tun,Lat,yeast,06-20-2018,g/ml,g/ml
28,2e-07,6e-06,128.92325000000002,56.94870000000001,Tun,Lat,yeast,06-20-2018,g/ml,g/ml
29,2.5e-07,6e-06,39.07137499999996,56.94870000000001,Tun,Lat,yeast,06-20-2018,g/ml,g/ml
30,3e-07,6e-06,63.06887500000002,56.94870000000001,Tun,Lat,yeast,06-20-2018,g/ml,g/ml
31,3.5e-07,6e-06,19.64812500000002,56.94870000000001,Tun,Lat,yeast,06-20-2018,g/ml,g/ml
32,0.0,8e-06,349.74875,56.94870000000001,Tun,Lat,yeast,06-20-2018,g/ml,g/ml
33,5e-08,8e-06,326.74,56.94870000000001,Tun,Lat,yeast,06-20-2018,g/ml,g/ml
34,1e-07,8e-06,260.31575,56.94870000000001,Tun,Lat,yeast,06-20-2018,g/ml,g/ml
35,1.5e-07,8e-06,73.46562499999999,56.94870000000001,Tun,Lat,yeast,06-20-2018,g/ml,g/ml
36,2e-07,8e-06,39.37187499999999,56.94870000000001,Tun,Lat,yeast,06-20-2018,g/ml,g/ml
37,2.5e-07,8e-06,22.846750000000014,56.94870000000001,Tun,Lat,yeast,06-20-2018,g/ml,g/ml
38,3e-07,8e-06,16.52162500000003,56.94870000000001,Tun,Lat,yeast,06-20-2018,g/ml,g/ml
39,3.5e-07,8e-06,8.715874999999983,56.94870000000001,Tun,Lat,yeast,06-20-2018,g/ml,g/ml
40,0.0,9.999999999999999e-06,303.2437500000001,56.94870000000001,Tun,Lat,yeast,06-20-2018,g/ml,g/ml
41,5e-08,9.999999999999999e-06,233.75162500000002,56.94870000000001,Tun,Lat,yeast,06-20-2018,g/ml,g/ml
42,1e-07,9.999999999999999e-06,121.98012500000002,56.94870000000001,Tun,Lat,yeast,06-20-2018,g/ml,g/ml
43,1.5e-07,9.999999999999999e-06,41.585499999999996,56.94870000000001,Tun,Lat,yeast,06-20-2018,g/ml,g/ml
44,2e-07,9.999999999999999e-06,19.822624999999988,56.94870000000001,Tun,Lat,yeast,06-20-2018,g/ml,g/ml
45,2.5e-07,9.999999999999999e-06,12.176624999999973,56.94870000000001,Tun,Lat,yeast,06-20-2018,g/ml,g/ml
46,3e-07,9.999999999999999e-06,4.405499999999989,56.94870000000001,Tun,Lat,yeast,06-20-2018,g/ml,g/ml
47,3.5e-07,9.999999999999999e-06,2.0109999999999957,56.94870000000001,Tun,Lat,yeast,06-20-2018,g/ml,g/ml
48,0.0,1.2e-05,101.332,56.94870000000001,Tun,Lat,yeast,06-20-2018,g/ml,g/ml
49,5e-08,1.2e-05,63.611875000000026,56.94870000000001,Tun,Lat,yeast,06-20-2018,g/ml,g/ml
50,1e-07,1.2e-05,49.90887500000002,56.94870000000001,Tun,Lat,yeast,06-20-2018,g/ml,g/ml
51,1.5e-07,1.2e-05,17.276624999999967,56.94870000000001,Tun,Lat,yeast,06-20-2018,g/ml,g/ml
52,2e-07,1.2e-05,7.664625000000001,56.94870000000001,Tun,Lat,yeast,06-20-2018,g/ml,g/ml
53,2.5e-07,1.2e-05,4.462249999999997,56.94870000000001,Tun,Lat,yeast,06-20-2018,g/ml,g/ml
54,3e-07,1.2e-05,1.7592500000000086,56.94870000000001,Tun,Lat,yeast,06-20-2018,g/ml,g/ml
55,3.5e-07,1.2e-05,0.0,56.94870000000001,Tun,Lat,yeast,06-20-2018,g/ml,g/ml
56,0.0,1.4e-05,52.748125000000044,56.94870000000001,Tun,Lat,yeast,06-20-2018,g/ml,g/ml
57,5e-08,1.4e-05,37.421250000000015,56.94870000000001,Tun,Lat,yeast,06-20-2018,g/ml,g/ml
58,1e-07,1.4e-05,17.108499999999992,56.94870000000001,Tun,Lat,yeast,06-20-2018,g/ml,g/ml
59,1.5e-07,1.4e-05,8.933875,56.94870000000001,Tun,Lat,yeast,06-20-2018,g/ml,g/ml
60,2e-07,1.4e-05,3.515375000000006,56.94870000000001,Tun,Lat,yeast,06-20-2018,g/ml,g/ml
61,2.5e-07,1.4e-05,2.0604999999999905,56.94870000000001,Tun,Lat,yeast,06-20-2018,g/ml,g/ml
62,3e-07,1.4e-05,0.7365000000000208,56.94870000000001,Tun,Lat,yeast,06-20-2018,g/ml,g/ml
63,3.5e-07,1.4e-05,0.16100000000000136,56.94870000000001,Tun,Lat,yeast,06-20-2018,g/ml,g/ml
