,drug2.conc,drug1.conc,effect,effect.95ci,drug1,drug2,sample,expt.date,drug1.units,drug2.units
0,0.0,0.0,408.4183750000001,53.4634375,Tun,Fen,yeast,06-20-2018,g/ml,g/ml
1,5e-08,0.0,417.61199999999997,53.4634375,Tun,Fen,yeast,06-20-2018,g/ml,g/ml
2,1e-07,0.0,359.35225,53.4634375,Tun,Fen,yeast,06-20-2018,g/ml,g/ml
3,1.5e-07,0.0,305.27012499999995,53.4634375,Tun,Fen,yeast,06-20-2018,g/ml,g/ml
4,2e-07,0.0,192.57237499999997,53.4634375,Tun,Fen,yeast,06-20-2018,g/ml,g/ml
5,2.5e-07,0.0,132.07125000000002,53.4634375,Tun,Fen,yeast,06-20-2018,g/ml,g/ml
6,3e-07,0.0,58.133375,53.4634375,Tun,Fen,yeast,06-20-2018,g/ml,g/ml
7,3.5e-07,0.0,32.775499999999994,53.4634375,Tun,Fen,yeast,06-20-2018,g/ml,g/ml
8,0.0,2.2e-07,331.62799999999993,53.4634375,Tun,Fen,yeast,06-20-2018,g/ml,g/ml
9,5e-08,2.2e-07,333.005375,53.4634375,Tun,Fen,yeast,06-20-2018,g/ml,g/ml
10,1e-07,2.2e-07,300.90349999999995,53.4634375,Tun,Fen,yeast,06-20-2018,g/ml,g/ml
11,1.5e-07,2.2e-07,282.31424999999996,53.4634375,Tun,Fen,yeast,06-20-2018,g/ml,g/ml
12,2e-07,2.2e-07,218.05,53.4634375,Tun,Fen,yeast,06-20-2018,g/ml,g/ml
13,2.5e-07,2.2e-07,184.55925000000002,53.4634375,Tun,Fen,yeast,06-20-2018,g/ml,g/ml
14,3e-07,2.2e-07,96.593875,53.4634375,Tun,Fen,yeast,06-20-2018,g/ml,g/ml
15,3.5e-07,2.2e-07,38.58575000000002,53.4634375,Tun,Fen,yeast,06-20-2018,g/ml,g/ml
16,0.0,4.4e-07,318.457625,53.4634375,Tun,Fen,yeast,06-20-2018,g/ml,g/ml
17,5e-08,4.4e-07,326.67162499999995,53.4634375,Tun,Fen,yeast,06-20-2018,g/ml,g/ml
18,1e-07,4.4e-07,288.63699999999994,53.4634375,Tun,Fen,yeast,06-20-2018,g/ml,g/ml
19,1.5e-07,4.4e-07,274.419,53.4634375,Tun,Fen,yeast,06-20-2018,g/ml,g/ml
20,2e-07,4.4e-07,215.95849999999996,53.4634375,Tun,Fen,yeast,06-20-2018,g/ml,g/ml
21,2.5e-07,4.4e-07,189.29674999999997,53.4634375,Tun,Fen,yeast,06-20-2018,g/ml,g/ml
22,3e-07,4.4e-07,142.337625,53.4634375,Tun,Fen,yeast,06-20-2018,g/ml,g/ml
23,3.5e-07,4.4e-07,70.67199999999997,53.4634375,Tun,Fen,yeast,06-20-2018,g/ml,g/ml
24,0.0,6.6e-07,284.196625,53.4634375,Tun,Fen,yeast,06-20-2018,g/ml,g/ml
25,5e-08,6.6e-07,227.23824999999988,53.4634375,Tun,Fen,yeast,06-20-2018,g/ml,g/ml
26,1e-07,6.6e-07,229.34762500000005,53.4634375,Tun,Fen,yeast,06-20-2018,g/ml,g/ml
27,1.5e-07,6.6e-07,194.5095,53.4634375,Tun,Fen,yeast,06-20-2018,g/ml,g/ml
28,2e-07,6.6e-07,168.18725,53.4634375,Tun,Fen,yeast,06-20-2018,g/ml,g/ml
29,2.5e-07,6.6e-07,121.68512499999997,53.4634375,Tun,Fen,yeast,06-20-2018,g/ml,g/ml
30,3e-07,6.6e-07,71.608375,53.4634375,Tun,Fen,yeast,06-20-2018,g/ml,g/ml
31,3.5e-07,6.6e-07,13.435624999999987,53.4634375,Tun,Fen,yeast,06-20-2018,g/ml,g/ml
32,0.0,8.8e-07,143.56037500000002,53.4634375,Tun,Fen,yeast,06-20-2018,g/ml,g/ml
33,5e-08,8.8e-07,112.20774999999998,53.4634375,Tun,Fen,yeast,06-20-2018,g/ml,g/ml
34,1e-07,8.8e-07,100.26524999999995,53.4634375,Tun,Fen,yeast,06-20-2018,g/ml,g/ml
35,1.5e-07,8.8e-07,51.26887499999998,53.4634375,Tun,Fen,yeast,06-20-2018,g/ml,g/ml
36,2e-07,8.8e-07,9.813749999999985,53.4634375,Tun,Fen,yeast,06-20-2018,g/ml,g/ml
37,2.5e-07,8.8e-07,4.553249999999977,53.4634375,Tun,Fen,yeast,06-20-2018,g/ml,g/ml
38,3e-07,8.8e-07,3.9744999999999777,53.4634375,Tun,Fen,yeast,06-20-2018,g/ml,g/ml
39,3.5e-07,8.8e-07,1.304374999999979,53.4634375,Tun,Fen,yeast,06-20-2018,g/ml,g/ml
40,0.0,1.1e-06,48.85012499999996,53.4634375,Tun,Fen,yeast,06-20-2018,g/ml,g/ml
41,5e-08,1.1e-06,41.47674999999998,53.4634375,Tun,Fen,yeast,06-20-2018,g/ml,g/ml
42,1e-07,1.1e-06,18.173249999999996,53.4634375,Tun,Fen,yeast,06-20-2018,g/ml,g/ml
43,1.5e-07,1.1e-06,7.260624999999976,53.4634375,Tun,Fen,yeast,06-20-2018,g/ml,g/ml
44,2e-07,1.1e-06,2.7322499999999934,53.4634375,Tun,Fen,yeast,06-20-2018,g/ml,g/ml
45,2.5e-07,1.1e-06,1.9923749999999671,53.4634375,Tun,Fen,yeast,06-20-2018,g/ml,g/ml
46,3e-07,1.1e-06,1.1502499999999856,53.4634375,Tun,Fen,yeast,06-20-2018,g/ml,g/ml
47,3.5e-07,1.1e-06,0.5708750000000009,53.4634375,Tun,Fen,yeast,06-20-2018,g/ml,g/ml
48,0.0,1.32e-06,28.052749999999975,53.4634375,Tun,Fen,yeast,06-20-2018,g/ml,g/ml
49,5e-08,1.32e-06,13.411124999999998,53.4634375,Tun,Fen,yeast,06-20-2018,g/ml,g/ml
50,1e-07,1.32e-06,6.313124999999985,53.4634375,Tun,Fen,yeast,06-20-2018,g/ml,g/ml
51,1.5e-07,1.32e-06,5.2309999999999945,53.4634375,Tun,Fen,yeast,06-20-2018,g/ml,g/ml
52,2e-07,1.32e-06,1.8845000000000027,53.4634375,Tun,Fen,yeast,06-20-2018,g/ml,g/ml
53,2.5e-07,1.32e-06,1.6324999999999932,53.4634375,Tun,Fen,yeast,06-20-2018,g/ml,g/ml
54,3e-07,1.32e-06,0.0,53.4634375,Tun,Fen,yeast,06-20-2018,g/ml,g/ml
55,3.5e-07,1.32e-06,4.860374999999991,53.4634375,Tun,Fen,yeast,06-20-2018,g/ml,g/ml
56,0.0,1.54e-06,17.603125000000006,53.4634375,Tun,Fen,yeast,06-20-2018,g/ml,g/ml
57,5e-08,1.54e-06,10.287874999999985,53.4634375,Tun,Fen,yeast,06-20-2018,g/ml,g/ml
58,1e-07,1.54e-06,6.467124999999996,53.4634375,Tun,Fen,yeast,06-20-2018,g/ml,g/ml
59,1.5e-07,1.54e-06,6.024249999999995,53.4634375,Tun,Fen,yeast,06-20-2018,g/ml,g/ml
60,2e-07,1.54e-06,3.591124999999991,53.4634375,Tun,Fen,yeast,06-20-2018,g/ml,g/ml
61,2.5e-07,1.54e-06,2.2282499999999743,53.4634375,Tun,Fen,yeast,06-20-2018,g/ml,g/ml
62,3e-07,1.54e-06,0.4094999999999942,53.4634375,Tun,Fen,yeast,06-20-2018,g/ml,g/ml
63,3.5e-07,1.54e-06,1.0346249999999912,53.4634375,Tun,Fen,yeast,06-20-2018,g/ml,g/ml
