DCC_ID	DAT_ID
DCC0176	DAT00296
DCC0177	DAT00297
DCC0178	DAT00298
DCC0179	DAT00299
DCC0180	DAT00300
DCC0181	DAT00162
DCC0182	DAT00301
DCC0183	DAT00302
DCC0184	DAT00303
DCC0184	DAT00304
DCC0184	DAT00305
DCC0184	DAT00306
DCC0184	DAT00307
DCC0184	DAT00308
DCC0184	DAT00309
DCC0184	DAT00310
DCC0184	DAT00311
DCC0184	DAT00312
DCC0184	DAT00313
DCC0184	DAT00314
DCC0185	DAT00315
DCC0186	DAT00316
DCC0186	DAT00317
DCC0186	DAT00318
DCC0186	DAT00319
DCC0186	DAT00320
DCC0186	DAT00321
DCC0187	DAT00233
DCC0187	DAT00234
DCC0187	DAT00235
DCC0187	DAT00236
DCC0187	DAT00322
DCC0187	DAT00323
DCC0187	DAT00324
DCC0187	DAT00325
DCC0187	DAT00326
DCC0187	DAT00327
DCC0187	DAT00328
DCC0187	DAT00329
DCC0187	DAT00330
DCC0187	DAT00331
DCC0187	DAT00332
DCC0188	DAT00333
DCC0189	DAT00334
DCC0191	DAT00335
DCC0192	DAT00336
DCC0193	DAT00337
DCC0193	DAT00338
DCC0193	DAT00339
DCC0193	DAT00340
DCC0193	DAT00341
DCC0194	DAT00342
DCC0194	DAT00343
DCC0194	DAT00344
DCC0194	DAT00345
DCC0195	DAT00346
DCC0195	DAT00347
DCC0195	DAT00348
DCC0195	DAT00349
DCC0196	DAT00350
DCC0196	DAT00351
DCC0196	DAT00352
DCC0197	DAT00353
DCC0198	DAT00354
DCC0199	DAT00355
DCC0199	DAT00356
DCC0199	DAT00357
DCC0199	DAT00358
DCC0199	DAT00359
DCC0200	DAT00360
DCC0200	DAT00361
DCC0201	DAT00362
DCC0202	DAT00363
DCC0203	DAT00364
DCC0204	DAT00365
DCC0204	DAT00366
DCC0206	DAT00367
DCC0209	DAT00368
DCC0209	DAT00369
DCC0210	DAT00127
DCC0210	DAT00370
DCC0211	DAT00371
DCC0211	DAT00372
DCC0212	DAT00373
DCC0213	DAT00374
DCC0214	DAT00375
DCC0215	DAT00376
DCC0216	DAT00260
DCC0216	DAT00377
DCC0216	DAT00378
DCC0216	DAT00379
DCC0216	DAT00380
DCC0216	DAT00381
DCC0216	DAT00382
DCC0216	DAT00383
DCC0216	DAT00384
DCC0216	DAT00385
DCC0216	DAT00386
DCC0216	DAT00387
DCC0216	DAT00388
DCC0216	DAT00389
DCC0216	DAT00390
DCC0217	DAT00391
DCC0217	DAT00392
DCC0218	DAT00393
DCC0218	DAT00394
DCC0219	DAT00395
DCC0220	DAT00396
DCC0221	DAT00397
DCC0222	DAT00398
DCC0223	DAT00399
DCC0224	DAT00400
DCC0224	DAT00401
DCC0224	DAT00402
DCC0224	DAT00403
DCC0224	DAT00404
DCC0224	DAT00405
DCC0224	DAT00406
DCC0224	DAT00407
DCC0224	DAT00408
DCC0225	DAT00409
DCC0226	DAT00410
DCC0227	DAT00411
DCC0227	DAT00412
DCC0228	DAT00413
DCC0229	DAT00414
DCC0230	DAT00415
DCC0231	DAT00416
DCC0232	DAT00417
DCC0233	DAT00418
DCC0234	DAT00419
DCC0235	DAT00420
DCC0235	DAT00421
DCC0235	DAT00422
DCC0235	DAT00423
DCC0235	DAT00424
DCC0236	DAT00425
DCC0236	DAT00426
DCC0237	DAT00427
DCC0238	DAT00428
DCC0239	DAT00429
DCC0240	DAT00430
DCC0240	DAT00431
DCC0240	DAT00432
DCC0241	DAT00433
DCC0242	DAT00434
DCC0243	DAT00435
DCC0244	DAT00436
DCC0245	DAT00437
DCC0246	DAT00438
DCC0247	DAT00439
DCC0248	DAT00161
DCC0249	DAT00440
DCC0249	DAT00441
DCC0250	DAT00442
DCC0251	DAT00443
DCC0251	DAT00444
DCC0252	DAT00342
DCC0253	DAT00445
DCC0253	DAT00446
DCC0254	DAT00447
DCC0255	DAT00448
DCC0256	DAT00449
DCC0257	DAT00450
DCC0257	DAT00451
DCC0257	DAT00452
DCC0257	DAT00453
DCC0257	DAT00454
DCC0257	DAT00455
DCC0257	DAT00456
DCC0257	DAT00457
DCC0257	DAT00458
DCC0257	DAT00459
DCC0257	DAT00460
DCC0258	DAT00461
DCC0259	DAT00462
DCC0260	DAT00463
DCC0261	DAT00464
DCC0261	DAT00465
DCC0262	DAT00466
DCC0262	DAT00467
DCC0262	DAT00468
DCC0263	DAT00469
DCC0264	DAT00470
DCC0265	DAT00471
DCC0265	DAT00472
DCC0265	DAT00473
DCC0266	DAT00474
DCC0267	DAT00475
DCC0268	DAT00476
DCC0268	DAT00477
DCC0269	DAT00478
DCC0270	DAT00479
DCC0271	DAT00480
DCC0272	DAT00481
DCC0273	DAT00482
DCC0275	DAT00483
DCC0276	DAT00484
DCC0277	DAT00485
DCC0278	DAT00486
DCC0279	DAT00487
DCC0279	DAT00488
DCC0280	DAT00489
DCC0281	DAT00490
DCC0282	DAT00491
DCC0282	DAT00492
DCC0282	DAT00493
DCC0282	DAT00494
DCC0282	DAT00495
DCC0283	DAT00496
DCC0284	DAT00497
DCC0285	DAT00498
DCC0286	DAT00499
DCC0287	DAT00500
DCC0287	DAT00501
DCC0287	DAT00502
DCC0288	DAT00503
DCC0289	DAT00504
DCC0289	DAT00505
DCC0289	DAT00506
DCC0290	DAT00507
DCC0291	DAT00508
DCC0292	DAT00509
DCC0292	DAT00510
DCC0292	DAT00511
DCC0293	DAT00512
DCC0294	DAT00513
DCC0295	DAT00514
DCC0296	DAT00515
DCC0296	DAT00516
DCC0296	DAT00517
DCC0296	DAT00518
DCC0296	DAT00519
DCC0296	DAT00520
DCC0297	DAT00521
DCC0297	DAT00522
DCC0297	DAT00523
DCC0297	DAT00524
DCC0297	DAT00525
DCC0297	DAT00526
DCC0298	DAT00527
DCC0298	DAT00528
DCC0299	DAT00529
DCC0300	DAT00530
DCC0300	DAT00531
DCC0301	DAT00532
DCC0302	DAT00533
DCC0303	DAT00534
DCC0304	DAT00535
DCC0304	DAT00536
DCC0305	DAT00537
DCC0306	DAT00538
DCC0307	DAT00539
DCC0308	DAT00540
DCC0309	DAT00541
DCC0309	DAT00542
DCC0309	DAT00543
DCC0310	DAT00544
DCC0310	DAT00545
DCC0311	DAT00546
DCC0312	DAT00547
DCC0313	DAT00548
DCC0313	DAT00549
DCC0313	DAT00550
DCC0314	DAT00551
DCC0315	DAT00552
DCC0316	DAT00553
DCC0317	DAT00554
DCC0318	DAT00555
DCC0319	DAT00556
DCC0320	DAT00557
DCC0320	DAT00558
DCC0321	DAT00559
DCC0321	DAT00560
DCC0321	DAT00561
DCC0321	DAT00562
DCC0322	DAT00050
DCC0323	DAT00563
DCC0324	DAT00564
DCC0325	DAT00565
DCC0325	DAT00566
DCC0325	DAT00567
DCC0325	DAT00568
DCC0325	DAT00569
DCC0325	DAT00570
DCC0325	DAT00571
DCC0325	DAT00572
DCC0325	DAT00573
DCC0325	DAT00574
DCC0325	DAT00575
DCC0326	DAT00576
DCC0326	DAT00577
DCC0327	DAT00578
DCC0328	DAT00579
DCC0329	DAT00580
DCC0330	DAT00581
DCC0331	DAT00582
DCC0332	DAT00583
DCC0333	DAT00584
DCC0335	DAT00585
DCC0336	DAT00586
DCC0337	DAT00587
DCC0337	DAT00588
DCC0338	DAT00392
DCC0338	DAT00589
DCC0338	DAT00590
DCC0341	DAT00591
DCC0341	DAT00592
DCC0342	DAT00593
DCC0344	DAT00594
DCC0345	DAT00595
DCC0345	DAT00596
DCC0346	DAT00078
DCC0347	DAT00597
DCC0348	DAT00598
DCC0348	DAT00599
DCC0351	DAT00600
DCC0352	DAT00601
DCC0353	DAT00602
DCC0354	DAT00603
DCC0358	DAT00604
DCC0361	DAT00605
DCC0362	DAT00606
DCC0362	DAT00607
DCC0362	DAT00608
DCC0362	DAT00609
DCC0368	DAT00610
DCC0368	DAT00611
DCC0368	DAT00612
DCC0368	DAT00613
DCC0368	DAT00614
DCC0369	DAT00615
DCC0370	DAT00616
DCC0371	DAT00617
DCC0372	DAT00618
DCC0374	DAT00619
DCC0375	DAT00620
DCC0375	DAT00621
DCC0375	DAT00622
DCC0377	DAT00623
DCC0378	DAT00624
DCC0385	DAT01480
DCC0388	DAT01481
DCC0390	DAT01482
DCC0395	DAT01483
DCC0395	DAT01484
DCC0403	DAT01485
DCC0413	DAT01486
DCC0414	DAT01487
DCC0414	DAT01488
DCC0417	DAT01489
DCC0421	DAT00625
DCC0429	DAT00626
DCC0443	DAT01493
DCC0450	DAT01495
DCC0452	DAT01496
DCC0452	DAT01497
DCC0454	DAT01498
DCC0463	DAT01499
DCC0464	DAT01500
DCC0467	DAT01501
DCC0467	DAT01502
DCC0467	DAT01503
DCC0467	DAT01504
DCC0468	DAT01505
DCC0470	DAT01506
DCC0494	DAT01512
DCC0520	DAT01518
DCC0551	DAT01520
DCC0552	DAT00627
DCC0612	DAT01537
DCC0613	DAT00629
DCC0628	DAT01540
DCC0635	DAT01543
DCC0640	DAT01547
DCC0665	DAT01553
DCC0705	DAT01558
DCC0717	DAT01566
DCC0738	DAT00631
DCC0741	DAT01570
DCC0764	DAT01575
DCC0770	DAT01578
DCC0777	DAT00634
DCC0779	DAT01581
DCC0784	DAT01582
DCC0787	DAT01583
DCC0793	DAT01584
DCC0802	DAT01589
DCC0834	DAT01600
DCC0849	DAT00637
DCC0850	DAT01603
DCC0850	DAT01604
DCC0875	DAT01606
DCC0881	DAT01607
DCC0885	DAT01609
DCC0887	DAT00639
DCC0893	DAT01611
DCC0903	DAT01617
DCC0908	DAT00640
DCC0908	DAT00641
DCC0908	DAT00642
DCC0920	DAT00643
DCC0920	DAT00644
DCC0990	DAT01633
DCC1021	DAT01641
DCC1084	DAT01649
DCC1106	DAT01652
DCC1108	DAT00647
DCC1110	DAT00649
DCC1112	DAT00651
DCC1116	DAT00656
DCC1117	DAT00657
DCC1118	DAT00654
DCC1118	DAT00658
DCC1120	DAT00660
DCC1121	DAT00661
DCC1122	DAT00662
DCC1124	DAT00665
DCC1124	DAT00666
DCC1124	DAT00667
DCC1124	DAT00668
DCC1124	DAT00669
DCC1124	DAT00670
DCC1124	DAT00671
DCC1124	DAT00672
DCC1124	DAT00673
DCC1127	DAT00002
DCC1127	DAT00675
DCC1129	DAT00677
DCC1131	DAT00679
DCC1132	DAT00667
DCC1132	DAT00680
DCC1132	DAT00681
DCC1133	DAT00668
DCC1135	DAT00683
DCC1136	DAT00684
DCC1137	DAT00685
DCC1140	DAT00687
DCC1140	DAT00688
DCC1142	DAT00689
DCC1143	DAT00690
DCC1143	DAT00691
DCC1144	DAT00692
DCC1145	DAT00693
DCC1149	DAT00697
DCC1160	DAT00708
DCC1162	DAT00709
DCC1164	DAT00710
DCC1165	DAT00003
DCC1165	DAT00711
DCC1166	DAT00712
DCC1166	DAT00713
DCC1172	DAT00718
DCC1181	DAT00728
DCC1182	DAT00729
DCC1183	DAT00014
DCC1188	DAT00716
DCC1191	DAT00737
DCC1194	DAT00740
DCC1194	DAT00741
DCC1197	DAT00745
DCC1199	DAT00747
DCC1200	DAT00748
DCC1200	DAT00749
DCC1203	DAT00752
DCC1204	DAT00753
DCC1205	DAT00754
DCC1207	DAT00756
DCC1207	DAT00757
DCC1208	DAT00758
DCC1208	DAT00759
DCC1209	DAT00760
DCC1210	DAT00761
DCC1218	DAT00769
DCC1221	DAT00774
DCC1221	DAT00775
DCC1224	DAT00778
DCC1227	DAT00781
DCC1231	DAT00785
DCC1231	DAT00786
DCC1234	DAT00789
DCC1235	DAT00790
DCC1238	DAT00793
DCC1239	DAT00794
DCC1240	DAT00795
DCC1241	DAT00796
DCC1242	DAT00797
DCC1244	DAT00799
DCC1246	DAT00800
DCC1246	DAT00801
DCC1246	DAT00802
DCC1246	DAT00803
DCC1246	DAT00804
DCC1246	DAT00805
DCC1247	DAT00806
DCC1249	DAT00810
DCC1252	DAT00813
DCC1256	DAT00821
DCC1256	DAT00822
DCC1258	DAT00824
DCC1259	DAT00277
DCC1503	DAT01115
DCC1505	DAT01117
DCC1507	DAT01120
DCC1508	DAT00646
DCC1509	DAT01121
DCC1515	DAT01126
DCC1520	DAT01132
DCC1521	DAT01133
DCC1522	DAT01134
DCC1523	DAT01135
DCC1524	DAT00757
DCC1525	DAT01136
DCC1534	DAT01146
DCC1535	DAT00192
DCC1537	DAT01148
DCC1539	DAT01151
DCC1541	DAT01154
DCC1542	DAT00515
DCC1542	DAT00520
DCC1545	DAT01156
DCC1546	DAT01157
DCC1548	DAT01159
DCC1552	DAT01162
DCC1555	DAT01165
DCC1556	DAT01166
DCC1559	DAT00448
DCC1560	DAT01169
DCC1561	DAT01170
DCC1564	DAT01172
DCC1567	DAT00669
DCC1567	DAT00672
DCC1569	DAT01175
DCC1574	DAT01179
DCC1574	DAT01180
DCC1577	DAT00058
DCC1577	DAT00271
DCC1577	DAT00719
DCC1577	DAT00777
DCC1577	DAT01187
DCC1577	DAT01188
DCC1577	DAT01189
DCC1577	DAT01190
DCC1577	DAT01191
DCC1577	DAT01192
DCC1577	DAT01193
DCC1577	DAT01194
DCC1577	DAT01195
DCC1577	DAT01196
DCC1577	DAT01197
DCC1577	DAT01198
DCC1577	DAT01199
DCC1577	DAT01200
DCC1577	DAT01201
DCC1577	DAT01202
DCC1577	DAT01203
DCC1577	DAT01204
DCC1577	DAT01205
DCC1577	DAT01206
DCC1577	DAT01207
DCC1577	DAT01208
DCC1577	DAT01209
DCC1577	DAT01210
DCC1577	DAT01211
DCC1577	DAT01212
DCC1577	DAT01213
DCC1577	DAT01214
DCC1577	DAT01215
DCC1577	DAT01216
DCC1577	DAT01217
DCC1577	DAT01218
DCC1579	DAT00919
DCC1579	DAT00920
DCC1579	DAT00921
DCC1579	DAT00922
DCC1579	DAT00923
DCC1579	DAT01219
DCC1579	DAT01220
DCC1579	DAT01221
DCC1579	DAT01222
DCC1579	DAT01223
DCC1579	DAT01224
DCC1579	DAT01225
DCC1579	DAT01226
DCC1579	DAT01227
DCC1579	DAT01228
DCC1579	DAT01229
DCC1579	DAT01230
DCC1579	DAT01231
DCC1579	DAT01232
DCC1579	DAT01233
DCC1579	DAT01234
DCC1579	DAT01235
DCC1579	DAT01236
DCC1579	DAT01237
DCC1579	DAT01238
DCC1579	DAT01239
DCC1579	DAT01240
DCC1579	DAT01241
DCC1579	DAT01242
DCC1584	DAT01248
DCC1587	DAT01251
DCC1589	DAT01252
DCC1590	DAT00065
DCC1593	DAT00741
DCC1594	DAT01254
DCC1595	DAT01255
DCC1599	DAT01284
DCC1601	DAT00909
DCC1614	DAT01288
DCC1615	DAT00743
DCC1628	DAT01290
DCC1637	DAT01298
DCC1639	DAT01300
DCC1641	DAT01302
DCC1644	DAT01305
DCC1649	DAT01309
DCC1657	DAT01312
DCC1658	DAT01313
DCC1659	DAT01314
DCC1661	DAT01315
DCC1662	DAT01316
DCC1662	DAT01317
DCC1662	DAT01318
DCC1664	DAT01320
DCC1666	DAT01322
DCC1676	DAT01328
DCC1677	DAT01329
DCC1678	DAT01330
DCC1679	DAT01331
DCC1680	DAT01332
DCC1681	DAT01333
DCC1684	DAT01335
DCC1686	DAT01336
DCC1687	DAT01337
DCC1688	DAT01338
DCC1689	DAT01339
DCC1690	DAT01340
DCC1692	DAT01342
DCC1693	DAT01343
DCC1699	DAT01348
DCC1702	DAT00930
DCC1703	DAT01352
DCC1705	DAT01213
DCC1705	DAT01214
DCC1707	DAT01354
DCC1710	DAT01357
DCC1719	DAT01363
DCC1722	DAT01369
DCC1723	DAT01370
DCC1726	DAT01372
DCC1727	DAT01373
DCC1728	DAT01374
DCC1736	DAT01380
DCC1737	DAT01381
DCC1740	DAT01384
DCC1742	DAT01386
DCC1743	DAT01387
DCC1745	DAT01388
DCC1749	DAT00665
DCC1810	DAT01700
DCC1811	DAT01701
DCC1811	DAT01702
DCC1812	DAT01703
DCC1813	DAT01704
DCC1813	DAT01705
DCC1813	DAT01706
DCC1813	DAT01707
DCC1813	DAT01708
DCC1813	DAT01709
DCC1813	DAT01710
DCC1814	DAT01711
DCC1816	DAT01712
DCC1819	DAT01713
DCC1820	DAT00294
DCC1823	DAT00343
DCC1825	DAT01714
DCC1826	DAT01715
DCC1826	DAT01716
DCC1827	DAT01717
DCC1828	DAT01718
DCC1829	DAT01719
DCC1830	DAT01720
DCC1833	DAT01093
DCC1836	DAT01721
DCC1838	DAT01722
DCC1842	DAT01723
DCC1844	DAT01724
DCC1845	DAT01725
DCC1846	DAT01726
DCC1849	DAT01727
DCC1849	DAT01728
DCC1850	DAT01729
DCC1852	DAT01730
DCC1854	DAT01731
DCC1854	DAT01732
DCC1855	DAT01733
DCC1856	DAT01734
DCC1857	DAT01735
DCC1860	DAT01736
DCC1860	DAT01737
DCC1861	DAT01738
DCC1861	DAT01739
DCC0001	DAT00001
DCC0002	DAT00002
DCC0003	DAT00003
DCC0004	DAT00004
DCC0005	DAT00005
DCC0006	DAT00006
DCC0007	DAT00007
DCC0008	DAT00008
DCC0009	DAT00009
DCC0010	DAT00010
DCC0011	DAT00011
DCC0011	DAT00012
DCC0012	DAT00013
DCC0013	DAT00014
DCC0013	DAT00015
DCC0014	DAT00016
DCC0015	DAT00017
DCC0016	DAT00018
DCC0018	DAT00019
DCC0019	DAT00020
DCC0020	DAT00021
DCC0020	DAT00022
DCC0020	DAT00023
DCC0021	DAT00024
DCC0021	DAT00025
DCC0022	DAT00026
DCC0023	DAT00027
DCC0024	DAT00028
DCC0024	DAT00029
DCC0025	DAT00030
DCC0026	DAT00031
DCC0027	DAT00032
DCC0028	DAT00033
DCC0029	DAT00034
DCC0030	DAT00035
DCC0032	DAT00036
DCC0032	DAT00037
DCC0032	DAT00038
DCC0033	DAT00039
DCC0033	DAT00040
DCC0033	DAT00041
DCC0034	DAT00042
DCC0035	DAT00043
DCC0035	DAT00044
DCC0036	DAT00045
DCC0036	DAT00046
DCC0037	DAT00047
DCC0038	DAT00048
DCC0039	DAT00049
DCC0039	DAT00050
DCC0040	DAT00051
DCC0040	DAT00052
DCC0040	DAT00053
DCC0040	DAT00054
DCC0040	DAT00055
DCC0040	DAT00056
DCC0040	DAT00057
DCC0040	DAT00058
DCC0041	DAT00059
DCC0041	DAT00060
DCC0042	DAT00061
DCC0043	DAT00062
DCC0043	DAT00063
DCC0043	DAT00064
DCC0043	DAT00065
DCC0043	DAT00066
DCC0043	DAT00067
DCC0043	DAT00068
DCC0043	DAT00069
DCC0043	DAT00070
DCC0044	DAT00071
DCC0044	DAT00072
DCC0045	DAT00073
DCC0046	DAT00074
DCC0047	DAT00075
DCC0048	DAT00076
DCC0049	DAT00025
DCC0050	DAT00077
DCC0051	DAT00078
DCC0051	DAT00079
DCC0051	DAT00080
DCC0052	DAT00081
DCC0053	DAT00082
DCC0054	DAT00083
DCC0055	DAT00084
DCC0055	DAT00085
DCC0056	DAT00086
DCC0057	DAT00087
DCC0057	DAT00088
DCC0058	DAT00089
DCC0058	DAT00090
DCC0059	DAT00091
DCC0060	DAT00092
DCC0060	DAT00093
DCC0061	DAT00094
DCC0061	DAT00095
DCC0062	DAT00096
DCC0063	DAT00097
DCC0063	DAT00098
DCC0064	DAT00099
DCC0065	DAT00100
DCC0066	DAT00101
DCC0067	DAT00102
DCC0068	DAT00103
DCC0069	DAT00104
DCC0070	DAT00105
DCC0070	DAT00106
DCC0071	DAT00107
DCC0072	DAT00108
DCC0072	DAT00109
DCC0073	DAT00110
DCC0074	DAT00111
DCC0075	DAT00112
DCC0075	DAT00113
DCC0075	DAT00114
DCC0075	DAT00115
DCC0075	DAT00116
DCC0075	DAT00117
DCC0075	DAT00118
DCC0076	DAT00119
DCC0077	DAT00120
DCC0077	DAT00121
DCC0077	DAT00122
DCC0077	DAT00123
DCC0078	DAT00124
DCC0079	DAT00125
DCC0080	DAT00126
DCC0081	DAT00127
DCC0082	DAT00128
DCC0083	DAT00129
DCC0083	DAT00130
DCC0083	DAT00131
DCC0083	DAT00132
DCC0083	DAT00133
DCC0083	DAT00134
DCC0084	DAT00135
DCC0084	DAT00136
DCC0085	DAT00137
DCC0086	DAT00138
DCC0087	DAT00139
DCC0088	DAT00140
DCC0089	DAT00141
DCC0090	DAT00142
DCC0091	DAT00143
DCC0092	DAT00144
DCC0093	DAT00145
DCC0094	DAT00146
DCC0095	DAT00147
DCC0095	DAT00148
DCC0095	DAT00149
DCC0095	DAT00150
DCC0095	DAT00151
DCC0095	DAT00152
DCC0095	DAT00153
DCC0095	DAT00154
DCC0095	DAT00155
DCC0095	DAT00156
DCC0095	DAT00157
DCC0096	DAT00158
DCC0097	DAT00159
DCC0098	DAT00160
DCC0098	DAT00161
DCC0098	DAT00162
DCC0099	DAT00163
DCC0100	DAT00164
DCC0101	DAT00165
DCC0102	DAT00166
DCC0102	DAT00167
DCC0102	DAT00168
DCC0103	DAT00169
DCC0104	DAT00170
DCC0105	DAT00171
DCC0105	DAT00172
DCC0106	DAT00173
DCC0107	DAT00174
DCC0108	DAT00175
DCC0109	DAT00176
DCC0110	DAT00177
DCC0111	DAT00178
DCC0112	DAT00179
DCC0113	DAT00180
DCC0114	DAT00181
DCC0115	DAT00182
DCC0115	DAT00183
DCC0116	DAT00184
DCC0117	DAT00185
DCC0118	DAT00186
DCC0119	DAT00187
DCC0120	DAT00188
DCC0121	DAT00189
DCC0122	DAT00190
DCC0123	DAT00191
DCC0123	DAT00192
DCC0124	DAT00193
DCC0124	DAT00194
DCC0124	DAT00195
DCC0124	DAT00196
DCC0125	DAT00197
DCC0126	DAT00198
DCC0127	DAT00199
DCC0128	DAT00200
DCC0129	DAT00201
DCC0130	DAT00202
DCC0131	DAT00203
DCC0131	DAT00204
DCC0132	DAT00205
DCC0133	DAT00206
DCC0134	DAT00207
DCC0135	DAT00208
DCC0135	DAT00209
DCC0135	DAT00210
DCC0135	DAT00211
DCC0135	DAT00212
DCC0135	DAT00213
DCC0135	DAT00214
DCC0136	DAT00215
DCC0136	DAT00216
DCC0136	DAT00217
DCC0136	DAT00218
DCC0137	DAT00219
DCC0138	DAT00220
DCC0138	DAT00221
DCC0138	DAT00222
DCC0138	DAT00223
DCC0139	DAT00224
DCC0139	DAT00225
DCC0139	DAT00226
DCC0140	DAT00227
DCC0140	DAT00228
DCC0140	DAT00229
DCC0140	DAT00230
DCC0141	DAT00231
DCC0142	DAT00232
DCC0143	DAT00233
DCC0143	DAT00234
DCC0143	DAT00235
DCC0143	DAT00236
DCC0144	DAT00237
DCC0145	DAT00238
DCC0146	DAT00239
DCC0147	DAT00240
DCC0148	DAT00241
DCC0149	DAT00242
DCC0149	DAT00243
DCC0149	DAT00244
DCC0149	DAT00245
DCC0149	DAT00246
DCC0149	DAT00247
DCC0149	DAT00248
DCC0149	DAT00249
DCC0150	DAT00250
DCC0151	DAT00251
DCC0151	DAT00252
DCC0151	DAT00253
DCC0152	DAT00254
DCC0152	DAT00255
DCC0153	DAT00256
DCC0154	DAT00257
DCC0155	DAT00258
DCC0156	DAT00259
DCC0156	DAT00260
DCC0156	DAT00261
DCC0157	DAT00262
DCC0158	DAT00263
DCC0159	DAT00264
DCC0159	DAT00265
DCC0159	DAT00266
DCC0160	DAT00267
DCC0160	DAT00268
DCC0160	DAT00269
DCC0161	DAT00270
DCC0162	DAT00271
DCC0163	DAT00272
DCC0164	DAT00273
DCC0165	DAT00274
DCC0166	DAT00275
DCC0166	DAT00276
DCC0166	DAT00277
DCC0166	DAT00278
DCC0166	DAT00279
DCC0166	DAT00280
DCC0166	DAT00281
DCC0167	DAT00282
DCC0168	DAT00283
DCC0169	DAT00284
DCC0170	DAT00285
DCC0170	DAT00286
DCC0170	DAT00287
DCC0170	DAT00288
DCC0171	DAT00289
DCC0172	DAT00290
DCC0172	DAT00291
DCC0173	DAT00292
DCC0174	DAT00293
DCC0175	DAT00294
DCC0175	DAT00295
DCC1262	DAT00827
DCC1267	DAT00640
DCC1267	DAT00641
DCC1267	DAT00642
DCC1267	DAT00836
DCC1267	DAT00837
DCC1273	DAT00844
DCC1280	DAT00851
DCC1282	DAT00852
DCC1284	DAT00854
DCC1285	DAT00855
DCC1288	DAT00860
DCC1293	DAT00866
DCC1297	DAT00871
DCC1302	DAT00875
DCC1314	DAT00887
DCC1314	DAT00888
DCC1321	DAT00897
DCC1328	DAT00903
DCC1329	DAT00904
DCC1329	DAT00905
DCC1330	DAT00906
DCC1333	DAT00908
DCC1333	DAT00909
DCC1334	DAT00910
DCC1335	DAT00911
DCC1335	DAT00912
DCC1336	DAT00913
DCC1338	DAT00915
DCC1339	DAT00916
DCC1345	DAT00926
DCC1351	DAT00930
DCC1353	DAT00932
DCC1354	DAT00933
DCC1355	DAT00934
DCC1356	DAT00935
DCC1356	DAT00936
DCC1357	DAT00937
DCC1361	DAT00940
DCC1363	DAT00942
DCC1365	DAT00794
DCC1365	DAT00946
DCC1365	DAT00947
DCC1365	DAT00948
DCC1367	DAT00949
DCC1368	DAT00950
DCC1370	DAT00483
DCC1370	DAT00952
DCC1370	DAT00953
DCC1370	DAT00954
DCC1370	DAT00955
DCC1370	DAT00956
DCC1370	DAT00957
DCC1370	DAT00958
DCC1372	DAT00960
DCC1374	DAT00962
DCC1376	DAT00964
DCC1377	DAT00094
DCC1377	DAT00095
DCC1380	DAT00967
DCC1381	DAT00968
DCC1381	DAT00969
DCC1381	DAT00970
DCC1381	DAT00971
DCC1384	DAT00973
DCC1386	DAT00977
DCC1390	DAT00980
DCC1393	DAT00984
DCC1393	DAT00985
DCC1393	DAT00986
DCC1393	DAT00987
DCC1395	DAT00990
DCC1395	DAT00991
DCC1396	DAT00992
DCC1399	DAT00995
DCC1400	DAT00996
DCC1407	DAT01003
DCC1411	DAT01007
DCC1412	DAT01008
DCC1414	DAT01010
DCC1417	DAT01013
DCC1422	DAT01019
DCC1422	DAT01020
DCC1423	DAT01021
DCC1424	DAT01022
DCC1425	DAT01023
DCC1427	DAT01024
DCC1431	DAT01026
DCC1431	DAT01027
DCC1431	DAT01028
DCC1431	DAT01029
DCC1432	DAT01030
DCC1433	DAT01031
DCC1434	DAT01032
DCC1436	DAT01037
DCC1437	DAT01038
DCC1444	DAT01046
DCC1445	DAT01047
DCC1446	DAT01048
DCC1446	DAT01049
DCC1446	DAT01050
DCC1450	DAT01055
DCC1453	DAT01058
DCC1453	DAT01059
DCC1454	DAT00379
DCC1454	DAT00381
DCC1454	DAT00383
DCC1454	DAT00384
DCC1455	DAT01060
DCC1455	DAT01061
DCC1455	DAT01062
DCC1459	DAT01064
DCC1459	DAT01065
DCC1459	DAT01066
DCC1461	DAT00319
DCC1461	DAT00320
DCC1465	DAT01069
DCC1466	DAT01070
DCC1468	DAT01072
DCC1471	DAT01074
DCC1473	DAT01076
DCC1474	DAT01077
DCC1477	DAT00292
DCC1478	DAT01080
DCC1478	DAT01081
DCC1478	DAT01082
DCC1479	DAT01083
DCC1481	DAT01085
DCC1482	DAT01086
DCC1486	DAT01092
DCC1486	DAT01093
DCC1488	DAT01095
DCC1489	DAT01096
DCC1491	DAT01098
DCC1491	DAT01099
DCC1493	DAT01104
DCC1494	DAT01105
DCC1495	DAT01106
DCC1498	DAT01109
DCC1500	DAT01111
DCC1501	DAT01112
DCC1501	DAT01113
DCC1502	DAT01114
