DSY_ID	SYNONYMS
DSY03582	CYC202
DSY03583	EM-1
DSY03584	Zarnestra
DSY03585	R115777
DSY03586	ab142741
DSY03587	Geninax
DSY03588	Mesnex
DSY03589	MEN10755
DSY03590	SR-4233
DSY03591	MSeA
DSY03592	MSA
DSY03593	ALT-711
DSY03594	ESM
DSY03595	2ME2
DSY03596	Panzem
DSY03597	PD 184352
DSY03598	KYNA
DSY03599	KYN
DSY03601	Bredinin
DSY03602	MZR
DSY03603	Nuril
DSY03604	Rubescensin B
DSY03605	Thonzide
DSY03609	Impavido
DSY03610	TSA
DSY03611	Methylthioninium chloride
DSY03612	DHA
DSY03613	KOS-953
DSY03614	17-AAG
DSY03615	Bravavir
DSY03616	CP-55,940
DSY03617	Artesunic acid
DSY03618	Arsumax
DSY03619	Amethocaine
DSY03620	Ceraxon
DSY03626	ACE-011
DSY03639	GS-9350
DSY03640	cobicistatum
DSY03680	oxyneurine
DSY03681	lycine
DSY03682	glycine betaine
DSY03683	Abromine
DSY03684	Trimethylglycine
DSY03702	Trien
DSY03703	TETA
DSY03704	112-24-3
DSY03705	Tecza
DSY03724	GS-7977
DSY03727	NXL104
DSY03728	AVE1330A
DSY03734	Iprivask
DSY03735	Revasc
DSY03736	desulfatohirudin
DSY03737	desulphatohirudin
DSY03751	Calblock
DSY03752	CS-905
DSY03788	Metafolin
DSY03790	Iron(II) sulfate hydrate
DSY03791	Iron sulfate monohydrate
DSY03794	Amethocaine
DSY03795	Pontocaine
DSY03809	E-7010
DSY03827	Metafolin
DSY03828	LMCA
DSY03848	Telcyta
DSY03849	TLK-286
DSY03851	BSI-201
DSY03852	SAR240550
DSY03855	Treanda
DSY03856	SGN-33
DSY03857	LY335979
DSY03858	LY317615
DSY03859	Buphenyl
DSY03862	Xinlay
DSY03863	Zevalin
DSY03870	ZD4054
DSY03872	TAK-475
DSY03876	Viviant
DSY03877	O6-BG
DSY03878	6-(Benzyloxy)guanine
DSY03899	ABT-578
DSY03900	Endeavor
DSY03910	BR-A-657
DSY03916	PEG
DSY03917	Lutrol E
DSY03918	Macrogol
DSY03926	Nplate
DSY03927	Romiplate
DSY03933	AZD2171
DSY03934	Recentin
DSY03950	Lyxumia
DSY03977	Victrelis
DSY03979	LBH-589
DSY03980	Rezonic
DSY03981	Zunrisa
DSY03990	Farxiga
DSY03993	alb-IFN
DSY03994	Zalbin
DSY03997	Yervoy
DSY03998	MDX-010
DSY03999	MDX-101
DSY04003	Lactic Acid
DSY04006	triphenylacetic acid
DSY04008	Para Pio
DSY04010	Isentress
DSY04011	MK-0518
DSY04018	sulphonylurea
DSY04025	Eskalith
DSY04026	Lithobid
DSY04043	Trelstar
DSY04059	Dulcolax
DSY04061	A 741439
DSY04062	A-741439
DSY04063	A741439
DSY04064	ABT-869
DSY04065	ABT869
DSY04066	RG3635
DSY04072	omega-3-acid ethyl esters
DSY04083	Ikorel
DSY04084	Sigmart
DSY04090	Endometrion
DSY04093	Tradjenta
DSY04094	2-Propanol
DSY04095	Isopro
DSY04102	R1479
DSY04111	EVG
DSY04112	GS-9137
DSY04113	Vitekta
DSY04114	PB272
DSY04121	hydrogen carbonate
DSY04122	Baking soda
DSY04123	WIN 41464-2
DSY04125	dihydroqinghaosu
DSY04126	artenimol
DSY04127	DHA)
DSY04131	Campath
DSY04132	MabCampath
DSY04133	Lemtrada
DSY04145	Posture
DSY04150	YM155
DSY04153	Pixuvri
DSY04164	phazyme
DSY04165	Flatulex
DSY04166	Mylicon
DSY04167	Gas-X
DSY04172	AM803
DSY04181	ITMN-191
DSY04182	R7227
DSY04207	RN624
DSY04213	MK-8776
DSY04218	Tovasanib
DSY04219	DR-XY36014
DSY04220	Navoban
DSY04223	RV001
DSY04224	R1507
DSY04225	RG1507
DSY04232	Mucosta
DSY04235	AMG 479
DSY04241	DU-176b
DSY04242	Lixiana
DSY04252	Olysio
DSY04267	Gazyva
DSY04277	Altadiol
DSY04278	Deladiol
DSY04279	Delestrogen
DSY04280	Estraval
DSY04281	Progynova
DSY04282	Valergen
DSY04283	oestradiol valerate
DSY04284	UCB-34714
DSY04289	Arzerra
DSY04290	HuMax-CD20
DSY04294	Lovenox
DSY04295	enoxaparin
DSY04308	rh-Endo
DSY04400	Optimine
DSY04401	Betoptic
DSY04402	Kerlone
DSY04403	Bromazine hydrochloride
DSY04404	Bromanyl
DSY04405	CP
DSY04406	Amphicol
DSY04407	Chloromycetin
DSY04408	Econochlor
DSY04409	Diuril
DSY04410	Halmonyl
DSY04411	Dornase
DSY04412	Dornavac
DSY04413	Dnaase
DSY04414	Dornase Alfa
DSY04415	Pulmozyme
DSY04416	Dihydroergotamine mesilate
DSY04417	Migranal
DSY04418	Enlon
DSY04419	Tensilon
DSY04420	Depo-estradiol
DSY04421	Amnestrogen
DSY04422	Duranest
DSY04423	Feostat
DSY04424	Ferrum
DSY04425	Fibrogammin
DSY04426	Fludroxycortide
DSY04427	Cordran
DSY04428	Guanethidine sulfate
DSY04429	Ismelin
DSY04430	Saluron
DSY04431	Paredrine
DSY04432	Isopro
DSY04433	Trimax
DSY04435	Enduron
DSY04436	Noretynodrel
DSY04437	Eutonyl
DSY04438	Fansia
DSY04439	Renese
DSY04440	Blockaine hydrochloride
DSY04441	Ravocaine hydrochloride
DSY04442	Pyrethrum
DSY04443	Pymafed
DSY04444	Hydromox
DSY04445	Apoplon
DSY04446	Serpalan
DSY04447	Sulfadimidine
DSY04448	Sulfamezathine
DSY04449	Naqua
DSY04450	Trovan
DSY04451	Carbamide
DSY04452	Pastaron
DSY00001	Anti EGFR
DSY00002	IMC-C225
DSY00003	L-asparagine amidohydrolase
DSY00004	Putative L-asparaginase precursor
DSY00005	IL-2
DSY00006	Interleukin-2 precursor
DSY00007	T-cell growth factor
DSY00008	TCGF
DSY00009	Ig gamma-1 chain C region
DSY00010	Anti HER2
DSY00011	Ig gamma-1 chain C region
DSY00012	AntiCD20
DSY00013	Ig gamma-1 chain C region
DSY00014	LY 146032
DSY00015	Ciclosporin
DSY00016	CsA
DSY00017	CyA
DSY00018	Cyclosporin A
DSY00019	antiVEGF
DSY00020	Avastin
DSY00021	R-435
DSY00022	Cyanocob(III)alamin
DSY00023	Vitamin B12
DSY00024	Vitamin B12 complex
DSY00025	Ramiprilum [Latin]
DSY00026	Alpha-Methyldopahydrazine
DSY00027	C-DOPA
DSY00028	Carbidopa Anhydrous
DSY00029	Carbidopa Monohydrate
DSY00030	Carbidopum [INN-Latin]
DSY00031	MK-486
DSY00032	N-Aminomethyldopa
DSY00033	Oseltamivir phosphate
DSY00034	EM
DSY00035	Erythrocin Stearate
DSY00036	Erythromycin ethylsuccinate
DSY00037	Erythromycin glucoheptonate
DSY00038	Erythromycin lactobionate
DSY00039	Erythromycin oxime
DSY00040	Erythromycin Stearate
DSY00041	Cafeina
DSY00042	Caffein
DSY00043	CFF
DSY00044	Methyltheobromide
DSY00045	Methyltheobromine
DSY00046	Theobromine ME
DSY00047	Theophylline ME
DSY00048	Sildenafil Citrate
DSY00049	CD
DSY00050	Chloridin
DSY00051	Chloridine
DSY00052	Chloridyn
DSY00053	Diaminopyritamin
DSY00054	Ethylpyrimidine
DSY00055	Pirimetamin
DSY00056	Pirimetamina
DSY00057	Primethamine
DSY00058	Pyremethamine
DSY00059	Pyrimethamin
DSY00060	Pyrimethamine Hcl
DSY00061	Azithramycine
DSY00062	Azithromycin Dihydrate
DSY00063	Azithromycine [French]
DSY00064	Azithromycinum [Latin]
DSY00065	Azitromicina [Spanish]
DSY00066	Adapaleno [INN-Spanish]
DSY00067	Adapalenum [INN-Latin]
DSY00068	Pantoprazol [INN-Spanish]
DSY00069	Pantoprazole Na
DSY00070	Pantoprazole Sodium
DSY00071	Pantoprazolum [INN-Latin]
DSY00072	Pantoprozole
DSY00073	Glimepirid
DSY00074	Glimepirida
DSY00075	Glimepiridum
DSY00076	Glimepride
DSY00077	Compound J
DSY00078	Indinavir sulfate
DSY00079	6 alpha-Methylcompactin
DSY00080	Lovastatina [Spanish]
DSY00081	Lovastatine [French]
DSY00082	Lovastatinum [Latin]
DSY00083	NEV
DSY00084	NVP
DSY00085	Allylbarbital
DSY00086	Butalbital M (OH)
DSY00087	5,5-diphenylhydantoin
DSY00088	5,5-Dwufenylohydantoina
DSY00089	Difenilhidantoina [Spanish]
DSY00090	Dihydantoin
DSY00091	Diphenylan Sodium
DSY00092	Diphenylhydantoin
DSY00093	Diphenylhydantoine [French]
DSY00094	Diphenylhydatanoin
DSY00095	Fenitoina [INN-Spanish]
DSY00096	Phenytoin Sodium
DSY00097	Phenytoine
DSY00098	Phenytoine [INN-French]
DSY00099	Phenytoinum [INN-Latin]
DSY00100	Chlotrimazole
DSY00101	Clotrimazol
DSY00102	alpha-Cycloserine
DSY00103	Cicloserina
DSY00104	D-CS
DSY00105	D-Cycloserine
DSY00106	D-Cycloserine synth. BP 88
DSY00107	D-Cycloserine, synthetic
DSY00108	D-Oxamicina
DSY00109	D-Oxamycin
DSY00110	DL-Cycloserine
DSY00111	L-Cycloserine
DSY00112	Sulfadimethylisoxazole
DSY00113	Sulfafurazol
DSY00114	Sulfafurazole
DSY00115	Sulfaisoxazole
DSY00116	Sulfasoxazole
DSY00117	Sulfisonazole
DSY00118	Sulfisoxasole
DSY00119	Sulfisoxazol
DSY00120	Sulfisoxazole Dialamine
DSY00121	Sulfisoxazole Diolamine
DSY00122	Sulfofurazole
DSY00123	Sulphafurazol
DSY00124	Sulphafurazole
DSY00125	Sulphafurazolum
DSY00126	Sulphaisoxazole
DSY00127	Sulphisoxazol
DSY00128	Sulphofurazole
DSY00129	Metoprolol succinate
DSY00130	Tipiramate [French]
DSY00131	Topiramatum [INN-Latin]
DSY00132	Topiramic acid
DSY00133	DE-092
DSY00134	Olmesartan medoximil
DSY00135	Olmesartan medoxomil
DSY00136	Dimethylxanthine
DSY00137	Pseudotheophylline
DSY00138	Theophyline
DSY00139	Theophyllin
DSY00140	Theophylline aminoacetate
DSY00141	Theophylline Anhydrous
DSY00142	Dilocaine
DSY00143	L-Caine
DSY00144	Clemastina [INN-Spanish]
DSY00145	Clemastine Fumarate
DSY00146	Clemastinum [INN-Latin]
DSY00147	(-)-Heroin hydrochloride
DSY00148	(-)-Morphine
DSY00149	D-(-)-Morphine
DSY00150	Diacetylmorphine hydrochloride
DSY00151	Diamorphine hydrochloride
DSY00152	Heroin hydrochloride
DSY00153	Heroine hydrochloride
DSY00154	Morphin
DSY00155	Morphina
DSY00156	Morphinum
DSY00157	"O,O'-Diacetylmorphine hydrochloride"
DSY00158	Roxanol
DSY00159	(+-)-Bupivacaine
DSY00160	Bloqueina
DSY00161	Bupivacaina [INN-Spanish]
DSY00162	Bupivacaine HCL
DSY00163	Bupivacaine HCL KIT
DSY00164	Bupivacainum [INN-Latin]
DSY00165	cBupivacaine
DSY00166	DL-Bupivacaine
DSY00167	DUR-843
DSY00168	LAC-43
DSY00169	D,L-Tenofovir
DSY00170	PMPA
DSY00171	TDF
DSY00172	Tenofovir disoproxil
DSY00173	7-Amino-9&alpha;-methoxymitosane
DSY00174	Mitamycin
DSY00175	MMC
DSY00176	Chlorothalidone
DSY00177	Chlorphthalidolone
DSY00178	Chlorphthalidone
DSY00179	Chlortalidone
DSY00180	Chlorthalidon
DSY00181	2-Propylpentanoic Acid
DSY00182	2-Propylvaleric Acid
DSY00183	Di-n-propylacetic acid
DSY00184	Di-n-propylessigsaure
DSY00185	Dipropylacetic acid
DSY00186	DPA
DSY00187	n-DPA
DSY00188	Valproic Acid Derivative
DSY00189	Acetaminofen
DSY00190	APAP
DSY00191	Paracetamol
DSY00192	Paracetamolo
DSY00193	Paracetanol
DSY00194	ZD1839
DSY00195	Codeine anhydrous
DSY00196	L-Codeine
DSY00197	Methylmorphine
DSY00198	Morphine monomethyl ether
DSY00199	Norcodeine, N-Methyl
DSY00200	Norcodine, N-Methyl
DSY00201	Piperacillin Anhydrous
DSY00202	Amitriprolidine
DSY00203	Amitriptylin
DSY00204	Amitryptiline
DSY00205	Amitryptyline
DSY00206	Amytriptiline
DSY00207	Disodium nitroprusside dihydrate
DSY00208	Sodium nitroferricyanide dihydrate
DSY00209	Sodium Nitroprusside
DSY00210	Sodium nitroprusside dihydrate
DSY00211	IMN
DSY00212	Indometacine
DSY00213	Indometacyna
DSY00214	Indomethacine
DSY00215	Indomethacinum
DSY00216	Indomethancin
DSY00217	Indomethazine
DSY00218	Indomethine
DSY00219	Indometicina
DSY00220	Aethambutolum
DSY00221	D-Ethambutol
DSY00222	EMB
DSY00223	Etambutol [INN-Spanish]
DSY00224	Etambutolo [DCIT]
DSY00225	Ethambutol dihydrochloride
DSY00226	Ethambutol HCL
DSY00227	Ethambutol Hydrochloride
DSY00228	Ethambutol, racemic mixture
DSY00229	Ethambutolum [INN-Latin]
DSY00230	Ipatropium Bromide
DSY00231	ipratropium
DSY00232	N-Isopropylatropine
DSY00233	OMEP
DSY00234	OMZ
DSY00235	Pirazimida
DSY00236	Pirazinamid
DSY00237	Pyrazinamdie
DSY00238	Pyrazine carboxylamide
DSY00239	Pyrazineamide
DSY00240	Pyrazinecarboxamide
DSY00241	Pyrazinecarboxylic acid amide
DSY00242	Pyrazinoic acid amide
DSY00243	PZA
DSY00244	Cetirizina [Spanish]
DSY00245	Cetirizinum [Latin]
DSY00246	Cetrizine Hcl
DSY00247	d-cis-Diltiazem
DSY00248	AZT
DSY00249	Mefloquine HCL
DSY00250	Mefloquinone
DSY00251	Vinorelbin
DSY00252	Vinorelbina [Spanish]
DSY00253	Vinorelbine Bitartrate
DSY00254	Vinorelbine Ditartarate
DSY00255	Vinorelbine Ditartrate
DSY00256	Vinorelbine Tartrate
DSY00257	Vinorelbinum [Latin]
DSY00258	Clozapin
DSY00259	18-Methylnorethisterone
DSY00260	d(-)-Norgestrel
DSY00261	Levonorgestrelum [INN-Latin]
DSY00262	DEA No. 2820
DSY00263	Meprobamat [German]
DSY00264	Meprobamato [INN-Spanish]
DSY00265	Meprobamato [Italian]
DSY00266	Meprobamatum [INN-Latin]
DSY00267	Meprobamic acid
DSY00268	Procarbamide
DSY00269	Timolol maleate
DSY00270	Timololum [INN-Latin]
DSY00271	Amlodipine Benzenesulfonate
DSY00272	Amlodipine Besilate
DSY00273	Amlodipine Besylate
DSY00274	Amlodipine Free Base
DSY00275	Amlodipino [Spanish]
DSY00276	Amlodipinum [Latin]
DSY00277	Triamteren
DSY00278	Fenilefrina [INN-Spanish]
DSY00279	L-Phenylephedrine
DSY00280	L-Phenylephrine
DSY00281	M-Methylaminoethanolphenol
DSY00282	M-Oxedrine
DSY00283	Metaoxedrin
DSY00284	Metaoxedrine
DSY00285	Metaoxedrinum
DSY00286	Metasynephrine
DSY00287	Phenylephrinum [INN-Latin]
DSY00288	Nimodipino [INN-Spanish]
DSY00289	Nimodipinum [INN-Latin]
DSY00290	beclometasone 17,21-dipropionate
DSY00291	Beclomethasone dipropionate
DSY00292	Carisoprodate
DSY00293	Carisoprodatum
DSY00294	Isomeprobamate
DSY00295	Isoprotane
DSY00296	Isoprothane
DSY00297	BAY 43-9006
DSY00298	ZOL
DSY00299	Zoledronic acid
DSY00300	D-Brompheniramine
DSY00301	Parabromdylamine
DSY00302	Parabromodylamine
DSY00303	Aminobenzylpenicillin
DSY00304	Ampicilina [INN-Spanish]
DSY00305	Ampicillin [Usan:Ban:Inn:Jan]
DSY00306	Ampicillin Acid
DSY00307	Ampicillin Anhydrate
DSY00308	Ampicillin Anhydrous
DSY00309	Ampicillin Base
DSY00310	Ampicillin Sodium
DSY00311	Ampicillin Trihydrate
DSY00312	Ampicillina [Dcit]
DSY00313	Ampicilline
DSY00314	Ampicilline [INN-French]
DSY00315	Ampicillinum [INN-Latin]
DSY00316	Anhydrous Ampicillin
DSY00317	Bayer 5427
DSY00318	D-Ampicillin
DSY00319	Fenossimetilpenicillina [Dcit]
DSY00320	Fenoximetilpenicilina [INN-Spanish]
DSY00321	Penicillin Phenoxymethyl
DSY00322	Penicillin V Potassium
DSY00323	Phenoximethylpenicillinum
DSY00324	Phenoxymethyl Penicillin
DSY00325	Phenoxymethylenepenicillinic Acid
DSY00326	Phenoxymethylpenicillin Potassium
DSY00327	Phenoxymethylpenicillinic Acid
DSY00328	Phenoxymethylpenicillinic Acid Potassium Salt
DSY00329	Chlormeprazine
DSY00330	Chlorperazine
DSY00331	Prochloroperazine
DSY00332	Prochlorpemazine
DSY00333	Prochlorperazin
DSY00334	Prochlorperazine edisylate
DSY00335	Prochlorperazine maleate
DSY00336	Prochlorpromazine
DSY00337	Procloperazine
DSY00338	Proclorperazine
DSY00339	Bendrofluazide
DSY00340	Bendroflumethazide
DSY00341	Bendroflumethiazidum [INN-Latin]
DSY00342	Bendroflumetiazida [INN-Spanish]
DSY00343	Bendrofumethiazide
DSY00344	Benzhydroflumethiazide
DSY00345	Benzydroflumethiazide
DSY00346	Benzylhydroflumethiazide
DSY00347	BHFT
DSY00348	Cerivastatin sodium
DSY00349	Cerivastatin, sodium salt
DSY00350	dFdC
DSY00351	dFdCyd
DSY00352	Difluorodeoxycytidine Hydrochlorothiazide
DSY00353	LY-188011
DSY00354	AG 1749
DSY00355	Loratadina [Spanish]
DSY00356	Loratadinum [Latin]
DSY00357	Amikacin Base
DSY00358	Amikacin Dihydrate
DSY00359	Amikacin Sulfate
DSY00360	Amikacina [INN-Spanish]
DSY00361	Amikacine [INN-French]
DSY00362	Amikacinum [INN-Latin]
DSY00363	ANTIBIOTIC BB-K8
DSY00364	BB-K8
DSY00365	CC-5013
DSY00366	CDC 501
DSY00367	IMid-1
DSY00368	IMiD3
DSY00369	LY-139481
DSY00370	RAL
DSY00371	Raloxifene Hcl
DSY00372	Raloxifene Hydrochloride
DSY00373	Raloxifeno [Spanish]
DSY00374	Raloxifenum [Latin]
DSY00375	Brimonidine tartrate
DSY00376	Bromoxidine
DSY00377	Altretaminum [INN-Latin]
DSY00378	HEXAMETHYLMELAMINE
DSY00379	HMM
DSY00380	HTM
DSY00381	HXM
DSY00382	Fosinopril Sodium
DSY00383	Entacapona [INN-Spanish]
DSY00384	Entacapone [Usan:Inn]
DSY00385	Entacaponum [INN-Latin]
DSY00386	Azidothymidine
DSY00387	Compound S
DSY00388	ZDV
DSY00389	Dihydrohydroxycodeinone
DSY00390	Dihydrohydroxycondeinone
DSY00391	Dihydrone
DSY00392	Oxicodona [INN-Spanish]
DSY00393	Oxycodone Hcl
DSY00394	Oxycodone Hydrochloride
DSY00395	Oxycodonum [INN-Latin]
DSY00396	PTI-821
DSY00397	Cimetidine Hcl
DSY00398	Abbott 84538
DSY00399	Vancomycin HCL
DSY00400	D-Methorphan
DSY00401	D-Methorphan Hydrobromide
DSY00402	Delta-Methorphan
DSY00403	Demorphan
DSY00404	Demorphan Hydrobromide
DSY00405	Demorphine
DSY00406	Destrometerfano [Dcit]
DSY00407	Dextromethorfan [Czech]
DSY00408	Dextromethorphan Bromhydrate
DSY00409	Dextromethorphan Bromide
DSY00410	Dextrometorfano [INN-Spanish]
DSY00411	Dextrometorphan
DSY00412	Dextromorphan
DSY00413	Dexyromethorphan
DSY00414	L-Methorphan
DSY00415	Levomethorphan
DSY00416	Levomethorphan [Ban:Dcf:Inn]
DSY00417	Levomethorphane [INN-French]
DSY00418	Levomethorphanum [INN-Latin]
DSY00419	Levometorfano [INN-Spanish]
DSY00420	CDDP
DSY00421	Cis-DDP
DSY00422	Cis-Diamminedichloroplatinum
DSY00423	Platinol
DSY00424	Platinol-AQ
DSY00425	Platinum Ammine Chloride
DSY00426	Trans-DDP
DSY00427	Trandolaprilum [Latin]
DSY00428	Diaminocyclohexane Oxalatoplatinum
DSY00429	L-OHP
DSY00430	Oxalatoplatin
DSY00431	Oxalatoplatinum
DSY00432	CP358774
DSY00433	OSI-774
DSY00434	CPM
DSY00435	CTX
DSY00436	CYT
DSY00437	Cytoxan
DSY00438	Neosar
DSY00439	Ciprofloxacin dihydrochloride
DSY00440	Ciprofloxacin HCl
DSY00441	Ciprofloxacin hydrochloride
DSY00442	Ciprofloxacin monohydrochloride
DSY00443	Ciprofloxacina
DSY00444	22-Oxovincaleukoblastine
DSY00445	Indole alkaloid
DSY00446	LCR
DSY00447	Leurocristine
DSY00448	VCR
DSY00449	VIN
DSY00450	Vincristina [DCIT]
DSY00451	Vincristine Sulfate
DSY00452	Vincristinum [INN-Latin]
DSY00453	Vincrstine
DSY00454	Vincrystine
DSY00455	Z-D-Val-Lys(Z)-OH
DSY00456	Benazepril HCl
DSY00457	Benazepril Hydrochloride
DSY00458	Benazeprilum [Latin]
DSY00459	5-Fluorouracil
DSY00460	5-Fluracil
DSY00461	5-FU
DSY00462	Fluoro Uracil
DSY00464	FU
DSY00465	GW 273293
DSY00466	Lamotrigina [Spanish]
DSY00467	Lamotriginum [Latin]
DSY00468	GAR-936
DSY00469	GAR-936,Tigecycline
DSY00470	WAY-GAR-936
DSY00471	Amethopterin
DSY00472	Amethopterine
DSY00473	HDMTX
DSY00474	L-Amethopterin
DSY00475	Methopterin
DSY00476	Methotextrate
DSY00477	Methotrexat
DSY00478	Methotrexatum
DSY00479	Methylaminopterin
DSY00480	Methylaminopterinum
DSY00481	MTX
DSY00482	N-Bismethylpteroylglutamic Acid
DSY00483	Carbamezepine
DSY00484	CBZ
DSY00485	SPD417
DSY00486	Cefalessina [DCIT]
DSY00487	Cefalexin
DSY00488	Cefalexin Sodium
DSY00489	Cefalexina [INN-Spanish]
DSY00490	Cefalexine [INN-French]
DSY00491	Cefalexinum [INN-Latin]
DSY00492	Cephalexin 1-hydrate
DSY00493	Cephalexin hydrate
DSY00494	Cephalexin monohydrate
DSY00495	Cephalexine
DSY00496	Cephalexinum
DSY00497	CEX
DSY00498	Dl-Propranolol Hydrochloride
DSY00499	Propanalol
DSY00500	Propanolol
DSY00501	Propranalol
DSY00502	Propranolol Hcl
DSY00503	Propranolol Hydrochloride
DSY00504	R,S-Propranolol Hydrochloride
DSY00505	Atropin [German]
DSY00506	Atropina [Italian]
DSY00507	Atropine Sulfate
DSY00508	DL-Hyoscyamine
DSY00509	DL-Tropyl tropate
DSY00510	Chlornidinum
DSY00511	Clonidin
DSY00512	Clonidine HCl
DSY00513	Clonidinhydrochlorid
DSY00514	Clonidinum [INN-Latin]
DSY00515	ST 155BS
DSY00516	Enalapril Maleate
DSY00517	Enalaprila [INN-Spanish]
DSY00518	Enalaprilat
DSY00519	Enalaprilum [INN-Latin]
DSY00520	Diclofenac Acid
DSY00521	Diclofenac Potassium
DSY00522	Diclofenac Sodium
DSY00523	ISV-205
DSY00524	flucinolone
DSY00525	Fluocinolonacetonidum
DSY00526	Fluocinolone acetonide [DCIT]
DSY00527	Fluocinoloni acetonidum [INN-Latin]
DSY00528	Aethosuximide
DSY00529	Ethosuccimide
DSY00530	Ethosuccinimide
DSY00531	Ethosuxide
DSY00532	Etosuximida
DSY00533	Amilorida [INN-Spanish]
DSY00534	Amiloride HCL
DSY00535	Amiloride hydrochloride
DSY00536	Amiloride hydrochloride hydrate
DSY00537	Amiloridum [INN-Latin]
DSY00538	Amyloride
DSY00539	Bisoprolol Fumarate
DSY00540	Bisoprolol fumerate
DSY00541	Bisoprolol Hemifumarate
DSY00542	Amodiaquin
DSY00543	Amodiaquine Hydrochloride
DSY00544	Amodiaquine USP24
DSY00545	Amodiaquine, ring-closed
DSY00546	Ansatipin
DSY00547	Ansatipine
DSY00548	Antibiotic LM 427
DSY00549	RBT
DSY00550	Rifabutina [Spanish]
DSY00551	Rifabutine [French]
DSY00552	Rifabutinum [Latin]
DSY00553	CGP-57148B
DSY00554	Glivec
DSY00555	Imatinib Methansulfonate
DSY00556	STI-571
DSY00557	Fluoxiprednisolone
DSY00558	Fluoxyprednisolone
DSY00559	Tiamcinolonum [INN-Latin]
DSY00560	Triamcinalone
DSY00561	Triamcinolona [INN-Spanish]
DSY00562	Triamcinolone acetonide
DSY00563	Triamcinolone diacetate
DSY00564	Triamcinolone hexacetonide
DSY00565	Triamcinolonum [INN]
DSY00566	EFV
DSY00567	3-Pyridinecarboxylic acid
DSY00568	Acide Nicotinique
DSY00569	Acidum Nicotinicum
DSY00570	M-Pyridinecarboxylic Acid
DSY00571	Nicotine Acid
DSY00572	Nicotinic Acid
DSY00573	Pyridinecarboxylic Acid
DSY00574	Pyridylcarboxylic Acid
DSY00575	Vitamin B3
DSY00576	Medetomidina [Spanish]
DSY00577	Medetomidine
DSY00578	Medetomidinum [Latin]
DSY00579	Acetosulfamine
DSY00580	N-Acetylsulfanilamide
DSY00581	N-Sulfanilylacetamide
DSY00582	N-Sulphanilylacetamide
DSY00583	"N'-Acetylsulfanilamide"
DSY00584	p-Aminobenzenesulfonacetamide
DSY00585	Sulphacetamide
DSY00586	Dehydrocortisone
DSY00587	Prednisona [INN-Spanish]
DSY00588	Prednisonum [INN-Latin]
DSY00589	Simvastatin [Usan:Ban:Inn]
DSY00590	Simvastatina [Spanish]
DSY00591	Simvastatine [French]
DSY00592	Simvastatinum [Latin]
DSY00593	LY231514
DSY00594	Pemetrexed Disodium
DSY00595	D-Propoxyphene
DSY00596	Dextropropoxyphene
DSY00597	Dextropropoxyphene-M
DSY00598	Dextroproxifeno
DSY00599	Propoxyphene HCl
DSY00600	"2',3'-Didehydro-3'-deoxythimidine"
DSY00601	"3'-Deoxy-2'-thymidinene"
DSY00602	Estavudina [INN-Spanish]
DSY00603	Sanilvudine
DSY00604	Stavudine [Usan:Ban:Inn]
DSY00605	Stavudinum [INN-Latin]
DSY00606	STV
DSY00607	Calcium folinate
DSY00608	Folinic acid
DSY00609	Folinic acid calcium salt
DSY00610	Folinic acid calcium salt USP27
DSY00611	L-leucovorin
DSY00612	Leucovorin calcium
DSY00613	Leucovorin folinic acid
DSY00614	L-pentazocine
DSY00615	Pentazocaine
DSY00616	Pentazocin
DSY00617	Verapamil [Usan:Ban:Inn]
DSY00618	Verapamil HCl
DSY00619	Verapamilo [INN-Spanish]
DSY00620	Verapamilum [INN-Latin]
DSY00621	ADR Adrenaline
DSY00622	Adrenalin
DSY00623	Adrenalin Chloride
DSY00624	Adrenalina
DSY00625	Adrenaline
DSY00626	Adrenalinum
DSY00627	D-Adrenaline
DSY00628	D-Epifrin
DSY00629	D-Epinephrine
DSY00630	Epinefrin [Czech]
DSY00631	Epinefrina [INN-Spanish]
DSY00632	Epinephran
DSY00633	Epinephrinum [INN-Latin]
DSY00634	L-Adrenalin
DSY00635	L-Adrenaline
DSY00636	L-Adrenaline Base
DSY00637	L-Epinephine
DSY00638	L-Epinephrine
DSY00639	L-Epirenamine
DSY00640	Levoadrenaline
DSY00641	Levoepinephrine
DSY00642	Racepinefrina [inn-spanish]
DSY00643	Racepinefrine
DSY00644	Racepinefrinum [inn-latin]
DSY00645	Racepinephrine
DSY00646	NP101
DSY00647	Sumatriptan Succinate
DSY00648	Sumatriptanum [INN-Latin]
DSY00649	triptan
DSY00650	ICI-46474
DSY00651	Nolvadex
DSY00652	Tamoxifen Citras
DSY00653	DuP 89
DSY00654	MK594
DSY00655	AMPH-B
DSY00656	Amphortericin B
DSY00657	Amphotericine B
DSY00658	Liposomal Amphotericin B
DSY00659	Warfarin sodium
DSY00660	"3'-Deoxykanamycin B"
DSY00661	SPRC-AB01
DSY00662	tobramycin solution for inhalation
DSY00663	Tobramycin Sulfate
DSY00664	MMF
DSY00665	MPA
DSY00666	Mycophenolic Acid
DSY00667	Mycophenylate mofetil
DSY00668	Dihydroflumethiazide
DSY00669	Frusemid
DSY00670	Frusemide
DSY00671	Furosemid
DSY00672	Furosemida [INN-Spanish]
DSY00673	Furosemidu [Polish]
DSY00674	Furosemidum [INN-Latin]
DSY00675	Fursemid
DSY00676	Fursemida
DSY00677	Fursemide
DSY00678	Metflorylthiazidine
DSY00679	Methforylthiazidine
DSY00680	PTI-555
DSY00681	Norethisterone
DSY00682	Pralidoxime Chloride
DSY00463	Fluouracil
DSY00683	11beta-Hydroxycortisone
DSY00684	17alpha-Hydroxycorticosterone
DSY00685	Anti-inflammatory hormone
DSY00686	Dihydrocostisone
DSY00687	Hidrocortisona [INN-Spanish]
DSY00688	Hydrocorticosterone
DSY00689	Hydrocortisone Acetate
DSY00690	Hydrocortisone alcohol
DSY00691	Hydrocortisone Base
DSY00692	Hydrocortisone Butyrate
DSY00693	Hydrocortisone free alcohol
DSY00694	Hydrocortisone Sodium Phosphate
DSY00695	Hydrocortisone Valerate
DSY00696	Hydrocortisonum [INN-Latin]
DSY00697	Hydroxycortisone
DSY00698	Idrocortisone [DCIT]
DSY00699	All Trans Retinoic Acid
DSY00700	All Trans-Retinoic Acid
DSY00701	ATRA
DSY00702	beta-Retinoic Acid
DSY00703	Retionic Acid
DSY00704	Tetracycline HCl
DSY00705	Antibiotic SM 7338
DSY00706	Meropenem anhydrous
DSY00707	Meropenemum [INN-Latin]
DSY00708	Camptothecin-11
DSY00709	CPT-11
DSY00710	Clavulanic Acid
DSY00711	EPEG
DSY00712	Epipodophyllotoxin
DSY00713	VP-16
DSY00714	VP-16-213
DSY00715	GP 47680
DSY00716	OCBZ
DSY00717	Oxcarbamazepine
DSY00718	Polymixin B sulfate
DSY00719	Polymyxin B sulfate salt
DSY00720	Polymyxin B sulphate
DSY00721	17beta oestradiol
DSY00722	17ß-estra-1,3,5(10)-triene-3,17-diol
DSY00723	17ß-estradiol
DSY00724	17ß-oestradiol
DSY00725	beta-Estradiol
DSY00726	cis-estradiol
DSY00727	Estradiol-17beta
DSY00728	9-Hyroxyethoxymethylguanine
DSY00729	AC2
DSY00730	Aciclovier
DSY00731	Aciclovir Sodium
DSY00732	Acycloguanosine
DSY00733	Acyclovir
DSY00734	Acyclovir Sodium
DSY00735	Wellcome-248u
DSY00736	Perindopril Erbumine
DSY00737	Candesartan cilexetil
DSY00738	Indapamida [INN-Spanish]
DSY00739	Indapamidum [INN-Latin]
DSY00740	RBV
DSY00741	Ribavirina [INN-Spanish]
DSY00742	Ribavirine [INN-French]
DSY00743	Ribavirinum [INN-Latin]
DSY00744	Fentanila [INN-Spanish]
DSY00745	Fentanyl citrate
DSY00746	Fentanylum [INN-Latin]
DSY00747	Dodecyl alcohol, hydrogen sulfate, sodium salt
DSY00748	Dodecyl sodium sulfate
DSY00749	Dodecyl sulfate sodium
DSY00750	Dodecyl sulfate sodium salt
DSY00751	Dodecyl sulfate, sodium salt
DSY00752	Lauryl sodium sulfate
DSY00753	Lauryl sulfate sodium
DSY00754	Lauryl sulfate sodium salt
DSY00755	Lauryl sulfate, sodium salt
DSY00756	Laurylsiran sodny [czech]
DSY00757	Lauyl sodium sulfate
DSY00758	Monododecyl sodium sulfate
DSY00759	N-dodecyl sulfate sodium
DSY00760	NADDS
DSY00761	NALS
DSY00762	Natrium laurylsulfuricum
DSY00763	Natriumlaurylsulfat
DSY00764	SDS
DSY00765	Sodium dodecyl sulfate
DSY00766	Sodium lauryl sulphate
DSY00767	Sodium monododecyl sulfate
DSY00768	Sodium monolauryl sulfate
DSY00769	Sodium n-dodecyl sulfate
DSY00770	Sodiumlauryl ether sulfate
DSY00771	Sulfuric acid dodecyl ester sodium salt
DSY00772	Sulfuric acid monododecyl ester sodium salt
DSY00773	Sulfuric acid, monododecyl ester, sodium salt
DSY00774	2,6-Diisopropylphenol
DSY00775	Diisopropylphenol
DSY00776	Ethinodiol Diacetate
DSY00777	Ethynodiol
DSY00778	Etynodiol
DSY00779	Methyldiazepinone
DSY00780	Brompheniramine Maleate
DSY00781	Chlofazimine
DSY00782	Clofazimina [INN-Spanish]
DSY00783	Clofaziminum [INN-Latin]
DSY00784	Chlorperphenazine
DSY00785	Etaperazin
DSY00786	Etaperazine
DSY00787	Ethaperazine
DSY00788	Perfenazina
DSY00789	Perfenazine
DSY00790	Perphenazin
DSY00791	PZC
DSY00792	Methazolastone
DSY00793	Temozolamide
DSY00794	Temozolodida [Spanish]
DSY00795	Temozolomidum [Latin]
DSY00796	Deltahydrocortisone
DSY00797	Methylprednisolone Acetate
DSY00798	PRDL
DSY00799	Predisolone Sodium Phosphate
DSY00800	Prednisolona [INN-Spanish]
DSY00801	Prednisolone Acetate
DSY00802	Prednisolone Sodium Phosphate
DSY00803	Prednisolone Tebutate
DSY00804	Prednisolonum [INN-Latin]
DSY00805	Ranitidine HCL
DSY00806	Ranitidine hydrochloride
DSY00807	Rantidine HCL
DSY00808	FK-506
DSY00809	FK5
DSY00810	K506
DSY00811	Loteprednol Etabonate
DSY00812	Glycerin guaiacolate
DSY00813	Glycerin monoguaiacol ether
DSY00814	Glycero-guaiacol ether
DSY00815	Glycerol guaiacolate
DSY00816	Glyceryl guaiacol
DSY00817	Glyceryl guaiacol ether
DSY00818	Glyceryl guaiacolate
DSY00819	Glyceryl guaiacolate ether
DSY00820	Glyceryl guaiacyl ether
DSY00821	Glyceryl guaicolate
DSY00822	Glyceryl guiacolate
DSY00823	Guiaphenesin
DSY00824	Metfenossidiolo
DSY00825	Methoxypropanediol
DSY00826	Methphenoxydiol
DSY00827	Metossipropandiolo
DSY00828	o-Methoxyphenyl glyceryl ether
DSY00829	(-)-Rapamycin
DSY00830	Rapamycin
DSY00831	Chlorhexidin [Czech]
DSY00832	Chlorhexidinum [INN-Latin]
DSY00833	Cloresidina [DCIT]
DSY00834	Clorhexidina [INN-Spanish]
DSY00835	Quinapril HCl
DSY00836	Quinapril Hydrochloride
DSY00837	Quinaprilum [Latin]
DSY00838	Dianhydrosorbitol 2,5-dinitrate
DSY00839	Sorbide nitrate
DSY00840	Sorbide, dinitrate
DSY00841	Sorbidnitrate
DSY00842	DDI
DSY00843	Dideoxyinosine
DSY00844	MD
DSY00845	Methdilazine Hcl
DSY00846	Methdilazine hydrochloride
DSY00847	Methdilazine Monohydrochloride
DSY00848	Methdilazinum [INN-Latin]
DSY00849	Methilazine hydrochloride
DSY00850	Methodilazine
DSY00851	Metodilazina [INN-Spanish]
DSY00852	AGN 192024
DSY00853	Tiagabina [INN-Spanish]
DSY00854	Tiagabinum [INN-Latin]
DSY00855	Quinidine Sulfate
DSY00856	AG-EE 388 ZW
DSY00857	AG-EE 623 ZW
DSY00858	Repaglinida [INN-Spanish]
DSY00859	Repaglinidum [INN-Latin]
DSY00860	1-aminoadamantane
DSY00861	Adamantamine
DSY00862	Adamantanamine
DSY00863	Adamantylamine
DSY00864	Amantadine Base
DSY00865	Amantadine HCL
DSY00866	Amantadine Hydrochloride
DSY00867	Amantidine
DSY00868	Aminoadamantane
DSY00869	Methronidazole
DSY00870	Metronidazol
DSY00871	Metronidazole Benzoate
DSY00872	Metronidazole Hcl
DSY00873	Metronidazole in Plastic Container
DSY00874	Metronidazolo
DSY00875	Buprenophine
DSY00876	Buprenorfina [INN-Spanish]
DSY00877	Buprenorphinum [INN-Latin]
DSY00878	Famotidina [Spanish]
DSY00879	Famotidinum [Latin]
DSY00880	Misoprostolum [INN-Latin]
DSY00881	Salmeterolum [Latin]
DSY00882	2-Acetoxybenzenecarboxylic acid
DSY00883	2-Acetoxybenzoic acid
DSY00884	2-Carboxyphenyl acetate
DSY00885	A.S.A.
DSY00886	Acetilsalicilico
DSY00887	Acetilum acidulatum
DSY00888	Acetosalic acid
DSY00889	Acetoxybenzoic acid
DSY00890	Acetylsalicylate
DSY00891	Acetylsalicylsaure (GERMAN)
DSY00892	Acetysalicylic acid
DSY00893	Acide acetylsalicylique (FRENCH)
DSY00894	Acido acetilsalicilico
DSY00895	Acido O-acetil-benzoico
DSY00896	Acidum acetylsalicylicum
DSY00897	ASA
DSY00898	Kyselina 2-acetoxybenzoova
DSY00899	Kyselina acetylsalicylova
DSY00900	O-accetylsalicylic acid
DSY00901	o-Acetoxybenzoic acid
DSY00902	O-Acetylsalicylic acid
DSY00903	o-Carboxyphenyl acetate
DSY00904	Salicylic acid acetate
DSY00905	Salicylic acid, acetate
DSY00906	Carboxyterfenadine
DSY00907	Fexofenadine hydrochloride
DSY00908	Fexofendine
DSY00909	Terfenadine acid metabolite
DSY00910	Terfenadine carboxylate
DSY00911	Terfenadine-COOH
DSY00912	HIA
DSY00913	Hydrazid
DSY00914	Hydrazide
DSY00915	INH
DSY00916	Isohydrazide
DSY00917	Isonicotinhydrazid
DSY00918	Isonicotinic acid hydrazide
DSY00919	Isonicotinic hydrazide
DSY00920	Isonicotinohydrazide
DSY00921	Isonicotinoyl hydrazide
DSY00922	Isonicotinyl hydrazide
DSY00923	Isonicotinyl hydrazine
DSY00924	Isonicotinylhydrazine
DSY00925	Dihydrocodeinone
DSY00926	Hidrocodona [INN-Spanish]
DSY00927	Hydrocodon
DSY00928	Hydrocodonum [INN-Latin]
DSY00929	Hydrocone
DSY00930	Hydroconum
DSY00931	Idrocodone [Dcit]
DSY00932	Dexnorgestrel Acetime
DSY00933	Norgestimato [INN-Spanish]
DSY00934	Norgestimatum [INN-Latin]
DSY00935	CBDCA
DSY00936	cis-Diammine(1,1-cyclobutanedicarboxylato)platinum(II)
DSY00937	DL-Mepivacaine
DSY00938	Mepivacaina [INN-Spanish]
DSY00939	Mepivacaine HCL
DSY00940	mepivacaine hydrochloride
DSY00941	Mepivacainum [INN-Latin]
DSY00942	Mepivicaine
DSY00943	S-Ropivacaine Mesylate
DSY00944	BIBR 277
DSY00945	BIBR 277SE
DSY00946	Descarboethoxyloratadine
DSY00947	Descarboethoxyoratidine
DSY00948	Desloratidine
DSY00949	Alpha medopa
DSY00950	Alphamethyldopa
DSY00951	AMD
DSY00952	L-Methyl Dopa
DSY00953	a-methyl-L-dopa
DSY00954	Dipiridamol
DSY00955	Dipyridamine
DSY00956	Dipyridamol
DSY00957	Dipyudamine
DSY00958	Dypyridamol
DSY00959	Usaf Ge-12
DSY00960	17 alpha-Ethinylestradiol
DSY00961	17 alpha-Ethynylestradiol
DSY00962	17 alpha-Ethynyloestradiol
DSY00963	17-ethinyl-3,17-estradiol
DSY00964	17-ethinyl-3,17-oestradiol
DSY00965	17-ethinylestradiol
DSY00966	17alpha-Ethinyl estradiol
DSY00967	17a-ethynylestradiol
DSY00968	Ethinyl-Oestranol
DSY00969	Ethinylestradiol
DSY00970	Ethinylestradiolum [INN-Latin]
DSY00971	Ethinylestriol
DSY00972	Ethinyloestradiol
DSY00973	Ethynyl estradiol
DSY00974	Ethynylestradiol
DSY00975	Ethynyloestradiol
DSY00976	Etinilestradiol [INN-Spanish]
DSY00977	LFLX
DSY00978	lomefloxacin hydrochloride
DSY00979	Lomefloxacine [French]
DSY00980	Lomefloxacino [Spanish]
DSY00981	Lomefloxacinum [Latin]
DSY00982	Ciclopentolato [INN-Spanish]
DSY00983	Cyclopentoiate
DSY00984	Cyclopentolate HCL
DSY00985	Cyclopentolatum [INN-Latin]
DSY00986	Cyclopentylate
DSY00987	Diopentolate
DSY00988	Formoterol fumarate
DSY00989	Formoterolum [INN-Latin]
DSY00990	Ara-C
DSY00991	Arabinocytidine
DSY00992	Arabinofuranosylcytosine
DSY00993	Arabinosylcytosine
DSY00994	AraC
DSY00995	Aracytidine
DSY00996	Aracytin
DSY00997	Aracytine
DSY00998	beta-Arabinosylcytosine
DSY00999	Beta-cytosine arabinoside
DSY01000	beta-D-Arabinosylcytosine
DSY01001	Citarabina [INN-Spanish]
DSY01002	Cytarabin
DSY01003	Cytarabina
DSY01004	cytarabine liposome injection
DSY01005	Cytarabinoside
DSY01006	Cytarabinum [INN-Latin]
DSY01007	Cytosine 1-beta-D-arabinofuranoside
DSY01008	Cytosine arabinofuranoside
DSY01009	Cytosine arabinose
DSY01010	Cytosine arabinoside
DSY01011	Cytosine beta-D-arabinoside
DSY01012	Cytosine-1-beta-D-arabinofuranoside
DSY01013	Cytosine-beta-arabinoside
DSY01014	Cytosine-beta-D-arabinofuranoside
DSY01015	Cytosine, beta-D-arabinoside
DSY01016	Caswell No. 595
DSY01017	Neomycin B Sulfate
DSY01018	Neomycin Sulfate
DSY01019	Neomycin Sulphate
DSY01020	USAF CB-19
DSY01021	Gabapentin GR
DSY01022	Gabapentine [INN-French]
DSY01023	Gabapentino [INN-Spanish]
DSY01024	Gabapentino [Spanish]
DSY01025	Gabapentinum [INN-Latin]
DSY01026	Gabapetin
DSY01027	Adria
DSY01028	Conventional Doxorubicin
DSY01029	Hydroxydaunomycin Hydrochloride
DSY01030	Hydroxyldaunorubicin Hydrochloride
DSY01031	Dihydrochlorothiazid
DSY01032	Dihydrochlorothiazide
DSY01033	Dihydrochlorothiazidum
DSY01034	Dihydrochlorurit
DSY01035	Dihydrochlorurite
DSY01036	Dihydroxychlorothiazidum
DSY01037	HCTZ
DSY01038	HCZ
DSY01039	Hydrochlorothiazid
DSY01040	Hydrochlorthiazide
DSY01041	Albuterol
DSY01042	Albuterol Sulfate
DSY01043	Albuterol Sulphate
DSY01044	Levalbuterol
DSY01045	Salbutamol Sulfate
DSY01046	Salbutamol Sulphate
DSY01047	GA2
DSY01048	Ganciclovir Sodium
DSY01049	Carbamohydroxamic Acid
DSY01050	Carbamohydroximic Acid
DSY01051	Carbamohydroxyamic Acid
DSY01052	Carbamoyl Oxime
DSY01053	Carbamyl Hydroxamate
DSY01054	HU
DSY01055	Hydroxicarbamidum
DSY01056	Hydroxycarbamide
DSY01057	Hydroxycarbamine
DSY01058	Hydroxylurea
DSY01059	Idrossicarbamide [Dcit]
DSY01060	N-Carbamoylhydroxylamine
DSY01061	N-Hydroxyurea
DSY01062	Letrozol
DSY01063	m-Benzoylhydratropic acid
DSY01064	Apo-Glibenclamide
DSY01065	Glibenclamida [INN-Spanish]
DSY01066	Glibenclamide
DSY01067	Glibenclamidum [INN-Latin]
DSY01068	Dl-Felodipine
DSY01069	Felodipina [INN-Spanish]
DSY01070	Felodipine [Usan:Ban:Inn]
DSY01071	Felodipinum [INN-Latin]
DSY01072	Topotecan Hcl
DSY01073	Topotecan Hydrochloride
DSY01074	Topotecan Lactone
DSY01075	Topotecane [INN-French]
DSY01076	Topotecanum [INN-Latin]
DSY01077	Probenecid Acid
DSY01078	6 MP
DSY01079	6-Mercaptopurine
DSY01080	Mercaptopurine Monohydrate
DSY01081	Mercapurin
DSY01082	MP
DSY01083	Fenofibrato [INN-Spanish]
DSY01084	Fenofibratum [INN-Latin]
DSY01085	Fenofibric acid
DSY01086	Finofibrate
DSY01087	FNF
DSY01088	alpha-phthalimidoglutarimide
DSY01089	N-Phthalimidoglutamic acid imide
DSY01090	N-Phthaloylglutamimide
DSY01091	N-Phthalylglutamic acid imide
DSY01092	Thalidomine USP26
DSY01093	RFP
DSY01094	Rifampicin
DSY01095	Rifampin
DSY01096	Ibuprophen
DSY01097	P-Isobutylhydratropic Acid
DSY01098	Para-Isobutylhydratropic Acid
DSY01099	Nitrendipin
DSY01100	Nitrendipino [INN-Spanish]
DSY01101	Nitrendipinum [INN-Latin]
DSY01102	Amoxicilina [INN-Spanish]
DSY01103	Amoxicillin anhydrous
DSY01104	Amoxicillin Trihydrate
DSY01105	Amoxicilline [INN-French]
DSY01106	Amoxicillinum [INN-Latin]
DSY01107	Amoxycillin
DSY01108	Amoxycillin Trihydrate
DSY01109	D-Amoxicillin
DSY01110	p-Hydroxyampicillin
DSY01111	Glipizida [INN-Spanish]
DSY01112	Glipizidum [INN-Latin]
DSY01113	Glydiazinamide
DSY01114	Isopromethazine
DSY01115	Lilly 1516
DSY01116	Proazaimine
DSY01117	Proazamine
DSY01118	Promazinamide
DSY01119	Prometazine
DSY01120	Promethazin
DSY01121	Promethazine Hcl
DSY01122	Promethiazine
DSY01123	Promezathine
DSY01124	Prothazin
DSY01125	Prothazine
DSY01126	FAMP
DSY01127	"Fludarabine 5'-monophosphate"
DSY01128	Fludarabine monophosphate
DSY01129	Fludarabine phosphate
DSY01130	2-diphenylmethoxy-N,N-demthylethanamine
DSY01131	Diphenylhydramine
DSY01132	O-benzhydryldimethylaminoethanol
DSY01133	ß-dimethylaminoethyl benzhydryl ether
DSY01134	Dea No. 9170
DSY01135	Difenossilato [Dcit]
DSY01136	Difenoxilato [INN-Spanish]
DSY01137	Diphenoxalate
DSY01138	Diphenoxylate Hydrochloride
DSY01139	Diphenoxylatum [INN-Latin]
DSY01140	Streptomycin a Sulfate
DSY01141	Streptomycin Sesquisulfate Hydrate
DSY01142	Streptomycin Sulfate
DSY01143	Streptomycin Sulphate
DSY01144	Streptomycin, Sulfate Salt
DSY01145	ZD-4522
DSY01146	R340
DSY01147	Alpha-Heparin
DSY01148	Heparin sodium
DSY01149	Heparin sodium preservative Free
DSY01150	Heparin sodium salt
DSY01151	Heparin sulfate
DSY01152	Heparinate
DSY01153	Heparinic acid
DSY01154	Sodium heparin
DSY01155	MCZ
DSY01156	Chloropheniramine
DSY01157	Chlorophenylpyridamin
DSY01158	Chlorophenylpyridamine
DSY01159	Chloroprophenpyridamine
DSY01160	Chlorphenamine
DSY01161	Chlorpheniramine Maleate
DSY01162	Chlorprophenpyridamine
DSY01163	Clorfeniramina
DSY01164	Dexchlorpheniramine
DSY01165	Dexchlorpheniramine Maleate
DSY01166	Irsogladine Maleate
DSY01167	rabeprazole sodium
DSY01168	Rebeprazole sodium
DSY01169	Pioglitazona [INN-Spanish]
DSY01170	Pioglitazone [Ban:Inn]
DSY01171	pioglitazone HCl
DSY01172	Pioglitazone Hydrochloride
DSY01173	Pioglitazonum [INN-Latin]
DSY01174	L-Ofloxacin
DSY01175	Gemifloxacin mesilate
DSY01176	gemifloxacin mesylate
DSY01177	Amfebutamone
DSY01178	Bupropion Hcl
DSY01179	TMQ
DSY01180	TMX
DSY01181	Trimetrexato [INN-Spanish]
DSY01182	Trimetrexatum [INN-Latin]
DSY01183	Acide Arsenieux [French]
DSY01184	Anhydride Arsenieux [French]
DSY01185	Arseni Trioxydum
DSY01186	Arsenic Blanc [French]
DSY01187	Arsenic Oxidearsenous Trioxide
DSY01188	Arsenigen Saure [German]
DSY01189	Arsenious Acid
DSY01190	Arsenious Acid Anhydride
DSY01191	Arsenious Trioxide
DSY01192	Arsentrioxide
DSY01193	Oxyde Arsenieux [ISO-French]
DSY01194	Aminodeoxykanamycin
DSY01195	KAN
DSY01196	Kanamycin Base
DSY01197	Kanamycin Sulfate
DSY01198	Nebramycin Factor 5
DSY01199	Mephenamine
DSY01200	O-Methyldiphenhydramine
DSY01201	Orphenadine
DSY01202	Orphenadrin
DSY01203	Orphenadrine Citrate
DSY01204	Orphenate
DSY01205	Orphenedrine
DSY01206	Z4942
DSY01207	EN 1530 Base
DSY01208	L-Naloxone
DSY01209	N-Allylnoroxymorphone
DSY01210	Nalossone [Dcit]
DSY01211	Naloxona [INN-Spanish]
DSY01212	Naloxone HCl
DSY01213	Naloxonum [INN-Latin]
DSY01214	Clindamicina [INN-Spanish]
DSY01215	Clindamycin Hydrochloride
DSY01216	Clindamycin Phosphate
DSY01217	Clindamycine [French]
DSY01218	Clindamycine [INN-French]
DSY01219	Clindamycinum [INN-Latin]
DSY01220	Captoprilum [INN-Latin]
DSY01221	Captopryl
DSY01222	L-Captopril
DSY01223	Levetiracetam [INN]
DSY01224	Levetiracetamum [INN-Latin]
DSY01225	Levitiracetam
DSY01226	Clarithromycine
DSY01227	Clathromycin
DSY01228	Cefatriaxone
DSY01229	Ceftriaxona [INN-Spanish]
DSY01230	Ceftriaxonum [INN-Latin]
DSY01231	Ceftriazone
DSY01232	(-)-Ketamine
DSY01233	(S)-(-)-Ketamine
DSY01234	(S)-Ketamine
DSY01235	CI 581 base
DSY01236	Ketamine Base
DSY01237	Ketamine HCL
DSY01238	l-Ketamine
DSY01239	Aminophyllin
DSY01240	Aminophylline Anhydrous
DSY01241	Aminophylline Dihydrate
DSY01242	Aminophylline Dye Free
DSY01243	7-epi-Paclitaxel
DSY01244	7-epi-Taxol
DSY01245	7-Epipaclitaxel
DSY01246	7-Epitaxol
DSY01247	ABI-007
DSY01248	Conventional Paclitaxel
DSY01249	Paclitaxel (Conventional)
DSY01250	Taxol
DSY01251	Saquinavir Mesylate
DSY01252	SQV
DSY01253	Desametasone
DSY01254	Desametasone [DCIT]
DSY01255	Desamethasone
DSY01256	Dexametasona [INN-Spanish]
DSY01257	Dexamethasone Acetate
DSY01258	Dexamethasone Sodium Phosphate
DSY01259	Dexamethasonum [INN-Latin]
DSY01260	Dexamethazone
DSY01261	Fluormethylprednisolone
DSY01262	3,4-dihydroxyphenylalanine
DSY01263	DOPA
DSY01264	L-Dihydroxyphenylalanine
DSY01265	L-DOPA
DSY01266	Sevofluran
DSY01267	Sevoflurano [INN-Spanish]
DSY01268	Sevofluranum [INN-Latin]
DSY01269	Docetaxel anhydrous
DSY01270	Docetaxel, Trihydrate
DSY01271	RP-6976
DSY01272	TXL
DSY01273	BMS-354825
DSY01274	Rasilez
DSY01275	SPP 100
DSY01276	FMM
DSY01277	GW 572016
DSY01278	GW572016
DSY01279	Lapatinib ditosylate
DSY01280	Lapatinib tosilate hydrate
DSY01281	MK-0431
DSY01282	Sitagliptan
DSY01283	Sitagliptin phosphate
DSY01284	"5-aza-2'-deoxycytidine"
DSY01285	Azadc
DSY01286	Dezocitidine
DSY01287	SU011248
DSY01288	SU11248
DSY01289	Hydralazine hydrochloride
DSY01290	Bismuth
DSY01291	Bismuth oxide salicylate
DSY01292	Bismuth oxysalicylate
DSY01293	Bismuth(III) subsalicylate
DSY01294	Bismuthi subsalicylas
DSY01295	Bismutum subsalicylicum
DSY01296	Bicarbonate of soda
DSY01297	Carbonic acid monosodium salt
DSY01298	Sodium acid carbonate
DSY01299	Sodium hydrocarbonate
DSY01300	Sodium hydrogen carbonate
DSY01301	Sodium hydrogencarbonate
DSY01302	Colchicin
DSY01303	Colchicina
DSY01304	Colchicinum
DSY01305	6ß,7ß,15ß,16ß-dimethylene-3-oxo-17a-pregn-4-ene-21,17 carbolactone
DSY01306	Drospirenona [inn-spanish]
DSY01307	Drospirenonum [inn-latin]
DSY01308	DRSP
DSY01309	Cefepima [spanish]
DSY01310	Cefepimum [latin]
DSY01311	4-Hydroxy-butanoic acid
DSY01312	4-hydroxybutanoate
DSY01313	4-hydroxybutanoic acid
DSY01314	4-Hydroxybutyric acid
DSY01315	gamma-Hydroxybutyric acid
DSY01316	GHB
DSY01317	Juice
DSY01318	Liquid Ecstasy
DSY01319	Sodium oxybate
DSY01320	DF-118
DSY01321	DHC
DSY01322	Paracodeine
DSY01323	Parzone
DSY01324	(+ )-methylamphetamine
DSY01325	(+)-(s)-deoxyephedrine
DSY01326	(+)-(s)-n-alpha-dimethylphenethylamine
DSY01327	(+)-2-(N-Methylamino)-1-phenylpropane
DSY01328	(+)-methamphetamine
DSY01329	(+)-methylamphetamine
DSY01330	(+)-n-methylamphetamine
DSY01331	(+)-n,alpha-dimethyl-beta-phenylethylamine
DSY01332	(+)-n,alpha-dimethylphenethylamine
DSY01333	(2S)-N-methyl-1-phenylpropan-2-amine
DSY01334	(s)-(+)-deoxyephedrine
DSY01335	(s)-(+)-methamphetamine
DSY01336	(s)-(+)-n,alpha,dimethylphenethylamine
DSY01337	(s)-methamphetamine
DSY01338	(s)-methylamphetamine
DSY01339	(s)-n,alpha-dimethylbenzeneethanamine
DSY01340	(s)-n,alpha-dimethylbenzeneethanoamine
DSY01341	1-Phenyl-2-methylamino-propan [German]
DSY01342	1-Phenyl-2-methylaminopropane
DSY01343	2S-(+)-Methamphetamine
DSY01344	D-(s)-methamphetamine
DSY01345	d-1-Phenyl-2-methylaminopropan [German]
DSY01346	D-1-Phenyl-2-methylaminopropane
DSY01347	D-deoxyephedrine
DSY01348	D-desoxyephedrine
DSY01349	D-methamphetamine
DSY01350	D-methylamphetamine
DSY01351	D-n-methylamphetamine
DSY01352	D-n,alpha-dimethylphenethylamine
DSY01353	D-phenylisopropylmethylamine
DSY01354	Desoxyephedrine hydrochloride
DSY01355	Ice
DSY01356	L-methamphetamine
DSY01357	Metamfetamina [inn-spanish]
DSY01358	Metamfetaminum [inn-latin]
DSY01359	Metamphetamine
DSY01360	Metanfetamina [inn-spanish]
DSY01361	Meth
DSY01362	Methamphetaminum [inn-latin]
DSY01363	Methyl-beta-phenylisopropylamine
DSY01364	Methylamphetamine
DSY01365	N-Methyl-1-phenyl-2-propanamine
DSY01366	N-methyl-beta-phenylisopropylamin [german]
DSY01367	N-methyl-beta-phenylisopropylamine
DSY01368	N-methylamphetamine
DSY01369	S-(+)-methamphetamine
DSY01370	Afinitor
DSY01371	Certican
DSY01372	RAD001
DSY01373	SDZ-RAD
DSY01374	VOTUBIA
DSY01375	Zortress
DSY01376	Imipemide
DSY01377	Imipenem, n-formimidoyl thienamycin
DSY01378	IMP
DSY01379	N-formimidoylthienamycin
DSY01380	ABT-378
DSY01381	LPV
DSY01382	Ticarcilina [inn-spanish]
DSY01383	Ticarcillin supplement
DSY01384	Ticarcilline [inn-french]
DSY01385	Ticarcillinum [inn-latin]
DSY01386	Feniramina [inn-spanish]
DSY01387	Feniramine
DSY01388	Pheniraminum [inn-latin]
DSY01389	Propheniramine
DSY01390	Prophenpyridamine
DSY01391	"4',5, 7-Trihydroxyisoflavone"
DSY01392	"5,7,4'-Trihydroxyisoflavone"
DSY01393	Genisteol
DSY01394	Genisterin
DSY01395	Calcipotriene
DSY01396	MK0683
DSY01397	"N-hydroxy-n'-phenyloctanediamide"
DSY01398	"N-hyrdroxy-n'-phenyloctanediamide"
DSY01399	SAHA
DSY01400	SHH
DSY01401	Suberanilohydroxamic acid
DSY01402	suberoylanilide hydroxamic acid
DSY01403	Diethanolamine fusidate
DSY01404	Fucidate
DSY01405	Fucidate Sodium
DSY01406	Fucidic acid
DSY01407	Fusidate
DSY01408	Fusidate Sodium
DSY01409	Alvocidib
DSY01410	CPB
DSY01411	Flavo
DSY01412	Flavopiridol hydrochloride
DSY01413	HMR-1275
DSY01414	1,8-cineol
DSY01415	1,8-Cineole
DSY01416	1,8-epoxy-p-menthane
DSY01417	1,8-oxido-p-menthane
DSY01418	cajeputol
DSY01419	cineol
DSY01420	cineole
DSY01421	Cucalyptol
DSY01422	Eucapur
DSY01423	Zineol
DSY01424	5-Chlor-7-jod-8-hydroxy-chinolin [German]
DSY01425	5-Chloro-7-iodo-8-hydroxyquinoline
DSY01426	5-Chloro-7-iodo-8-quinolinol
DSY01427	5-Chloro-7-iodoquinolin-8-ol
DSY01428	5-Chloro-8-hydroxy-7-iodoquinoline
DSY01429	7-Iodo-5-chloro-8-hydroxyquinoline
DSY01430	7-Iodo-5-chloroxine
DSY01431	Caswell No. 193
DSY01432	Chloro-8-hydroxyiodoquinoline
DSY01433	Chloroiodoquin
DSY01434	Chloroiodoquine
DSY01435	Cliochinolo [dcit]
DSY01436	Clioquinolum [inn-latin]
DSY01437	IODO
DSY01438	Iodochlorhydroxyquin
DSY01439	Iodochlorhydroxyquinol
DSY01440	Iodochlorhydroxyquinoline
DSY01441	Iodochlorohydroxyquin
DSY01442	Iodochlorohydroxyquinoline
DSY01443	Iodochloroquine
DSY01444	Iodochloroxine
DSY01445	Iodochloroxychinolinum
DSY01446	Iodochloroxyquinoline
DSY01447	Iodoxyquinoline
DSY01448	Jodchloroxychinolinum
DSY01449	Ecteinascidin
DSY01450	Ecteinascidin 743
DSY01451	ET-743
DSY01452	ET743
DSY01453	NSC 684766
DSY01454	COP-1
DSY01455	Copolymer-1
DSY01456	Copoylmer 1
DSY01457	SYR-322
DSY01458	Dihydroartemisinin methyl ether
DSY01459	Dihydroqinghaosu methyl ether
DSY01460	SM-224
DSY01461	Benflumetol
DSY01462	Phenazolin
DSY01463	Phenazoline
DSY01464	2-amino-2-(2-(4-octylphenyl)ethyl]propan-1,3-diol hydrochloride
DSY01465	Fingolimod HCl
DSY01466	Fingolimod hydrochloride
DSY01467	FTY-720A
DSY01468	FTY720
DSY01469	Gilenia
DSY01470	5-azaorotic acid
DSY01471	OXC
DSY01472	Oxonate
DSY01473	Potassium 2,6-dihydroxytriazinecarboxylate
DSY01474	Potassium azaorotate
DSY01475	Potassium oxonate
DSY01476	Sodium 5-azaorotate
DSY01477	EQUA
DSY01478	Galvus
DSY01479	Jalra
DSY01480	LAF 237
DSY01481	LAF237
DSY01482	NVP-LAF-237
DSY01483	NVP-LAF237
DSY01484	Xiliarx
DSY01485	BIBW 2992
DSY01486	Estrogens
DSY01487	Estrone Estrone Hydrogen Sulfate
DSY01488	Estrone Hydrogen Sulfate
DSY01489	Estrone Sodium Sulfate
DSY01490	Estrone Sulfate
DSY01491	Estrone Sulfate Sodium
DSY01492	Estrone Sulphate
DSY01493	Estrone-sulfate
DSY01494	Oestrone Sulphate
DSY01495	Sodium Estrone Sulfate
DSY01501	CB7630
DSY01503	QAB149
DSY01508	GW-786034
DSY01509	GW786034
DSY01510	Testolactona [INN-Spanish]
DSY01511	Testolactonum [INN-Latin]
DSY01512	Testolattone [Dcit]
DSY01513	Anticoagulant protein C
DSY01514	Autoprothrombin IIA
DSY01515	Blood coagulation factor XIV
DSY01516	Vitamin K-dependent protein C precursor
DSY01522	(+)-vitamin D3
DSY01523	calciol
DSY01524	CC
DSY01525	Colecalciferol
DSY01526	Vitamin D3
DSY01527	CBP-1011
DSY01528	Hydroxymethylprogesterone
DSY01529	Medroprogesterone Acetate
DSY01530	Medrossiprogesterone [Dcit]
DSY01531	Medroxiprogesterona [INN-Spanish]
DSY01532	Medroxiprogesteronum
DSY01533	Medroxyprogesteron
DSY01534	Medroxyprogesteron acetate
DSY01535	Medroxyprogesteronum [INN-Latin]
DSY01536	Ketoralac
DSY01537	Ketorolac Tromethamine
DSY01538	Ketorolaco [Spanish]
DSY01539	Ketorolacum [Latin]
DSY01541	Deoxyribonuclease I
DSY01542	Deoxyribonuclease-1 precursor
DSY01543	DNase
DSY01544	DNase I
DSY01545	rhDNase
DSY01549	CD120b
DSY01550	p75
DSY01551	p80 TNF-alpha receptor
DSY01552	TNF-R2
DSY01553	Tumor necrosis factor receptor 2
DSY01554	Tumor necrosis factor receptor superfamily member 1B precursor
DSY01555	Tumor necrosis factor receptor type II
DSY01556	Leuprorelin
DSY01566	t- PA
DSY01567	t-plasminogen activator
DSY01568	Tissue-type plasminogen activator precursor
DSY01569	tPA
DSY01570	Epoetin
DSY01571	Erythropoietin precursor
DSY01576	G-CSF
DSY01577	Granulocyte colony-stimulating factor precursor
DSY01578	Lenograstim
DSY01579	Pluripoietin
DSY01580	Colony-stimulating factor
DSY01581	CSF
DSY01582	GM-CSF
DSY01583	Granulocyte-macrophage colony-stimulating factor precursor
DSY01584	Molgramostin
DSY01585	ICIL-1RA
DSY01586	IL-1ra
DSY01587	IL-1RN
DSY01588	IL1 inhibitor
DSY01589	Interleukin-1 receptor antagonist protein precursor
DSY01590	IRAP
DSY01594	Insulin human
DSY01599	IFN-gamma
DSY01600	Immune interferon
DSY01601	Interferon gamma precursor
DSY01602	Interferon alfa-2a
DSY01603	Oral interferon alfa
DSY01604	rIFN-alpha-2a
DSY01609	FGF-7
DSY01610	Fibroblast growth factor- 7
DSY01611	HBGF-7
DSY01612	Keratinocyte growth factor precursor
DSY01613	KGF
DSY01614	Ig gamma-1 chain C region
DSY01615	Insulin Lispro Recombinant
DSY01616	Insulin Glargine (rDNA origin)
DSY01619	Cetrorelixum [INN-Latin]
DSY01620	SB 75
DSY01621	SB-75
DSY01622	GH
DSY01623	GH-N
DSY01624	Growth hormone
DSY01625	Growth hormone 1
DSY01626	Pituitary growth hormone
DSY01627	Somatotropin precursor
DSY01628	Somatropin
DSY01629	7E3
DSY01630	7E3 antibody
DSY01631	antiGPIIBIIIa
DSY01632	C7E3
DSY01633	anti-CD33
DSY01634	Mylotarg
DSY01637	Fibroblast interferon
DSY01638	IFN-beta
DSY01639	Interferon beta precursor
DSY01641	Integrelin
DSY01642	Intrifiban
DSY01643	Ig gamma-1 chain C region
DSY01644	Follicle-stimulating hormone beta subunit
DSY01645	Follitropin alfa/beta
DSY01646	Follitropin beta chain precursor
DSY01647	FSH-B
DSY01648	FSH-beta
DSY01649	3-Isoleucyl vasopressin
DSY01650	Arginine oxytocin
DSY01651	Arginine vasotocin
DSY01652	Argiprestocin
DSY01653	Pitressin tannate
DSY01654	Vasopressin, isoleucyl
DSY01655	Vasopressin, non-mammalian
DSY01656	Vasotocin
DSY01674	chimeric mouse-human antiCD25
DSY01675	Ig gamma-1 chain C region
DSY01702	CG-beta
DSY01703	Choriogonadotropin beta chain precursor
DSY01704	Chorionic gonadotrophin beta subunit
DSY01705	rabbit ATG
DSY01706	rATG
DSY01707	Thymoglobulin
DSY01708	G-CSF
DSY01709	Granulocyte Colony Stimulating Factor
DSY01710	Tbo-filgrastim
DSY01711	Octreotida [Spanish]
DSY01712	Octreotidum [Latin]
DSY01713	Octrotide
DSY01714	Interferon alfa-2b
DSY01715	rIFN-alpha-2b
DSY01716	Pitocin
DSY01717	Syntocinon
DSY01739	(S)-2-Amino-5-guanidinovaleric acid
DSY01740	Arg
DSY01741	L-(+)-Arginine
DSY01742	L-Arg
DSY01797	(alpha-Methylguanido)acetic acid
DSY01798	Creatine (8CI)
DSY01799	Creatine, hydrate
DSY01800	Methylguanidoacetic acid
DSY01801	N-Amidinosarcosine
DSY01802	N-Methyl-N-guanylglycine
DSY01803	Synthetic Vitamin D
DSY01804	Vitamin D2
DSY01805	Folate
DSY01806	Pteroyl-L-glutamic acid
DSY01807	Pteroyl-L-monoglutamic acid
DSY01808	Pteroylglutamic acid
DSY01809	Pteroylmonoglutamic acid
DSY01810	Vitamin B9
DSY01811	Vitamin Bc
DSY01812	Vitamin Be
DSY01813	Vitamin M
DSY01853	Pyridoxol
DSY01854	Vitamin B6
DSY01863	(+/-)-Benzedrine
DSY01864	(+/-)-beta-Phenylisopropylamine
DSY01865	(+/-)-Desoxynorephedrine
DSY01866	[1-(3-Methoxyphenyl)-2-propyl]amine
DSY01867	1-Methyl-2-phenylethylamine
DSY01868	1-Phenyl-2-aminopropane
DSY01869	3-Methoxyamphetamine
DSY01870	alpha-Methylbenzeneethaneamine
DSY01871	Amfetamine
DSY01872	Amphetamine Sulfate
DSY01873	beta-Aminopropylbenzene
DSY01874	beta-phenyl-isopropylamine
DSY01875	dl-1-Phenyl-2-aminopropane
DSY01876	DL-alpha-Methylphenethylamine
DSY01877	dl-Amphetamine
DSY01878	dl-Benzedrine
DSY01879	Fenylo-izopropylaminyl
DSY01880	m-Methoxyamphetamine
DSY01881	Methamphetamine HCL
DSY01887	(+/-)-Lorazepam
DSY01888	O-Chlorooxazepam
DSY01889	O-Chloroxazepam
DSY01890	(alpha,alpha)-Dimethylphenethylamine
DSY01896	4-C-32
DSY01897	53-32C
DSY01898	Midodrin
DSY01899	Midodrina [INN-Spanish]
DSY01900	Midodrine HCL
DSY01901	midodrine hydrochloride
DSY01902	Midodrinum [INN-Latin]
DSY01906	Nitalapram
DSY01907	BAY 12-8039
DSY01908	Moxifloxacin HCl
DSY01909	Moxifloxacin hydrochloride
DSY01910	1UN
DSY01911	AG1343
DSY01912	Nelfinavir mesylate
DSY01913	NFV
DSY01914	NLF
DSY01915	CI-1008
DSY01916	S-(+)-3-isobutylgaba
DSY01939	Ziprasidone hydrochloride
DSY01940	Ziprasidone mesylate trihydrate
DSY01951	Doxcycline anhydrous
DSY01952	Doxycycline Hyclate
DSY01953	Doxycycline Monohydrate
DSY01954	Doxytetracycline
DSY01969	BCNU
DSY01970	Bischlorethylnitrosourea
DSY01971	Bischlorethylnitrosurea
DSY01972	Carmustin
DSY01996	Bleocin
DSY01997	Bleomicin
DSY01998	Bleomicina [INN-Spanish]
DSY01999	Bleomycin A2
DSY02000	Bleomycin sulfate
DSY02001	Bleomycine [INN-French]
DSY02002	Bleomycinum [INN-Latin]
DSY02003	BLM
DSY02004	Chlocambucil
DSY02005	Chloraminophen
DSY02006	Chloraminophene
DSY02007	Chlorbutin
DSY02008	Chlorbutine
DSY02009	Chloroambucil
DSY02010	Chlorobutin
DSY02011	Chlorobutine
DSY02012	Phenylbutyric Acid Nitrogen Mustard
DSY02016	Ropivacaina [INN-Spanish]
DSY02017	Ropivacaina [Spanish]
DSY02018	Ropivacaine [INN]
DSY02019	Ropivacainum [INN-Latin]
DSY02020	S-Ropivacaine
DSY02021	Floxacillin
DSY02022	Flucloxacilina [INN-Spanish]
DSY02023	Flucloxacillin Sodium
DSY02024	Flucloxacillin-Sodium
DSY02025	Flucloxacilline [INN-French]
DSY02026	Flucloxacillinum [INN-Latin]
DSY02027	Desogestrelum [INN-Latin]
DSY02030	Pentabarbital
DSY02031	Pentabarbitone
DSY02032	Pentobarbital Sodium
DSY02033	Pentobarbitone
DSY02034	Pentobarbiturate
DSY02035	Pentobarbituric acid
DSY02036	Sodium Pentobarbital
DSY02037	5 Fluorodeoxyuridine
DSY02038	5FDU
DSY02039	Deoxyfluorouridine
DSY02040	FDUR
DSY02041	FDURD
DSY02042	Floxiridina [INN-Spanish]
DSY02043	Floxuridin
DSY02044	Floxuridinum [INN-Latin]
DSY02045	Fluorodeoxyuridine
DSY02046	Fluoruridine Deoxyribose
DSY02047	Fluormetholon
DSY02048	Fluormetholone
DSY02049	Fluoromethalone
DSY02050	FML
DSY02051	Dihydromorfinon [Czech]
DSY02052	Dihydromorphinone
DSY02053	Hidromorfona [INN-Spanish]
DSY02054	Hydromorfona [Spanish]
DSY02055	Hydromorphon
DSY02056	Hydromorphone HCL
DSY02057	Hydromorphonum [INN-Latin]
DSY02066	ASM 981
DSY02067	SDZ ASM 981
DSY02076	Aedon
DSY02077	Anxirloc
DSY02078	Castilium
DSY02079	Chlorepin
DSY02080	Clarmyl
DSY02081	Clobam
DSY02082	Clobamax
DSY02083	Clobator
DSY02084	Clofritis
DSY02085	Clopax
DSY02086	Clorepin
DSY02087	Frisium
DSY02088	Grifoclobam
DSY02089	Karidium
DSY02090	Lucium
DSY02091	Mystan
DSY02092	Noiafren
DSY02093	Sederlona
DSY02094	Sentil
DSY02095	Urbadan
DSY02096	Urbanil
DSY02097	Urbanol
DSY02098	Urbanyl
DSY02120	SDA
DSY02121	Sulfadiazene
DSY02122	Sulfadiazin
DSY02123	Sulfanilamidopyrimidine
DSY02124	Sulfapirimidin
DSY02125	Sulfapyrimidin
DSY02126	Sulfapyrimidine
DSY02127	Sulphadiazine
DSY02131	Dossilamina [DCIT]
DSY02132	Doxilminio [INN-Spanish]
DSY02133	Doxylaminum [INN-Latin]
DSY02134	Arterenol
DSY02135	L-noradrenaline
DSY02136	L-Norepinephrine
DSY02137	Noradrenaline
DSY02166	Corpus Luteum Hormone
DSY02167	Progesterona [INN-Spanish]
DSY02168	Progesteronum
DSY02169	Progesteronum [INN-Latin]
DSY02176	d-methylphenidate HCl
DSY02177	Methyl phenidyl acetate
DSY02178	Methylphenidate HCl
DSY02179	Methylphenidate hydrochloride
DSY02180	Methylphenidatum [INN-Latin]
DSY02181	Methylphenidylacetate hydrochloride
DSY02182	Metilfenidat hydrochloride
DSY02183	Metilfenidato [INN-Spanish]
DSY02184	Metilfenidato [Italian]
DSY02185	Phenidylate
DSY02203	Prazocin
DSY02204	Prazosin HCl
DSY02205	Prazosin Hydrochloride
DSY02206	Prazosina [INN-Spanish]
DSY02207	Prazosine [INN-French]
DSY02208	Prazosinum [INN-Latin]
DSY02218	Duloxetine HCl
DSY02219	Duloxetine Hydrochloride
DSY02225	Cefotaxime sodium
DSY02226	Cephotaxime
DSY02228	2-(Acetolyloxy)-N-(5-nitro-2-thiazolyl)benzamide
DSY02229	2-Acetyloxy-N-[(5-nitro-2-thiazolyl)]benzamide
DSY02230	Nitazoxanid
DSY02231	Nitazoxanida [INN-Spanish]
DSY02232	Nitazoxanidum [INN-Latin]
DSY02233	Tizoxanide Glucuronide
DSY02258	Methoxalen
DSY02259	Xanthotoxin
DSY02260	Xanthotoxine
DSY02261	Xanthoxin
DSY02262	Zanthotoxin
DSY02299	Labetalol HCL
DSY02300	Labetalol hydrochloride
DSY02301	Labetalolum [INN-Latin]
DSY02302	Labetolol
DSY02303	Penthiobarbital
DSY02304	Pentothal
DSY02305	Pentothiobarbital
DSY02306	Thiomebumal
DSY02307	Thionembutal
DSY02308	Thiopentobarbital
DSY02309	Thiopentobarbitone
DSY02310	Thiopentobarbituric acid
DSY02311	Thiopentone
DSY02312	Tiopentale [Italian]
DSY02313	22,23-Dihydroxy-avermectin B
DSY02314	22,23-Dihyroavermectin B1
DSY02315	5-O-demethyl-22,23-dihydro-avermectin A1a
DSY02316	Nafcilina [INN-Spanish]
DSY02317	Nafcillin Sodium
DSY02318	Nafcillin sodium salt
DSY02319	Nafcilline [INN-French]
DSY02320	Nafcillinum [INN-Latin]
DSY02321	Chloraquine
DSY02322	Chlorochine
DSY02323	Chloroquina
DSY02324	Chloroquinium
DSY02325	Chlorquin
DSY02326	Clorochina
DSY02327	Nitrofurazolidone
DSY02328	Nitrofurazolidonum
DSY02329	USAF EA-1
DSY02330	17-methyltestosterone
DSY02331	17a-methyl-¿4-androsten-17ß-ol-3-one
DSY02332	17a-methyltestosterone
DSY02333	Acide Alendronique [INN-French]
DSY02334	Acido Alendronico [INN-Spanish]
DSY02335	Acidum Alendronicum [INN-Latin]
DSY02336	Alendronate Sodium
DSY02337	Alendronic acid
DSY02341	"2'-Deoxyadenosine"
DSY02342	Adenine Deoxy Nucleoside
DSY02343	Adenine Deoxyribonucleoside
DSY02344	Adenine Deoxyribose
DSY02345	Adenine Nucleoside
DSY02346	Adenine Riboside
DSY02347	Adenyldeoxyriboside
DSY02348	Deoxyadenosine
DSY02349	Desoxyadenosine
DSY02350	MEDR-640
DSY02351	USAF CB-10
DSY02364	3-(Acetylamino)propanesulphonic acid
DSY02365	3-Acetamido-1-propanesulfonic acid
DSY02366	Calcium Acetylhomotaurinate
DSY02367	N-Acetylhomotaurine
DSY02377	MK-0517
DSY02378	MK-869
DSY02382	Dea No. 2884
DSY02383	Midazolam Base
DSY02384	Midazolam Hcl
DSY02385	Midazolamum [INN-Latin]
DSY02386	Moexipril HCl
DSY02387	Moexipril hydrochloride
DSY02388	Moexiprilum [INN-Latin]
DSY02391	YM-617
DSY02395	Ibandronate sodium
DSY02396	Ibandronate sodium monohydrate
DSY02397	Ibandronic Acid
DSY02398	R484
DSY02404	Oxacillin Sodium
DSY02414	Adefovir
DSY02415	Adefovir pivoxil
DSY02416	Adefovirdipivoxl
DSY02417	ADV
DSY02418	Bis-POM PMEA
DSY02419	GS-840
DSY02420	PMEA
DSY02421	procaine HCl
DSY02423	Glyceryl trinitrate
DSY02424	NG
DSY02425	nitroglycerin ointment
DSY02426	Nitroglycerine
DSY02427	NTG
DSY02428	TNG
DSY02429	Trinitroglycerin
DSY02431	Nateglinide [INN]
DSY02432	SDZ-DJN 608
DSY02433	risperdone
DSY02434	Risperidona [Spanish]
DSY02435	Risperidonum [Latin]
DSY02436	(-)-Omeprazole
DSY02437	(S)-Omeprazole
DSY02438	Esomperazole
DSY02444	Cordycepic acid
DSY02445	D-Mannitol
DSY02446	Osmitrol
DSY02452	Deferoxamide B
DSY02453	Deferoxamin
DSY02454	Deferoxamine B
DSY02455	Deferoxamine mesylate
DSY02456	Deferoxaminum
DSY02457	Deferrioxamine
DSY02458	Deferrioxamine B
DSY02459	Desferrioxamine
DSY02460	Desferrioxamine B
DSY02461	DF B
DSY02462	DFO
DSY02463	DFOA
DSY02464	DFOM
DSY02465	N-Benzoylferrioxamine B
DSY02471	SR-25990C
DSY02500	Sulfasalazin
DSY02501	Sulphasalazine
DSY02529	ICOS 351
DSY02530	Tadanafil
DSY02554	Mifepriston
DSY02555	RU486
DSY02566	Biocarbazine R
DSY02567	Dacarbazino [INN-Spanish]
DSY02568	Dacarbazinum [INN-Latin]
DSY02569	DTIC
DSY02570	Dtic-Dome
DSY02571	DTIE
DSY02572	ICDMT
DSY02573	ICDT
DSY02574	Imidazole Carboxamide
DSY02582	Terbutalin
DSY02583	Terbutalina [Dcit]
DSY02584	Terbutaline Sulfate
DSY02585	Terbutalino [INN-Spanish]
DSY02586	Terbutalinum [INN-Latin]
DSY02587	Conivaptan hydrochloride
DSY02588	YM 087
DSY02589	YM-087
DSY02590	Chlomaphene
DSY02591	Chloramifene
DSY02592	Chloramiphene
DSY02593	Cisclomiphene
DSY02594	Clomifene citrate
DSY02595	Clomifeno
DSY02596	clomiphene
DSY02597	Clomiphene Citrate
DSY02598	Clomiphene citrate (Z,E)
DSY02599	Racemic clomiphene citrate
DSY02600	Zuclomiphene citrate
DSY02601	NE-58095
DSY02602	Risedronate sodium
DSY02603	Risedronic acid
DSY02604	APF530
DSY02605	Granisetron base
DSY02606	Granisetron HCl
DSY02607	Granisetron hydrochloride
DSY02608	Granisetronum [INN-Latin]
DSY02613	Absolute Alcohol
DSY02614	Absolute Ethanol
DSY02615	Alcohol
DSY02616	Alcohol Anhydrous
DSY02617	Alcohol, Dehydrated
DSY02618	Alcohol, Diluted
DSY02619	Alcool Ethylique
DSY02620	Alcool Etilico
DSY02621	Alkohol
DSY02622	Alkoholu Etylowego
DSY02623	Aminoethanol
DSY02624	Beta-Aminoethanol
DSY02625	Beta-Aminoethyl Alcohol
DSY02626	Beta-Ethanolamine
DSY02627	Beta-Hydroxyethylamine
DSY02628	Caswell No. 426
DSY02629	Dehydrated Ethanol
DSY02630	Denatured Alcohol
DSY02631	Denatured Ethanol
DSY02632	Etanolo
DSY02633	Ethanol 200 Proof
DSY02634	Ethanol Anhydrous
DSY02635	Ethanol Extra Pure
DSY02636	Ethyl Alcohol
DSY02637	Ethyl Alcohol Anhydrous
DSY02638	Ethyl Alcohol, Anhydrous
DSY02639	Ethyl Alcohol, Denatured
DSY02640	Ethyl Hydrate
DSY02641	Ethyl Hydroxide
DSY02642	Ethylol
DSY02643	Ethylolamine
DSY02644	HSDB 531
DSY02645	Methylcarbinol
DSY02646	USAF EK-1597
DSY02647	Remifentanyl
DSY02648	Etacrinic acid
DSY02649	Etacrynic acid
DSY02650	Etakrinic acid
DSY02651	Ethacryinic Acid
DSY02652	Ethacrynate
DSY02653	Methylenebutyrylphenoxyacetic acid
DSY02660	Zonisamida [Spanish]
DSY02661	Zonisamidum [Latin]
DSY02672	5 AZC
DSY02673	Azacitidina [INN-Spanish]
DSY02674	Azacitidinum [INN-Latin]
DSY02675	Azacytidine
DSY02676	Colesevelam hydrochloride
DSY02677	TPV
DSY02678	Oximetazolinum
DSY02679	oxymetazoline hydrochloride crystalline
DSY02680	Oxymethazoline
DSY02681	Oxymetozoline
DSY02711	ICI 182,780
DSY02716	1-N-Ethylsisomicin
DSY02717	Netilmycin
DSY02718	6alpha-Methylprednisolone
DSY02719	Methyleneprednisolone
DSY02720	Methylprednisolon
DSY02721	Methylprednisolonum [INN-Latin]
DSY02722	Metilprednisolona [INN-Spanish]
DSY02723	Metilprednisolone [Dcit]
DSY02724	Betapindol
DSY02725	Prinodolol
DSY02734	Azelastina [INN-Spanish]
DSY02735	Azelastinum [INN-Latin]
DSY02745	Ena 713 Free Base
DSY02746	Exemestano [INN-Spanish]
DSY02747	Exemestanum [INN-Latin]
DSY02750	Azathioprin
DSY02751	Azatioprin
DSY02752	Azothioprine
DSY02755	Busulphan
DSY02756	Busulphane
DSY02757	Butanedioldimethanesulfonate
DSY02758	Buzulfan
DSY02759	Sulfabutin
DSY02760	Sulphabutin
DSY02761	Tetramethylene Dimethane Sulfonate
DSY02762	Tetramethylenester Kyseliny Methansulfonove
DSY02789	Mycophenoic acid
DSY02790	2%
DSY02791	Ketocanazole
DSY02792	Ketoconazol
DSY02793	Ketoconazol [INN-Spanish]
DSY02794	Ketoconazole [Usan:Ban:Inn:Jan]
DSY02795	Ketoconazolum [INN-Latin]
DSY02796	Tolterodina [INN-Spanish]
DSY02797	Tolterodine [INN]
DSY02798	tolterodine extended release capsules
DSY02799	Tolterodine L-Tartrate
DSY02800	Tolterodine Tartrate
DSY02801	Tolterodinum [INN-Latin]
DSY02802	Tolterondine Tartrate
DSY02807	Memantina [INN-Spanish]
DSY02808	Memantine [INN]
DSY02809	Memantine HCL
DSY02810	Memantine Hydrochloride
DSY02811	Memantinum [INN-Latin]
DSY02812	RU-0211
DSY02823	Epinephrine Isopropyl Homolog
DSY02824	Isoprenalin
DSY02825	Isoprenaline
DSY02826	Isopropydrin
DSY02827	Isopropyladrenaline
DSY02828	Isopropylarterenol
DSY02829	Isopropylnoradrenaline
DSY02830	Isopropylnorepinephrine
DSY02831	Isoproterenol Chloride
DSY02832	Isoproterenol HCl
DSY02833	L-Isopropylnoradrenaline
DSY02834	L-Isoproterenol
DSY02835	N-Isopropylnoradrenaline
DSY02836	N-Isopropylnorepinephrine
DSY02841	Chlonazepam
DSY02842	Clonazepamum
DSY02843	Atazanavir sulfate
DSY02844	ATV
DSY02845	ATZ
DSY02846	BMS-232632
DSY02851	Adsorbocarpine
DSY02852	Beta-pilocarpine hydrochloride
DSY02853	Pilocarpin
DSY02854	Pilocarpine chloride
DSY02855	Pilocarpine HCl
DSY02856	Pilocarpine hydrochloride
DSY02857	Pilocarpine monohydrochloride
DSY02858	Pilocarpine muriate
DSY02859	Pilokarpin
DSY02860	Pilokarpin monohydrochloride
DSY02861	Spersacarpine
DSY02862	Spersacarpine hydrochloride
DSY02870	Leflunomidum [INN-Latin]
DSY02871	Lefunomide [INN-Spanish]
DSY02881	Sertralina [Spanish]
DSY02882	Sertraline Hydrochloride
DSY02883	Sertralinum [Latin]
DSY02886	Cefuroxim
DSY02887	Cefuroxime [USAN:BAN:INN]
DSY02888	Cefuroximo [INN-Spanish]
DSY02889	Cefuroximum [INN-Latin]
DSY02890	Chlorhydrate de Papaverine
DSY02891	Papavarine Chlorhydrate
DSY02892	Papaverin
DSY02893	Papaverine Chlorohydrate
DSY02894	Papaverine Hcl
DSY02895	Papaverine Hydrochloride
DSY02896	Papaverine Monohydrochloride
DSY02897	Papaverinium Chloride
DSY02898	Thimethaphan
DSY02899	Trimetaphan
DSY02900	Trimetaphanum
DSY02906	1-(3-Azabicyclo(3.3.0)oct-3-yl)-3-(p-tolylsulfonyl)urea
DSY02907	1-(Hexahydrocyclopenta(c)pyrrol-2(1H)-yl)-3-(p-tolylsulfonyl)urea
DSY02908	Gliclazida [INN-Spanish]
DSY02909	Gliclazidum [INN-Latin]
DSY02910	"N-(4-Methylbenzenesulfonyl)-N'-(3-azabicyclo(3.3.0)oct-3-yl)urea"
DSY02911	Carvedilolum [Latin]
DSY02923	Demethylimipramine
DSY02924	Desimipramine
DSY02925	Desimpramine
DSY02926	Desipramin
DSY02927	Desmethylimipramine
DSY02928	Dezipramine
DSY02929	Dimethylimipramine
DSY02930	Methylaminopropyliminodibenzyl
DSY02931	Monodemethylimipramine
DSY02932	Norimipramine
DSY02933	Norpramine
DSY02952	Cilostazole
DSY02953	Cilostazolum [INN-Latin]
DSY02954	ITC
DSY02955	ITCZ
DSY02956	Itraconazol [Spanish]
DSY02957	Itraconazolum [Latin]
DSY02958	ITZ
DSY02959	Ibenzmethyzin
DSY02960	Ibenzmethyzine
DSY02961	Ibenzmethyzine hydrochloride
DSY02962	IBZ
DSY02963	MBH
DSY02964	MIH
DSY02965	MIH Hydrochloride
DSY02966	PCB hydrochloride
DSY02967	PCX
DSY02968	Procarbazin
DSY02969	Procarbazin [German]
DSY02970	Procarbazina [INN-Spanish]
DSY02971	Procarbazine hydrochloride
DSY02972	Procarbazinum [INN-Latin]
DSY02973	4-Chlor-N-(2-morpholinoethyl)benzamid
DSY02974	4-Chloro-N-(2-(4-morpholinyl)ethyl)benzamide
DSY02975	4-Chloro-N-(2-morpholin-4-yl-ethyl)-benzamide
DSY02976	Moclaime
DSY02977	Moclamide
DSY02978	Moclamine
DSY02979	Moclobemid
DSY02980	Moclobemida [INN-Spanish]
DSY02981	Moclobemide [Usan:Ban:Inn]
DSY02982	Moclobemidum [INN-Latin]
DSY02983	p-Chloro-N-(2-morpholinoethyl)benzamide
DSY02984	Escitalopram Oxalate
DSY02985	Idarubicin Hcl
DSY02986	Idarubicin Hydrochloride
DSY02987	Idarubicina [INN-Spanish]
DSY02988	Idarubicine [INN-French]
DSY02989	Idarubicinum [INN-Latin]
DSY03000	14-Hydroxydihydromorphinone
DSY03001	Dihydrohydroxymorphinone
DSY03002	Dihydroxymorphinone
DSY03003	EN3202
DSY03004	Oximorphonum
DSY03005	Oxymorphine
DSY03022	Cyclopentyl rifampin
DSY03023	Mitoxanthrone
DSY03024	Mitoxantron
DSY03027	CCNU
DSY03028	Chloroethylcyclohexylnitrosourea
DSY03029	Lomustina [INN-Spanish]
DSY03030	Lomustinum [INN-Latin]
DSY03033	Anastrozol
DSY03042	Quetiapine fumarate
DSY03043	Quetiapine hemifumarate
DSY03044	LMWH
DSY03045	Low Molecular Weight Heparin
DSY03053	Metaclopramide
DSY03054	Metaclopromide
DSY03055	Methochlopramide
DSY03056	Methoclopramide
DSY03057	Metochlopramide
DSY03058	Metoclopramida [INN-Spanish]
DSY03059	Metoclopramide Hcl
DSY03060	Metoclopramide Hydrochloride
DSY03061	Metoclopramidum [INN-Latin]
DSY03062	OPC 31
DSY03063	OPC-14597
DSY03067	3-Chloroimipramine
DSY03068	Chlorimipramine
DSY03069	Clomipramina [INN-Spanish]
DSY03070	Clomipramine HCL
DSY03071	Clomipraminum [INN-Latin]
DSY03072	Monochlorimipramine
DSY03078	lisdexamfetamine dimesylate
DSY03079	NRP104
DSY03080	AIDS073035
DSY03081	Darunavirum [INN-latin]
DSY03082	TMC-114
DSY03083	TMC114
DSY03084	UIC-94017
DSY03094	ABX-EGF
DSY03095	rhuFab V2
DSY03098	(R,R)-formoterol
DSY03099	AC2993
DSY03100	Synthetic exendin-4
DSY03101	Mecasermin rinfabate
DSY03102	BMS-188667
DSY03103	CTLA4-Ig
DSY03104	CTLA4-IgG4m
DSY03105	CTLA4Ig
DSY03106	CTLA4IgG4m
DSY03107	RG-1046
DSY03108	RG-2077
DSY03109	RG1046
DSY03110	RG2077
DSY03114	Aspart
DSY03115	Aspart Insulin
DSY03116	B28-Aspart-Insulin
DSY03117	INA-X14
DSY03118	Insulin X14
DSY03119	Insulin, Asp(B28)
DSY03137	Tiotropium bromide
DSY03145	Aminosidin
DSY03146	Aminosidine
DSY03147	Paramomycin sulfate
DSY03148	1-hydroxycholecalciferol
DSY03149	1alpha-hydroxycholecalciferol
DSY03150	1alpha-hydroxyvitamin D3
DSY03151	diacetylmorphine
DSY03152	diamorphine
DSY03153	morphine diacetate
DSY03156	(+)-(S)-amphetamine
DSY03157	(S)-amphetamine
DSY03158	d-amphetamine
DSY03159	dexamphetamine
DSY03160	Dextroamphetamine
DSY03161	(3alpha,5beta,7beta)-3,7-dihydroxycholan-24-oic acid
DSY03162	3-alpha,7-beta-Dihydroxy-5-beta-cholanoic acid
DSY03163	3-alpha,7-beta-Dihydroxycholanic acid
DSY03164	3-alpha,7-beta-Dioxycholanic acid
DSY03165	3,7-Dihydroxycholan-24-oic acid
DSY03166	3alpha,7beta-Dihydroxy-5beta-cholan-24-oic acid
DSY03167	5beta-Cholan-24-oic acid-3alpha,7beta-diol
DSY03168	7-beta-Hydroxylithocholic acid
DSY03169	7beta-Hydroxylithocholic acid
DSY03170	Acide ursodesoxycholique [inn-french]
DSY03171	Acido ursodeossicolico [italian]
DSY03172	Acido ursodeoxicolico [inn-spanish]
DSY03173	Acidum ursodeoxycholicum [inn-latin]
DSY03174	Chenodeoxycholic acid
DSY03175	Iso-ursodeoxycholic acid
DSY03176	UDCS
DSY03177	Ursodesoxycholic acid
DSY03178	Ursodiol
DSY03179	solifenacin succinate
DSY03188	Deferasiroxum [inn-latin]
DSY03189	ICL 670
DSY03192	HCQ
DSY03207	N-(N-(N-Glycylglycyl)glycyl)-8-L-lysinevasopressin
DSY03208	Terlipressina [INN-Spanish]
DSY03209	Terlipressine [INN-French]
DSY03210	Terlipressinum [INN-Latin]
DSY03215	(+-)-Diethyl (1-(3-(2-chloroethyl)-3-nitrosoureido)ethyl)phosphonate
DSY03216	Diethyl-1-(3-(2-chloroethyl)-3-nitrosoureido)ethylphosphonate
DSY03217	Fotemustina [Spanish]
DSY03218	Fotemustinum [Latin]
DSY03219	Servier-10036
DSY03252	Aza-epothilone B
DSY03253	Azaepothilone B
DSY03254	BMS-247550
DSY03256	Nebivololum [latin]
DSY03272	Talpha1
DSY03273	Thymosin alpha 1
DSY03274	Valopicitabine
DSY03298	4-quinazolinamine, N-(4-bromo-2-fluorophenyl)-6-methoxy-7-[(1-methyl-4-piperidinyl)methoxy]-
DSY03299	N-(4-Bromo-2-fluorophenyl)-6-methoxy-7-[(1-methyl-4-piperidinyl)methoxy]-4-quinazolinamine
DSY03300	N-(4-bromo-2-fluorophenyl)-6-methoxy-7-[(1-methylpiperidin-4-yl)methoxy]quinazolin-4-amine
DSY03301	ZD-6474
DSY03302	AIDS-213006
DSY03303	AIDS213006
DSY03304	LY-570310
DSY03305	MP-424
DSY03306	VRT111950
DSY03307	VX-950
DSY03308	Antimony sodium gluconate
DSY03309	Myostibin
DSY03310	Stibanate
DSY03311	Stibanose
DSY03312	Stibatin
DSY03313	Stibinol
DSY03318	Antibiotic 8327A
DSY03319	Antibiotic MDL 507
DSY03320	Teichomycin
DSY03321	Teicomycin A2
DSY03322	N-acetylcysteine
DSY03327	ACZ-885
DSY03328	ACZ885
DSY03331	CS-747
DSY03332	LY-640315
DSY03347	Atlizumab
DSY03348	MRA
DSY03349	R-1569
DSY03350	RoActemra®
DSY03351	hPTH 1-34
DSY03352	PTH1-34 nasal spray
DSY03353	synthetic human parathyroid hormone 1-34
DSY03354	ViaDerm hPTH 1-34
DSY03355	ViaDerm-hPTH (1-34)
DSY03356	CCI-779
DSY03357	Aminosultopride
DSY03358	BMS-477118
DSY03359	Onglyza
DSY03360	2C4 Antibody
DSY03361	MOAB 2C4
DSY03362	Monoclonal Antibody 2C4
DSY03363	Omnitarg
DSY03364	R1273
DSY03365	rhuMAb-2C4
DSY03366	Arcalyst
DSY03367	interleukin-1 (IL-1) trap
DSY03369	(6R,7R)-7-[(2Z)-2-ethoxyimino-2-[5-(phosphonoamino)-1,2,4-thiadiazol-3-yl]acetyl]amino]-3-[4-(1-methylpyridin-1-ium-4-yl)-1,3-thiazol-2-yl]sulfanyl]-8-oxo-5-thia-1-azabicyclo[4.2.0]oct-2-ene-2-carboxylate
DSY03370	Ceftaroline
DSY03371	PPI 0903
DSY03372	TAK-599
DSY03373	Teflaro
DSY03374	BMS-562247
DSY03375	Bosulif®
DSY03376	Bosutinib Monohydrate
DSY03377	SKI-606
DSY03378	AG-013736
DSY03379	AMG-162
DSY03380	Arg34Lys26-(N-e-(¿-Glu(N-a-hexadecanoyl)))-GLP-1[7-37]
DSY03381	NN 2211
DSY03382	NN2211
DSY03384	CNTO 148
DSY03385	BMS-224818
DSY03386	LEA29Y
DSY03393	17-Deacylnorgestimate
DSY03398	RPR-116258A
DSY03399	RPR116258
DSY03400	Taxoid XRP6258
DSY03401	TXD258
DSY03402	XRP6258
DSY03418	AMD3100
DSY03419	LM3100
DSY03426	AZD6140
DSY03432	Azilsartan
DSY03433	azilsartan medoxomilo
DSY03434	Azilsartan TAK-536
DSY03435	azilsartanum medoxomilum
DSY03436	Edarbi
DSY03437	TAK-491
DSY03438	APO-066
DSY03439	CP-20
DSY03440	Deferipron
DSY03441	Deferiprona
DSY03442	Défériprone
DSY03443	Deferiproni
DSY03444	Deferipronum
DSY03445	Deferypron
DSY03446	Dimethylhydroxypyridone
DSY03447	DN-180-01-AF
DSY03448	L-1
DSY03449	PL-1
DSY03455	TMC278
DSY03456	cAC10-vcMMAE
DSY03457	SGN-35
DSY03470	A-771726
DSY03471	HMR1726
DSY03478	AVE 0005
DSY03479	AVE 005
DSY03480	AVE-0005
DSY03481	VEGF Trap
DSY03482	VEGF Trap-Eye
DSY03483	Ziv-Aflibercept
DSY03484	PR-171
DSY03487	AIDS222089
DSY03488	R207910
DSY03489	TMC207
DSY03491	Canagliflozin hydrate
DSY03492	BG-12
DSY03493	dimethyl (E) butenedioate
DSY03494	CC-4047
DSY03500	Isophane Insulin
DSY03501	NPH Insulin
DSY03543	Sodium decanoate
DSY03544	Sodium caprate
DSY03545	Decanoic acid
DSY03546	1,4-Diamino-2,3-dicyano-1,4-bis(o-aminophenylmercapto)butadiene
DSY03547	bromopyruvic acid
DSY03548	3-bromopyruvic acid
DSY03549	bromopyruvate
DSY03550	sodium phenylacetate
DSY03551	sodium 2-phenylacetate
DSY03552	FRG-8813
DSY03553	PKC412
DSY03554	Tetraarsenic tetrasulfide
DSY03555	1,4-benzenediol
DSY03556	1,4-Dihydroxybenzene
DSY03557	Disermolide
DSY03558	Chromadax
DSY03559	Istodax
DSY03560	SureCN7928170
DSY03561	NSC641690
DSY03562	AC1LAU6H
DSY03563	Plitidepsin
DSY03564	Dehydrodidemnin B
DSY03565	Didemnin A
DSY03566	Pramocaine
DSY03567	pramocainum
DSY03568	Proxazocain
DSY03569	LY 294002
DSY03570	Sodium butanoate
DSY03571	Butanoic acid
DSY03572	sodium salt
DSY03573	S)-Ketoprofen
DSY03574	KRX-0401
DSY03575	NSC 639966
DSY03576	PMA
DSY03577	Atillon
DSY03578	LY353381
DSY03579	BMS-207147
DSY03580	ER-30346
DSY03581	Seliciclib
