drug1.conc,drug2.conc,effect,effect.95ci,drug1,drug2,expt,sample
0.75,0.75,-1.255929,1.0,Alvespimycinhydrochloride,Tafenoquine,148,plasmodium_falciparum_Dd2
0.75,0.375,-0.669898,1.0,Alvespimycinhydrochloride,Tafenoquine,148,plasmodium_falciparum_Dd2
0.75,0.1875,-0.716414,1.0,Alvespimycinhydrochloride,Tafenoquine,148,plasmodium_falciparum_Dd2
0.75,0.09375,-0.597012,1.0,Alvespimycinhydrochloride,Tafenoquine,148,plasmodium_falciparum_Dd2
0.75,0.046875,-0.46221899999999994,1.0,Alvespimycinhydrochloride,Tafenoquine,148,plasmodium_falciparum_Dd2
0.75,0.0234375,-0.388295,1.0,Alvespimycinhydrochloride,Tafenoquine,148,plasmodium_falciparum_Dd2
0.75,0.01171875,-0.205431,1.0,Alvespimycinhydrochloride,Tafenoquine,148,plasmodium_falciparum_Dd2
0.75,0.005859375,-0.014958,1.0,Alvespimycinhydrochloride,Tafenoquine,148,plasmodium_falciparum_Dd2
0.75,0.00292975,-1.053092,1.0,Alvespimycinhydrochloride,Tafenoquine,148,plasmodium_falciparum_Dd2
0.75,0.0,-0.607819,1.0,Alvespimycinhydrochloride,Tafenoquine,148,plasmodium_falciparum_Dd2
0.375,0.75,2.051109,1.0,Alvespimycinhydrochloride,Tafenoquine,148,plasmodium_falciparum_Dd2
0.375,0.1875,2.704925,1.0,Alvespimycinhydrochloride,Tafenoquine,148,plasmodium_falciparum_Dd2
0.375,0.09375,2.591143,1.0,Alvespimycinhydrochloride,Tafenoquine,148,plasmodium_falciparum_Dd2
0.375,0.046875,5.426278,1.0,Alvespimycinhydrochloride,Tafenoquine,148,plasmodium_falciparum_Dd2
0.375,0.0234375,4.649341000000001,1.0,Alvespimycinhydrochloride,Tafenoquine,148,plasmodium_falciparum_Dd2
0.375,0.01171875,5.937693,1.0,Alvespimycinhydrochloride,Tafenoquine,148,plasmodium_falciparum_Dd2
0.375,0.005859375,2.505892,1.0,Alvespimycinhydrochloride,Tafenoquine,148,plasmodium_falciparum_Dd2
0.375,0.00292975,3.6665419999999997,1.0,Alvespimycinhydrochloride,Tafenoquine,148,plasmodium_falciparum_Dd2
0.375,0.0,3.6061059999999996,1.0,Alvespimycinhydrochloride,Tafenoquine,148,plasmodium_falciparum_Dd2
0.1875,0.75,7.585462,1.0,Alvespimycinhydrochloride,Tafenoquine,148,plasmodium_falciparum_Dd2
0.1875,0.375,11.633642,1.0,Alvespimycinhydrochloride,Tafenoquine,148,plasmodium_falciparum_Dd2
0.1875,0.1875,26.608213,1.0,Alvespimycinhydrochloride,Tafenoquine,148,plasmodium_falciparum_Dd2
0.1875,0.09375,57.82003,1.0,Alvespimycinhydrochloride,Tafenoquine,148,plasmodium_falciparum_Dd2
0.1875,0.046875,68.25601999999999,1.0,Alvespimycinhydrochloride,Tafenoquine,148,plasmodium_falciparum_Dd2
0.1875,0.0234375,89.67631999999999,1.0,Alvespimycinhydrochloride,Tafenoquine,148,plasmodium_falciparum_Dd2
0.1875,0.01171875,118.00233999999999,1.0,Alvespimycinhydrochloride,Tafenoquine,148,plasmodium_falciparum_Dd2
0.1875,0.005859375,116.42616000000001,1.0,Alvespimycinhydrochloride,Tafenoquine,148,plasmodium_falciparum_Dd2
0.1875,0.00292975,72.521385,1.0,Alvespimycinhydrochloride,Tafenoquine,148,plasmodium_falciparum_Dd2
0.1875,0.0,81.40938,1.0,Alvespimycinhydrochloride,Tafenoquine,148,plasmodium_falciparum_Dd2
0.09375,0.75,9.006012,1.0,Alvespimycinhydrochloride,Tafenoquine,148,plasmodium_falciparum_Dd2
0.09375,0.375,19.801676,1.0,Alvespimycinhydrochloride,Tafenoquine,148,plasmodium_falciparum_Dd2
0.09375,0.1875,43.65568,1.0,Alvespimycinhydrochloride,Tafenoquine,148,plasmodium_falciparum_Dd2
0.09375,0.09375,80.37479,1.0,Alvespimycinhydrochloride,Tafenoquine,148,plasmodium_falciparum_Dd2
0.09375,0.046875,86.512726,1.0,Alvespimycinhydrochloride,Tafenoquine,148,plasmodium_falciparum_Dd2
0.09375,0.0234375,99.7752,1.0,Alvespimycinhydrochloride,Tafenoquine,148,plasmodium_falciparum_Dd2
0.09375,0.01171875,106.55788000000001,1.0,Alvespimycinhydrochloride,Tafenoquine,148,plasmodium_falciparum_Dd2
0.09375,0.005859375,107.326775,1.0,Alvespimycinhydrochloride,Tafenoquine,148,plasmodium_falciparum_Dd2
0.09375,0.00292975,111.94663,1.0,Alvespimycinhydrochloride,Tafenoquine,148,plasmodium_falciparum_Dd2
0.09375,0.0,112.00758,1.0,Alvespimycinhydrochloride,Tafenoquine,148,plasmodium_falciparum_Dd2
0.046875,0.75,5.976081,1.0,Alvespimycinhydrochloride,Tafenoquine,148,plasmodium_falciparum_Dd2
0.046875,0.375,16.093374,1.0,Alvespimycinhydrochloride,Tafenoquine,148,plasmodium_falciparum_Dd2
0.046875,0.1875,43.110893,1.0,Alvespimycinhydrochloride,Tafenoquine,148,plasmodium_falciparum_Dd2
0.046875,0.09375,69.74444,1.0,Alvespimycinhydrochloride,Tafenoquine,148,plasmodium_falciparum_Dd2
0.046875,0.046875,92.92725,1.0,Alvespimycinhydrochloride,Tafenoquine,148,plasmodium_falciparum_Dd2
0.046875,0.0234375,104.3642,1.0,Alvespimycinhydrochloride,Tafenoquine,148,plasmodium_falciparum_Dd2
0.046875,0.01171875,98.48918,1.0,Alvespimycinhydrochloride,Tafenoquine,148,plasmodium_falciparum_Dd2
0.046875,0.005859375,103.216515,1.0,Alvespimycinhydrochloride,Tafenoquine,148,plasmodium_falciparum_Dd2
0.046875,0.00292975,100.76345,1.0,Alvespimycinhydrochloride,Tafenoquine,148,plasmodium_falciparum_Dd2
0.046875,0.0,102.42574,1.0,Alvespimycinhydrochloride,Tafenoquine,148,plasmodium_falciparum_Dd2
0.0234375,0.75,6.879078,1.0,Alvespimycinhydrochloride,Tafenoquine,148,plasmodium_falciparum_Dd2
0.0234375,0.375,15.280470000000001,1.0,Alvespimycinhydrochloride,Tafenoquine,148,plasmodium_falciparum_Dd2
0.0234375,0.1875,38.21047,1.0,Alvespimycinhydrochloride,Tafenoquine,148,plasmodium_falciparum_Dd2
0.0234375,0.09375,81.68146999999999,1.0,Alvespimycinhydrochloride,Tafenoquine,148,plasmodium_falciparum_Dd2
0.0234375,0.046875,98.13807,1.0,Alvespimycinhydrochloride,Tafenoquine,148,plasmodium_falciparum_Dd2
0.0234375,0.0234375,101.96802,1.0,Alvespimycinhydrochloride,Tafenoquine,148,plasmodium_falciparum_Dd2
0.0234375,0.01171875,95.72676,1.0,Alvespimycinhydrochloride,Tafenoquine,148,plasmodium_falciparum_Dd2
0.0234375,0.005859375,116.55463999999999,1.0,Alvespimycinhydrochloride,Tafenoquine,148,plasmodium_falciparum_Dd2
0.0234375,0.00292975,106.48196399999999,1.0,Alvespimycinhydrochloride,Tafenoquine,148,plasmodium_falciparum_Dd2
0.0234375,0.0,115.47188999999999,1.0,Alvespimycinhydrochloride,Tafenoquine,148,plasmodium_falciparum_Dd2
0.01171875,0.75,9.162074,1.0,Alvespimycinhydrochloride,Tafenoquine,148,plasmodium_falciparum_Dd2
0.01171875,0.375,16.418985,1.0,Alvespimycinhydrochloride,Tafenoquine,148,plasmodium_falciparum_Dd2
0.01171875,0.1875,44.576923,1.0,Alvespimycinhydrochloride,Tafenoquine,148,plasmodium_falciparum_Dd2
0.01171875,0.09375,70.87725,1.0,Alvespimycinhydrochloride,Tafenoquine,148,plasmodium_falciparum_Dd2
0.01171875,0.046875,103.78352,1.0,Alvespimycinhydrochloride,Tafenoquine,148,plasmodium_falciparum_Dd2
0.01171875,0.0234375,104.52138000000001,1.0,Alvespimycinhydrochloride,Tafenoquine,148,plasmodium_falciparum_Dd2
0.01171875,0.005859375,102.799164,1.0,Alvespimycinhydrochloride,Tafenoquine,148,plasmodium_falciparum_Dd2
0.01171875,0.00292975,102.05284,1.0,Alvespimycinhydrochloride,Tafenoquine,148,plasmodium_falciparum_Dd2
0.01171875,0.0,101.7395,1.0,Alvespimycinhydrochloride,Tafenoquine,148,plasmodium_falciparum_Dd2
0.005859375,0.75,9.184295,1.0,Alvespimycinhydrochloride,Tafenoquine,148,plasmodium_falciparum_Dd2
0.005859375,0.375,18.287748,1.0,Alvespimycinhydrochloride,Tafenoquine,148,plasmodium_falciparum_Dd2
0.005859375,0.1875,42.743263,1.0,Alvespimycinhydrochloride,Tafenoquine,148,plasmodium_falciparum_Dd2
0.005859375,0.09375,78.19944,1.0,Alvespimycinhydrochloride,Tafenoquine,148,plasmodium_falciparum_Dd2
0.005859375,0.046875,98.02151500000001,1.0,Alvespimycinhydrochloride,Tafenoquine,148,plasmodium_falciparum_Dd2
0.005859375,0.0234375,92.12679,1.0,Alvespimycinhydrochloride,Tafenoquine,148,plasmodium_falciparum_Dd2
0.005859375,0.01171875,104.75448,1.0,Alvespimycinhydrochloride,Tafenoquine,148,plasmodium_falciparum_Dd2
0.005859375,0.005859375,108.294525,1.0,Alvespimycinhydrochloride,Tafenoquine,148,plasmodium_falciparum_Dd2
0.005859375,0.00292975,109.01673000000001,1.0,Alvespimycinhydrochloride,Tafenoquine,148,plasmodium_falciparum_Dd2
0.005859375,0.0,105.90016999999999,1.0,Alvespimycinhydrochloride,Tafenoquine,148,plasmodium_falciparum_Dd2
0.00292975,0.75,10.13813,1.0,Alvespimycinhydrochloride,Tafenoquine,148,plasmodium_falciparum_Dd2
0.00292975,0.375,19.307812,1.0,Alvespimycinhydrochloride,Tafenoquine,148,plasmodium_falciparum_Dd2
0.00292975,0.1875,40.35539,1.0,Alvespimycinhydrochloride,Tafenoquine,148,plasmodium_falciparum_Dd2
0.00292975,0.09375,80.32680500000001,1.0,Alvespimycinhydrochloride,Tafenoquine,148,plasmodium_falciparum_Dd2
0.00292975,0.046875,115.3333,1.0,Alvespimycinhydrochloride,Tafenoquine,148,plasmodium_falciparum_Dd2
0.00292975,0.0234375,104.06418000000001,1.0,Alvespimycinhydrochloride,Tafenoquine,148,plasmodium_falciparum_Dd2
0.00292975,0.01171875,114.36191000000001,1.0,Alvespimycinhydrochloride,Tafenoquine,148,plasmodium_falciparum_Dd2
0.00292975,0.005859375,112.70161,1.0,Alvespimycinhydrochloride,Tafenoquine,148,plasmodium_falciparum_Dd2
0.00292975,0.00292975,114.112816,1.0,Alvespimycinhydrochloride,Tafenoquine,148,plasmodium_falciparum_Dd2
0.0,0.75,9.375632000000001,1.0,Alvespimycinhydrochloride,Tafenoquine,148,plasmodium_falciparum_Dd2
0.0,0.375,20.921343,1.0,Alvespimycinhydrochloride,Tafenoquine,148,plasmodium_falciparum_Dd2
0.0,0.1875,49.652428,1.0,Alvespimycinhydrochloride,Tafenoquine,148,plasmodium_falciparum_Dd2
0.0,0.09375,83.12675,1.0,Alvespimycinhydrochloride,Tafenoquine,148,plasmodium_falciparum_Dd2
0.0,0.046875,105.842674,1.0,Alvespimycinhydrochloride,Tafenoquine,148,plasmodium_falciparum_Dd2
0.0,0.0234375,118.1041,1.0,Alvespimycinhydrochloride,Tafenoquine,148,plasmodium_falciparum_Dd2
0.0,0.01171875,111.48925,1.0,Alvespimycinhydrochloride,Tafenoquine,148,plasmodium_falciparum_Dd2
0.0,0.00292975,107.8828,1.0,Alvespimycinhydrochloride,Tafenoquine,148,plasmodium_falciparum_Dd2
0.0,0.0,94.49202,1.0,Alvespimycinhydrochloride,Tafenoquine,148,plasmodium_falciparum_Dd2
