drug1.conc,drug2.conc,effect,effect.95ci,drug1,drug2,expt,sample
0.75,0.75,1.07829,1.0,Alvespimycinhydrochloride,Tafenoquine,148,plasmodium_falciparum_HB3
0.75,0.375,0.567766,1.0,Alvespimycinhydrochloride,Tafenoquine,148,plasmodium_falciparum_HB3
0.75,0.1875,0.623236,1.0,Alvespimycinhydrochloride,Tafenoquine,148,plasmodium_falciparum_HB3
0.75,0.09375,0.550796,1.0,Alvespimycinhydrochloride,Tafenoquine,148,plasmodium_falciparum_HB3
0.75,0.046875,0.385907,1.0,Alvespimycinhydrochloride,Tafenoquine,148,plasmodium_falciparum_HB3
0.75,0.0234375,0.686254,1.0,Alvespimycinhydrochloride,Tafenoquine,148,plasmodium_falciparum_HB3
0.75,0.01171875,0.331096,1.0,Alvespimycinhydrochloride,Tafenoquine,148,plasmodium_falciparum_HB3
0.75,0.005859375,0.811833,1.0,Alvespimycinhydrochloride,Tafenoquine,148,plasmodium_falciparum_HB3
0.75,0.00292975,0.632253,1.0,Alvespimycinhydrochloride,Tafenoquine,148,plasmodium_falciparum_HB3
0.75,0.0,0.670195,1.0,Alvespimycinhydrochloride,Tafenoquine,148,plasmodium_falciparum_HB3
0.375,0.75,9.668291,1.0,Alvespimycinhydrochloride,Tafenoquine,148,plasmodium_falciparum_HB3
0.375,0.375,10.411078999999999,1.0,Alvespimycinhydrochloride,Tafenoquine,148,plasmodium_falciparum_HB3
0.375,0.1875,12.3049,1.0,Alvespimycinhydrochloride,Tafenoquine,148,plasmodium_falciparum_HB3
0.375,0.09375,15.761447,1.0,Alvespimycinhydrochloride,Tafenoquine,148,plasmodium_falciparum_HB3
0.375,0.046875,27.964626000000003,1.0,Alvespimycinhydrochloride,Tafenoquine,148,plasmodium_falciparum_HB3
0.375,0.0234375,24.181797,1.0,Alvespimycinhydrochloride,Tafenoquine,148,plasmodium_falciparum_HB3
0.375,0.01171875,20.877879999999998,1.0,Alvespimycinhydrochloride,Tafenoquine,148,plasmodium_falciparum_HB3
0.375,0.005859375,18.321007,1.0,Alvespimycinhydrochloride,Tafenoquine,148,plasmodium_falciparum_HB3
0.375,0.00292975,20.469278,1.0,Alvespimycinhydrochloride,Tafenoquine,148,plasmodium_falciparum_HB3
0.375,0.0,19.724161,1.0,Alvespimycinhydrochloride,Tafenoquine,148,plasmodium_falciparum_HB3
0.1875,0.75,21.481714,1.0,Alvespimycinhydrochloride,Tafenoquine,148,plasmodium_falciparum_HB3
0.1875,0.375,32.00738,1.0,Alvespimycinhydrochloride,Tafenoquine,148,plasmodium_falciparum_HB3
0.1875,0.1875,35.423046,1.0,Alvespimycinhydrochloride,Tafenoquine,148,plasmodium_falciparum_HB3
0.1875,0.09375,56.535114,1.0,Alvespimycinhydrochloride,Tafenoquine,148,plasmodium_falciparum_HB3
0.1875,0.046875,55.163925,1.0,Alvespimycinhydrochloride,Tafenoquine,148,plasmodium_falciparum_HB3
0.1875,0.0234375,55.944756000000005,1.0,Alvespimycinhydrochloride,Tafenoquine,148,plasmodium_falciparum_HB3
0.1875,0.01171875,65.80625,1.0,Alvespimycinhydrochloride,Tafenoquine,148,plasmodium_falciparum_HB3
0.1875,0.005859375,51.155163,1.0,Alvespimycinhydrochloride,Tafenoquine,148,plasmodium_falciparum_HB3
0.1875,0.00292975,68.76393,1.0,Alvespimycinhydrochloride,Tafenoquine,148,plasmodium_falciparum_HB3
0.1875,0.0,63.536655,1.0,Alvespimycinhydrochloride,Tafenoquine,148,plasmodium_falciparum_HB3
0.09375,0.75,26.036611999999998,1.0,Alvespimycinhydrochloride,Tafenoquine,148,plasmodium_falciparum_HB3
0.09375,0.375,37.944866,1.0,Alvespimycinhydrochloride,Tafenoquine,148,plasmodium_falciparum_HB3
0.09375,0.1875,-8.803015,1.0,Alvespimycinhydrochloride,Tafenoquine,148,plasmodium_falciparum_HB3
0.09375,0.09375,71.44344,1.0,Alvespimycinhydrochloride,Tafenoquine,148,plasmodium_falciparum_HB3
0.09375,0.046875,77.60924,1.0,Alvespimycinhydrochloride,Tafenoquine,148,plasmodium_falciparum_HB3
0.09375,0.0234375,86.57932,1.0,Alvespimycinhydrochloride,Tafenoquine,148,plasmodium_falciparum_HB3
0.09375,0.01171875,80.607185,1.0,Alvespimycinhydrochloride,Tafenoquine,148,plasmodium_falciparum_HB3
0.09375,0.005859375,85.00864399999999,1.0,Alvespimycinhydrochloride,Tafenoquine,148,plasmodium_falciparum_HB3
0.09375,0.00292975,78.66458,1.0,Alvespimycinhydrochloride,Tafenoquine,148,plasmodium_falciparum_HB3
0.09375,0.0,81.65124,1.0,Alvespimycinhydrochloride,Tafenoquine,148,plasmodium_falciparum_HB3
0.046875,0.75,27.865187,1.0,Alvespimycinhydrochloride,Tafenoquine,148,plasmodium_falciparum_HB3
0.046875,0.375,39.500347,1.0,Alvespimycinhydrochloride,Tafenoquine,148,plasmodium_falciparum_HB3
0.046875,0.1875,61.618114,1.0,Alvespimycinhydrochloride,Tafenoquine,148,plasmodium_falciparum_HB3
0.046875,0.09375,82.90024,1.0,Alvespimycinhydrochloride,Tafenoquine,148,plasmodium_falciparum_HB3
0.046875,0.046875,96.94663,1.0,Alvespimycinhydrochloride,Tafenoquine,148,plasmodium_falciparum_HB3
0.046875,0.0234375,95.811554,1.0,Alvespimycinhydrochloride,Tafenoquine,148,plasmodium_falciparum_HB3
0.046875,0.01171875,98.42441,1.0,Alvespimycinhydrochloride,Tafenoquine,148,plasmodium_falciparum_HB3
0.046875,0.005859375,100.171524,1.0,Alvespimycinhydrochloride,Tafenoquine,148,plasmodium_falciparum_HB3
0.046875,0.00292975,107.47731999999999,1.0,Alvespimycinhydrochloride,Tafenoquine,148,plasmodium_falciparum_HB3
0.046875,0.0,96.15177,1.0,Alvespimycinhydrochloride,Tafenoquine,148,plasmodium_falciparum_HB3
0.0234375,0.75,28.20986,1.0,Alvespimycinhydrochloride,Tafenoquine,148,plasmodium_falciparum_HB3
0.0234375,0.375,44.116642,1.0,Alvespimycinhydrochloride,Tafenoquine,148,plasmodium_falciparum_HB3
0.0234375,0.1875,62.695643999999994,1.0,Alvespimycinhydrochloride,Tafenoquine,148,plasmodium_falciparum_HB3
0.0234375,0.09375,85.99646,1.0,Alvespimycinhydrochloride,Tafenoquine,148,plasmodium_falciparum_HB3
0.0234375,0.046875,98.76375999999999,1.0,Alvespimycinhydrochloride,Tafenoquine,148,plasmodium_falciparum_HB3
0.0234375,0.0234375,100.91036,1.0,Alvespimycinhydrochloride,Tafenoquine,148,plasmodium_falciparum_HB3
0.0234375,0.01171875,105.50623999999999,1.0,Alvespimycinhydrochloride,Tafenoquine,148,plasmodium_falciparum_HB3
0.0234375,0.005859375,103.26734,1.0,Alvespimycinhydrochloride,Tafenoquine,148,plasmodium_falciparum_HB3
0.0234375,0.00292975,101.560295,1.0,Alvespimycinhydrochloride,Tafenoquine,148,plasmodium_falciparum_HB3
0.0234375,0.0,101.73354,1.0,Alvespimycinhydrochloride,Tafenoquine,148,plasmodium_falciparum_HB3
0.01171875,0.75,31.565294,1.0,Alvespimycinhydrochloride,Tafenoquine,148,plasmodium_falciparum_HB3
0.01171875,0.375,47.211445,1.0,Alvespimycinhydrochloride,Tafenoquine,148,plasmodium_falciparum_HB3
0.01171875,0.1875,65.0584,1.0,Alvespimycinhydrochloride,Tafenoquine,148,plasmodium_falciparum_HB3
0.01171875,0.09375,89.62235,1.0,Alvespimycinhydrochloride,Tafenoquine,148,plasmodium_falciparum_HB3
0.01171875,0.046875,96.91011,1.0,Alvespimycinhydrochloride,Tafenoquine,148,plasmodium_falciparum_HB3
0.01171875,0.0234375,104.17441,1.0,Alvespimycinhydrochloride,Tafenoquine,148,plasmodium_falciparum_HB3
0.01171875,0.01171875,102.2466,1.0,Alvespimycinhydrochloride,Tafenoquine,148,plasmodium_falciparum_HB3
0.01171875,0.005859375,98.021126,1.0,Alvespimycinhydrochloride,Tafenoquine,148,plasmodium_falciparum_HB3
0.01171875,0.00292975,105.108376,1.0,Alvespimycinhydrochloride,Tafenoquine,148,plasmodium_falciparum_HB3
0.01171875,0.0,103.96240999999999,1.0,Alvespimycinhydrochloride,Tafenoquine,148,plasmodium_falciparum_HB3
0.005859375,0.75,27.061611,1.0,Alvespimycinhydrochloride,Tafenoquine,148,plasmodium_falciparum_HB3
0.005859375,0.375,39.29701,1.0,Alvespimycinhydrochloride,Tafenoquine,148,plasmodium_falciparum_HB3
0.005859375,0.1875,65.39147,1.0,Alvespimycinhydrochloride,Tafenoquine,148,plasmodium_falciparum_HB3
0.005859375,0.09375,89.294754,1.0,Alvespimycinhydrochloride,Tafenoquine,148,plasmodium_falciparum_HB3
0.005859375,0.046875,102.85489,1.0,Alvespimycinhydrochloride,Tafenoquine,148,plasmodium_falciparum_HB3
0.005859375,0.0234375,105.03993999999999,1.0,Alvespimycinhydrochloride,Tafenoquine,148,plasmodium_falciparum_HB3
0.005859375,0.01171875,102.116615,1.0,Alvespimycinhydrochloride,Tafenoquine,148,plasmodium_falciparum_HB3
0.005859375,0.005859375,103.84124,1.0,Alvespimycinhydrochloride,Tafenoquine,148,plasmodium_falciparum_HB3
0.005859375,0.00292975,107.67432,1.0,Alvespimycinhydrochloride,Tafenoquine,148,plasmodium_falciparum_HB3
0.005859375,0.0,103.97842,1.0,Alvespimycinhydrochloride,Tafenoquine,148,plasmodium_falciparum_HB3
0.00292975,0.75,30.68163,1.0,Alvespimycinhydrochloride,Tafenoquine,148,plasmodium_falciparum_HB3
0.00292975,0.375,42.218414,1.0,Alvespimycinhydrochloride,Tafenoquine,148,plasmodium_falciparum_HB3
0.00292975,0.1875,64.293526,1.0,Alvespimycinhydrochloride,Tafenoquine,148,plasmodium_falciparum_HB3
0.00292975,0.09375,92.22416,1.0,Alvespimycinhydrochloride,Tafenoquine,148,plasmodium_falciparum_HB3
0.00292975,0.046875,97.70533,1.0,Alvespimycinhydrochloride,Tafenoquine,148,plasmodium_falciparum_HB3
0.00292975,0.0234375,102.02938,1.0,Alvespimycinhydrochloride,Tafenoquine,148,plasmodium_falciparum_HB3
0.00292975,0.01171875,103.56855,1.0,Alvespimycinhydrochloride,Tafenoquine,148,plasmodium_falciparum_HB3
0.00292975,0.005859375,100.580025,1.0,Alvespimycinhydrochloride,Tafenoquine,148,plasmodium_falciparum_HB3
0.00292975,0.00292975,98.75323,1.0,Alvespimycinhydrochloride,Tafenoquine,148,plasmodium_falciparum_HB3
0.00292975,0.0,103.928314,1.0,Alvespimycinhydrochloride,Tafenoquine,148,plasmodium_falciparum_HB3
0.0,0.75,32.422314,1.0,Alvespimycinhydrochloride,Tafenoquine,148,plasmodium_falciparum_HB3
0.0,0.375,40.391459999999995,1.0,Alvespimycinhydrochloride,Tafenoquine,148,plasmodium_falciparum_HB3
0.0,0.1875,68.9771,1.0,Alvespimycinhydrochloride,Tafenoquine,148,plasmodium_falciparum_HB3
0.0,0.09375,90.03211999999999,1.0,Alvespimycinhydrochloride,Tafenoquine,148,plasmodium_falciparum_HB3
0.0,0.046875,94.06718000000001,1.0,Alvespimycinhydrochloride,Tafenoquine,148,plasmodium_falciparum_HB3
0.0,0.0234375,103.94346999999999,1.0,Alvespimycinhydrochloride,Tafenoquine,148,plasmodium_falciparum_HB3
0.0,0.01171875,103.477974,1.0,Alvespimycinhydrochloride,Tafenoquine,148,plasmodium_falciparum_HB3
0.0,0.005859375,107.38141999999999,1.0,Alvespimycinhydrochloride,Tafenoquine,148,plasmodium_falciparum_HB3
0.0,0.00292975,105.504875,1.0,Alvespimycinhydrochloride,Tafenoquine,148,plasmodium_falciparum_HB3
0.0,0.0,104.003845,1.0,Alvespimycinhydrochloride,Tafenoquine,148,plasmodium_falciparum_HB3
