drug1.conc,drug2.conc,effect,effect.95ci,drug1,drug2,expt,sample
0.75,0.025,-0.837111,1.0,Alvespimycinhydrochloride,Artenimol,152,plasmodium_falciparum_HB3
0.75,0.0125,-0.706719,1.0,Alvespimycinhydrochloride,Artenimol,152,plasmodium_falciparum_HB3
0.75,0.00625,-0.7774369999999999,1.0,Alvespimycinhydrochloride,Artenimol,152,plasmodium_falciparum_HB3
0.75,0.003125,-0.416149,1.0,Alvespimycinhydrochloride,Artenimol,152,plasmodium_falciparum_HB3
0.75,0.0015625,1.029811,1.0,Alvespimycinhydrochloride,Artenimol,152,plasmodium_falciparum_HB3
0.75,0.00078125,1.925887,1.0,Alvespimycinhydrochloride,Artenimol,152,plasmodium_falciparum_HB3
0.75,0.000390625,2.8498759999999996,1.0,Alvespimycinhydrochloride,Artenimol,152,plasmodium_falciparum_HB3
0.75,0.000195375,2.423494,1.0,Alvespimycinhydrochloride,Artenimol,152,plasmodium_falciparum_HB3
0.75,9.7625e-05,3.006812,1.0,Alvespimycinhydrochloride,Artenimol,152,plasmodium_falciparum_HB3
0.75,0.0,2.009421,1.0,Alvespimycinhydrochloride,Artenimol,152,plasmodium_falciparum_HB3
0.375,0.025,-0.06372699999999999,1.0,Alvespimycinhydrochloride,Artenimol,152,plasmodium_falciparum_HB3
0.375,0.0125,-0.335402,1.0,Alvespimycinhydrochloride,Artenimol,152,plasmodium_falciparum_HB3
0.375,0.00625,0.198222,1.0,Alvespimycinhydrochloride,Artenimol,152,plasmodium_falciparum_HB3
0.375,0.003125,3.279601,1.0,Alvespimycinhydrochloride,Artenimol,152,plasmodium_falciparum_HB3
0.375,0.0015625,6.2408220000000005,1.0,Alvespimycinhydrochloride,Artenimol,152,plasmodium_falciparum_HB3
0.375,0.00078125,15.926995000000002,1.0,Alvespimycinhydrochloride,Artenimol,152,plasmodium_falciparum_HB3
0.375,0.000390625,8.06504,1.0,Alvespimycinhydrochloride,Artenimol,152,plasmodium_falciparum_HB3
0.375,0.000195375,16.850070000000002,1.0,Alvespimycinhydrochloride,Artenimol,152,plasmodium_falciparum_HB3
0.375,9.7625e-05,22.67991,1.0,Alvespimycinhydrochloride,Artenimol,152,plasmodium_falciparum_HB3
0.375,0.0,27.171485999999998,1.0,Alvespimycinhydrochloride,Artenimol,152,plasmodium_falciparum_HB3
0.1875,0.025,0.161749,1.0,Alvespimycinhydrochloride,Artenimol,152,plasmodium_falciparum_HB3
0.1875,0.0125,0.929409,1.0,Alvespimycinhydrochloride,Artenimol,152,plasmodium_falciparum_HB3
0.1875,0.00625,3.574325,1.0,Alvespimycinhydrochloride,Artenimol,152,plasmodium_falciparum_HB3
0.1875,0.003125,18.81081,1.0,Alvespimycinhydrochloride,Artenimol,152,plasmodium_falciparum_HB3
0.1875,0.0015625,31.568993,1.0,Alvespimycinhydrochloride,Artenimol,152,plasmodium_falciparum_HB3
0.1875,0.00078125,55.56052,1.0,Alvespimycinhydrochloride,Artenimol,152,plasmodium_falciparum_HB3
0.1875,0.000390625,61.799366000000006,1.0,Alvespimycinhydrochloride,Artenimol,152,plasmodium_falciparum_HB3
0.1875,0.000195375,64.45770999999999,1.0,Alvespimycinhydrochloride,Artenimol,152,plasmodium_falciparum_HB3
0.1875,9.7625e-05,66.30431,1.0,Alvespimycinhydrochloride,Artenimol,152,plasmodium_falciparum_HB3
0.1875,0.0,65.52485,1.0,Alvespimycinhydrochloride,Artenimol,152,plasmodium_falciparum_HB3
0.09375,0.025,0.303133,1.0,Alvespimycinhydrochloride,Artenimol,152,plasmodium_falciparum_HB3
0.09375,0.0125,1.136141,1.0,Alvespimycinhydrochloride,Artenimol,152,plasmodium_falciparum_HB3
0.09375,0.00625,8.077907000000002,1.0,Alvespimycinhydrochloride,Artenimol,152,plasmodium_falciparum_HB3
0.09375,0.003125,34.116493,1.0,Alvespimycinhydrochloride,Artenimol,152,plasmodium_falciparum_HB3
0.09375,0.0015625,57.83705500000001,1.0,Alvespimycinhydrochloride,Artenimol,152,plasmodium_falciparum_HB3
0.09375,0.00078125,70.91823000000001,1.0,Alvespimycinhydrochloride,Artenimol,152,plasmodium_falciparum_HB3
0.09375,0.000390625,91.03969599999999,1.0,Alvespimycinhydrochloride,Artenimol,152,plasmodium_falciparum_HB3
0.09375,0.000195375,95.87488,1.0,Alvespimycinhydrochloride,Artenimol,152,plasmodium_falciparum_HB3
0.09375,9.7625e-05,89.09769399999999,1.0,Alvespimycinhydrochloride,Artenimol,152,plasmodium_falciparum_HB3
0.09375,0.0,84.89715,1.0,Alvespimycinhydrochloride,Artenimol,152,plasmodium_falciparum_HB3
0.046875,0.025,0.36235100000000003,1.0,Alvespimycinhydrochloride,Artenimol,152,plasmodium_falciparum_HB3
0.046875,0.0125,0.908335,1.0,Alvespimycinhydrochloride,Artenimol,152,plasmodium_falciparum_HB3
0.046875,0.00625,10.187984,1.0,Alvespimycinhydrochloride,Artenimol,152,plasmodium_falciparum_HB3
0.046875,0.003125,51.36833,1.0,Alvespimycinhydrochloride,Artenimol,152,plasmodium_falciparum_HB3
0.046875,0.0015625,67.09406,1.0,Alvespimycinhydrochloride,Artenimol,152,plasmodium_falciparum_HB3
0.046875,0.00078125,88.25309,1.0,Alvespimycinhydrochloride,Artenimol,152,plasmodium_falciparum_HB3
0.046875,0.000390625,100.87891,1.0,Alvespimycinhydrochloride,Artenimol,152,plasmodium_falciparum_HB3
0.046875,0.000195375,100.84517,1.0,Alvespimycinhydrochloride,Artenimol,152,plasmodium_falciparum_HB3
0.046875,9.7625e-05,99.044754,1.0,Alvespimycinhydrochloride,Artenimol,152,plasmodium_falciparum_HB3
0.046875,0.0,103.14465,1.0,Alvespimycinhydrochloride,Artenimol,152,plasmodium_falciparum_HB3
0.0234375,0.025,0.59578,1.0,Alvespimycinhydrochloride,Artenimol,152,plasmodium_falciparum_HB3
0.0234375,0.0125,2.154048,1.0,Alvespimycinhydrochloride,Artenimol,152,plasmodium_falciparum_HB3
0.0234375,0.00625,9.584859,1.0,Alvespimycinhydrochloride,Artenimol,152,plasmodium_falciparum_HB3
0.0234375,0.003125,48.869305,1.0,Alvespimycinhydrochloride,Artenimol,152,plasmodium_falciparum_HB3
0.0234375,0.0015625,80.50354,1.0,Alvespimycinhydrochloride,Artenimol,152,plasmodium_falciparum_HB3
0.0234375,0.00078125,102.80474,1.0,Alvespimycinhydrochloride,Artenimol,152,plasmodium_falciparum_HB3
0.0234375,0.000390625,105.98666999999999,1.0,Alvespimycinhydrochloride,Artenimol,152,plasmodium_falciparum_HB3
0.0234375,0.000195375,106.319084,1.0,Alvespimycinhydrochloride,Artenimol,152,plasmodium_falciparum_HB3
0.0234375,9.7625e-05,104.0464,1.0,Alvespimycinhydrochloride,Artenimol,152,plasmodium_falciparum_HB3
0.0234375,0.0,106.257484,1.0,Alvespimycinhydrochloride,Artenimol,152,plasmodium_falciparum_HB3
0.01171875,0.025,0.40313000000000004,1.0,Alvespimycinhydrochloride,Artenimol,152,plasmodium_falciparum_HB3
0.01171875,0.0125,1.802334,1.0,Alvespimycinhydrochloride,Artenimol,152,plasmodium_falciparum_HB3
0.01171875,0.00625,14.427641,1.0,Alvespimycinhydrochloride,Artenimol,152,plasmodium_falciparum_HB3
0.01171875,0.003125,63.609097,1.0,Alvespimycinhydrochloride,Artenimol,152,plasmodium_falciparum_HB3
0.01171875,0.0015625,85.53153,1.0,Alvespimycinhydrochloride,Artenimol,152,plasmodium_falciparum_HB3
0.01171875,0.00078125,93.28918,1.0,Alvespimycinhydrochloride,Artenimol,152,plasmodium_falciparum_HB3
0.01171875,0.000390625,101.303055,1.0,Alvespimycinhydrochloride,Artenimol,152,plasmodium_falciparum_HB3
0.01171875,0.000195375,102.74005,1.0,Alvespimycinhydrochloride,Artenimol,152,plasmodium_falciparum_HB3
0.01171875,9.7625e-05,99.92543,1.0,Alvespimycinhydrochloride,Artenimol,152,plasmodium_falciparum_HB3
0.01171875,0.0,105.65831999999999,1.0,Alvespimycinhydrochloride,Artenimol,152,plasmodium_falciparum_HB3
0.005859375,0.025,0.621514,1.0,Alvespimycinhydrochloride,Artenimol,152,plasmodium_falciparum_HB3
0.005859375,0.0125,0.7077829999999999,1.0,Alvespimycinhydrochloride,Artenimol,152,plasmodium_falciparum_HB3
0.005859375,0.00625,6.915424000000001,1.0,Alvespimycinhydrochloride,Artenimol,152,plasmodium_falciparum_HB3
0.005859375,0.003125,34.11538,1.0,Alvespimycinhydrochloride,Artenimol,152,plasmodium_falciparum_HB3
0.005859375,0.0015625,61.974842,1.0,Alvespimycinhydrochloride,Artenimol,152,plasmodium_falciparum_HB3
0.005859375,0.00078125,93.281784,1.0,Alvespimycinhydrochloride,Artenimol,152,plasmodium_falciparum_HB3
0.005859375,0.000390625,105.16258,1.0,Alvespimycinhydrochloride,Artenimol,152,plasmodium_falciparum_HB3
0.005859375,0.000195375,106.0655,1.0,Alvespimycinhydrochloride,Artenimol,152,plasmodium_falciparum_HB3
0.005859375,9.7625e-05,104.91243999999999,1.0,Alvespimycinhydrochloride,Artenimol,152,plasmodium_falciparum_HB3
0.005859375,0.0,102.09022,1.0,Alvespimycinhydrochloride,Artenimol,152,plasmodium_falciparum_HB3
0.00292975,0.025,0.598414,1.0,Alvespimycinhydrochloride,Artenimol,152,plasmodium_falciparum_HB3
0.00292975,0.0125,1.211012,1.0,Alvespimycinhydrochloride,Artenimol,152,plasmodium_falciparum_HB3
0.00292975,0.00625,9.451326,1.0,Alvespimycinhydrochloride,Artenimol,152,plasmodium_falciparum_HB3
0.00292975,0.003125,41.22168,1.0,Alvespimycinhydrochloride,Artenimol,152,plasmodium_falciparum_HB3
0.00292975,0.0015625,64.20746,1.0,Alvespimycinhydrochloride,Artenimol,152,plasmodium_falciparum_HB3
0.00292975,0.00078125,90.39969,1.0,Alvespimycinhydrochloride,Artenimol,152,plasmodium_falciparum_HB3
0.00292975,0.000390625,103.0291,1.0,Alvespimycinhydrochloride,Artenimol,152,plasmodium_falciparum_HB3
0.00292975,0.000195375,104.72606999999999,1.0,Alvespimycinhydrochloride,Artenimol,152,plasmodium_falciparum_HB3
0.00292975,9.7625e-05,106.85838000000001,1.0,Alvespimycinhydrochloride,Artenimol,152,plasmodium_falciparum_HB3
0.00292975,0.0,105.35366,1.0,Alvespimycinhydrochloride,Artenimol,152,plasmodium_falciparum_HB3
0.0,0.025,0.5956279999999999,1.0,Alvespimycinhydrochloride,Artenimol,152,plasmodium_falciparum_HB3
0.0,0.0125,1.536586,1.0,Alvespimycinhydrochloride,Artenimol,152,plasmodium_falciparum_HB3
0.0,0.00625,11.511505999999999,1.0,Alvespimycinhydrochloride,Artenimol,152,plasmodium_falciparum_HB3
0.0,0.003125,41.822628,1.0,Alvespimycinhydrochloride,Artenimol,152,plasmodium_falciparum_HB3
0.0,0.0015625,79.887146,1.0,Alvespimycinhydrochloride,Artenimol,152,plasmodium_falciparum_HB3
0.0,0.00078125,88.92211999999999,1.0,Alvespimycinhydrochloride,Artenimol,152,plasmodium_falciparum_HB3
0.0,0.000390625,106.72571599999999,1.0,Alvespimycinhydrochloride,Artenimol,152,plasmodium_falciparum_HB3
0.0,0.000195375,107.00103999999999,1.0,Alvespimycinhydrochloride,Artenimol,152,plasmodium_falciparum_HB3
0.0,9.7625e-05,107.99766499999998,1.0,Alvespimycinhydrochloride,Artenimol,152,plasmodium_falciparum_HB3
0.0,0.0,103.99878000000001,1.0,Alvespimycinhydrochloride,Artenimol,152,plasmodium_falciparum_HB3
