drug1.conc,drug2.conc,effect,effect.95ci,drug1,drug2,expt,sample
0.75,0.05,-0.493199,1.0,Alvespimycinhydrochloride,Artesunate,151,plasmodium_falciparum_HB3
0.75,0.025,-0.48251000000000005,1.0,Alvespimycinhydrochloride,Artesunate,151,plasmodium_falciparum_HB3
0.75,0.0125,-0.614624,1.0,Alvespimycinhydrochloride,Artesunate,151,plasmodium_falciparum_HB3
0.75,0.00625,-0.189104,1.0,Alvespimycinhydrochloride,Artesunate,151,plasmodium_falciparum_HB3
0.75,0.003125,0.409159,1.0,Alvespimycinhydrochloride,Artesunate,151,plasmodium_falciparum_HB3
0.75,0.0015625,0.301056,1.0,Alvespimycinhydrochloride,Artesunate,151,plasmodium_falciparum_HB3
0.75,0.00078125,0.490413,1.0,Alvespimycinhydrochloride,Artesunate,151,plasmodium_falciparum_HB3
0.75,0.000390625,0.704946,1.0,Alvespimycinhydrochloride,Artesunate,151,plasmodium_falciparum_HB3
0.75,0.000195375,0.601454,1.0,Alvespimycinhydrochloride,Artesunate,151,plasmodium_falciparum_HB3
0.75,0.0,0.290722,1.0,Alvespimycinhydrochloride,Artesunate,151,plasmodium_falciparum_HB3
0.375,0.05,0.096553,1.0,Alvespimycinhydrochloride,Artesunate,151,plasmodium_falciparum_HB3
0.375,0.025,0.284896,1.0,Alvespimycinhydrochloride,Artesunate,151,plasmodium_falciparum_HB3
0.375,0.0125,0.25754099999999996,1.0,Alvespimycinhydrochloride,Artesunate,151,plasmodium_falciparum_HB3
0.375,0.00625,1.216281,1.0,Alvespimycinhydrochloride,Artesunate,151,plasmodium_falciparum_HB3
0.375,0.003125,6.3738980000000005,1.0,Alvespimycinhydrochloride,Artesunate,151,plasmodium_falciparum_HB3
0.375,0.0015625,22.089804,1.0,Alvespimycinhydrochloride,Artesunate,151,plasmodium_falciparum_HB3
0.375,0.00078125,16.234991,1.0,Alvespimycinhydrochloride,Artesunate,151,plasmodium_falciparum_HB3
0.375,0.000390625,14.289398,1.0,Alvespimycinhydrochloride,Artesunate,151,plasmodium_falciparum_HB3
0.375,0.000195375,9.086341000000001,1.0,Alvespimycinhydrochloride,Artesunate,151,plasmodium_falciparum_HB3
0.375,0.0,9.433394,1.0,Alvespimycinhydrochloride,Artesunate,151,plasmodium_falciparum_HB3
0.1875,0.05,1.184164,1.0,Alvespimycinhydrochloride,Artesunate,151,plasmodium_falciparum_HB3
0.1875,0.025,2.2996369999999997,1.0,Alvespimycinhydrochloride,Artesunate,151,plasmodium_falciparum_HB3
0.1875,0.0125,2.235758,1.0,Alvespimycinhydrochloride,Artesunate,151,plasmodium_falciparum_HB3
0.1875,0.00625,9.250268,1.0,Alvespimycinhydrochloride,Artesunate,151,plasmodium_falciparum_HB3
0.1875,0.003125,34.552246000000004,1.0,Alvespimycinhydrochloride,Artesunate,151,plasmodium_falciparum_HB3
0.1875,0.0015625,57.904582999999995,1.0,Alvespimycinhydrochloride,Artesunate,151,plasmodium_falciparum_HB3
0.1875,0.00078125,42.850970000000004,1.0,Alvespimycinhydrochloride,Artesunate,151,plasmodium_falciparum_HB3
0.1875,0.000390625,63.9021,1.0,Alvespimycinhydrochloride,Artesunate,151,plasmodium_falciparum_HB3
0.1875,0.000195375,60.59585,1.0,Alvespimycinhydrochloride,Artesunate,151,plasmodium_falciparum_HB3
0.1875,0.0,48.20823,1.0,Alvespimycinhydrochloride,Artesunate,151,plasmodium_falciparum_HB3
0.09375,0.05,1.482586,1.0,Alvespimycinhydrochloride,Artesunate,151,plasmodium_falciparum_HB3
0.09375,0.025,5.640937999999999,1.0,Alvespimycinhydrochloride,Artesunate,151,plasmodium_falciparum_HB3
0.09375,0.0125,4.812439,1.0,Alvespimycinhydrochloride,Artesunate,151,plasmodium_falciparum_HB3
0.09375,0.00625,23.234151999999998,1.0,Alvespimycinhydrochloride,Artesunate,151,plasmodium_falciparum_HB3
0.09375,0.003125,77.14466,1.0,Alvespimycinhydrochloride,Artesunate,151,plasmodium_falciparum_HB3
0.09375,0.0015625,84.6586,1.0,Alvespimycinhydrochloride,Artesunate,151,plasmodium_falciparum_HB3
0.09375,0.00078125,66.32058,1.0,Alvespimycinhydrochloride,Artesunate,151,plasmodium_falciparum_HB3
0.09375,0.000390625,73.822914,1.0,Alvespimycinhydrochloride,Artesunate,151,plasmodium_falciparum_HB3
0.09375,0.000195375,78.94173,1.0,Alvespimycinhydrochloride,Artesunate,151,plasmodium_falciparum_HB3
0.09375,0.0,77.84145,1.0,Alvespimycinhydrochloride,Artesunate,151,plasmodium_falciparum_HB3
0.046875,0.05,1.844279,1.0,Alvespimycinhydrochloride,Artesunate,151,plasmodium_falciparum_HB3
0.046875,0.025,5.861702999999999,1.0,Alvespimycinhydrochloride,Artesunate,151,plasmodium_falciparum_HB3
0.046875,0.0125,6.077756,1.0,Alvespimycinhydrochloride,Artesunate,151,plasmodium_falciparum_HB3
0.046875,0.00625,29.452583,1.0,Alvespimycinhydrochloride,Artesunate,151,plasmodium_falciparum_HB3
0.046875,0.003125,95.38168,1.0,Alvespimycinhydrochloride,Artesunate,151,plasmodium_falciparum_HB3
0.046875,0.0015625,100.856155,1.0,Alvespimycinhydrochloride,Artesunate,151,plasmodium_falciparum_HB3
0.046875,0.00078125,93.47069,1.0,Alvespimycinhydrochloride,Artesunate,151,plasmodium_falciparum_HB3
0.046875,0.000390625,96.00598000000001,1.0,Alvespimycinhydrochloride,Artesunate,151,plasmodium_falciparum_HB3
0.046875,0.000195375,14.739486999999999,1.0,Alvespimycinhydrochloride,Artesunate,151,plasmodium_falciparum_HB3
0.046875,0.0,100.76254,1.0,Alvespimycinhydrochloride,Artesunate,151,plasmodium_falciparum_HB3
0.0234375,0.05,2.7127470000000002,1.0,Alvespimycinhydrochloride,Artesunate,151,plasmodium_falciparum_HB3
0.0234375,0.025,5.289225,1.0,Alvespimycinhydrochloride,Artesunate,151,plasmodium_falciparum_HB3
0.0234375,0.0125,15.917117000000001,1.0,Alvespimycinhydrochloride,Artesunate,151,plasmodium_falciparum_HB3
0.0234375,0.00625,30.268063,1.0,Alvespimycinhydrochloride,Artesunate,151,plasmodium_falciparum_HB3
0.0234375,0.003125,94.55641999999999,1.0,Alvespimycinhydrochloride,Artesunate,151,plasmodium_falciparum_HB3
0.0234375,0.0015625,97.99635,1.0,Alvespimycinhydrochloride,Artesunate,151,plasmodium_falciparum_HB3
0.0234375,0.00078125,101.679085,1.0,Alvespimycinhydrochloride,Artesunate,151,plasmodium_falciparum_HB3
0.0234375,0.000390625,96.338646,1.0,Alvespimycinhydrochloride,Artesunate,151,plasmodium_falciparum_HB3
0.0234375,0.000195375,102.267876,1.0,Alvespimycinhydrochloride,Artesunate,151,plasmodium_falciparum_HB3
0.0234375,0.0,98.32786,1.0,Alvespimycinhydrochloride,Artesunate,151,plasmodium_falciparum_HB3
0.01171875,0.05,2.548972,1.0,Alvespimycinhydrochloride,Artesunate,151,plasmodium_falciparum_HB3
0.01171875,0.025,4.426583,1.0,Alvespimycinhydrochloride,Artesunate,151,plasmodium_falciparum_HB3
0.01171875,0.0125,12.591265,1.0,Alvespimycinhydrochloride,Artesunate,151,plasmodium_falciparum_HB3
0.01171875,0.00625,51.203842,1.0,Alvespimycinhydrochloride,Artesunate,151,plasmodium_falciparum_HB3
0.01171875,0.003125,97.18478,1.0,Alvespimycinhydrochloride,Artesunate,151,plasmodium_falciparum_HB3
0.01171875,0.0015625,104.21899,1.0,Alvespimycinhydrochloride,Artesunate,151,plasmodium_falciparum_HB3
0.01171875,0.00078125,104.41215,1.0,Alvespimycinhydrochloride,Artesunate,151,plasmodium_falciparum_HB3
0.01171875,0.000390625,101.5606,1.0,Alvespimycinhydrochloride,Artesunate,151,plasmodium_falciparum_HB3
0.01171875,0.000195375,104.623795,1.0,Alvespimycinhydrochloride,Artesunate,151,plasmodium_falciparum_HB3
0.01171875,0.0,100.98569,1.0,Alvespimycinhydrochloride,Artesunate,151,plasmodium_falciparum_HB3
0.005859375,0.05,2.24822,1.0,Alvespimycinhydrochloride,Artesunate,151,plasmodium_falciparum_HB3
0.005859375,0.025,5.543727,1.0,Alvespimycinhydrochloride,Artesunate,151,plasmodium_falciparum_HB3
0.005859375,0.0125,18.808429999999998,1.0,Alvespimycinhydrochloride,Artesunate,151,plasmodium_falciparum_HB3
0.005859375,0.00625,36.01761,1.0,Alvespimycinhydrochloride,Artesunate,151,plasmodium_falciparum_HB3
0.005859375,0.003125,97.9687,1.0,Alvespimycinhydrochloride,Artesunate,151,plasmodium_falciparum_HB3
0.005859375,0.0015625,103.00771999999999,1.0,Alvespimycinhydrochloride,Artesunate,151,plasmodium_falciparum_HB3
0.005859375,0.00078125,101.19131,1.0,Alvespimycinhydrochloride,Artesunate,151,plasmodium_falciparum_HB3
0.005859375,0.000390625,108.99354,1.0,Alvespimycinhydrochloride,Artesunate,151,plasmodium_falciparum_HB3
0.005859375,0.000195375,100.25901,1.0,Alvespimycinhydrochloride,Artesunate,151,plasmodium_falciparum_HB3
0.005859375,0.0,102.73083000000001,1.0,Alvespimycinhydrochloride,Artesunate,151,plasmodium_falciparum_HB3
0.00292975,0.05,1.90142,1.0,Alvespimycinhydrochloride,Artesunate,151,plasmodium_falciparum_HB3
0.00292975,0.025,4.325521,1.0,Alvespimycinhydrochloride,Artesunate,151,plasmodium_falciparum_HB3
0.00292975,0.0125,10.710158999999999,1.0,Alvespimycinhydrochloride,Artesunate,151,plasmodium_falciparum_HB3
0.00292975,0.00625,53.616142,1.0,Alvespimycinhydrochloride,Artesunate,151,plasmodium_falciparum_HB3
0.00292975,0.003125,95.86804000000001,1.0,Alvespimycinhydrochloride,Artesunate,151,plasmodium_falciparum_HB3
0.00292975,0.0015625,101.35488000000001,1.0,Alvespimycinhydrochloride,Artesunate,151,plasmodium_falciparum_HB3
0.00292975,0.00078125,102.03095,1.0,Alvespimycinhydrochloride,Artesunate,151,plasmodium_falciparum_HB3
0.00292975,0.000390625,101.741745,1.0,Alvespimycinhydrochloride,Artesunate,151,plasmodium_falciparum_HB3
0.00292975,0.000195375,102.3968,1.0,Alvespimycinhydrochloride,Artesunate,151,plasmodium_falciparum_HB3
0.00292975,0.0,100.64826,1.0,Alvespimycinhydrochloride,Artesunate,151,plasmodium_falciparum_HB3
0.0,0.05,2.604391,1.0,Alvespimycinhydrochloride,Artesunate,151,plasmodium_falciparum_HB3
0.0,0.025,4.377192,1.0,Alvespimycinhydrochloride,Artesunate,151,plasmodium_falciparum_HB3
0.0,0.0125,11.793312,1.0,Alvespimycinhydrochloride,Artesunate,151,plasmodium_falciparum_HB3
0.0,0.00625,51.744965,1.0,Alvespimycinhydrochloride,Artesunate,151,plasmodium_falciparum_HB3
0.0,0.003125,98.19077,1.0,Alvespimycinhydrochloride,Artesunate,151,plasmodium_falciparum_HB3
0.0,0.0015625,103.35072,1.0,Alvespimycinhydrochloride,Artesunate,151,plasmodium_falciparum_HB3
0.0,0.00078125,106.16386999999999,1.0,Alvespimycinhydrochloride,Artesunate,151,plasmodium_falciparum_HB3
0.0,0.000390625,104.99703000000001,1.0,Alvespimycinhydrochloride,Artesunate,151,plasmodium_falciparum_HB3
0.0,0.000195375,104.719536,1.0,Alvespimycinhydrochloride,Artesunate,151,plasmodium_falciparum_HB3
0.0,0.0,103.45143,1.0,Alvespimycinhydrochloride,Artesunate,151,plasmodium_falciparum_HB3
