drug1.conc,drug2.conc,effect,effect.95ci,drug1,drug2,expt,sample
0.5,0.05,0.38773,1.0,BIX01294,Artemether,194,plasmodium_falciparum_Dd2
0.5,0.025,3.753311,1.0,BIX01294,Artemether,194,plasmodium_falciparum_Dd2
0.5,0.0125,3.6651029999999998,1.0,BIX01294,Artemether,194,plasmodium_falciparum_Dd2
0.5,0.00625,1.111797,1.0,BIX01294,Artemether,194,plasmodium_falciparum_Dd2
0.5,0.003125,3.492149,1.0,BIX01294,Artemether,194,plasmodium_falciparum_Dd2
0.5,0.0015625,4.096274,1.0,BIX01294,Artemether,194,plasmodium_falciparum_Dd2
0.5,0.00078125,6.4847980000000005,1.0,BIX01294,Artemether,194,plasmodium_falciparum_Dd2
0.5,0.000390625,2.97034,1.0,BIX01294,Artemether,194,plasmodium_falciparum_Dd2
0.5,0.000195375,3.4336870000000004,1.0,BIX01294,Artemether,194,plasmodium_falciparum_Dd2
0.5,0.0,5.458189,1.0,BIX01294,Artemether,194,plasmodium_falciparum_Dd2
0.25,0.05,1.479427,1.0,BIX01294,Artemether,194,plasmodium_falciparum_Dd2
0.25,0.025,0.768466,1.0,BIX01294,Artemether,194,plasmodium_falciparum_Dd2
0.25,0.0125,2.913204,1.0,BIX01294,Artemether,194,plasmodium_falciparum_Dd2
0.25,0.00625,3.7689199999999996,1.0,BIX01294,Artemether,194,plasmodium_falciparum_Dd2
0.25,0.003125,4.581563,1.0,BIX01294,Artemether,194,plasmodium_falciparum_Dd2
0.25,0.0015625,1.768273,1.0,BIX01294,Artemether,194,plasmodium_falciparum_Dd2
0.25,0.00078125,4.38814,1.0,BIX01294,Artemether,194,plasmodium_falciparum_Dd2
0.25,0.000390625,2.460901,1.0,BIX01294,Artemether,194,plasmodium_falciparum_Dd2
0.25,0.000195375,1.317664,1.0,BIX01294,Artemether,194,plasmodium_falciparum_Dd2
0.25,0.0,3.599868,1.0,BIX01294,Artemether,194,plasmodium_falciparum_Dd2
0.125,0.05,-0.227293,1.0,BIX01294,Artemether,194,plasmodium_falciparum_Dd2
0.125,0.025,-0.759483,1.0,BIX01294,Artemether,194,plasmodium_falciparum_Dd2
0.125,0.0125,-0.129955,1.0,BIX01294,Artemether,194,plasmodium_falciparum_Dd2
0.125,0.00625,1.19971,1.0,BIX01294,Artemether,194,plasmodium_falciparum_Dd2
0.125,0.003125,0.916607,1.0,BIX01294,Artemether,194,plasmodium_falciparum_Dd2
0.125,0.0015625,1.844185,1.0,BIX01294,Artemether,194,plasmodium_falciparum_Dd2
0.125,0.00078125,1.2483790000000001,1.0,BIX01294,Artemether,194,plasmodium_falciparum_Dd2
0.125,0.000390625,1.543631,1.0,BIX01294,Artemether,194,plasmodium_falciparum_Dd2
0.125,0.000195375,1.5144739999999999,1.0,BIX01294,Artemether,194,plasmodium_falciparum_Dd2
0.125,0.0,0.7685390000000001,1.0,BIX01294,Artemether,194,plasmodium_falciparum_Dd2
0.0625,0.05,-0.364243,1.0,BIX01294,Artemether,194,plasmodium_falciparum_Dd2
0.0625,0.025,-0.29054,1.0,BIX01294,Artemether,194,plasmodium_falciparum_Dd2
0.0625,0.0125,2.739219,1.0,BIX01294,Artemether,194,plasmodium_falciparum_Dd2
0.0625,0.00625,10.037028,1.0,BIX01294,Artemether,194,plasmodium_falciparum_Dd2
0.0625,0.003125,22.625668,1.0,BIX01294,Artemether,194,plasmodium_falciparum_Dd2
0.0625,0.0015625,18.111256,1.0,BIX01294,Artemether,194,plasmodium_falciparum_Dd2
0.0625,0.00078125,15.544917000000002,1.0,BIX01294,Artemether,194,plasmodium_falciparum_Dd2
0.0625,0.000390625,24.303158,1.0,BIX01294,Artemether,194,plasmodium_falciparum_Dd2
0.0625,0.000195375,23.475863,1.0,BIX01294,Artemether,194,plasmodium_falciparum_Dd2
0.0625,0.0,30.534376,1.0,BIX01294,Artemether,194,plasmodium_falciparum_Dd2
0.03125,0.05,1.7209299999999998,1.0,BIX01294,Artemether,194,plasmodium_falciparum_Dd2
0.03125,0.025,1.382531,1.0,BIX01294,Artemether,194,plasmodium_falciparum_Dd2
0.03125,0.0125,22.801273000000002,1.0,BIX01294,Artemether,194,plasmodium_falciparum_Dd2
0.03125,0.00625,88.7824,1.0,BIX01294,Artemether,194,plasmodium_falciparum_Dd2
0.03125,0.003125,94.09090400000001,1.0,BIX01294,Artemether,194,plasmodium_falciparum_Dd2
0.03125,0.0015625,93.69375,1.0,BIX01294,Artemether,194,plasmodium_falciparum_Dd2
0.03125,0.00078125,103.0732,1.0,BIX01294,Artemether,194,plasmodium_falciparum_Dd2
0.03125,0.000390625,91.80635,1.0,BIX01294,Artemether,194,plasmodium_falciparum_Dd2
0.03125,0.000195375,95.29003,1.0,BIX01294,Artemether,194,plasmodium_falciparum_Dd2
0.03125,0.0,97.086426,1.0,BIX01294,Artemether,194,plasmodium_falciparum_Dd2
0.015625,0.05,0.206603,1.0,BIX01294,Artemether,194,plasmodium_falciparum_Dd2
0.015625,0.025,0.9149870000000001,1.0,BIX01294,Artemether,194,plasmodium_falciparum_Dd2
0.015625,0.0125,88.42126,1.0,BIX01294,Artemether,194,plasmodium_falciparum_Dd2
0.015625,0.00625,97.935295,1.0,BIX01294,Artemether,194,plasmodium_falciparum_Dd2
0.015625,0.003125,110.95783,1.0,BIX01294,Artemether,194,plasmodium_falciparum_Dd2
0.015625,0.0015625,102.29914000000001,1.0,BIX01294,Artemether,194,plasmodium_falciparum_Dd2
0.015625,0.00078125,98.912865,1.0,BIX01294,Artemether,194,plasmodium_falciparum_Dd2
0.015625,0.0,96.54739000000001,1.0,BIX01294,Artemether,194,plasmodium_falciparum_Dd2
0.0078125,0.05,0.8110970000000001,1.0,BIX01294,Artemether,194,plasmodium_falciparum_Dd2
0.0078125,0.025,5.639832,1.0,BIX01294,Artemether,194,plasmodium_falciparum_Dd2
0.0078125,0.0125,87.65603,1.0,BIX01294,Artemether,194,plasmodium_falciparum_Dd2
0.0078125,0.00625,112.66823600000001,1.0,BIX01294,Artemether,194,plasmodium_falciparum_Dd2
0.0078125,0.003125,101.282326,1.0,BIX01294,Artemether,194,plasmodium_falciparum_Dd2
0.0078125,0.0015625,100.17325,1.0,BIX01294,Artemether,194,plasmodium_falciparum_Dd2
0.0078125,0.00078125,102.61847,1.0,BIX01294,Artemether,194,plasmodium_falciparum_Dd2
0.0078125,0.000390625,110.96916999999999,1.0,BIX01294,Artemether,194,plasmodium_falciparum_Dd2
0.0078125,0.0,111.0227,1.0,BIX01294,Artemether,194,plasmodium_falciparum_Dd2
0.00390625,0.05,0.974627,1.0,BIX01294,Artemether,194,plasmodium_falciparum_Dd2
0.00390625,0.025,1.8965349999999999,1.0,BIX01294,Artemether,194,plasmodium_falciparum_Dd2
0.00390625,0.0125,101.97863000000001,1.0,BIX01294,Artemether,194,plasmodium_falciparum_Dd2
0.00390625,0.00625,109.79133,1.0,BIX01294,Artemether,194,plasmodium_falciparum_Dd2
0.00390625,0.003125,100.73968,1.0,BIX01294,Artemether,194,plasmodium_falciparum_Dd2
0.00390625,0.0015625,95.31057,1.0,BIX01294,Artemether,194,plasmodium_falciparum_Dd2
0.00390625,0.00078125,105.14902,1.0,BIX01294,Artemether,194,plasmodium_falciparum_Dd2
0.00390625,0.000390625,110.95038999999998,1.0,BIX01294,Artemether,194,plasmodium_falciparum_Dd2
0.00390625,0.000195375,109.90066499999999,1.0,BIX01294,Artemether,194,plasmodium_falciparum_Dd2
0.001953125,0.05,-0.17413299999999998,1.0,BIX01294,Artemether,194,plasmodium_falciparum_Dd2
0.001953125,0.025,1.7902150000000001,1.0,BIX01294,Artemether,194,plasmodium_falciparum_Dd2
0.001953125,0.0125,79.36591999999999,1.0,BIX01294,Artemether,194,plasmodium_falciparum_Dd2
0.001953125,0.00625,93.382225,1.0,BIX01294,Artemether,194,plasmodium_falciparum_Dd2
0.001953125,0.003125,104.27144,1.0,BIX01294,Artemether,194,plasmodium_falciparum_Dd2
0.001953125,0.0015625,108.15897,1.0,BIX01294,Artemether,194,plasmodium_falciparum_Dd2
0.001953125,0.00078125,95.38626,1.0,BIX01294,Artemether,194,plasmodium_falciparum_Dd2
0.001953125,0.000390625,99.92886999999999,1.0,BIX01294,Artemether,194,plasmodium_falciparum_Dd2
0.001953125,0.000195375,111.08366399999998,1.0,BIX01294,Artemether,194,plasmodium_falciparum_Dd2
0.001953125,0.0,106.722176,1.0,BIX01294,Artemether,194,plasmodium_falciparum_Dd2
0.0,0.05,0.351873,1.0,BIX01294,Artemether,194,plasmodium_falciparum_Dd2
0.0,0.025,2.0702990000000003,1.0,BIX01294,Artemether,194,plasmodium_falciparum_Dd2
0.0,0.0125,88.50076999999999,1.0,BIX01294,Artemether,194,plasmodium_falciparum_Dd2
0.0,0.00625,108.06193,1.0,BIX01294,Artemether,194,plasmodium_falciparum_Dd2
0.0,0.003125,103.408875,1.0,BIX01294,Artemether,194,plasmodium_falciparum_Dd2
0.0,0.0015625,111.19293,1.0,BIX01294,Artemether,194,plasmodium_falciparum_Dd2
0.0,0.00078125,98.262794,1.0,BIX01294,Artemether,194,plasmodium_falciparum_Dd2
0.0,0.000390625,98.19064,1.0,BIX01294,Artemether,194,plasmodium_falciparum_Dd2
0.0,0.000195375,112.30568999999998,1.0,BIX01294,Artemether,194,plasmodium_falciparum_Dd2
0.0,0.0,100.51179499999999,1.0,BIX01294,Artemether,194,plasmodium_falciparum_Dd2
