drug1.conc,drug2.conc,effect,effect.95ci,drug1,drug2,expt,sample
0.5,0.01,0.538991,1.0,BIX01294,Nanchangmycin,179,plasmodium_falciparum_HB3
0.5,0.005,0.364708,1.0,BIX01294,Nanchangmycin,179,plasmodium_falciparum_HB3
0.5,0.0025,0.7579670000000001,1.0,BIX01294,Nanchangmycin,179,plasmodium_falciparum_HB3
0.5,0.00125,0.636347,1.0,BIX01294,Nanchangmycin,179,plasmodium_falciparum_HB3
0.5,0.000625,0.620306,1.0,BIX01294,Nanchangmycin,179,plasmodium_falciparum_HB3
0.5,0.0003125,0.9091469999999999,1.0,BIX01294,Nanchangmycin,179,plasmodium_falciparum_HB3
0.5,0.00015625,0.8042739999999999,1.0,BIX01294,Nanchangmycin,179,plasmodium_falciparum_HB3
0.5,7.8125e-05,0.8701540000000001,1.0,BIX01294,Nanchangmycin,179,plasmodium_falciparum_HB3
0.5,3.9125e-05,0.26034,1.0,BIX01294,Nanchangmycin,179,plasmodium_falciparum_HB3
0.5,0.0,1.205453,1.0,BIX01294,Nanchangmycin,179,plasmodium_falciparum_HB3
0.25,0.01,0.549635,1.0,BIX01294,Nanchangmycin,179,plasmodium_falciparum_HB3
0.25,0.005,0.9038,1.0,BIX01294,Nanchangmycin,179,plasmodium_falciparum_HB3
0.25,0.0025,0.678014,1.0,BIX01294,Nanchangmycin,179,plasmodium_falciparum_HB3
0.25,0.00125,0.691936,1.0,BIX01294,Nanchangmycin,179,plasmodium_falciparum_HB3
0.25,0.000625,0.614707,1.0,BIX01294,Nanchangmycin,179,plasmodium_falciparum_HB3
0.25,0.0003125,0.914494,1.0,BIX01294,Nanchangmycin,179,plasmodium_falciparum_HB3
0.25,0.00015625,1.088525,1.0,BIX01294,Nanchangmycin,179,plasmodium_falciparum_HB3
0.25,7.8125e-05,1.221847,1.0,BIX01294,Nanchangmycin,179,plasmodium_falciparum_HB3
0.25,3.9125e-05,0.512861,1.0,BIX01294,Nanchangmycin,179,plasmodium_falciparum_HB3
0.25,0.0,0.8380719999999999,1.0,BIX01294,Nanchangmycin,179,plasmodium_falciparum_HB3
0.125,0.01,0.360925,1.0,BIX01294,Nanchangmycin,179,plasmodium_falciparum_HB3
0.125,0.005,1.330554,1.0,BIX01294,Nanchangmycin,179,plasmodium_falciparum_HB3
0.125,0.0025,0.470842,1.0,BIX01294,Nanchangmycin,179,plasmodium_falciparum_HB3
0.125,0.00125,0.312751,1.0,BIX01294,Nanchangmycin,179,plasmodium_falciparum_HB3
0.125,0.000625,0.977347,1.0,BIX01294,Nanchangmycin,179,plasmodium_falciparum_HB3
0.125,0.0003125,1.693244,1.0,BIX01294,Nanchangmycin,179,plasmodium_falciparum_HB3
0.125,0.00015625,1.804472,1.0,BIX01294,Nanchangmycin,179,plasmodium_falciparum_HB3
0.125,7.8125e-05,1.239452,1.0,BIX01294,Nanchangmycin,179,plasmodium_falciparum_HB3
0.125,3.9125e-05,1.237132,1.0,BIX01294,Nanchangmycin,179,plasmodium_falciparum_HB3
0.125,0.0,1.6982380000000001,1.0,BIX01294,Nanchangmycin,179,plasmodium_falciparum_HB3
0.0625,0.01,1.7880779999999998,1.0,BIX01294,Nanchangmycin,179,plasmodium_falciparum_HB3
0.0625,0.005,4.639711,1.0,BIX01294,Nanchangmycin,179,plasmodium_falciparum_HB3
0.0625,0.0025,8.366441,1.0,BIX01294,Nanchangmycin,179,plasmodium_falciparum_HB3
0.0625,0.00125,8.878647,1.0,BIX01294,Nanchangmycin,179,plasmodium_falciparum_HB3
0.0625,0.000625,8.827547000000001,1.0,BIX01294,Nanchangmycin,179,plasmodium_falciparum_HB3
0.0625,0.0003125,10.394833,1.0,BIX01294,Nanchangmycin,179,plasmodium_falciparum_HB3
0.0625,0.00015625,9.210919,1.0,BIX01294,Nanchangmycin,179,plasmodium_falciparum_HB3
0.0625,7.8125e-05,9.574719,1.0,BIX01294,Nanchangmycin,179,plasmodium_falciparum_HB3
0.0625,3.9125e-05,8.300259,1.0,BIX01294,Nanchangmycin,179,plasmodium_falciparum_HB3
0.0625,0.0,9.043396000000001,1.0,BIX01294,Nanchangmycin,179,plasmodium_falciparum_HB3
0.03125,0.01,2.5802959999999997,1.0,BIX01294,Nanchangmycin,179,plasmodium_falciparum_HB3
0.03125,0.005,10.926762,1.0,BIX01294,Nanchangmycin,179,plasmodium_falciparum_HB3
0.03125,0.0025,15.601582,1.0,BIX01294,Nanchangmycin,179,plasmodium_falciparum_HB3
0.03125,0.00125,27.49888,1.0,BIX01294,Nanchangmycin,179,plasmodium_falciparum_HB3
0.03125,0.000625,69.56403,1.0,BIX01294,Nanchangmycin,179,plasmodium_falciparum_HB3
0.03125,0.0003125,94.45775,1.0,BIX01294,Nanchangmycin,179,plasmodium_falciparum_HB3
0.03125,0.00015625,95.91981,1.0,BIX01294,Nanchangmycin,179,plasmodium_falciparum_HB3
0.03125,7.8125e-05,99.34015,1.0,BIX01294,Nanchangmycin,179,plasmodium_falciparum_HB3
0.03125,3.9125e-05,94.52247,1.0,BIX01294,Nanchangmycin,179,plasmodium_falciparum_HB3
0.03125,0.0,91.75437,1.0,BIX01294,Nanchangmycin,179,plasmodium_falciparum_HB3
0.015625,0.01,4.453019,1.0,BIX01294,Nanchangmycin,179,plasmodium_falciparum_HB3
0.015625,0.005,12.335705,1.0,BIX01294,Nanchangmycin,179,plasmodium_falciparum_HB3
0.015625,0.0025,17.317272,1.0,BIX01294,Nanchangmycin,179,plasmodium_falciparum_HB3
0.015625,0.00125,29.20645,1.0,BIX01294,Nanchangmycin,179,plasmodium_falciparum_HB3
0.015625,0.000625,61.123794999999994,1.0,BIX01294,Nanchangmycin,179,plasmodium_falciparum_HB3
0.015625,0.0003125,106.46431000000001,1.0,BIX01294,Nanchangmycin,179,plasmodium_falciparum_HB3
0.015625,0.00015625,107.62218999999999,1.0,BIX01294,Nanchangmycin,179,plasmodium_falciparum_HB3
0.015625,7.8125e-05,108.76732,1.0,BIX01294,Nanchangmycin,179,plasmodium_falciparum_HB3
0.015625,3.9125e-05,101.6203,1.0,BIX01294,Nanchangmycin,179,plasmodium_falciparum_HB3
0.015625,0.0,102.72955999999999,1.0,BIX01294,Nanchangmycin,179,plasmodium_falciparum_HB3
0.0078125,0.01,3.292107,1.0,BIX01294,Nanchangmycin,179,plasmodium_falciparum_HB3
0.0078125,0.005,10.750914999999999,1.0,BIX01294,Nanchangmycin,179,plasmodium_falciparum_HB3
0.0078125,0.0025,13.531573999999999,1.0,BIX01294,Nanchangmycin,179,plasmodium_falciparum_HB3
0.0078125,0.00125,22.44538,1.0,BIX01294,Nanchangmycin,179,plasmodium_falciparum_HB3
0.0078125,0.000625,60.958996,1.0,BIX01294,Nanchangmycin,179,plasmodium_falciparum_HB3
0.0078125,0.0003125,98.36078,1.0,BIX01294,Nanchangmycin,179,plasmodium_falciparum_HB3
0.0078125,0.00015625,102.80205,1.0,BIX01294,Nanchangmycin,179,plasmodium_falciparum_HB3
0.0078125,7.8125e-05,101.710396,1.0,BIX01294,Nanchangmycin,179,plasmodium_falciparum_HB3
0.0078125,3.9125e-05,98.27396999999999,1.0,BIX01294,Nanchangmycin,179,plasmodium_falciparum_HB3
0.0078125,0.0,99.558716,1.0,BIX01294,Nanchangmycin,179,plasmodium_falciparum_HB3
0.00390625,0.01,3.472494,1.0,BIX01294,Nanchangmycin,179,plasmodium_falciparum_HB3
0.00390625,0.005,12.541969,1.0,BIX01294,Nanchangmycin,179,plasmodium_falciparum_HB3
0.00390625,0.0025,16.386585,1.0,BIX01294,Nanchangmycin,179,plasmodium_falciparum_HB3
0.00390625,0.00125,20.211579999999998,1.0,BIX01294,Nanchangmycin,179,plasmodium_falciparum_HB3
0.00390625,0.000625,74.35064,1.0,BIX01294,Nanchangmycin,179,plasmodium_falciparum_HB3
0.00390625,0.0003125,92.200294,1.0,BIX01294,Nanchangmycin,179,plasmodium_falciparum_HB3
0.00390625,0.00015625,102.95403,1.0,BIX01294,Nanchangmycin,179,plasmodium_falciparum_HB3
0.00390625,7.8125e-05,103.635124,1.0,BIX01294,Nanchangmycin,179,plasmodium_falciparum_HB3
0.00390625,3.9125e-05,96.952446,1.0,BIX01294,Nanchangmycin,179,plasmodium_falciparum_HB3
0.00390625,0.0,102.84351,1.0,BIX01294,Nanchangmycin,179,plasmodium_falciparum_HB3
0.001953125,0.01,3.5739360000000002,1.0,BIX01294,Nanchangmycin,179,plasmodium_falciparum_HB3
0.001953125,0.005,12.526029,1.0,BIX01294,Nanchangmycin,179,plasmodium_falciparum_HB3
0.001953125,0.0025,16.615095,1.0,BIX01294,Nanchangmycin,179,plasmodium_falciparum_HB3
0.001953125,0.00125,20.98241,1.0,BIX01294,Nanchangmycin,179,plasmodium_falciparum_HB3
0.001953125,0.000625,66.29993,1.0,BIX01294,Nanchangmycin,179,plasmodium_falciparum_HB3
0.001953125,0.0003125,92.94686,1.0,BIX01294,Nanchangmycin,179,plasmodium_falciparum_HB3
0.001953125,0.00015625,107.52231599999999,1.0,BIX01294,Nanchangmycin,179,plasmodium_falciparum_HB3
0.001953125,7.8125e-05,103.657776,1.0,BIX01294,Nanchangmycin,179,plasmodium_falciparum_HB3
0.001953125,3.9125e-05,104.26179,1.0,BIX01294,Nanchangmycin,179,plasmodium_falciparum_HB3
0.001953125,0.0,103.51694,1.0,BIX01294,Nanchangmycin,179,plasmodium_falciparum_HB3
0.0,0.01,5.0774610000000004,1.0,BIX01294,Nanchangmycin,179,plasmodium_falciparum_HB3
0.0,0.005,12.352856,1.0,BIX01294,Nanchangmycin,179,plasmodium_falciparum_HB3
0.0,0.0025,17.054157,1.0,BIX01294,Nanchangmycin,179,plasmodium_falciparum_HB3
0.0,0.00125,42.037766,1.0,BIX01294,Nanchangmycin,179,plasmodium_falciparum_HB3
0.0,0.000625,57.672084999999996,1.0,BIX01294,Nanchangmycin,179,plasmodium_falciparum_HB3
0.0,0.0003125,86.493546,1.0,BIX01294,Nanchangmycin,179,plasmodium_falciparum_HB3
0.0,0.00015625,97.6979,1.0,BIX01294,Nanchangmycin,179,plasmodium_falciparum_HB3
0.0,7.8125e-05,103.90888000000001,1.0,BIX01294,Nanchangmycin,179,plasmodium_falciparum_HB3
0.0,3.9125e-05,105.543205,1.0,BIX01294,Nanchangmycin,179,plasmodium_falciparum_HB3
0.0,0.0,105.97622,1.0,BIX01294,Nanchangmycin,179,plasmodium_falciparum_HB3
