drug1.conc,drug2.conc,effect,effect.95ci,drug1,drug2,expt,sample
0.25,0.0125,-0.729528,1.0,BIX01294,Artenimol,245,plasmodium_falciparum_Dd2
0.25,0.00625,-0.491339,1.0,BIX01294,Artenimol,245,plasmodium_falciparum_Dd2
0.25,0.003125,0.013606,1.0,BIX01294,Artenimol,245,plasmodium_falciparum_Dd2
0.25,0.0015625,0.306614,1.0,BIX01294,Artenimol,245,plasmodium_falciparum_Dd2
0.25,0.0007813000000000001,0.28120900000000004,1.0,BIX01294,Artenimol,245,plasmodium_falciparum_Dd2
0.25,0.00039060000000000006,1.133246,1.0,BIX01294,Artenimol,245,plasmodium_falciparum_Dd2
0.25,0.00019530000000000003,2.045862,1.0,BIX01294,Artenimol,245,plasmodium_falciparum_Dd2
0.25,9.77e-05,0.696275,1.0,BIX01294,Artenimol,245,plasmodium_falciparum_Dd2
0.25,4.880000000000001e-05,0.252247,1.0,BIX01294,Artenimol,245,plasmodium_falciparum_Dd2
0.25,0.0,-0.897033,1.0,BIX01294,Artenimol,245,plasmodium_falciparum_Dd2
0.125,0.0125,-1.61606,1.0,BIX01294,Artenimol,245,plasmodium_falciparum_Dd2
0.125,0.00625,-0.7371489999999999,1.0,BIX01294,Artenimol,245,plasmodium_falciparum_Dd2
0.125,0.003125,0.193193,1.0,BIX01294,Artenimol,245,plasmodium_falciparum_Dd2
0.125,0.0015625,0.16265,1.0,BIX01294,Artenimol,245,plasmodium_falciparum_Dd2
0.125,0.0007813000000000001,-0.567272,1.0,BIX01294,Artenimol,245,plasmodium_falciparum_Dd2
0.125,0.00039060000000000006,-0.033366,1.0,BIX01294,Artenimol,245,plasmodium_falciparum_Dd2
0.125,0.00019530000000000003,0.072264,1.0,BIX01294,Artenimol,245,plasmodium_falciparum_Dd2
0.125,9.77e-05,0.477563,1.0,BIX01294,Artenimol,245,plasmodium_falciparum_Dd2
0.125,4.880000000000001e-05,-0.782371,1.0,BIX01294,Artenimol,245,plasmodium_falciparum_Dd2
0.125,0.0,-1.260725,1.0,BIX01294,Artenimol,245,plasmodium_falciparum_Dd2
0.0625,0.0125,0.149553,1.0,BIX01294,Artenimol,245,plasmodium_falciparum_Dd2
0.0625,0.00625,0.49907299999999993,1.0,BIX01294,Artenimol,245,plasmodium_falciparum_Dd2
0.0625,0.003125,1.003849,1.0,BIX01294,Artenimol,245,plasmodium_falciparum_Dd2
0.0625,0.0015625,1.512237,1.0,BIX01294,Artenimol,245,plasmodium_falciparum_Dd2
0.0625,0.0007813000000000001,1.444094,1.0,BIX01294,Artenimol,245,plasmodium_falciparum_Dd2
0.0625,0.00039060000000000006,10.257085,1.0,BIX01294,Artenimol,245,plasmodium_falciparum_Dd2
0.0625,0.00019530000000000003,1.811794,1.0,BIX01294,Artenimol,245,plasmodium_falciparum_Dd2
0.0625,9.77e-05,0.194774,1.0,BIX01294,Artenimol,245,plasmodium_falciparum_Dd2
0.0625,4.880000000000001e-05,1.141602,1.0,BIX01294,Artenimol,245,plasmodium_falciparum_Dd2
0.0625,0.0,0.016541999999999998,1.0,BIX01294,Artenimol,245,plasmodium_falciparum_Dd2
0.03125,0.0125,-0.24451199999999998,1.0,BIX01294,Artenimol,245,plasmodium_falciparum_Dd2
0.03125,0.00625,0.077176,1.0,BIX01294,Artenimol,245,plasmodium_falciparum_Dd2
0.03125,0.003125,0.583758,1.0,BIX01294,Artenimol,245,plasmodium_falciparum_Dd2
0.03125,0.0015625,4.648269,1.0,BIX01294,Artenimol,245,plasmodium_falciparum_Dd2
0.03125,0.0007813000000000001,4.082408,1.0,BIX01294,Artenimol,245,plasmodium_falciparum_Dd2
0.03125,0.00039060000000000006,6.609389999999999,1.0,BIX01294,Artenimol,245,plasmodium_falciparum_Dd2
0.03125,0.00019530000000000003,6.586073,1.0,BIX01294,Artenimol,245,plasmodium_falciparum_Dd2
0.03125,9.77e-05,5.301863,1.0,BIX01294,Artenimol,245,plasmodium_falciparum_Dd2
0.03125,4.880000000000001e-05,3.488262,1.0,BIX01294,Artenimol,245,plasmodium_falciparum_Dd2
0.03125,0.0,3.629911,1.0,BIX01294,Artenimol,245,plasmodium_falciparum_Dd2
0.015625,0.0125,-0.44831899999999997,1.0,BIX01294,Artenimol,245,plasmodium_falciparum_Dd2
0.015625,0.00625,0.225543,1.0,BIX01294,Artenimol,245,plasmodium_falciparum_Dd2
0.015625,0.003125,0.033366,1.0,BIX01294,Artenimol,245,plasmodium_falciparum_Dd2
0.015625,0.0015625,3.0624130000000003,1.0,BIX01294,Artenimol,245,plasmodium_falciparum_Dd2
0.015625,0.0007813000000000001,7.803665,1.0,BIX01294,Artenimol,245,plasmodium_falciparum_Dd2
0.015625,0.00039060000000000006,44.841057,1.0,BIX01294,Artenimol,245,plasmodium_falciparum_Dd2
0.015625,0.00019530000000000003,65.28872,1.0,BIX01294,Artenimol,245,plasmodium_falciparum_Dd2
0.015625,9.77e-05,78.04004,1.0,BIX01294,Artenimol,245,plasmodium_falciparum_Dd2
0.015625,4.880000000000001e-05,62.64165500000001,1.0,BIX01294,Artenimol,245,plasmodium_falciparum_Dd2
0.015625,0.0,55.15544499999999,1.0,BIX01294,Artenimol,245,plasmodium_falciparum_Dd2
0.0078125,0.0125,-0.8440770000000001,1.0,BIX01294,Artenimol,245,plasmodium_falciparum_Dd2
0.0078125,0.00625,-0.23412399999999997,1.0,BIX01294,Artenimol,245,plasmodium_falciparum_Dd2
0.0078125,0.003125,0.20358099999999998,1.0,BIX01294,Artenimol,245,plasmodium_falciparum_Dd2
0.0078125,0.0015625,2.507166,1.0,BIX01294,Artenimol,245,plasmodium_falciparum_Dd2
0.0078125,0.0007813000000000001,8.296358999999999,1.0,BIX01294,Artenimol,245,plasmodium_falciparum_Dd2
0.0078125,0.00039060000000000006,88.007675,1.0,BIX01294,Artenimol,245,plasmodium_falciparum_Dd2
0.0078125,0.00019530000000000003,89.99076,1.0,BIX01294,Artenimol,245,plasmodium_falciparum_Dd2
0.0078125,9.77e-05,103.78714000000001,1.0,BIX01294,Artenimol,245,plasmodium_falciparum_Dd2
0.0078125,4.880000000000001e-05,80.8536,1.0,BIX01294,Artenimol,245,plasmodium_falciparum_Dd2
0.0078125,0.0,89.50145,1.0,BIX01294,Artenimol,245,plasmodium_falciparum_Dd2
0.003906300000000001,0.0125,-0.746352,1.0,BIX01294,Artenimol,245,plasmodium_falciparum_Dd2
0.003906300000000001,0.00625,7.242942,1.0,BIX01294,Artenimol,245,plasmodium_falciparum_Dd2
0.003906300000000001,0.003125,-0.11810599999999999,1.0,BIX01294,Artenimol,245,plasmodium_falciparum_Dd2
0.003906300000000001,0.0015625,7.309617,1.0,BIX01294,Artenimol,245,plasmodium_falciparum_Dd2
0.003906300000000001,0.0007813000000000001,30.723831,1.0,BIX01294,Artenimol,245,plasmodium_falciparum_Dd2
0.003906300000000001,0.00039060000000000006,83.73049,1.0,BIX01294,Artenimol,245,plasmodium_falciparum_Dd2
0.003906300000000001,0.00019530000000000003,83.1657,1.0,BIX01294,Artenimol,245,plasmodium_falciparum_Dd2
0.003906300000000001,9.77e-05,106.16807,1.0,BIX01294,Artenimol,245,plasmodium_falciparum_Dd2
0.003906300000000001,4.880000000000001e-05,90.554924,1.0,BIX01294,Artenimol,245,plasmodium_falciparum_Dd2
0.003906300000000001,0.0,87.174835,1.0,BIX01294,Artenimol,245,plasmodium_falciparum_Dd2
0.0019531000000000001,0.0125,-1.456289,1.0,BIX01294,Artenimol,245,plasmodium_falciparum_Dd2
0.0019531000000000001,0.00625,0.698477,1.0,BIX01294,Artenimol,245,plasmodium_falciparum_Dd2
0.0019531000000000001,0.003125,-0.9676040000000001,1.0,BIX01294,Artenimol,245,plasmodium_falciparum_Dd2
0.0019531000000000001,0.0015625,4.223718,1.0,BIX01294,Artenimol,245,plasmodium_falciparum_Dd2
0.0019531000000000001,0.0007813000000000001,45.797256,1.0,BIX01294,Artenimol,245,plasmodium_falciparum_Dd2
0.0019531000000000001,0.00039060000000000006,93.091675,1.0,BIX01294,Artenimol,245,plasmodium_falciparum_Dd2
0.0019531000000000001,0.00019530000000000003,90.3483,1.0,BIX01294,Artenimol,245,plasmodium_falciparum_Dd2
0.0019531000000000001,9.77e-05,95.81145500000001,1.0,BIX01294,Artenimol,245,plasmodium_falciparum_Dd2
0.0019531000000000001,4.880000000000001e-05,94.78553000000001,1.0,BIX01294,Artenimol,245,plasmodium_falciparum_Dd2
0.0019531000000000001,0.0,97.47386,1.0,BIX01294,Artenimol,245,plasmodium_falciparum_Dd2
0.0009766,0.0125,-1.534086,1.0,BIX01294,Artenimol,245,plasmodium_falciparum_Dd2
0.0009766,0.00625,-0.147802,1.0,BIX01294,Artenimol,245,plasmodium_falciparum_Dd2
0.0009766,0.003125,0.651562,1.0,BIX01294,Artenimol,245,plasmodium_falciparum_Dd2
0.0009766,0.0015625,4.223944,1.0,BIX01294,Artenimol,245,plasmodium_falciparum_Dd2
0.0009766,0.0007813000000000001,24.887045,1.0,BIX01294,Artenimol,245,plasmodium_falciparum_Dd2
0.0009766,0.00039060000000000006,85.97932,1.0,BIX01294,Artenimol,245,plasmodium_falciparum_Dd2
0.0009766,0.00019530000000000003,101.118904,1.0,BIX01294,Artenimol,245,plasmodium_falciparum_Dd2
0.0009766,9.77e-05,98.16523000000001,1.0,BIX01294,Artenimol,245,plasmodium_falciparum_Dd2
0.0009766,4.880000000000001e-05,83.342636,1.0,BIX01294,Artenimol,245,plasmodium_falciparum_Dd2
0.0009766,0.0,105.50703,1.0,BIX01294,Artenimol,245,plasmodium_falciparum_Dd2
0.0,0.0125,-1.731683,1.0,BIX01294,Artenimol,245,plasmodium_falciparum_Dd2
0.0,0.00625,-0.448658,1.0,BIX01294,Artenimol,245,plasmodium_falciparum_Dd2
0.0,0.003125,-0.233729,1.0,BIX01294,Artenimol,245,plasmodium_falciparum_Dd2
0.0,0.0015625,4.247656,1.0,BIX01294,Artenimol,245,plasmodium_falciparum_Dd2
0.0,0.0007813000000000001,38.482162,1.0,BIX01294,Artenimol,245,plasmodium_falciparum_Dd2
0.0,0.00039060000000000006,74.84733,1.0,BIX01294,Artenimol,245,plasmodium_falciparum_Dd2
0.0,0.00019530000000000003,91.08793,1.0,BIX01294,Artenimol,245,plasmodium_falciparum_Dd2
0.0,9.77e-05,97.07596,1.0,BIX01294,Artenimol,245,plasmodium_falciparum_Dd2
0.0,4.880000000000001e-05,112.11658500000001,1.0,BIX01294,Artenimol,245,plasmodium_falciparum_Dd2
0.0,0.0,104.803696,1.0,BIX01294,Artenimol,245,plasmodium_falciparum_Dd2
