drug1.conc,drug2.conc,effect,effect.95ci,drug1,drug2,expt,sample
0.5,0.25,0.906913,1.0,BIX01294,Amodiaquine,117,plasmodium_falciparum_HB3
0.5,0.125,0.886972,1.0,BIX01294,Amodiaquine,117,plasmodium_falciparum_HB3
0.5,0.0625,0.549528,1.0,BIX01294,Amodiaquine,117,plasmodium_falciparum_HB3
0.5,0.03125,0.752368,1.0,BIX01294,Amodiaquine,117,plasmodium_falciparum_HB3
0.5,0.015625,0.698101,1.0,BIX01294,Amodiaquine,117,plasmodium_falciparum_HB3
0.5,0.0078125,1.094382,1.0,BIX01294,Amodiaquine,117,plasmodium_falciparum_HB3
0.5,0.00390625,1.404511,1.0,BIX01294,Amodiaquine,117,plasmodium_falciparum_HB3
0.5,0.001953125,1.481991,1.0,BIX01294,Amodiaquine,117,plasmodium_falciparum_HB3
0.5,0.000976625,1.006152,1.0,BIX01294,Amodiaquine,117,plasmodium_falciparum_HB3
0.5,0.0,1.072052,1.0,BIX01294,Amodiaquine,117,plasmodium_falciparum_HB3
0.25,0.25,1.2387489999999999,1.0,BIX01294,Amodiaquine,117,plasmodium_falciparum_HB3
0.25,0.125,1.372833,1.0,BIX01294,Amodiaquine,117,plasmodium_falciparum_HB3
0.25,0.0625,1.102743,1.0,BIX01294,Amodiaquine,117,plasmodium_falciparum_HB3
0.25,0.03125,1.082178,1.0,BIX01294,Amodiaquine,117,plasmodium_falciparum_HB3
0.25,0.015625,1.959699,1.0,BIX01294,Amodiaquine,117,plasmodium_falciparum_HB3
0.25,0.0078125,1.102587,1.0,BIX01294,Amodiaquine,117,plasmodium_falciparum_HB3
0.25,0.00390625,1.087943,1.0,BIX01294,Amodiaquine,117,plasmodium_falciparum_HB3
0.25,0.001953125,1.4640229999999999,1.0,BIX01294,Amodiaquine,117,plasmodium_falciparum_HB3
0.25,0.000976625,1.1716030000000002,1.0,BIX01294,Amodiaquine,117,plasmodium_falciparum_HB3
0.25,0.0,1.142677,1.0,BIX01294,Amodiaquine,117,plasmodium_falciparum_HB3
0.125,0.25,0.731648,1.0,BIX01294,Amodiaquine,117,plasmodium_falciparum_HB3
0.125,0.125,1.116349,1.0,BIX01294,Amodiaquine,117,plasmodium_falciparum_HB3
0.125,0.0625,0.7450979999999999,1.0,BIX01294,Amodiaquine,117,plasmodium_falciparum_HB3
0.125,0.03125,1.629317,1.0,BIX01294,Amodiaquine,117,plasmodium_falciparum_HB3
0.125,0.015625,1.689713,1.0,BIX01294,Amodiaquine,117,plasmodium_falciparum_HB3
0.125,0.0078125,1.444653,1.0,BIX01294,Amodiaquine,117,plasmodium_falciparum_HB3
0.125,0.00390625,1.900914,1.0,BIX01294,Amodiaquine,117,plasmodium_falciparum_HB3
0.125,0.001953125,1.612596,1.0,BIX01294,Amodiaquine,117,plasmodium_falciparum_HB3
0.125,0.000976625,1.68535,1.0,BIX01294,Amodiaquine,117,plasmodium_falciparum_HB3
0.125,0.0,1.522912,1.0,BIX01294,Amodiaquine,117,plasmodium_falciparum_HB3
0.0625,0.25,2.74094,1.0,BIX01294,Amodiaquine,117,plasmodium_falciparum_HB3
0.0625,0.125,2.968759,1.0,BIX01294,Amodiaquine,117,plasmodium_falciparum_HB3
0.0625,0.0625,4.894132,1.0,BIX01294,Amodiaquine,117,plasmodium_falciparum_HB3
0.0625,0.03125,6.0977239999999995,1.0,BIX01294,Amodiaquine,117,plasmodium_falciparum_HB3
0.0625,0.015625,8.030522999999999,1.0,BIX01294,Amodiaquine,117,plasmodium_falciparum_HB3
0.0625,0.0078125,10.832897,1.0,BIX01294,Amodiaquine,117,plasmodium_falciparum_HB3
0.0625,0.00390625,11.928889,1.0,BIX01294,Amodiaquine,117,plasmodium_falciparum_HB3
0.0625,0.001953125,12.436093,1.0,BIX01294,Amodiaquine,117,plasmodium_falciparum_HB3
0.0625,0.000976625,11.327638,1.0,BIX01294,Amodiaquine,117,plasmodium_falciparum_HB3
0.0625,0.0,11.278148,1.0,BIX01294,Amodiaquine,117,plasmodium_falciparum_HB3
0.03125,0.25,2.17952,1.0,BIX01294,Amodiaquine,117,plasmodium_falciparum_HB3
0.03125,0.125,4.03432,1.0,BIX01294,Amodiaquine,117,plasmodium_falciparum_HB3
0.03125,0.0625,14.754839000000002,1.0,BIX01294,Amodiaquine,117,plasmodium_falciparum_HB3
0.03125,0.03125,75.89109,1.0,BIX01294,Amodiaquine,117,plasmodium_falciparum_HB3
0.03125,0.015625,91.19234,1.0,BIX01294,Amodiaquine,117,plasmodium_falciparum_HB3
0.03125,0.0078125,91.92752,1.0,BIX01294,Amodiaquine,117,plasmodium_falciparum_HB3
0.03125,0.00390625,90.92130999999999,1.0,BIX01294,Amodiaquine,117,plasmodium_falciparum_HB3
0.03125,0.001953125,98.375824,1.0,BIX01294,Amodiaquine,117,plasmodium_falciparum_HB3
0.03125,0.000976625,100.66585500000001,1.0,BIX01294,Amodiaquine,117,plasmodium_falciparum_HB3
0.03125,0.0,92.292015,1.0,BIX01294,Amodiaquine,117,plasmodium_falciparum_HB3
0.015625,0.25,1.9049639999999999,1.0,BIX01294,Amodiaquine,117,plasmodium_falciparum_HB3
0.015625,0.125,5.1233010000000005,1.0,BIX01294,Amodiaquine,117,plasmodium_falciparum_HB3
0.015625,0.0625,46.10062,1.0,BIX01294,Amodiaquine,117,plasmodium_falciparum_HB3
0.015625,0.03125,94.52731,1.0,BIX01294,Amodiaquine,117,plasmodium_falciparum_HB3
0.015625,0.015625,99.65726,1.0,BIX01294,Amodiaquine,117,plasmodium_falciparum_HB3
0.015625,0.0078125,105.95107,1.0,BIX01294,Amodiaquine,117,plasmodium_falciparum_HB3
0.015625,0.00390625,103.13046999999999,1.0,BIX01294,Amodiaquine,117,plasmodium_falciparum_HB3
0.015625,0.001953125,100.59481,1.0,BIX01294,Amodiaquine,117,plasmodium_falciparum_HB3
0.015625,0.000976625,100.53763599999999,1.0,BIX01294,Amodiaquine,117,plasmodium_falciparum_HB3
0.015625,0.0,97.55631,1.0,BIX01294,Amodiaquine,117,plasmodium_falciparum_HB3
0.0078125,0.25,1.7672970000000001,1.0,BIX01294,Amodiaquine,117,plasmodium_falciparum_HB3
0.0078125,0.125,8.488861,1.0,BIX01294,Amodiaquine,117,plasmodium_falciparum_HB3
0.0078125,0.0625,84.318565,1.0,BIX01294,Amodiaquine,117,plasmodium_falciparum_HB3
0.0078125,0.03125,102.819405,1.0,BIX01294,Amodiaquine,117,plasmodium_falciparum_HB3
0.0078125,0.015625,106.62933000000001,1.0,BIX01294,Amodiaquine,117,plasmodium_falciparum_HB3
0.0078125,0.0078125,100.62353,1.0,BIX01294,Amodiaquine,117,plasmodium_falciparum_HB3
0.0078125,0.00390625,99.224106,1.0,BIX01294,Amodiaquine,117,plasmodium_falciparum_HB3
0.0078125,0.001953125,101.56155,1.0,BIX01294,Amodiaquine,117,plasmodium_falciparum_HB3
0.0078125,0.000976625,102.53239,1.0,BIX01294,Amodiaquine,117,plasmodium_falciparum_HB3
0.0078125,0.0,99.08665,1.0,BIX01294,Amodiaquine,117,plasmodium_falciparum_HB3
0.00390625,0.25,1.997452,1.0,BIX01294,Amodiaquine,117,plasmodium_falciparum_HB3
0.00390625,0.125,36.203148,1.0,BIX01294,Amodiaquine,117,plasmodium_falciparum_HB3
0.00390625,0.0625,98.65703,1.0,BIX01294,Amodiaquine,117,plasmodium_falciparum_HB3
0.00390625,0.03125,103.47716,1.0,BIX01294,Amodiaquine,117,plasmodium_falciparum_HB3
0.00390625,0.015625,109.163284,1.0,BIX01294,Amodiaquine,117,plasmodium_falciparum_HB3
0.00390625,0.0078125,101.981094,1.0,BIX01294,Amodiaquine,117,plasmodium_falciparum_HB3
0.00390625,0.00390625,102.67732,1.0,BIX01294,Amodiaquine,117,plasmodium_falciparum_HB3
0.00390625,0.001953125,103.42299999999999,1.0,BIX01294,Amodiaquine,117,plasmodium_falciparum_HB3
0.00390625,0.000976625,102.36121999999999,1.0,BIX01294,Amodiaquine,117,plasmodium_falciparum_HB3
0.00390625,0.0,97.477165,1.0,BIX01294,Amodiaquine,117,plasmodium_falciparum_HB3
0.001953125,0.25,2.16472,1.0,BIX01294,Amodiaquine,117,plasmodium_falciparum_HB3
0.001953125,0.125,43.215782,1.0,BIX01294,Amodiaquine,117,plasmodium_falciparum_HB3
0.001953125,0.0625,99.07688,1.0,BIX01294,Amodiaquine,117,plasmodium_falciparum_HB3
0.001953125,0.03125,102.43507,1.0,BIX01294,Amodiaquine,117,plasmodium_falciparum_HB3
0.001953125,0.015625,105.80292,1.0,BIX01294,Amodiaquine,117,plasmodium_falciparum_HB3
0.001953125,0.0078125,101.8629,1.0,BIX01294,Amodiaquine,117,plasmodium_falciparum_HB3
0.001953125,0.00390625,98.05713,1.0,BIX01294,Amodiaquine,117,plasmodium_falciparum_HB3
0.001953125,0.001953125,102.6012,1.0,BIX01294,Amodiaquine,117,plasmodium_falciparum_HB3
0.001953125,0.000976625,103.6249,1.0,BIX01294,Amodiaquine,117,plasmodium_falciparum_HB3
0.001953125,0.0,96.44038,1.0,BIX01294,Amodiaquine,117,plasmodium_falciparum_HB3
0.0,0.25,3.3579779999999997,1.0,BIX01294,Amodiaquine,117,plasmodium_falciparum_HB3
0.0,0.125,60.3575,1.0,BIX01294,Amodiaquine,117,plasmodium_falciparum_HB3
0.0,0.0625,98.92426,1.0,BIX01294,Amodiaquine,117,plasmodium_falciparum_HB3
0.0,0.03125,106.06806999999999,1.0,BIX01294,Amodiaquine,117,plasmodium_falciparum_HB3
0.0,0.015625,103.640945,1.0,BIX01294,Amodiaquine,117,plasmodium_falciparum_HB3
0.0,0.0078125,101.97414,1.0,BIX01294,Amodiaquine,117,plasmodium_falciparum_HB3
0.0,0.00390625,102.85285,1.0,BIX01294,Amodiaquine,117,plasmodium_falciparum_HB3
0.0,0.001953125,103.43863,1.0,BIX01294,Amodiaquine,117,plasmodium_falciparum_HB3
0.0,0.000976625,107.01144,1.0,BIX01294,Amodiaquine,117,plasmodium_falciparum_HB3
0.0,0.0,108.53492,1.0,BIX01294,Amodiaquine,117,plasmodium_falciparum_HB3
