drug1.conc,drug2.conc,effect,effect.95ci,drug1,drug2,expt,sample
10.0,0.025,-18.169634,1.0,Calhex231,Artenimol,25,plasmodium_falciparum_3D7
10.0,0.00625,-8.916722,1.0,Calhex231,Artenimol,25,plasmodium_falciparum_3D7
10.0,0.003125,14.919798000000002,1.0,Calhex231,Artenimol,25,plasmodium_falciparum_3D7
10.0,0.0015625,12.922435,1.0,Calhex231,Artenimol,25,plasmodium_falciparum_3D7
10.0,0.00078125,66.02505,1.0,Calhex231,Artenimol,25,plasmodium_falciparum_3D7
10.0,0.000390625,82.12701,1.0,Calhex231,Artenimol,25,plasmodium_falciparum_3D7
10.0,0.000195375,75.24061,1.0,Calhex231,Artenimol,25,plasmodium_falciparum_3D7
10.0,9.7625e-05,78.13887,1.0,Calhex231,Artenimol,25,plasmodium_falciparum_3D7
10.0,0.0,66.47330500000001,1.0,Calhex231,Artenimol,25,plasmodium_falciparum_3D7
5.0,0.025,-8.791474000000001,1.0,Calhex231,Artenimol,25,plasmodium_falciparum_3D7
5.0,0.0125,-6.003076,1.0,Calhex231,Artenimol,25,plasmodium_falciparum_3D7
5.0,0.00625,-18.433311,1.0,Calhex231,Artenimol,25,plasmodium_falciparum_3D7
5.0,0.003125,8.809053,1.0,Calhex231,Artenimol,25,plasmodium_falciparum_3D7
5.0,0.0015625,48.268513,1.0,Calhex231,Artenimol,25,plasmodium_falciparum_3D7
5.0,0.00078125,64.08261999999999,1.0,Calhex231,Artenimol,25,plasmodium_falciparum_3D7
5.0,0.000390625,47.174248,1.0,Calhex231,Artenimol,25,plasmodium_falciparum_3D7
5.0,0.000195375,64.724236,1.0,Calhex231,Artenimol,25,plasmodium_falciparum_3D7
5.0,9.7625e-05,100.4065,1.0,Calhex231,Artenimol,25,plasmodium_falciparum_3D7
5.0,0.0,78.14766,1.0,Calhex231,Artenimol,25,plasmodium_falciparum_3D7
2.5,0.025,-8.694792,1.0,Calhex231,Artenimol,25,plasmodium_falciparum_3D7
2.5,0.0125,-13.988134,1.0,Calhex231,Artenimol,25,plasmodium_falciparum_3D7
2.5,0.00625,-18.143265,1.0,Calhex231,Artenimol,25,plasmodium_falciparum_3D7
2.5,0.003125,14.416611999999999,1.0,Calhex231,Artenimol,25,plasmodium_falciparum_3D7
2.5,0.0015625,39.2617,1.0,Calhex231,Artenimol,25,plasmodium_falciparum_3D7
2.5,0.00078125,101.35574,1.0,Calhex231,Artenimol,25,plasmodium_falciparum_3D7
2.5,0.000390625,103.65854,1.0,Calhex231,Artenimol,25,plasmodium_falciparum_3D7
2.5,0.000195375,41.911667,1.0,Calhex231,Artenimol,25,plasmodium_falciparum_3D7
2.5,9.7625e-05,92.04351,1.0,Calhex231,Artenimol,25,plasmodium_falciparum_3D7
2.5,0.0,80.14282,1.0,Calhex231,Artenimol,25,plasmodium_falciparum_3D7
1.25,0.025,1.742474,1.0,Calhex231,Artenimol,25,plasmodium_falciparum_3D7
1.25,0.0125,-4.10679,1.0,Calhex231,Artenimol,25,plasmodium_falciparum_3D7
1.25,0.00625,0.788838,1.0,Calhex231,Artenimol,25,plasmodium_falciparum_3D7
1.25,0.003125,34.537464,1.0,Calhex231,Artenimol,25,plasmodium_falciparum_3D7
1.25,0.0015625,68.35200999999999,1.0,Calhex231,Artenimol,25,plasmodium_falciparum_3D7
1.25,0.00078125,40.23511,1.0,Calhex231,Artenimol,25,plasmodium_falciparum_3D7
1.25,0.000195375,109.96704,1.0,Calhex231,Artenimol,25,plasmodium_falciparum_3D7
1.25,9.7625e-05,87.73895999999999,1.0,Calhex231,Artenimol,25,plasmodium_falciparum_3D7
1.25,0.0,85.53944399999999,1.0,Calhex231,Artenimol,25,plasmodium_falciparum_3D7
0.625,0.025,-14.355087,1.0,Calhex231,Artenimol,25,plasmodium_falciparum_3D7
0.625,0.0125,-12.790595,1.0,Calhex231,Artenimol,25,plasmodium_falciparum_3D7
0.625,0.00625,-13.403648,1.0,Calhex231,Artenimol,25,plasmodium_falciparum_3D7
0.625,0.003125,13.783783999999999,1.0,Calhex231,Artenimol,25,plasmodium_falciparum_3D7
0.625,0.0015625,57.620304000000004,1.0,Calhex231,Artenimol,25,plasmodium_falciparum_3D7
0.625,0.00078125,72.47858000000001,1.0,Calhex231,Artenimol,25,plasmodium_falciparum_3D7
0.625,0.000195375,39.938477,1.0,Calhex231,Artenimol,25,plasmodium_falciparum_3D7
0.625,9.7625e-05,70.04834,1.0,Calhex231,Artenimol,25,plasmodium_falciparum_3D7
0.625,0.0,71.37331999999999,1.0,Calhex231,Artenimol,25,plasmodium_falciparum_3D7
0.3125,0.025,-13.216875,1.0,Calhex231,Artenimol,25,plasmodium_falciparum_3D7
0.3125,0.0125,-2.072072,1.0,Calhex231,Artenimol,25,plasmodium_falciparum_3D7
0.3125,0.00625,-12.019336000000001,1.0,Calhex231,Artenimol,25,plasmodium_falciparum_3D7
0.3125,0.003125,0.11645799999999999,1.0,Calhex231,Artenimol,25,plasmodium_falciparum_3D7
0.3125,0.0015625,65.74379,1.0,Calhex231,Artenimol,25,plasmodium_falciparum_3D7
0.3125,0.00078125,79.437485,1.0,Calhex231,Artenimol,25,plasmodium_falciparum_3D7
0.3125,0.000390625,89.48801999999999,1.0,Calhex231,Artenimol,25,plasmodium_falciparum_3D7
0.3125,0.000195375,60.27906,1.0,Calhex231,Artenimol,25,plasmodium_falciparum_3D7
0.3125,0.0,64.62975,1.0,Calhex231,Artenimol,25,plasmodium_falciparum_3D7
0.15625,0.025,1.320589,1.0,Calhex231,Artenimol,25,plasmodium_falciparum_3D7
0.15625,0.0125,-7.824654,1.0,Calhex231,Artenimol,25,plasmodium_falciparum_3D7
0.15625,0.00625,1.970995,1.0,Calhex231,Artenimol,25,plasmodium_falciparum_3D7
0.15625,0.003125,15.92617,1.0,Calhex231,Artenimol,25,plasmodium_falciparum_3D7
0.15625,0.0015625,27.365414,1.0,Calhex231,Artenimol,25,plasmodium_falciparum_3D7
0.15625,0.00078125,65.04944,1.0,Calhex231,Artenimol,25,plasmodium_falciparum_3D7
0.15625,0.000390625,59.18699300000001,1.0,Calhex231,Artenimol,25,plasmodium_falciparum_3D7
0.15625,0.000195375,81.74906999999999,1.0,Calhex231,Artenimol,25,plasmodium_falciparum_3D7
0.15625,9.7625e-05,88.6113,1.0,Calhex231,Artenimol,25,plasmodium_falciparum_3D7
0.15625,0.0,76.90178,1.0,Calhex231,Artenimol,25,plasmodium_falciparum_3D7
0.078125,0.025,-2.6939130000000002,1.0,Calhex231,Artenimol,25,plasmodium_falciparum_3D7
0.078125,0.0125,3.102615,1.0,Calhex231,Artenimol,25,plasmodium_falciparum_3D7
0.078125,0.00625,13.553065,1.0,Calhex231,Artenimol,25,plasmodium_falciparum_3D7
0.078125,0.003125,22.214897,1.0,Calhex231,Artenimol,25,plasmodium_falciparum_3D7
0.078125,0.0015625,50.329597,1.0,Calhex231,Artenimol,25,plasmodium_falciparum_3D7
0.078125,0.00078125,41.84575,1.0,Calhex231,Artenimol,25,plasmodium_falciparum_3D7
0.078125,0.000390625,60.49,1.0,Calhex231,Artenimol,25,plasmodium_falciparum_3D7
0.078125,0.000195375,95.40320600000001,1.0,Calhex231,Artenimol,25,plasmodium_falciparum_3D7
0.078125,9.7625e-05,47.448914,1.0,Calhex231,Artenimol,25,plasmodium_falciparum_3D7
0.078125,0.0,101.34255999999999,1.0,Calhex231,Artenimol,25,plasmodium_falciparum_3D7
0.0390625,0.025,35.67787,1.0,Calhex231,Artenimol,25,plasmodium_falciparum_3D7
0.0390625,0.0125,28.242146,1.0,Calhex231,Artenimol,25,plasmodium_falciparum_3D7
0.0390625,0.00625,12.247858,1.0,Calhex231,Artenimol,25,plasmodium_falciparum_3D7
0.0390625,0.003125,56.062405000000005,1.0,Calhex231,Artenimol,25,plasmodium_falciparum_3D7
0.0390625,0.0015625,82.00835,1.0,Calhex231,Artenimol,25,plasmodium_falciparum_3D7
0.0,0.025,23.610195,1.0,Calhex231,Artenimol,25,plasmodium_falciparum_3D7
0.0,0.0125,27.209406,1.0,Calhex231,Artenimol,25,plasmodium_falciparum_3D7
0.0,0.00625,75.23182,1.0,Calhex231,Artenimol,25,plasmodium_falciparum_3D7
0.0,0.003125,82.66755,1.0,Calhex231,Artenimol,25,plasmodium_falciparum_3D7
0.0,0.0015625,89.93628000000001,1.0,Calhex231,Artenimol,25,plasmodium_falciparum_3D7
0.0,0.000390625,118.99583,1.0,Calhex231,Artenimol,25,plasmodium_falciparum_3D7
