drug1.conc,drug2.conc,effect,effect.95ci,drug1,drug2,expt,sample
0.1,0.05,81.58818000000001,1.0,Carfilzomib,ML238,74,plasmodium_falciparum_3D7
0.1,0.0,117.31775,1.0,Carfilzomib,ML238,74,plasmodium_falciparum_3D7
0.025,0.05,89.26436600000001,1.0,Carfilzomib,ML238,74,plasmodium_falciparum_3D7
0.025,0.025,71.65765999999999,1.0,Carfilzomib,ML238,74,plasmodium_falciparum_3D7
0.025,0.0125,105.45936,1.0,Carfilzomib,ML238,74,plasmodium_falciparum_3D7
0.025,0.003125,92.286316,1.0,Carfilzomib,ML238,74,plasmodium_falciparum_3D7
0.025,0.0015625,108.52542,1.0,Carfilzomib,ML238,74,plasmodium_falciparum_3D7
0.025,0.000195375,100.40587,1.0,Carfilzomib,ML238,74,plasmodium_falciparum_3D7
0.025,0.0,111.21208999999999,1.0,Carfilzomib,ML238,74,plasmodium_falciparum_3D7
0.0125,0.025,91.975296,1.0,Carfilzomib,ML238,74,plasmodium_falciparum_3D7
0.0125,0.003125,115.149445,1.0,Carfilzomib,ML238,74,plasmodium_falciparum_3D7
0.00625,0.000390625,112.05691000000002,1.0,Carfilzomib,ML238,74,plasmodium_falciparum_3D7
0.003125,0.05,102.39990999999999,1.0,Carfilzomib,ML238,74,plasmodium_falciparum_3D7
0.003125,0.025,113.25246000000001,1.0,Carfilzomib,ML238,74,plasmodium_falciparum_3D7
0.003125,0.0015625,114.04213,1.0,Carfilzomib,ML238,74,plasmodium_falciparum_3D7
0.003125,0.000390625,114.522995,1.0,Carfilzomib,ML238,74,plasmodium_falciparum_3D7
0.003125,0.000195375,87.02768,1.0,Carfilzomib,ML238,74,plasmodium_falciparum_3D7
0.0015625,0.05,111.898094,1.0,Carfilzomib,ML238,74,plasmodium_falciparum_3D7
0.0015625,0.025,113.67376000000002,1.0,Carfilzomib,ML238,74,plasmodium_falciparum_3D7
0.0015625,0.000390625,114.54064,1.0,Carfilzomib,ML238,74,plasmodium_falciparum_3D7
0.0015625,0.0,117.22951499999999,1.0,Carfilzomib,ML238,74,plasmodium_falciparum_3D7
0.000390625,0.05,116.8435,1.0,Carfilzomib,ML238,74,plasmodium_falciparum_3D7
0.000390625,0.00625,85.591705,1.0,Carfilzomib,ML238,74,plasmodium_falciparum_3D7
0.000390625,0.003125,91.664276,1.0,Carfilzomib,ML238,74,plasmodium_falciparum_3D7
0.000390625,0.0015625,116.52807,1.0,Carfilzomib,ML238,74,plasmodium_falciparum_3D7
0.000390625,0.000390625,107.93206,1.0,Carfilzomib,ML238,74,plasmodium_falciparum_3D7
0.000390625,0.0,104.530716,1.0,Carfilzomib,ML238,74,plasmodium_falciparum_3D7
