drug1.conc,drug2.conc,effect,effect.95ci,drug1,drug2,expt,sample
0.75,0.025,-0.9471809999999999,1.0,Emetine,Artenimol,34,plasmodium_falciparum_HB3
0.75,0.0125,-0.292804,1.0,Emetine,Artenimol,34,plasmodium_falciparum_HB3
0.75,0.00625,0.109749,1.0,Emetine,Artenimol,34,plasmodium_falciparum_HB3
0.75,0.003125,0.8322120000000001,1.0,Emetine,Artenimol,34,plasmodium_falciparum_HB3
0.75,0.0015625,1.465547,1.0,Emetine,Artenimol,34,plasmodium_falciparum_HB3
0.75,0.00078125,2.421219,1.0,Emetine,Artenimol,34,plasmodium_falciparum_HB3
0.75,0.000390625,2.210055,1.0,Emetine,Artenimol,34,plasmodium_falciparum_HB3
0.75,0.000195375,2.10268,1.0,Emetine,Artenimol,34,plasmodium_falciparum_HB3
0.75,9.7625e-05,2.2326799999999998,1.0,Emetine,Artenimol,34,plasmodium_falciparum_HB3
0.75,0.0,2.5547,1.0,Emetine,Artenimol,34,plasmodium_falciparum_HB3
0.375,0.025,-0.365266,1.0,Emetine,Artenimol,34,plasmodium_falciparum_HB3
0.375,0.0125,0.23220700000000002,1.0,Emetine,Artenimol,34,plasmodium_falciparum_HB3
0.375,0.00625,1.029823,1.0,Emetine,Artenimol,34,plasmodium_falciparum_HB3
0.375,0.003125,3.5930660000000003,1.0,Emetine,Artenimol,34,plasmodium_falciparum_HB3
0.375,0.0015625,5.637101,1.0,Emetine,Artenimol,34,plasmodium_falciparum_HB3
0.375,0.00078125,6.274075,1.0,Emetine,Artenimol,34,plasmodium_falciparum_HB3
0.375,0.000390625,5.1409910000000005,1.0,Emetine,Artenimol,34,plasmodium_falciparum_HB3
0.375,0.000195375,4.7081669999999995,1.0,Emetine,Artenimol,34,plasmodium_falciparum_HB3
0.375,9.7625e-05,4.370483,1.0,Emetine,Artenimol,34,plasmodium_falciparum_HB3
0.375,0.0,4.748616999999999,1.0,Emetine,Artenimol,34,plasmodium_falciparum_HB3
0.1875,0.025,-0.102365,1.0,Emetine,Artenimol,34,plasmodium_falciparum_HB3
0.1875,0.0125,0.516309,1.0,Emetine,Artenimol,34,plasmodium_falciparum_HB3
0.1875,0.00625,1.313713,1.0,Emetine,Artenimol,34,plasmodium_falciparum_HB3
0.1875,0.003125,4.383193,1.0,Emetine,Artenimol,34,plasmodium_falciparum_HB3
0.1875,0.0015625,14.21616,1.0,Emetine,Artenimol,34,plasmodium_falciparum_HB3
0.1875,0.00078125,20.253756,1.0,Emetine,Artenimol,34,plasmodium_falciparum_HB3
0.1875,0.000390625,20.671339,1.0,Emetine,Artenimol,34,plasmodium_falciparum_HB3
0.1875,0.000195375,19.110441,1.0,Emetine,Artenimol,34,plasmodium_falciparum_HB3
0.1875,9.7625e-05,19.201836,1.0,Emetine,Artenimol,34,plasmodium_falciparum_HB3
0.1875,0.0,16.515342999999998,1.0,Emetine,Artenimol,34,plasmodium_falciparum_HB3
0.09375,0.025,-0.054215,1.0,Emetine,Artenimol,34,plasmodium_falciparum_HB3
0.09375,0.0125,0.308256,1.0,Emetine,Artenimol,34,plasmodium_falciparum_HB3
0.09375,0.00625,0.960102,1.0,Emetine,Artenimol,34,plasmodium_falciparum_HB3
0.09375,0.003125,8.928082,1.0,Emetine,Artenimol,34,plasmodium_falciparum_HB3
0.09375,0.0015625,40.456512,1.0,Emetine,Artenimol,34,plasmodium_falciparum_HB3
0.09375,0.00078125,68.25397,1.0,Emetine,Artenimol,34,plasmodium_falciparum_HB3
0.09375,0.000390625,73.96590400000001,1.0,Emetine,Artenimol,34,plasmodium_falciparum_HB3
0.09375,0.000195375,75.39580500000001,1.0,Emetine,Artenimol,34,plasmodium_falciparum_HB3
0.09375,9.7625e-05,72.9605,1.0,Emetine,Artenimol,34,plasmodium_falciparum_HB3
0.09375,0.0,72.794426,1.0,Emetine,Artenimol,34,plasmodium_falciparum_HB3
0.046875,0.025,-0.646995,1.0,Emetine,Artenimol,34,plasmodium_falciparum_HB3
0.046875,0.0125,0.150146,1.0,Emetine,Artenimol,34,plasmodium_falciparum_HB3
0.046875,0.00625,0.687287,1.0,Emetine,Artenimol,34,plasmodium_falciparum_HB3
0.046875,0.003125,9.022958000000001,1.0,Emetine,Artenimol,34,plasmodium_falciparum_HB3
0.046875,0.0015625,36.82558,1.0,Emetine,Artenimol,34,plasmodium_falciparum_HB3
0.046875,0.00078125,64.79048,1.0,Emetine,Artenimol,34,plasmodium_falciparum_HB3
0.046875,0.000390625,94.40958,1.0,Emetine,Artenimol,34,plasmodium_falciparum_HB3
0.046875,0.000195375,97.36334000000001,1.0,Emetine,Artenimol,34,plasmodium_falciparum_HB3
0.046875,9.7625e-05,90.60276,1.0,Emetine,Artenimol,34,plasmodium_falciparum_HB3
0.046875,0.0,96.23253000000001,1.0,Emetine,Artenimol,34,plasmodium_falciparum_HB3
0.0234375,0.025,-0.225879,1.0,Emetine,Artenimol,34,plasmodium_falciparum_HB3
0.0234375,0.0125,0.312053,1.0,Emetine,Artenimol,34,plasmodium_falciparum_HB3
0.0234375,0.00625,0.8451850000000001,1.0,Emetine,Artenimol,34,plasmodium_falciparum_HB3
0.0234375,0.003125,8.939051,1.0,Emetine,Artenimol,34,plasmodium_falciparum_HB3
0.0234375,0.0015625,37.198547,1.0,Emetine,Artenimol,34,plasmodium_falciparum_HB3
0.0234375,0.00078125,67.10037,1.0,Emetine,Artenimol,34,plasmodium_falciparum_HB3
0.0234375,0.000390625,92.53535500000001,1.0,Emetine,Artenimol,34,plasmodium_falciparum_HB3
0.0234375,0.000195375,98.74757,1.0,Emetine,Artenimol,34,plasmodium_falciparum_HB3
0.0234375,9.7625e-05,99.53674000000001,1.0,Emetine,Artenimol,34,plasmodium_falciparum_HB3
0.0234375,0.0,102.718925,1.0,Emetine,Artenimol,34,plasmodium_falciparum_HB3
0.01171875,0.025,-0.8655950000000001,1.0,Emetine,Artenimol,34,plasmodium_falciparum_HB3
0.01171875,0.0125,0.06239,1.0,Emetine,Artenimol,34,plasmodium_falciparum_HB3
0.01171875,0.00625,1.0718020000000001,1.0,Emetine,Artenimol,34,plasmodium_falciparum_HB3
0.01171875,0.003125,9.315603,1.0,Emetine,Artenimol,34,plasmodium_falciparum_HB3
0.01171875,0.0015625,43.070809999999994,1.0,Emetine,Artenimol,34,plasmodium_falciparum_HB3
0.01171875,0.00078125,78.46011,1.0,Emetine,Artenimol,34,plasmodium_falciparum_HB3
0.01171875,0.000390625,88.524284,1.0,Emetine,Artenimol,34,plasmodium_falciparum_HB3
0.01171875,0.000195375,100.77504,1.0,Emetine,Artenimol,34,plasmodium_falciparum_HB3
0.01171875,9.7625e-05,99.772964,1.0,Emetine,Artenimol,34,plasmodium_falciparum_HB3
0.01171875,0.0,100.10374,1.0,Emetine,Artenimol,34,plasmodium_falciparum_HB3
0.005859375,0.025,-0.522216,1.0,Emetine,Artenimol,34,plasmodium_falciparum_HB3
0.005859375,0.0125,0.15768800000000002,1.0,Emetine,Artenimol,34,plasmodium_falciparum_HB3
0.005859375,0.00625,1.7381520000000001,1.0,Emetine,Artenimol,34,plasmodium_falciparum_HB3
0.005859375,0.003125,6.3065620000000004,1.0,Emetine,Artenimol,34,plasmodium_falciparum_HB3
0.005859375,0.0015625,45.813786,1.0,Emetine,Artenimol,34,plasmodium_falciparum_HB3
0.005859375,0.00078125,73.80769000000001,1.0,Emetine,Artenimol,34,plasmodium_falciparum_HB3
0.005859375,0.000390625,102.18004599999999,1.0,Emetine,Artenimol,34,plasmodium_falciparum_HB3
0.005859375,0.000195375,99.098015,1.0,Emetine,Artenimol,34,plasmodium_falciparum_HB3
0.005859375,9.7625e-05,99.87127,1.0,Emetine,Artenimol,34,plasmodium_falciparum_HB3
0.005859375,0.0,102.85541500000001,1.0,Emetine,Artenimol,34,plasmodium_falciparum_HB3
0.00292975,0.025,-0.06239,1.0,Emetine,Artenimol,34,plasmodium_falciparum_HB3
0.00292975,0.0125,0.17846700000000001,1.0,Emetine,Artenimol,34,plasmodium_falciparum_HB3
0.00292975,0.00625,0.717348,1.0,Emetine,Artenimol,34,plasmodium_falciparum_HB3
0.00292975,0.003125,6.430919,1.0,Emetine,Artenimol,34,plasmodium_falciparum_HB3
0.00292975,0.0015625,40.109493,1.0,Emetine,Artenimol,34,plasmodium_falciparum_HB3
0.00292975,0.00078125,68.240944,1.0,Emetine,Artenimol,34,plasmodium_falciparum_HB3
0.00292975,0.000390625,92.99006999999999,1.0,Emetine,Artenimol,34,plasmodium_falciparum_HB3
0.00292975,0.000195375,104.29955,1.0,Emetine,Artenimol,34,plasmodium_falciparum_HB3
0.00292975,9.7625e-05,101.31371,1.0,Emetine,Artenimol,34,plasmodium_falciparum_HB3
0.00292975,0.0,98.74699,1.0,Emetine,Artenimol,34,plasmodium_falciparum_HB3
0.0,0.025,-0.103315,1.0,Emetine,Artenimol,34,plasmodium_falciparum_HB3
0.0,0.0125,0.039923,1.0,Emetine,Artenimol,34,plasmodium_falciparum_HB3
0.0,0.00625,1.128127,1.0,Emetine,Artenimol,34,plasmodium_falciparum_HB3
0.0,0.003125,8.110215,1.0,Emetine,Artenimol,34,plasmodium_falciparum_HB3
0.0,0.0015625,37.354282,1.0,Emetine,Artenimol,34,plasmodium_falciparum_HB3
0.0,0.00078125,71.54896,1.0,Emetine,Artenimol,34,plasmodium_falciparum_HB3
0.0,0.000390625,98.36374,1.0,Emetine,Artenimol,34,plasmodium_falciparum_HB3
0.0,0.000195375,102.317955,1.0,Emetine,Artenimol,34,plasmodium_falciparum_HB3
0.0,9.7625e-05,99.7487,1.0,Emetine,Artenimol,34,plasmodium_falciparum_HB3
0.0,0.0,99.91245,1.0,Emetine,Artenimol,34,plasmodium_falciparum_HB3
