drug1.conc,drug2.conc,effect,effect.95ci,drug1,drug2,expt,sample
0.375,0.025,-0.14015899999999998,1.0,Emetine,Artemether,42,plasmodium_falciparum_HB3
0.375,0.0125,0.44586000000000003,1.0,Emetine,Artemether,42,plasmodium_falciparum_HB3
0.375,0.00625,1.7404939999999998,1.0,Emetine,Artemether,42,plasmodium_falciparum_HB3
0.375,0.003125,2.262727,1.0,Emetine,Artemether,42,plasmodium_falciparum_HB3
0.375,0.0015625,2.185505,1.0,Emetine,Artemether,42,plasmodium_falciparum_HB3
0.375,0.0007813000000000001,1.57305,1.0,Emetine,Artemether,42,plasmodium_falciparum_HB3
0.375,0.00039060000000000006,2.127107,1.0,Emetine,Artemether,42,plasmodium_falciparum_HB3
0.375,0.00019530000000000003,2.273022,1.0,Emetine,Artemether,42,plasmodium_falciparum_HB3
0.375,9.77e-05,1.7942369999999999,1.0,Emetine,Artemether,42,plasmodium_falciparum_HB3
0.375,0.0,1.9041549999999998,1.0,Emetine,Artemether,42,plasmodium_falciparum_HB3
0.1875,0.025,-0.15595699999999998,1.0,Emetine,Artemether,42,plasmodium_falciparum_HB3
0.1875,0.0125,0.619975,1.0,Emetine,Artemether,42,plasmodium_falciparum_HB3
0.1875,0.00625,1.7821310000000001,1.0,Emetine,Artemether,42,plasmodium_falciparum_HB3
0.1875,0.003125,3.5603190000000002,1.0,Emetine,Artemether,42,plasmodium_falciparum_HB3
0.1875,0.0015625,3.630296,1.0,Emetine,Artemether,42,plasmodium_falciparum_HB3
0.1875,0.0007813000000000001,4.25786,1.0,Emetine,Artemether,42,plasmodium_falciparum_HB3
0.1875,0.00039060000000000006,3.7469080000000003,1.0,Emetine,Artemether,42,plasmodium_falciparum_HB3
0.1875,0.00019530000000000003,5.3957809999999995,1.0,Emetine,Artemether,42,plasmodium_falciparum_HB3
0.1875,9.77e-05,3.520722,1.0,Emetine,Artemether,42,plasmodium_falciparum_HB3
0.1875,0.0,3.594299,1.0,Emetine,Artemether,42,plasmodium_falciparum_HB3
0.09375,0.025,0.059613,1.0,Emetine,Artemether,42,plasmodium_falciparum_HB3
0.09375,0.0125,0.29231,1.0,Emetine,Artemether,42,plasmodium_falciparum_HB3
0.09375,0.00625,10.010311,1.0,Emetine,Artemether,42,plasmodium_falciparum_HB3
0.09375,0.003125,18.766545999999998,1.0,Emetine,Artemether,42,plasmodium_falciparum_HB3
0.09375,0.0015625,24.964788000000002,1.0,Emetine,Artemether,42,plasmodium_falciparum_HB3
0.09375,0.0007813000000000001,22.64387,1.0,Emetine,Artemether,42,plasmodium_falciparum_HB3
0.09375,0.00039060000000000006,35.132683,1.0,Emetine,Artemether,42,plasmodium_falciparum_HB3
0.09375,0.00019530000000000003,31.89095,1.0,Emetine,Artemether,42,plasmodium_falciparum_HB3
0.09375,9.77e-05,34.135838,1.0,Emetine,Artemether,42,plasmodium_falciparum_HB3
0.09375,0.0,25.992495,1.0,Emetine,Artemether,42,plasmodium_falciparum_HB3
0.046875,0.025,0.203624,1.0,Emetine,Artemether,42,plasmodium_falciparum_HB3
0.046875,0.0125,0.30086199999999996,1.0,Emetine,Artemether,42,plasmodium_falciparum_HB3
0.046875,0.00625,16.681467,1.0,Emetine,Artemether,42,plasmodium_falciparum_HB3
0.046875,0.003125,83.36668399999999,1.0,Emetine,Artemether,42,plasmodium_falciparum_HB3
0.046875,0.0015625,102.793236,1.0,Emetine,Artemether,42,plasmodium_falciparum_HB3
0.046875,0.0007813000000000001,97.02598,1.0,Emetine,Artemether,42,plasmodium_falciparum_HB3
0.046875,0.00039060000000000006,98.63946999999999,1.0,Emetine,Artemether,42,plasmodium_falciparum_HB3
0.046875,0.00019530000000000003,108.2227,1.0,Emetine,Artemether,42,plasmodium_falciparum_HB3
0.046875,9.77e-05,101.93165,1.0,Emetine,Artemether,42,plasmodium_falciparum_HB3
0.046875,0.0,105.0575,1.0,Emetine,Artemether,42,plasmodium_falciparum_HB3
0.0234375,0.025,1.2791350000000001,1.0,Emetine,Artemether,42,plasmodium_falciparum_HB3
0.0234375,0.0125,0.544198,1.0,Emetine,Artemether,42,plasmodium_falciparum_HB3
0.0234375,0.00625,16.857922,1.0,Emetine,Artemether,42,plasmodium_falciparum_HB3
0.0234375,0.003125,86.30735,1.0,Emetine,Artemether,42,plasmodium_falciparum_HB3
0.0234375,0.0015625,99.30731999999999,1.0,Emetine,Artemether,42,plasmodium_falciparum_HB3
0.0234375,0.0007813000000000001,99.11211,1.0,Emetine,Artemether,42,plasmodium_falciparum_HB3
0.0234375,0.00039060000000000006,98.14171999999999,1.0,Emetine,Artemether,42,plasmodium_falciparum_HB3
0.0234375,0.00019530000000000003,108.429855,1.0,Emetine,Artemether,42,plasmodium_falciparum_HB3
0.0234375,9.77e-05,111.38515,1.0,Emetine,Artemether,42,plasmodium_falciparum_HB3
0.0234375,0.0,103.7921,1.0,Emetine,Artemether,42,plasmodium_falciparum_HB3
0.011718800000000001,0.025,0.504326,1.0,Emetine,Artemether,42,plasmodium_falciparum_HB3
0.011718800000000001,0.0125,0.847468,1.0,Emetine,Artemether,42,plasmodium_falciparum_HB3
0.011718800000000001,0.00625,53.331830000000004,1.0,Emetine,Artemether,42,plasmodium_falciparum_HB3
0.011718800000000001,0.003125,83.5081,1.0,Emetine,Artemether,42,plasmodium_falciparum_HB3
0.011718800000000001,0.0015625,96.733025,1.0,Emetine,Artemether,42,plasmodium_falciparum_HB3
0.011718800000000001,0.0007813000000000001,105.02175,1.0,Emetine,Artemether,42,plasmodium_falciparum_HB3
0.011718800000000001,0.00039060000000000006,97.24019,1.0,Emetine,Artemether,42,plasmodium_falciparum_HB3
0.011718800000000001,0.00019530000000000003,106.135994,1.0,Emetine,Artemether,42,plasmodium_falciparum_HB3
0.011718800000000001,9.77e-05,102.007355,1.0,Emetine,Artemether,42,plasmodium_falciparum_HB3
0.011718800000000001,0.0,113.49261000000001,1.0,Emetine,Artemether,42,plasmodium_falciparum_HB3
0.005859400000000001,0.025,0.44751,1.0,Emetine,Artemether,42,plasmodium_falciparum_HB3
0.005859400000000001,0.0125,3.9901980000000004,1.0,Emetine,Artemether,42,plasmodium_falciparum_HB3
0.005859400000000001,0.00625,38.016259999999996,1.0,Emetine,Artemether,42,plasmodium_falciparum_HB3
0.005859400000000001,0.003125,89.349075,1.0,Emetine,Artemether,42,plasmodium_falciparum_HB3
0.005859400000000001,0.0015625,92.50355,1.0,Emetine,Artemether,42,plasmodium_falciparum_HB3
0.005859400000000001,0.0007813000000000001,93.914406,1.0,Emetine,Artemether,42,plasmodium_falciparum_HB3
0.005859400000000001,0.00039060000000000006,94.44511999999999,1.0,Emetine,Artemether,42,plasmodium_falciparum_HB3
0.005859400000000001,0.00019530000000000003,106.49686000000001,1.0,Emetine,Artemether,42,plasmodium_falciparum_HB3
0.005859400000000001,9.77e-05,112.49883,1.0,Emetine,Artemether,42,plasmodium_falciparum_HB3
0.005859400000000001,0.0,106.11381999999999,1.0,Emetine,Artemether,42,plasmodium_falciparum_HB3
0.0029297000000000004,0.025,0.384825,1.0,Emetine,Artemether,42,plasmodium_falciparum_HB3
0.0029297000000000004,0.0125,1.9623,1.0,Emetine,Artemether,42,plasmodium_falciparum_HB3
0.0029297000000000004,0.00625,32.560863,1.0,Emetine,Artemether,42,plasmodium_falciparum_HB3
0.0029297000000000004,0.003125,86.32929,1.0,Emetine,Artemether,42,plasmodium_falciparum_HB3
0.0029297000000000004,0.0015625,114.03048000000001,1.0,Emetine,Artemether,42,plasmodium_falciparum_HB3
0.0029297000000000004,0.0007813000000000001,103.14743,1.0,Emetine,Artemether,42,plasmodium_falciparum_HB3
0.0029297000000000004,0.00039060000000000006,97.6988,1.0,Emetine,Artemether,42,plasmodium_falciparum_HB3
0.0029297000000000004,0.00019530000000000003,95.24416,1.0,Emetine,Artemether,42,plasmodium_falciparum_HB3
0.0029297000000000004,9.77e-05,99.13096,1.0,Emetine,Artemether,42,plasmodium_falciparum_HB3
0.0029297000000000004,0.0,110.01576999999999,1.0,Emetine,Artemether,42,plasmodium_falciparum_HB3
0.0014648000000000003,0.025,0.280823,1.0,Emetine,Artemether,42,plasmodium_falciparum_HB3
0.0014648000000000003,0.0125,11.442858,1.0,Emetine,Artemether,42,plasmodium_falciparum_HB3
0.0014648000000000003,0.00625,59.879380000000005,1.0,Emetine,Artemether,42,plasmodium_falciparum_HB3
0.0014648000000000003,0.003125,96.327034,1.0,Emetine,Artemether,42,plasmodium_falciparum_HB3
0.0014648000000000003,0.0015625,96.25025,1.0,Emetine,Artemether,42,plasmodium_falciparum_HB3
0.0014648000000000003,0.0007813000000000001,100.42871,1.0,Emetine,Artemether,42,plasmodium_falciparum_HB3
0.0014648000000000003,0.00039060000000000006,109.29133,1.0,Emetine,Artemether,42,plasmodium_falciparum_HB3
0.0014648000000000003,0.00019530000000000003,107.23159,1.0,Emetine,Artemether,42,plasmodium_falciparum_HB3
0.0014648000000000003,9.77e-05,109.681496,1.0,Emetine,Artemether,42,plasmodium_falciparum_HB3
0.0014648000000000003,0.0,103.455376,1.0,Emetine,Artemether,42,plasmodium_falciparum_HB3
0.0,0.025,9.942741999999999,1.0,Emetine,Artemether,42,plasmodium_falciparum_HB3
0.0,0.0125,38.85795,1.0,Emetine,Artemether,42,plasmodium_falciparum_HB3
0.0,0.00625,84.22316,1.0,Emetine,Artemether,42,plasmodium_falciparum_HB3
0.0,0.003125,98.157364,1.0,Emetine,Artemether,42,plasmodium_falciparum_HB3
0.0,0.0015625,102.7347,1.0,Emetine,Artemether,42,plasmodium_falciparum_HB3
0.0,0.0007813000000000001,104.64035,1.0,Emetine,Artemether,42,plasmodium_falciparum_HB3
0.0,0.00039060000000000006,97.9218,1.0,Emetine,Artemether,42,plasmodium_falciparum_HB3
0.0,0.00019530000000000003,106.29635,1.0,Emetine,Artemether,42,plasmodium_falciparum_HB3
0.0,9.77e-05,97.0389,1.0,Emetine,Artemether,42,plasmodium_falciparum_HB3
0.0,0.0,99.33713,1.0,Emetine,Artemether,42,plasmodium_falciparum_HB3
