drug1.conc,drug2.conc,effect,effect.95ci,drug1,drug2,expt,sample
0.05,10.0,3.013627,1.0,GSK2126458,Propafenonehydrochloride,110,plasmodium_falciparum_HB3
0.05,5.0,5.792061,1.0,GSK2126458,Propafenonehydrochloride,110,plasmodium_falciparum_HB3
0.05,2.5,13.939739000000001,1.0,GSK2126458,Propafenonehydrochloride,110,plasmodium_falciparum_HB3
0.05,1.25,25.023252,1.0,GSK2126458,Propafenonehydrochloride,110,plasmodium_falciparum_HB3
0.05,0.625,42.331720000000004,1.0,GSK2126458,Propafenonehydrochloride,110,plasmodium_falciparum_HB3
0.05,0.3125,58.711304000000005,1.0,GSK2126458,Propafenonehydrochloride,110,plasmodium_falciparum_HB3
0.05,0.15625,52.909946,1.0,GSK2126458,Propafenonehydrochloride,110,plasmodium_falciparum_HB3
0.05,0.078125,40.93588,1.0,GSK2126458,Propafenonehydrochloride,110,plasmodium_falciparum_HB3
0.05,0.0390625,48.45977,1.0,GSK2126458,Propafenonehydrochloride,110,plasmodium_falciparum_HB3
0.05,0.0,46.598324,1.0,GSK2126458,Propafenonehydrochloride,110,plasmodium_falciparum_HB3
0.025,10.0,3.311292,1.0,GSK2126458,Propafenonehydrochloride,110,plasmodium_falciparum_HB3
0.025,5.0,8.204645,1.0,GSK2126458,Propafenonehydrochloride,110,plasmodium_falciparum_HB3
0.025,2.5,36.728683000000004,1.0,GSK2126458,Propafenonehydrochloride,110,plasmodium_falciparum_HB3
0.025,1.25,56.047012,1.0,GSK2126458,Propafenonehydrochloride,110,plasmodium_falciparum_HB3
0.025,0.625,73.29441,1.0,GSK2126458,Propafenonehydrochloride,110,plasmodium_falciparum_HB3
0.025,0.3125,80.61063,1.0,GSK2126458,Propafenonehydrochloride,110,plasmodium_falciparum_HB3
0.025,0.15625,79.65994,1.0,GSK2126458,Propafenonehydrochloride,110,plasmodium_falciparum_HB3
0.025,0.078125,82.85895500000001,1.0,GSK2126458,Propafenonehydrochloride,110,plasmodium_falciparum_HB3
0.025,0.0390625,91.14876600000001,1.0,GSK2126458,Propafenonehydrochloride,110,plasmodium_falciparum_HB3
0.025,0.0,82.38036,1.0,GSK2126458,Propafenonehydrochloride,110,plasmodium_falciparum_HB3
0.0125,10.0,3.891096,1.0,GSK2126458,Propafenonehydrochloride,110,plasmodium_falciparum_HB3
0.0125,5.0,11.813239,1.0,GSK2126458,Propafenonehydrochloride,110,plasmodium_falciparum_HB3
0.0125,2.5,57.965945999999995,1.0,GSK2126458,Propafenonehydrochloride,110,plasmodium_falciparum_HB3
0.0125,1.25,90.65075999999999,1.0,GSK2126458,Propafenonehydrochloride,110,plasmodium_falciparum_HB3
0.0125,0.625,99.50022,1.0,GSK2126458,Propafenonehydrochloride,110,plasmodium_falciparum_HB3
0.0125,0.3125,96.113945,1.0,GSK2126458,Propafenonehydrochloride,110,plasmodium_falciparum_HB3
0.0125,0.15625,96.93325,1.0,GSK2126458,Propafenonehydrochloride,110,plasmodium_falciparum_HB3
0.0125,0.078125,96.61133000000001,1.0,GSK2126458,Propafenonehydrochloride,110,plasmodium_falciparum_HB3
0.0125,0.0390625,108.91272,1.0,GSK2126458,Propafenonehydrochloride,110,plasmodium_falciparum_HB3
0.0125,0.0,110.64236499999998,1.0,GSK2126458,Propafenonehydrochloride,110,plasmodium_falciparum_HB3
0.00625,10.0,4.932457,1.0,GSK2126458,Propafenonehydrochloride,110,plasmodium_falciparum_HB3
0.00625,5.0,13.886510000000001,1.0,GSK2126458,Propafenonehydrochloride,110,plasmodium_falciparum_HB3
0.00625,2.5,54.5267,1.0,GSK2126458,Propafenonehydrochloride,110,plasmodium_falciparum_HB3
0.00625,1.25,86.23828,1.0,GSK2126458,Propafenonehydrochloride,110,plasmodium_falciparum_HB3
0.00625,0.625,102.99701,1.0,GSK2126458,Propafenonehydrochloride,110,plasmodium_falciparum_HB3
0.00625,0.3125,110.92933000000001,1.0,GSK2126458,Propafenonehydrochloride,110,plasmodium_falciparum_HB3
0.00625,0.15625,109.18255,1.0,GSK2126458,Propafenonehydrochloride,110,plasmodium_falciparum_HB3
0.00625,0.078125,108.20407,1.0,GSK2126458,Propafenonehydrochloride,110,plasmodium_falciparum_HB3
0.00625,0.0390625,113.15253,1.0,GSK2126458,Propafenonehydrochloride,110,plasmodium_falciparum_HB3
0.00625,0.0,112.150475,1.0,GSK2126458,Propafenonehydrochloride,110,plasmodium_falciparum_HB3
0.003125,10.0,3.214546,1.0,GSK2126458,Propafenonehydrochloride,110,plasmodium_falciparum_HB3
0.003125,5.0,14.183395999999998,1.0,GSK2126458,Propafenonehydrochloride,110,plasmodium_falciparum_HB3
0.003125,2.5,55.483154000000006,1.0,GSK2126458,Propafenonehydrochloride,110,plasmodium_falciparum_HB3
0.003125,1.25,85.63448000000001,1.0,GSK2126458,Propafenonehydrochloride,110,plasmodium_falciparum_HB3
0.003125,0.625,98.69005600000001,1.0,GSK2126458,Propafenonehydrochloride,110,plasmodium_falciparum_HB3
0.003125,0.3125,110.57158999999999,1.0,GSK2126458,Propafenonehydrochloride,110,plasmodium_falciparum_HB3
0.003125,0.15625,106.00103,1.0,GSK2126458,Propafenonehydrochloride,110,plasmodium_falciparum_HB3
0.003125,0.078125,110.74673999999999,1.0,GSK2126458,Propafenonehydrochloride,110,plasmodium_falciparum_HB3
0.003125,0.0390625,110.72363,1.0,GSK2126458,Propafenonehydrochloride,110,plasmodium_falciparum_HB3
0.003125,0.0,112.47203,1.0,GSK2126458,Propafenonehydrochloride,110,plasmodium_falciparum_HB3
0.0015625,10.0,3.492685,1.0,GSK2126458,Propafenonehydrochloride,110,plasmodium_falciparum_HB3
0.0015625,5.0,12.11885,1.0,GSK2126458,Propafenonehydrochloride,110,plasmodium_falciparum_HB3
0.0015625,2.5,59.452819999999996,1.0,GSK2126458,Propafenonehydrochloride,110,plasmodium_falciparum_HB3
0.0015625,1.25,90.57996999999999,1.0,GSK2126458,Propafenonehydrochloride,110,plasmodium_falciparum_HB3
0.0015625,0.625,109.42522,1.0,GSK2126458,Propafenonehydrochloride,110,plasmodium_falciparum_HB3
0.0015625,0.3125,109.17943600000001,1.0,GSK2126458,Propafenonehydrochloride,110,plasmodium_falciparum_HB3
0.0015625,0.15625,110.33265,1.0,GSK2126458,Propafenonehydrochloride,110,plasmodium_falciparum_HB3
0.0015625,0.078125,110.525154,1.0,GSK2126458,Propafenonehydrochloride,110,plasmodium_falciparum_HB3
0.0015625,0.0390625,112.19248999999999,1.0,GSK2126458,Propafenonehydrochloride,110,plasmodium_falciparum_HB3
0.0015625,0.0,115.34212,1.0,GSK2126458,Propafenonehydrochloride,110,plasmodium_falciparum_HB3
0.00078125,10.0,3.774979,1.0,GSK2126458,Propafenonehydrochloride,110,plasmodium_falciparum_HB3
0.00078125,5.0,19.008045000000003,1.0,GSK2126458,Propafenonehydrochloride,110,plasmodium_falciparum_HB3
0.00078125,2.5,63.22525400000001,1.0,GSK2126458,Propafenonehydrochloride,110,plasmodium_falciparum_HB3
0.00078125,1.25,76.84821,1.0,GSK2126458,Propafenonehydrochloride,110,plasmodium_falciparum_HB3
0.00078125,0.625,83.19915999999999,1.0,GSK2126458,Propafenonehydrochloride,110,plasmodium_falciparum_HB3
0.00078125,0.3125,89.88037,1.0,GSK2126458,Propafenonehydrochloride,110,plasmodium_falciparum_HB3
0.00078125,0.15625,99.89624,1.0,GSK2126458,Propafenonehydrochloride,110,plasmodium_falciparum_HB3
0.00078125,0.078125,112.5572,1.0,GSK2126458,Propafenonehydrochloride,110,plasmodium_falciparum_HB3
0.00078125,0.0390625,115.52226999999999,1.0,GSK2126458,Propafenonehydrochloride,110,plasmodium_falciparum_HB3
0.00078125,0.0,116.89811,1.0,GSK2126458,Propafenonehydrochloride,110,plasmodium_falciparum_HB3
0.000390625,10.0,2.907066,1.0,GSK2126458,Propafenonehydrochloride,110,plasmodium_falciparum_HB3
0.000390625,5.0,11.677078,1.0,GSK2126458,Propafenonehydrochloride,110,plasmodium_falciparum_HB3
0.000390625,2.5,43.328938,1.0,GSK2126458,Propafenonehydrochloride,110,plasmodium_falciparum_HB3
0.000390625,1.25,81.1236,1.0,GSK2126458,Propafenonehydrochloride,110,plasmodium_falciparum_HB3
0.000390625,0.625,99.60429,1.0,GSK2126458,Propafenonehydrochloride,110,plasmodium_falciparum_HB3
0.000390625,0.3125,100.351364,1.0,GSK2126458,Propafenonehydrochloride,110,plasmodium_falciparum_HB3
0.000390625,0.15625,107.94707,1.0,GSK2126458,Propafenonehydrochloride,110,plasmodium_falciparum_HB3
0.000390625,0.078125,109.78696399999998,1.0,GSK2126458,Propafenonehydrochloride,110,plasmodium_falciparum_HB3
0.000390625,0.0390625,105.60215,1.0,GSK2126458,Propafenonehydrochloride,110,plasmodium_falciparum_HB3
0.000390625,0.0,108.6191,1.0,GSK2126458,Propafenonehydrochloride,110,plasmodium_falciparum_HB3
0.000195375,10.0,3.266061,1.0,GSK2126458,Propafenonehydrochloride,110,plasmodium_falciparum_HB3
0.000195375,5.0,11.120332000000001,1.0,GSK2126458,Propafenonehydrochloride,110,plasmodium_falciparum_HB3
0.000195375,2.5,54.197823,1.0,GSK2126458,Propafenonehydrochloride,110,plasmodium_falciparum_HB3
0.000195375,1.25,83.75081,1.0,GSK2126458,Propafenonehydrochloride,110,plasmodium_falciparum_HB3
0.000195375,0.625,93.19171,1.0,GSK2126458,Propafenonehydrochloride,110,plasmodium_falciparum_HB3
0.000195375,0.3125,105.2685,1.0,GSK2126458,Propafenonehydrochloride,110,plasmodium_falciparum_HB3
0.000195375,0.15625,104.49831999999999,1.0,GSK2126458,Propafenonehydrochloride,110,plasmodium_falciparum_HB3
0.000195375,0.078125,104.36013,1.0,GSK2126458,Propafenonehydrochloride,110,plasmodium_falciparum_HB3
0.000195375,0.0390625,107.6723,1.0,GSK2126458,Propafenonehydrochloride,110,plasmodium_falciparum_HB3
0.000195375,0.0,112.40291,1.0,GSK2126458,Propafenonehydrochloride,110,plasmodium_falciparum_HB3
0.0,10.0,1.8597849999999998,1.0,GSK2126458,Propafenonehydrochloride,110,plasmodium_falciparum_HB3
0.0,5.0,9.149572000000001,1.0,GSK2126458,Propafenonehydrochloride,110,plasmodium_falciparum_HB3
0.0,2.5,43.431866,1.0,GSK2126458,Propafenonehydrochloride,110,plasmodium_falciparum_HB3
0.0,1.25,87.04045,1.0,GSK2126458,Propafenonehydrochloride,110,plasmodium_falciparum_HB3
0.0,0.625,100.29403,1.0,GSK2126458,Propafenonehydrochloride,110,plasmodium_falciparum_HB3
0.0,0.3125,94.58963,1.0,GSK2126458,Propafenonehydrochloride,110,plasmodium_falciparum_HB3
0.0,0.15625,106.21426000000001,1.0,GSK2126458,Propafenonehydrochloride,110,plasmodium_falciparum_HB3
0.0,0.078125,110.66588600000001,1.0,GSK2126458,Propafenonehydrochloride,110,plasmodium_falciparum_HB3
0.0,0.0390625,111.4638,1.0,GSK2126458,Propafenonehydrochloride,110,plasmodium_falciparum_HB3
0.0,0.0,113.26921000000002,1.0,GSK2126458,Propafenonehydrochloride,110,plasmodium_falciparum_HB3
