drug1.conc,drug2.conc,effect,effect.95ci,drug1,drug2,expt,sample
0.05,0.5,-0.349699,1.0,GSK2126458,Chloroquine,124,plasmodium_falciparum_HB3
0.05,0.25,-0.010111,1.0,GSK2126458,Chloroquine,124,plasmodium_falciparum_HB3
0.05,0.125,0.29899000000000003,1.0,GSK2126458,Chloroquine,124,plasmodium_falciparum_HB3
0.05,0.0625,0.900065,1.0,GSK2126458,Chloroquine,124,plasmodium_falciparum_HB3
0.05,0.03125,3.923032,1.0,GSK2126458,Chloroquine,124,plasmodium_falciparum_HB3
0.05,0.015625,15.111429999999999,1.0,GSK2126458,Chloroquine,124,plasmodium_falciparum_HB3
0.05,0.0078125,43.18152,1.0,GSK2126458,Chloroquine,124,plasmodium_falciparum_HB3
0.05,0.00390625,25.755754,1.0,GSK2126458,Chloroquine,124,plasmodium_falciparum_HB3
0.05,0.001953125,26.188505,1.0,GSK2126458,Chloroquine,124,plasmodium_falciparum_HB3
0.05,0.0,25.562101000000002,1.0,GSK2126458,Chloroquine,124,plasmodium_falciparum_HB3
0.025,0.5,0.085013,1.0,GSK2126458,Chloroquine,124,plasmodium_falciparum_HB3
0.025,0.25,0.331179,1.0,GSK2126458,Chloroquine,124,plasmodium_falciparum_HB3
0.025,0.125,0.201648,1.0,GSK2126458,Chloroquine,124,plasmodium_falciparum_HB3
0.025,0.0625,1.201635,1.0,GSK2126458,Chloroquine,124,plasmodium_falciparum_HB3
0.025,0.03125,5.681275,1.0,GSK2126458,Chloroquine,124,plasmodium_falciparum_HB3
0.025,0.015625,91.93743,1.0,GSK2126458,Chloroquine,124,plasmodium_falciparum_HB3
0.025,0.0078125,87.31005,1.0,GSK2126458,Chloroquine,124,plasmodium_falciparum_HB3
0.025,0.00390625,86.91835999999999,1.0,GSK2126458,Chloroquine,124,plasmodium_falciparum_HB3
0.025,0.001953125,92.797104,1.0,GSK2126458,Chloroquine,124,plasmodium_falciparum_HB3
0.025,0.0,95.554146,1.0,GSK2126458,Chloroquine,124,plasmodium_falciparum_HB3
0.0125,0.5,0.199533,1.0,GSK2126458,Chloroquine,124,plasmodium_falciparum_HB3
0.0125,0.25,0.055661,1.0,GSK2126458,Chloroquine,124,plasmodium_falciparum_HB3
0.0125,0.125,0.978269,1.0,GSK2126458,Chloroquine,124,plasmodium_falciparum_HB3
0.0125,0.0625,1.046929,1.0,GSK2126458,Chloroquine,124,plasmodium_falciparum_HB3
0.0125,0.03125,5.333794999999999,1.0,GSK2126458,Chloroquine,124,plasmodium_falciparum_HB3
0.0125,0.015625,85.62428,1.0,GSK2126458,Chloroquine,124,plasmodium_falciparum_HB3
0.0125,0.0078125,101.03904,1.0,GSK2126458,Chloroquine,124,plasmodium_falciparum_HB3
0.0125,0.00390625,97.98465999999999,1.0,GSK2126458,Chloroquine,124,plasmodium_falciparum_HB3
0.0125,0.001953125,107.04953,1.0,GSK2126458,Chloroquine,124,plasmodium_falciparum_HB3
0.0125,0.0,99.48007,1.0,GSK2126458,Chloroquine,124,plasmodium_falciparum_HB3
0.00625,0.5,0.304768,1.0,GSK2126458,Chloroquine,124,plasmodium_falciparum_HB3
0.00625,0.25,0.49341599999999997,1.0,GSK2126458,Chloroquine,124,plasmodium_falciparum_HB3
0.00625,0.125,0.401387,1.0,GSK2126458,Chloroquine,124,plasmodium_falciparum_HB3
0.00625,0.0625,1.418191,1.0,GSK2126458,Chloroquine,124,plasmodium_falciparum_HB3
0.00625,0.03125,5.863630000000001,1.0,GSK2126458,Chloroquine,124,plasmodium_falciparum_HB3
0.00625,0.015625,92.16301999999999,1.0,GSK2126458,Chloroquine,124,plasmodium_falciparum_HB3
0.00625,0.0078125,103.74965999999999,1.0,GSK2126458,Chloroquine,124,plasmodium_falciparum_HB3
0.00625,0.00390625,105.43428,1.0,GSK2126458,Chloroquine,124,plasmodium_falciparum_HB3
0.00625,0.001953125,102.67043000000001,1.0,GSK2126458,Chloroquine,124,plasmodium_falciparum_HB3
0.00625,0.0,104.21851,1.0,GSK2126458,Chloroquine,124,plasmodium_falciparum_HB3
0.003125,0.5,0.066855,1.0,GSK2126458,Chloroquine,124,plasmodium_falciparum_HB3
0.003125,0.25,0.355115,1.0,GSK2126458,Chloroquine,124,plasmodium_falciparum_HB3
0.003125,0.125,0.571104,1.0,GSK2126458,Chloroquine,124,plasmodium_falciparum_HB3
0.003125,0.0625,1.559484,1.0,GSK2126458,Chloroquine,124,plasmodium_falciparum_HB3
0.003125,0.03125,9.837836,1.0,GSK2126458,Chloroquine,124,plasmodium_falciparum_HB3
0.003125,0.015625,106.300766,1.0,GSK2126458,Chloroquine,124,plasmodium_falciparum_HB3
0.003125,0.0078125,109.06936999999999,1.0,GSK2126458,Chloroquine,124,plasmodium_falciparum_HB3
0.003125,0.00390625,111.355225,1.0,GSK2126458,Chloroquine,124,plasmodium_falciparum_HB3
0.003125,0.001953125,106.65506,1.0,GSK2126458,Chloroquine,124,plasmodium_falciparum_HB3
0.003125,0.0,103.15219,1.0,GSK2126458,Chloroquine,124,plasmodium_falciparum_HB3
0.0015625,0.5,0.24002800000000002,1.0,GSK2126458,Chloroquine,124,plasmodium_falciparum_HB3
0.0015625,0.25,0.351143,1.0,GSK2126458,Chloroquine,124,plasmodium_falciparum_HB3
0.0015625,0.125,0.652197,1.0,GSK2126458,Chloroquine,124,plasmodium_falciparum_HB3
0.0015625,0.0625,1.6531630000000002,1.0,GSK2126458,Chloroquine,124,plasmodium_falciparum_HB3
0.0015625,0.03125,7.739024000000001,1.0,GSK2126458,Chloroquine,124,plasmodium_falciparum_HB3
0.0015625,0.015625,102.35354,1.0,GSK2126458,Chloroquine,124,plasmodium_falciparum_HB3
0.0015625,0.0078125,110.44113,1.0,GSK2126458,Chloroquine,124,plasmodium_falciparum_HB3
0.0015625,0.00390625,108.06216,1.0,GSK2126458,Chloroquine,124,plasmodium_falciparum_HB3
0.0015625,0.001953125,105.60565,1.0,GSK2126458,Chloroquine,124,plasmodium_falciparum_HB3
0.0015625,0.0,103.09075,1.0,GSK2126458,Chloroquine,124,plasmodium_falciparum_HB3
0.00078125,0.5,0.058653,1.0,GSK2126458,Chloroquine,124,plasmodium_falciparum_HB3
0.00078125,0.25,0.391225,1.0,GSK2126458,Chloroquine,124,plasmodium_falciparum_HB3
0.00078125,0.125,0.605924,1.0,GSK2126458,Chloroquine,124,plasmodium_falciparum_HB3
0.00078125,0.0625,1.6319620000000001,1.0,GSK2126458,Chloroquine,124,plasmodium_falciparum_HB3
0.00078125,0.03125,9.35484,1.0,GSK2126458,Chloroquine,124,plasmodium_falciparum_HB3
0.00078125,0.015625,100.335464,1.0,GSK2126458,Chloroquine,124,plasmodium_falciparum_HB3
0.00078125,0.0078125,105.88683999999999,1.0,GSK2126458,Chloroquine,124,plasmodium_falciparum_HB3
0.00078125,0.00390625,112.95483999999999,1.0,GSK2126458,Chloroquine,124,plasmodium_falciparum_HB3
0.00078125,0.001953125,106.04531999999999,1.0,GSK2126458,Chloroquine,124,plasmodium_falciparum_HB3
0.00078125,0.0,96.32303,1.0,GSK2126458,Chloroquine,124,plasmodium_falciparum_HB3
0.000390625,0.5,0.21604,1.0,GSK2126458,Chloroquine,124,plasmodium_falciparum_HB3
0.000390625,0.25,0.7648590000000001,1.0,GSK2126458,Chloroquine,124,plasmodium_falciparum_HB3
0.000390625,0.125,1.665286,1.0,GSK2126458,Chloroquine,124,plasmodium_falciparum_HB3
0.000390625,0.0625,1.7821790000000002,1.0,GSK2126458,Chloroquine,124,plasmodium_falciparum_HB3
0.000390625,0.03125,10.747341,1.0,GSK2126458,Chloroquine,124,plasmodium_falciparum_HB3
0.000390625,0.015625,97.46585999999999,1.0,GSK2126458,Chloroquine,124,plasmodium_falciparum_HB3
0.000390625,0.0078125,109.93332,1.0,GSK2126458,Chloroquine,124,plasmodium_falciparum_HB3
0.000390625,0.00390625,106.75441000000001,1.0,GSK2126458,Chloroquine,124,plasmodium_falciparum_HB3
0.000390625,0.001953125,103.6163,1.0,GSK2126458,Chloroquine,124,plasmodium_falciparum_HB3
0.000390625,0.0,100.11333499999999,1.0,GSK2126458,Chloroquine,124,plasmodium_falciparum_HB3
0.000195375,0.5,0.227596,1.0,GSK2126458,Chloroquine,124,plasmodium_falciparum_HB3
0.000195375,0.25,0.029816000000000002,1.0,GSK2126458,Chloroquine,124,plasmodium_falciparum_HB3
0.000195375,0.125,0.628931,1.0,GSK2126458,Chloroquine,124,plasmodium_falciparum_HB3
0.000195375,0.0625,1.484272,1.0,GSK2126458,Chloroquine,124,plasmodium_falciparum_HB3
0.000195375,0.03125,9.118784,1.0,GSK2126458,Chloroquine,124,plasmodium_falciparum_HB3
0.000195375,0.015625,96.64265400000001,1.0,GSK2126458,Chloroquine,124,plasmodium_falciparum_HB3
0.000195375,0.0078125,101.55319,1.0,GSK2126458,Chloroquine,124,plasmodium_falciparum_HB3
0.000195375,0.00390625,102.218796,1.0,GSK2126458,Chloroquine,124,plasmodium_falciparum_HB3
0.000195375,0.001953125,101.66301999999999,1.0,GSK2126458,Chloroquine,124,plasmodium_falciparum_HB3
0.000195375,0.0,96.58921,1.0,GSK2126458,Chloroquine,124,plasmodium_falciparum_HB3
0.0,0.5,0.030744999999999998,1.0,GSK2126458,Chloroquine,124,plasmodium_falciparum_HB3
0.0,0.25,0.5049710000000001,1.0,GSK2126458,Chloroquine,124,plasmodium_falciparum_HB3
0.0,0.125,0.595298,1.0,GSK2126458,Chloroquine,124,plasmodium_falciparum_HB3
0.0,0.0625,1.390593,1.0,GSK2126458,Chloroquine,124,plasmodium_falciparum_HB3
0.0,0.03125,8.50636,1.0,GSK2126458,Chloroquine,124,plasmodium_falciparum_HB3
0.0,0.015625,96.56796,1.0,GSK2126458,Chloroquine,124,plasmodium_falciparum_HB3
0.0,0.0078125,105.97278600000001,1.0,GSK2126458,Chloroquine,124,plasmodium_falciparum_HB3
0.0,0.00390625,102.94651999999999,1.0,GSK2126458,Chloroquine,124,plasmodium_falciparum_HB3
0.0,0.001953125,103.08136,1.0,GSK2126458,Chloroquine,124,plasmodium_falciparum_HB3
0.0,0.0,100.34119,1.0,GSK2126458,Chloroquine,124,plasmodium_falciparum_HB3
