drug1.conc,drug2.conc,effect,effect.95ci,drug1,drug2,expt,sample
10.0,0.25,2.2789599999999997,1.0,Ivermectin,Decoquinate,10,plasmodium_falciparum_HB3
10.0,0.125,2.350459,1.0,Ivermectin,Decoquinate,10,plasmodium_falciparum_HB3
10.0,0.0625,2.0457919999999996,1.0,Ivermectin,Decoquinate,10,plasmodium_falciparum_HB3
10.0,0.03125,1.7124599999999999,1.0,Ivermectin,Decoquinate,10,plasmodium_falciparum_HB3
10.0,0.015625,2.029538,1.0,Ivermectin,Decoquinate,10,plasmodium_falciparum_HB3
10.0,0.0078125,2.126023,1.0,Ivermectin,Decoquinate,10,plasmodium_falciparum_HB3
10.0,0.00390625,1.9435959999999999,1.0,Ivermectin,Decoquinate,10,plasmodium_falciparum_HB3
10.0,0.001953125,1.519435,1.0,Ivermectin,Decoquinate,10,plasmodium_falciparum_HB3
10.0,0.000976625,1.764354,1.0,Ivermectin,Decoquinate,10,plasmodium_falciparum_HB3
10.0,0.0,1.8378849999999998,1.0,Ivermectin,Decoquinate,10,plasmodium_falciparum_HB3
5.0,0.25,3.7316190000000002,1.0,Ivermectin,Decoquinate,10,plasmodium_falciparum_HB3
5.0,0.125,3.9993830000000004,1.0,Ivermectin,Decoquinate,10,plasmodium_falciparum_HB3
5.0,0.0625,3.8039959999999997,1.0,Ivermectin,Decoquinate,10,plasmodium_falciparum_HB3
5.0,0.03125,3.8327720000000003,1.0,Ivermectin,Decoquinate,10,plasmodium_falciparum_HB3
5.0,0.015625,4.250398000000001,1.0,Ivermectin,Decoquinate,10,plasmodium_falciparum_HB3
5.0,0.0078125,3.7158029999999997,1.0,Ivermectin,Decoquinate,10,plasmodium_falciparum_HB3
5.0,0.00390625,4.54831,1.0,Ivermectin,Decoquinate,10,plasmodium_falciparum_HB3
5.0,0.001953125,4.071705000000001,1.0,Ivermectin,Decoquinate,10,plasmodium_falciparum_HB3
5.0,0.000976625,5.156271,1.0,Ivermectin,Decoquinate,10,plasmodium_falciparum_HB3
5.0,0.0,10.333409,1.0,Ivermectin,Decoquinate,10,plasmodium_falciparum_HB3
2.5,0.25,4.299492,1.0,Ivermectin,Decoquinate,10,plasmodium_falciparum_HB3
2.5,0.125,4.414703,1.0,Ivermectin,Decoquinate,10,plasmodium_falciparum_HB3
2.5,0.0625,4.102183,1.0,Ivermectin,Decoquinate,10,plasmodium_falciparum_HB3
2.5,0.03125,4.091749,1.0,Ivermectin,Decoquinate,10,plasmodium_falciparum_HB3
2.5,0.015625,4.395263,1.0,Ivermectin,Decoquinate,10,plasmodium_falciparum_HB3
2.5,0.0078125,5.316182,1.0,Ivermectin,Decoquinate,10,plasmodium_falciparum_HB3
2.5,0.00390625,5.594983999999999,1.0,Ivermectin,Decoquinate,10,plasmodium_falciparum_HB3
2.5,0.001953125,7.831605000000001,1.0,Ivermectin,Decoquinate,10,plasmodium_falciparum_HB3
2.5,0.000976625,8.455491,1.0,Ivermectin,Decoquinate,10,plasmodium_falciparum_HB3
2.5,0.0,31.892865999999998,1.0,Ivermectin,Decoquinate,10,plasmodium_falciparum_HB3
1.25,0.25,4.22305,1.0,Ivermectin,Decoquinate,10,plasmodium_falciparum_HB3
1.25,0.125,4.298888,1.0,Ivermectin,Decoquinate,10,plasmodium_falciparum_HB3
1.25,0.0625,4.420469000000001,1.0,Ivermectin,Decoquinate,10,plasmodium_falciparum_HB3
1.25,0.03125,4.38406,1.0,Ivermectin,Decoquinate,10,plasmodium_falciparum_HB3
1.25,0.015625,4.779501,1.0,Ivermectin,Decoquinate,10,plasmodium_falciparum_HB3
1.25,0.0078125,8.174163,1.0,Ivermectin,Decoquinate,10,plasmodium_falciparum_HB3
1.25,0.00390625,9.425559,1.0,Ivermectin,Decoquinate,10,plasmodium_falciparum_HB3
1.25,0.001953125,25.24989,1.0,Ivermectin,Decoquinate,10,plasmodium_falciparum_HB3
1.25,0.000976625,28.536974,1.0,Ivermectin,Decoquinate,10,plasmodium_falciparum_HB3
1.25,0.0,70.4286,1.0,Ivermectin,Decoquinate,10,plasmodium_falciparum_HB3
0.625,0.25,4.56462,1.0,Ivermectin,Decoquinate,10,plasmodium_falciparum_HB3
0.625,0.125,4.191694,1.0,Ivermectin,Decoquinate,10,plasmodium_falciparum_HB3
0.625,0.0625,4.291694000000001,1.0,Ivermectin,Decoquinate,10,plasmodium_falciparum_HB3
0.625,0.03125,4.168959,1.0,Ivermectin,Decoquinate,10,plasmodium_falciparum_HB3
0.625,0.015625,5.198281,1.0,Ivermectin,Decoquinate,10,plasmodium_falciparum_HB3
0.625,0.0078125,5.901024,1.0,Ivermectin,Decoquinate,10,plasmodium_falciparum_HB3
0.625,0.00390625,17.025314,1.0,Ivermectin,Decoquinate,10,plasmodium_falciparum_HB3
0.625,0.001953125,30.369148,1.0,Ivermectin,Decoquinate,10,plasmodium_falciparum_HB3
0.625,0.000976625,58.76356,1.0,Ivermectin,Decoquinate,10,plasmodium_falciparum_HB3
0.625,0.0,92.06488,1.0,Ivermectin,Decoquinate,10,plasmodium_falciparum_HB3
0.3125,0.25,5.154239,1.0,Ivermectin,Decoquinate,10,plasmodium_falciparum_HB3
0.3125,0.125,4.595372,1.0,Ivermectin,Decoquinate,10,plasmodium_falciparum_HB3
0.3125,0.0625,4.238976,1.0,Ivermectin,Decoquinate,10,plasmodium_falciparum_HB3
0.3125,0.03125,4.411298,1.0,Ivermectin,Decoquinate,10,plasmodium_falciparum_HB3
0.3125,0.015625,6.425954,1.0,Ivermectin,Decoquinate,10,plasmodium_falciparum_HB3
0.3125,0.0078125,10.320559,1.0,Ivermectin,Decoquinate,10,plasmodium_falciparum_HB3
0.3125,0.00390625,31.696602000000002,1.0,Ivermectin,Decoquinate,10,plasmodium_falciparum_HB3
0.3125,0.001953125,44.161194,1.0,Ivermectin,Decoquinate,10,plasmodium_falciparum_HB3
0.3125,0.000976625,78.297,1.0,Ivermectin,Decoquinate,10,plasmodium_falciparum_HB3
0.3125,0.0,100.657715,1.0,Ivermectin,Decoquinate,10,plasmodium_falciparum_HB3
0.15625,0.25,4.459568,1.0,Ivermectin,Decoquinate,10,plasmodium_falciparum_HB3
0.15625,0.125,4.9585230000000005,1.0,Ivermectin,Decoquinate,10,plasmodium_falciparum_HB3
0.15625,0.0625,4.56775,1.0,Ivermectin,Decoquinate,10,plasmodium_falciparum_HB3
0.15625,0.03125,5.521454,1.0,Ivermectin,Decoquinate,10,plasmodium_falciparum_HB3
0.15625,0.015625,6.876747999999999,1.0,Ivermectin,Decoquinate,10,plasmodium_falciparum_HB3
0.15625,0.0078125,19.526733,1.0,Ivermectin,Decoquinate,10,plasmodium_falciparum_HB3
0.15625,0.00390625,38.21624,1.0,Ivermectin,Decoquinate,10,plasmodium_falciparum_HB3
0.15625,0.001953125,72.63864000000001,1.0,Ivermectin,Decoquinate,10,plasmodium_falciparum_HB3
0.15625,0.000976625,89.90799999999999,1.0,Ivermectin,Decoquinate,10,plasmodium_falciparum_HB3
0.15625,0.0,103.827774,1.0,Ivermectin,Decoquinate,10,plasmodium_falciparum_HB3
0.078125,0.25,5.504869,1.0,Ivermectin,Decoquinate,10,plasmodium_falciparum_HB3
0.078125,0.125,5.31761,1.0,Ivermectin,Decoquinate,10,plasmodium_falciparum_HB3
0.078125,0.0625,4.891637,1.0,Ivermectin,Decoquinate,10,plasmodium_falciparum_HB3
0.078125,0.03125,5.401575,1.0,Ivermectin,Decoquinate,10,plasmodium_falciparum_HB3
0.078125,0.015625,8.547417999999999,1.0,Ivermectin,Decoquinate,10,plasmodium_falciparum_HB3
0.078125,0.0078125,19.66144,1.0,Ivermectin,Decoquinate,10,plasmodium_falciparum_HB3
0.078125,0.00390625,53.7258,1.0,Ivermectin,Decoquinate,10,plasmodium_falciparum_HB3
0.078125,0.001953125,75.78081,1.0,Ivermectin,Decoquinate,10,plasmodium_falciparum_HB3
0.078125,0.000976625,87.093506,1.0,Ivermectin,Decoquinate,10,plasmodium_falciparum_HB3
0.078125,0.0,109.70206,1.0,Ivermectin,Decoquinate,10,plasmodium_falciparum_HB3
0.0390625,0.25,4.213989,1.0,Ivermectin,Decoquinate,10,plasmodium_falciparum_HB3
0.0390625,0.125,4.585103,1.0,Ivermectin,Decoquinate,10,plasmodium_falciparum_HB3
0.0390625,0.0625,4.623983,1.0,Ivermectin,Decoquinate,10,plasmodium_falciparum_HB3
0.0390625,0.03125,5.391965,1.0,Ivermectin,Decoquinate,10,plasmodium_falciparum_HB3
0.0390625,0.015625,7.138307000000001,1.0,Ivermectin,Decoquinate,10,plasmodium_falciparum_HB3
0.0390625,0.0078125,17.79121,1.0,Ivermectin,Decoquinate,10,plasmodium_falciparum_HB3
0.0390625,0.00390625,42.426987,1.0,Ivermectin,Decoquinate,10,plasmodium_falciparum_HB3
0.0390625,0.001953125,80.40978,1.0,Ivermectin,Decoquinate,10,plasmodium_falciparum_HB3
0.0390625,0.000976625,85.92349,1.0,Ivermectin,Decoquinate,10,plasmodium_falciparum_HB3
0.0390625,0.0,100.512245,1.0,Ivermectin,Decoquinate,10,plasmodium_falciparum_HB3
0.0,0.25,4.5056959999999995,1.0,Ivermectin,Decoquinate,10,plasmodium_falciparum_HB3
0.0,0.125,4.804817,1.0,Ivermectin,Decoquinate,10,plasmodium_falciparum_HB3
0.0,0.0625,4.277086,1.0,Ivermectin,Decoquinate,10,plasmodium_falciparum_HB3
0.0,0.03125,5.277303,1.0,Ivermectin,Decoquinate,10,plasmodium_falciparum_HB3
0.0,0.015625,8.269605,1.0,Ivermectin,Decoquinate,10,plasmodium_falciparum_HB3
0.0,0.0078125,22.178620000000002,1.0,Ivermectin,Decoquinate,10,plasmodium_falciparum_HB3
0.0,0.00390625,55.49438000000001,1.0,Ivermectin,Decoquinate,10,plasmodium_falciparum_HB3
0.0,0.001953125,83.12812,1.0,Ivermectin,Decoquinate,10,plasmodium_falciparum_HB3
0.0,0.000976625,87.88861999999999,1.0,Ivermectin,Decoquinate,10,plasmodium_falciparum_HB3
0.0,0.0,103.81383000000001,1.0,Ivermectin,Decoquinate,10,plasmodium_falciparum_HB3
