drug1.conc,drug2.conc,effect,effect.95ci,drug1,drug2,expt,sample
5.0,0.075,-0.334187,1.0,KN62,Methyleneblue,184,plasmodium_falciparum_HB3
5.0,0.0375,-0.97104,1.0,KN62,Methyleneblue,184,plasmodium_falciparum_HB3
5.0,0.01875,-0.717463,1.0,KN62,Methyleneblue,184,plasmodium_falciparum_HB3
5.0,0.009375,0.832707,1.0,KN62,Methyleneblue,184,plasmodium_falciparum_HB3
5.0,0.0046875,-0.9838389999999999,1.0,KN62,Methyleneblue,184,plasmodium_falciparum_HB3
5.0,0.00234375,-0.463585,1.0,KN62,Methyleneblue,184,plasmodium_falciparum_HB3
5.0,0.001171875,3.029267,1.0,KN62,Methyleneblue,184,plasmodium_falciparum_HB3
5.0,0.000586,1.4067180000000001,1.0,KN62,Methyleneblue,184,plasmodium_falciparum_HB3
5.0,0.000293,1.333687,1.0,KN62,Methyleneblue,184,plasmodium_falciparum_HB3
5.0,0.0,0.15695499999999998,1.0,KN62,Methyleneblue,184,plasmodium_falciparum_HB3
2.5,0.075,0.41811000000000004,1.0,KN62,Methyleneblue,184,plasmodium_falciparum_HB3
2.5,0.0375,-0.055464,1.0,KN62,Methyleneblue,184,plasmodium_falciparum_HB3
2.5,0.01875,1.136477,1.0,KN62,Methyleneblue,184,plasmodium_falciparum_HB3
2.5,0.009375,3.195407,1.0,KN62,Methyleneblue,184,plasmodium_falciparum_HB3
2.5,0.0046875,0.746375,1.0,KN62,Methyleneblue,184,plasmodium_falciparum_HB3
2.5,0.00234375,18.617054,1.0,KN62,Methyleneblue,184,plasmodium_falciparum_HB3
2.5,0.001171875,15.403276000000002,1.0,KN62,Methyleneblue,184,plasmodium_falciparum_HB3
2.5,0.000586,8.221967,1.0,KN62,Methyleneblue,184,plasmodium_falciparum_HB3
2.5,0.000293,16.814663,1.0,KN62,Methyleneblue,184,plasmodium_falciparum_HB3
2.5,0.0,14.510838,1.0,KN62,Methyleneblue,184,plasmodium_falciparum_HB3
1.25,0.075,0.362848,1.0,KN62,Methyleneblue,184,plasmodium_falciparum_HB3
1.25,0.0375,1.214779,1.0,KN62,Methyleneblue,184,plasmodium_falciparum_HB3
1.25,0.01875,2.071528,1.0,KN62,Methyleneblue,184,plasmodium_falciparum_HB3
1.25,0.009375,5.145568,1.0,KN62,Methyleneblue,184,plasmodium_falciparum_HB3
1.25,0.0046875,9.623013,1.0,KN62,Methyleneblue,184,plasmodium_falciparum_HB3
1.25,0.00234375,16.156677,1.0,KN62,Methyleneblue,184,plasmodium_falciparum_HB3
1.25,0.001171875,38.59545,1.0,KN62,Methyleneblue,184,plasmodium_falciparum_HB3
1.25,0.000586,16.841564,1.0,KN62,Methyleneblue,184,plasmodium_falciparum_HB3
1.25,0.000293,29.338749,1.0,KN62,Methyleneblue,184,plasmodium_falciparum_HB3
1.25,0.0,26.80785,1.0,KN62,Methyleneblue,184,plasmodium_falciparum_HB3
0.625,0.075,0.190835,1.0,KN62,Methyleneblue,184,plasmodium_falciparum_HB3
0.625,0.0375,1.653619,1.0,KN62,Methyleneblue,184,plasmodium_falciparum_HB3
0.625,0.01875,2.404913,1.0,KN62,Methyleneblue,184,plasmodium_falciparum_HB3
0.625,0.009375,8.772387,1.0,KN62,Methyleneblue,184,plasmodium_falciparum_HB3
0.625,0.0046875,20.252653,1.0,KN62,Methyleneblue,184,plasmodium_falciparum_HB3
0.625,0.00234375,60.75816,1.0,KN62,Methyleneblue,184,plasmodium_falciparum_HB3
0.625,0.001171875,41.133274,1.0,KN62,Methyleneblue,184,plasmodium_falciparum_HB3
0.625,0.000586,71.04297,1.0,KN62,Methyleneblue,184,plasmodium_falciparum_HB3
0.625,0.000293,45.07606,1.0,KN62,Methyleneblue,184,plasmodium_falciparum_HB3
0.625,0.0,56.096557999999995,1.0,KN62,Methyleneblue,184,plasmodium_falciparum_HB3
0.3125,0.075,0.6823279999999999,1.0,KN62,Methyleneblue,184,plasmodium_falciparum_HB3
0.3125,0.0375,2.1801470000000003,1.0,KN62,Methyleneblue,184,plasmodium_falciparum_HB3
0.3125,0.01875,4.912219,1.0,KN62,Methyleneblue,184,plasmodium_falciparum_HB3
0.3125,0.009375,51.985924,1.0,KN62,Methyleneblue,184,plasmodium_falciparum_HB3
0.3125,0.0046875,76.45938000000001,1.0,KN62,Methyleneblue,184,plasmodium_falciparum_HB3
0.3125,0.00234375,67.90007,1.0,KN62,Methyleneblue,184,plasmodium_falciparum_HB3
0.3125,0.001171875,78.10959,1.0,KN62,Methyleneblue,184,plasmodium_falciparum_HB3
0.3125,0.000586,76.16405,1.0,KN62,Methyleneblue,184,plasmodium_falciparum_HB3
0.3125,0.000293,89.53901,1.0,KN62,Methyleneblue,184,plasmodium_falciparum_HB3
0.3125,0.0,76.22247,1.0,KN62,Methyleneblue,184,plasmodium_falciparum_HB3
0.15625,0.075,2.159166,1.0,KN62,Methyleneblue,184,plasmodium_falciparum_HB3
0.15625,0.0375,2.277472,1.0,KN62,Methyleneblue,184,plasmodium_falciparum_HB3
0.15625,0.01875,4.131211,1.0,KN62,Methyleneblue,184,plasmodium_falciparum_HB3
0.15625,0.009375,49.42732,1.0,KN62,Methyleneblue,184,plasmodium_falciparum_HB3
0.15625,0.0046875,83.64792,1.0,KN62,Methyleneblue,184,plasmodium_falciparum_HB3
0.15625,0.00234375,87.94266,1.0,KN62,Methyleneblue,184,plasmodium_falciparum_HB3
0.15625,0.001171875,95.04597,1.0,KN62,Methyleneblue,184,plasmodium_falciparum_HB3
0.15625,0.000586,91.64316600000001,1.0,KN62,Methyleneblue,184,plasmodium_falciparum_HB3
0.15625,0.000293,93.599396,1.0,KN62,Methyleneblue,184,plasmodium_falciparum_HB3
0.15625,0.0,89.86331,1.0,KN62,Methyleneblue,184,plasmodium_falciparum_HB3
0.078125,0.075,2.0757950000000003,1.0,KN62,Methyleneblue,184,plasmodium_falciparum_HB3
0.078125,0.0375,2.429959,1.0,KN62,Methyleneblue,184,plasmodium_falciparum_HB3
0.078125,0.01875,7.124189,1.0,KN62,Methyleneblue,184,plasmodium_falciparum_HB3
0.078125,0.009375,76.32195,1.0,KN62,Methyleneblue,184,plasmodium_falciparum_HB3
0.078125,0.0046875,95.21176,1.0,KN62,Methyleneblue,184,plasmodium_falciparum_HB3
0.078125,0.00234375,101.58666,1.0,KN62,Methyleneblue,184,plasmodium_falciparum_HB3
0.078125,0.001171875,107.02842,1.0,KN62,Methyleneblue,184,plasmodium_falciparum_HB3
0.078125,0.000586,105.72013000000001,1.0,KN62,Methyleneblue,184,plasmodium_falciparum_HB3
0.078125,0.000293,102.81319,1.0,KN62,Methyleneblue,184,plasmodium_falciparum_HB3
0.078125,0.0,106.75833,1.0,KN62,Methyleneblue,184,plasmodium_falciparum_HB3
0.0390625,0.075,2.3833290000000003,1.0,KN62,Methyleneblue,184,plasmodium_falciparum_HB3
0.0390625,0.0375,2.7666060000000003,1.0,KN62,Methyleneblue,184,plasmodium_falciparum_HB3
0.0390625,0.01875,5.497775,1.0,KN62,Methyleneblue,184,plasmodium_falciparum_HB3
0.0390625,0.009375,78.78419,1.0,KN62,Methyleneblue,184,plasmodium_falciparum_HB3
0.0390625,0.0046875,96.5466,1.0,KN62,Methyleneblue,184,plasmodium_falciparum_HB3
0.0390625,0.00234375,101.56347,1.0,KN62,Methyleneblue,184,plasmodium_falciparum_HB3
0.0390625,0.001171875,103.62014,1.0,KN62,Methyleneblue,184,plasmodium_falciparum_HB3
0.0390625,0.000586,105.91127,1.0,KN62,Methyleneblue,184,plasmodium_falciparum_HB3
0.0390625,0.000293,104.50867,1.0,KN62,Methyleneblue,184,plasmodium_falciparum_HB3
0.0390625,0.0,105.80148999999999,1.0,KN62,Methyleneblue,184,plasmodium_falciparum_HB3
0.01953125,0.075,1.9989990000000002,1.0,KN62,Methyleneblue,184,plasmodium_falciparum_HB3
0.01953125,0.0375,2.435029,1.0,KN62,Methyleneblue,184,plasmodium_falciparum_HB3
0.01953125,0.01875,9.951528,1.0,KN62,Methyleneblue,184,plasmodium_falciparum_HB3
0.01953125,0.009375,84.12983,1.0,KN62,Methyleneblue,184,plasmodium_falciparum_HB3
0.01953125,0.0046875,98.116295,1.0,KN62,Methyleneblue,184,plasmodium_falciparum_HB3
0.01953125,0.00234375,104.93118999999999,1.0,KN62,Methyleneblue,184,plasmodium_falciparum_HB3
0.01953125,0.001171875,105.68148000000001,1.0,KN62,Methyleneblue,184,plasmodium_falciparum_HB3
0.01953125,0.000586,99.869545,1.0,KN62,Methyleneblue,184,plasmodium_falciparum_HB3
0.01953125,0.000293,96.53735999999999,1.0,KN62,Methyleneblue,184,plasmodium_falciparum_HB3
0.01953125,0.0,101.16494,1.0,KN62,Methyleneblue,184,plasmodium_falciparum_HB3
0.0,0.075,2.17578,1.0,KN62,Methyleneblue,184,plasmodium_falciparum_HB3
0.0,0.0375,2.448129,1.0,KN62,Methyleneblue,184,plasmodium_falciparum_HB3
0.0,0.01875,10.285866,1.0,KN62,Methyleneblue,184,plasmodium_falciparum_HB3
0.0,0.009375,72.67931999999999,1.0,KN62,Methyleneblue,184,plasmodium_falciparum_HB3
0.0,0.0046875,93.99477399999999,1.0,KN62,Methyleneblue,184,plasmodium_falciparum_HB3
0.0,0.00234375,102.468956,1.0,KN62,Methyleneblue,184,plasmodium_falciparum_HB3
0.0,0.001171875,103.336,1.0,KN62,Methyleneblue,184,plasmodium_falciparum_HB3
0.0,0.000586,102.94479,1.0,KN62,Methyleneblue,184,plasmodium_falciparum_HB3
0.0,0.000293,110.67522,1.0,KN62,Methyleneblue,184,plasmodium_falciparum_HB3
0.0,0.0,105.0363,1.0,KN62,Methyleneblue,184,plasmodium_falciparum_HB3
