drug1.conc,drug2.conc,effect,effect.95ci,drug1,drug2,expt,sample
10.0,0.05,-0.448223,1.0,Lidoflazine,Lumefantrine,4,plasmodium_falciparum_Dd2
10.0,0.025,0.792967,1.0,Lidoflazine,Lumefantrine,4,plasmodium_falciparum_Dd2
10.0,0.0125,5.057827,1.0,Lidoflazine,Lumefantrine,4,plasmodium_falciparum_Dd2
10.0,0.00625,12.618947,1.0,Lidoflazine,Lumefantrine,4,plasmodium_falciparum_Dd2
10.0,0.003125,27.123490000000004,1.0,Lidoflazine,Lumefantrine,4,plasmodium_falciparum_Dd2
10.0,0.0015625,36.242844,1.0,Lidoflazine,Lumefantrine,4,plasmodium_falciparum_Dd2
10.0,0.00078125,46.67934,1.0,Lidoflazine,Lumefantrine,4,plasmodium_falciparum_Dd2
10.0,0.000390625,41.780033,1.0,Lidoflazine,Lumefantrine,4,plasmodium_falciparum_Dd2
10.0,0.000195375,47.176359999999995,1.0,Lidoflazine,Lumefantrine,4,plasmodium_falciparum_Dd2
10.0,0.0,45.523975,1.0,Lidoflazine,Lumefantrine,4,plasmodium_falciparum_Dd2
5.0,0.05,0.792696,1.0,Lidoflazine,Lumefantrine,4,plasmodium_falciparum_Dd2
5.0,0.025,6.768515,1.0,Lidoflazine,Lumefantrine,4,plasmodium_falciparum_Dd2
5.0,0.0125,11.718519,1.0,Lidoflazine,Lumefantrine,4,plasmodium_falciparum_Dd2
5.0,0.00625,43.669434,1.0,Lidoflazine,Lumefantrine,4,plasmodium_falciparum_Dd2
5.0,0.003125,73.1778,1.0,Lidoflazine,Lumefantrine,4,plasmodium_falciparum_Dd2
5.0,0.0015625,80.65454,1.0,Lidoflazine,Lumefantrine,4,plasmodium_falciparum_Dd2
5.0,0.00078125,72.7963,1.0,Lidoflazine,Lumefantrine,4,plasmodium_falciparum_Dd2
5.0,0.000390625,68.768364,1.0,Lidoflazine,Lumefantrine,4,plasmodium_falciparum_Dd2
5.0,0.000195375,61.811719999999994,1.0,Lidoflazine,Lumefantrine,4,plasmodium_falciparum_Dd2
5.0,0.0,81.984726,1.0,Lidoflazine,Lumefantrine,4,plasmodium_falciparum_Dd2
2.5,0.05,1.767813,1.0,Lidoflazine,Lumefantrine,4,plasmodium_falciparum_Dd2
2.5,0.025,9.972705,1.0,Lidoflazine,Lumefantrine,4,plasmodium_falciparum_Dd2
2.5,0.0125,33.82103,1.0,Lidoflazine,Lumefantrine,4,plasmodium_falciparum_Dd2
2.5,0.00625,66.87579000000001,1.0,Lidoflazine,Lumefantrine,4,plasmodium_falciparum_Dd2
2.5,0.003125,80.18269000000001,1.0,Lidoflazine,Lumefantrine,4,plasmodium_falciparum_Dd2
2.5,0.0015625,90.78251,1.0,Lidoflazine,Lumefantrine,4,plasmodium_falciparum_Dd2
2.5,0.00078125,88.16542,1.0,Lidoflazine,Lumefantrine,4,plasmodium_falciparum_Dd2
2.5,0.000390625,93.74788000000001,1.0,Lidoflazine,Lumefantrine,4,plasmodium_falciparum_Dd2
2.5,0.000195375,99.40638,1.0,Lidoflazine,Lumefantrine,4,plasmodium_falciparum_Dd2
2.5,0.0,95.803764,1.0,Lidoflazine,Lumefantrine,4,plasmodium_falciparum_Dd2
1.25,0.05,5.946487,1.0,Lidoflazine,Lumefantrine,4,plasmodium_falciparum_Dd2
1.25,0.025,10.719773,1.0,Lidoflazine,Lumefantrine,4,plasmodium_falciparum_Dd2
1.25,0.0125,43.066944,1.0,Lidoflazine,Lumefantrine,4,plasmodium_falciparum_Dd2
1.25,0.00625,72.04652,1.0,Lidoflazine,Lumefantrine,4,plasmodium_falciparum_Dd2
1.25,0.003125,83.560974,1.0,Lidoflazine,Lumefantrine,4,plasmodium_falciparum_Dd2
1.25,0.0015625,94.22435,1.0,Lidoflazine,Lumefantrine,4,plasmodium_falciparum_Dd2
1.25,0.00078125,102.52973,1.0,Lidoflazine,Lumefantrine,4,plasmodium_falciparum_Dd2
1.25,0.000390625,98.36055999999999,1.0,Lidoflazine,Lumefantrine,4,plasmodium_falciparum_Dd2
1.25,0.000195375,90.87639,1.0,Lidoflazine,Lumefantrine,4,plasmodium_falciparum_Dd2
1.25,0.0,104.75328,1.0,Lidoflazine,Lumefantrine,4,plasmodium_falciparum_Dd2
0.625,0.05,4.760974,1.0,Lidoflazine,Lumefantrine,4,plasmodium_falciparum_Dd2
0.625,0.0125,45.483505,1.0,Lidoflazine,Lumefantrine,4,plasmodium_falciparum_Dd2
0.625,0.00625,60.415813,1.0,Lidoflazine,Lumefantrine,4,plasmodium_falciparum_Dd2
0.625,0.003125,94.76844,1.0,Lidoflazine,Lumefantrine,4,plasmodium_falciparum_Dd2
0.625,0.0015625,94.59933000000001,1.0,Lidoflazine,Lumefantrine,4,plasmodium_falciparum_Dd2
0.625,0.00078125,101.399345,1.0,Lidoflazine,Lumefantrine,4,plasmodium_falciparum_Dd2
0.625,0.000390625,99.57223499999999,1.0,Lidoflazine,Lumefantrine,4,plasmodium_falciparum_Dd2
0.625,0.000195375,103.87204,1.0,Lidoflazine,Lumefantrine,4,plasmodium_falciparum_Dd2
0.625,0.0,100.21121,1.0,Lidoflazine,Lumefantrine,4,plasmodium_falciparum_Dd2
0.3125,0.05,4.950275,1.0,Lidoflazine,Lumefantrine,4,plasmodium_falciparum_Dd2
0.3125,0.025,10.678581,1.0,Lidoflazine,Lumefantrine,4,plasmodium_falciparum_Dd2
0.3125,0.0125,52.72351,1.0,Lidoflazine,Lumefantrine,4,plasmodium_falciparum_Dd2
0.3125,0.00625,74.65971,1.0,Lidoflazine,Lumefantrine,4,plasmodium_falciparum_Dd2
0.3125,0.003125,95.74446999999999,1.0,Lidoflazine,Lumefantrine,4,plasmodium_falciparum_Dd2
0.3125,0.0015625,105.69878999999999,1.0,Lidoflazine,Lumefantrine,4,plasmodium_falciparum_Dd2
0.3125,0.00078125,102.40706,1.0,Lidoflazine,Lumefantrine,4,plasmodium_falciparum_Dd2
0.3125,0.000390625,105.73691000000001,1.0,Lidoflazine,Lumefantrine,4,plasmodium_falciparum_Dd2
0.3125,0.000195375,103.87449000000001,1.0,Lidoflazine,Lumefantrine,4,plasmodium_falciparum_Dd2
0.3125,0.0,98.2751,1.0,Lidoflazine,Lumefantrine,4,plasmodium_falciparum_Dd2
0.15625,0.05,4.078545,1.0,Lidoflazine,Lumefantrine,4,plasmodium_falciparum_Dd2
0.15625,0.025,10.569671000000001,1.0,Lidoflazine,Lumefantrine,4,plasmodium_falciparum_Dd2
0.15625,0.0125,56.461388,1.0,Lidoflazine,Lumefantrine,4,plasmodium_falciparum_Dd2
0.15625,0.00625,76.22673,1.0,Lidoflazine,Lumefantrine,4,plasmodium_falciparum_Dd2
0.15625,0.003125,87.08681999999999,1.0,Lidoflazine,Lumefantrine,4,plasmodium_falciparum_Dd2
0.15625,0.0015625,100.82121,1.0,Lidoflazine,Lumefantrine,4,plasmodium_falciparum_Dd2
0.15625,0.00078125,98.766685,1.0,Lidoflazine,Lumefantrine,4,plasmodium_falciparum_Dd2
0.15625,0.000390625,95.820786,1.0,Lidoflazine,Lumefantrine,4,plasmodium_falciparum_Dd2
0.15625,0.000195375,102.763664,1.0,Lidoflazine,Lumefantrine,4,plasmodium_falciparum_Dd2
0.15625,0.0,97.34108,1.0,Lidoflazine,Lumefantrine,4,plasmodium_falciparum_Dd2
0.078125,0.05,2.92499,1.0,Lidoflazine,Lumefantrine,4,plasmodium_falciparum_Dd2
0.078125,0.025,10.79247,1.0,Lidoflazine,Lumefantrine,4,plasmodium_falciparum_Dd2
0.078125,0.0125,71.97309,1.0,Lidoflazine,Lumefantrine,4,plasmodium_falciparum_Dd2
0.078125,0.00625,97.94275999999999,1.0,Lidoflazine,Lumefantrine,4,plasmodium_falciparum_Dd2
0.078125,0.003125,96.90191999999999,1.0,Lidoflazine,Lumefantrine,4,plasmodium_falciparum_Dd2
0.078125,0.0015625,110.33845500000001,1.0,Lidoflazine,Lumefantrine,4,plasmodium_falciparum_Dd2
0.078125,0.00078125,106.21727,1.0,Lidoflazine,Lumefantrine,4,plasmodium_falciparum_Dd2
0.078125,0.000390625,107.95629,1.0,Lidoflazine,Lumefantrine,4,plasmodium_falciparum_Dd2
0.078125,0.000195375,101.55941,1.0,Lidoflazine,Lumefantrine,4,plasmodium_falciparum_Dd2
0.078125,0.0,118.469925,1.0,Lidoflazine,Lumefantrine,4,plasmodium_falciparum_Dd2
0.0390625,0.05,6.648289,1.0,Lidoflazine,Lumefantrine,4,plasmodium_falciparum_Dd2
0.0390625,0.025,11.475894,1.0,Lidoflazine,Lumefantrine,4,plasmodium_falciparum_Dd2
0.0390625,0.0125,42.84478,1.0,Lidoflazine,Lumefantrine,4,plasmodium_falciparum_Dd2
0.0390625,0.00625,79.17806,1.0,Lidoflazine,Lumefantrine,4,plasmodium_falciparum_Dd2
0.0390625,0.003125,95.4018,1.0,Lidoflazine,Lumefantrine,4,plasmodium_falciparum_Dd2
0.0390625,0.00078125,111.73681,1.0,Lidoflazine,Lumefantrine,4,plasmodium_falciparum_Dd2
0.0390625,0.000390625,100.51621,1.0,Lidoflazine,Lumefantrine,4,plasmodium_falciparum_Dd2
0.0390625,0.000195375,113.7687,1.0,Lidoflazine,Lumefantrine,4,plasmodium_falciparum_Dd2
0.0390625,0.0,112.67073,1.0,Lidoflazine,Lumefantrine,4,plasmodium_falciparum_Dd2
0.0,0.05,3.2265509999999997,1.0,Lidoflazine,Lumefantrine,4,plasmodium_falciparum_Dd2
0.0,0.025,17.814926,1.0,Lidoflazine,Lumefantrine,4,plasmodium_falciparum_Dd2
0.0,0.0125,62.02628000000001,1.0,Lidoflazine,Lumefantrine,4,plasmodium_falciparum_Dd2
0.0,0.00625,82.86062,1.0,Lidoflazine,Lumefantrine,4,plasmodium_falciparum_Dd2
0.0,0.003125,102.74438,1.0,Lidoflazine,Lumefantrine,4,plasmodium_falciparum_Dd2
0.0,0.0015625,100.33678,1.0,Lidoflazine,Lumefantrine,4,plasmodium_falciparum_Dd2
0.0,0.00078125,96.916214,1.0,Lidoflazine,Lumefantrine,4,plasmodium_falciparum_Dd2
0.0,0.000390625,108.974686,1.0,Lidoflazine,Lumefantrine,4,plasmodium_falciparum_Dd2
0.0,0.000195375,99.26697,1.0,Lidoflazine,Lumefantrine,4,plasmodium_falciparum_Dd2
