drug1.conc,drug2.conc,effect,effect.95ci,drug1,drug2,expt,sample
10.0,0.05,-0.9098799999999999,1.0,Lomerizinedihydrochloride,Artemether,17,plasmodium_falciparum_Dd2
10.0,0.025,-0.07635399999999999,1.0,Lomerizinedihydrochloride,Artemether,17,plasmodium_falciparum_Dd2
10.0,0.0125,35.36892,1.0,Lomerizinedihydrochloride,Artemether,17,plasmodium_falciparum_Dd2
10.0,0.00625,0.594877,1.0,Lomerizinedihydrochloride,Artemether,17,plasmodium_falciparum_Dd2
10.0,0.003125,70.59231,1.0,Lomerizinedihydrochloride,Artemether,17,plasmodium_falciparum_Dd2
10.0,0.0015625,84.67363,1.0,Lomerizinedihydrochloride,Artemether,17,plasmodium_falciparum_Dd2
10.0,0.00078125,89.0067,1.0,Lomerizinedihydrochloride,Artemether,17,plasmodium_falciparum_Dd2
10.0,0.000390625,70.91887,1.0,Lomerizinedihydrochloride,Artemether,17,plasmodium_falciparum_Dd2
10.0,0.000195375,44.993507,1.0,Lomerizinedihydrochloride,Artemether,17,plasmodium_falciparum_Dd2
10.0,0.0,65.35124,1.0,Lomerizinedihydrochloride,Artemether,17,plasmodium_falciparum_Dd2
5.0,0.05,-1.592134,1.0,Lomerizinedihydrochloride,Artemether,17,plasmodium_falciparum_Dd2
5.0,0.025,-0.042837,1.0,Lomerizinedihydrochloride,Artemether,17,plasmodium_falciparum_Dd2
5.0,0.0125,50.882683,1.0,Lomerizinedihydrochloride,Artemether,17,plasmodium_falciparum_Dd2
5.0,0.00625,2.152687,1.0,Lomerizinedihydrochloride,Artemether,17,plasmodium_falciparum_Dd2
5.0,0.003125,52.290295,1.0,Lomerizinedihydrochloride,Artemether,17,plasmodium_falciparum_Dd2
5.0,0.0015625,112.12678000000001,1.0,Lomerizinedihydrochloride,Artemether,17,plasmodium_falciparum_Dd2
5.0,0.00078125,41.031006,1.0,Lomerizinedihydrochloride,Artemether,17,plasmodium_falciparum_Dd2
5.0,0.000390625,46.787009999999995,1.0,Lomerizinedihydrochloride,Artemether,17,plasmodium_falciparum_Dd2
5.0,0.000195375,77.66405999999999,1.0,Lomerizinedihydrochloride,Artemether,17,plasmodium_falciparum_Dd2
5.0,0.0,41.487246999999996,1.0,Lomerizinedihydrochloride,Artemether,17,plasmodium_falciparum_Dd2
2.5,0.05,-0.34878899999999996,1.0,Lomerizinedihydrochloride,Artemether,17,plasmodium_falciparum_Dd2
2.5,0.025,-0.90755,1.0,Lomerizinedihydrochloride,Artemether,17,plasmodium_falciparum_Dd2
2.5,0.0125,68.11421999999999,1.0,Lomerizinedihydrochloride,Artemether,17,plasmodium_falciparum_Dd2
2.5,0.00625,85.17154000000001,1.0,Lomerizinedihydrochloride,Artemether,17,plasmodium_falciparum_Dd2
2.5,0.003125,100.83192,1.0,Lomerizinedihydrochloride,Artemether,17,plasmodium_falciparum_Dd2
2.5,0.0015625,90.83918,1.0,Lomerizinedihydrochloride,Artemether,17,plasmodium_falciparum_Dd2
2.5,0.00078125,95.44360999999999,1.0,Lomerizinedihydrochloride,Artemether,17,plasmodium_falciparum_Dd2
2.5,0.000390625,82.03289000000001,1.0,Lomerizinedihydrochloride,Artemether,17,plasmodium_falciparum_Dd2
2.5,0.000195375,91.200874,1.0,Lomerizinedihydrochloride,Artemether,17,plasmodium_falciparum_Dd2
2.5,0.0,77.02868000000001,1.0,Lomerizinedihydrochloride,Artemether,17,plasmodium_falciparum_Dd2
1.25,0.05,-0.641926,1.0,Lomerizinedihydrochloride,Artemether,17,plasmodium_falciparum_Dd2
1.25,0.025,-1.02692,1.0,Lomerizinedihydrochloride,Artemether,17,plasmodium_falciparum_Dd2
1.25,0.0125,16.317176999999997,1.0,Lomerizinedihydrochloride,Artemether,17,plasmodium_falciparum_Dd2
1.25,0.00625,90.37559499999999,1.0,Lomerizinedihydrochloride,Artemether,17,plasmodium_falciparum_Dd2
1.25,0.003125,108.05091000000002,1.0,Lomerizinedihydrochloride,Artemether,17,plasmodium_falciparum_Dd2
1.25,0.00078125,102.862724,1.0,Lomerizinedihydrochloride,Artemether,17,plasmodium_falciparum_Dd2
1.25,0.000390625,90.72887,1.0,Lomerizinedihydrochloride,Artemether,17,plasmodium_falciparum_Dd2
1.25,0.000195375,94.41095,1.0,Lomerizinedihydrochloride,Artemether,17,plasmodium_falciparum_Dd2
1.25,0.0,90.38734000000001,1.0,Lomerizinedihydrochloride,Artemether,17,plasmodium_falciparum_Dd2
0.625,0.05,-0.578477,1.0,Lomerizinedihydrochloride,Artemether,17,plasmodium_falciparum_Dd2
0.625,0.025,1.568206,1.0,Lomerizinedihydrochloride,Artemether,17,plasmodium_falciparum_Dd2
0.625,0.0125,83.67161999999999,1.0,Lomerizinedihydrochloride,Artemether,17,plasmodium_falciparum_Dd2
0.625,0.00625,88.5449,1.0,Lomerizinedihydrochloride,Artemether,17,plasmodium_falciparum_Dd2
0.625,0.003125,105.34395,1.0,Lomerizinedihydrochloride,Artemether,17,plasmodium_falciparum_Dd2
0.625,0.0015625,94.75822,1.0,Lomerizinedihydrochloride,Artemether,17,plasmodium_falciparum_Dd2
0.625,0.00078125,96.72567,1.0,Lomerizinedihydrochloride,Artemether,17,plasmodium_falciparum_Dd2
0.625,0.000390625,92.58026,1.0,Lomerizinedihydrochloride,Artemether,17,plasmodium_falciparum_Dd2
0.625,0.000195375,103.32891,1.0,Lomerizinedihydrochloride,Artemether,17,plasmodium_falciparum_Dd2
0.625,0.0,97.86506,1.0,Lomerizinedihydrochloride,Artemether,17,plasmodium_falciparum_Dd2
0.3125,0.05,0.7280479999999999,1.0,Lomerizinedihydrochloride,Artemether,17,plasmodium_falciparum_Dd2
0.3125,0.025,1.9912869999999998,1.0,Lomerizinedihydrochloride,Artemether,17,plasmodium_falciparum_Dd2
0.3125,0.0125,76.42806999999999,1.0,Lomerizinedihydrochloride,Artemether,17,plasmodium_falciparum_Dd2
0.3125,0.00625,108.71596000000001,1.0,Lomerizinedihydrochloride,Artemether,17,plasmodium_falciparum_Dd2
0.3125,0.003125,110.482574,1.0,Lomerizinedihydrochloride,Artemether,17,plasmodium_falciparum_Dd2
0.3125,0.0015625,102.247505,1.0,Lomerizinedihydrochloride,Artemether,17,plasmodium_falciparum_Dd2
0.3125,0.00078125,101.142166,1.0,Lomerizinedihydrochloride,Artemether,17,plasmodium_falciparum_Dd2
0.3125,0.000390625,99.69844,1.0,Lomerizinedihydrochloride,Artemether,17,plasmodium_falciparum_Dd2
0.3125,0.000195375,109.334946,1.0,Lomerizinedihydrochloride,Artemether,17,plasmodium_falciparum_Dd2
0.3125,0.0,106.20283500000001,1.0,Lomerizinedihydrochloride,Artemether,17,plasmodium_falciparum_Dd2
0.15625,0.05,1.209201,1.0,Lomerizinedihydrochloride,Artemether,17,plasmodium_falciparum_Dd2
0.15625,0.025,1.756939,1.0,Lomerizinedihydrochloride,Artemether,17,plasmodium_falciparum_Dd2
0.15625,0.0125,91.02566999999999,1.0,Lomerizinedihydrochloride,Artemether,17,plasmodium_falciparum_Dd2
0.15625,0.00625,111.37058999999999,1.0,Lomerizinedihydrochloride,Artemether,17,plasmodium_falciparum_Dd2
0.15625,0.003125,103.289925,1.0,Lomerizinedihydrochloride,Artemether,17,plasmodium_falciparum_Dd2
0.15625,0.0015625,105.86435,1.0,Lomerizinedihydrochloride,Artemether,17,plasmodium_falciparum_Dd2
0.15625,0.00078125,118.51431000000001,1.0,Lomerizinedihydrochloride,Artemether,17,plasmodium_falciparum_Dd2
0.15625,0.000390625,104.00274,1.0,Lomerizinedihydrochloride,Artemether,17,plasmodium_falciparum_Dd2
0.15625,0.000195375,106.22998999999999,1.0,Lomerizinedihydrochloride,Artemether,17,plasmodium_falciparum_Dd2
0.15625,0.0,109.594025,1.0,Lomerizinedihydrochloride,Artemether,17,plasmodium_falciparum_Dd2
0.078125,0.05,0.572652,1.0,Lomerizinedihydrochloride,Artemether,17,plasmodium_falciparum_Dd2
0.078125,0.025,2.4083639999999997,1.0,Lomerizinedihydrochloride,Artemether,17,plasmodium_falciparum_Dd2
0.078125,0.0125,73.12533,1.0,Lomerizinedihydrochloride,Artemether,17,plasmodium_falciparum_Dd2
0.078125,0.00625,97.18361,1.0,Lomerizinedihydrochloride,Artemether,17,plasmodium_falciparum_Dd2
0.078125,0.003125,99.14461,1.0,Lomerizinedihydrochloride,Artemether,17,plasmodium_falciparum_Dd2
0.078125,0.0015625,103.84841999999999,1.0,Lomerizinedihydrochloride,Artemether,17,plasmodium_falciparum_Dd2
0.078125,0.00078125,98.580376,1.0,Lomerizinedihydrochloride,Artemether,17,plasmodium_falciparum_Dd2
0.078125,0.000390625,100.33194,1.0,Lomerizinedihydrochloride,Artemether,17,plasmodium_falciparum_Dd2
0.078125,0.000195375,108.68763999999999,1.0,Lomerizinedihydrochloride,Artemether,17,plasmodium_falciparum_Dd2
0.078125,0.0,106.92577,1.0,Lomerizinedihydrochloride,Artemether,17,plasmodium_falciparum_Dd2
0.0390625,0.05,0.5006,1.0,Lomerizinedihydrochloride,Artemether,17,plasmodium_falciparum_Dd2
0.0390625,0.025,2.584103,1.0,Lomerizinedihydrochloride,Artemether,17,plasmodium_falciparum_Dd2
0.0390625,0.0125,42.125137,1.0,Lomerizinedihydrochloride,Artemether,17,plasmodium_falciparum_Dd2
0.0390625,0.00625,107.54906000000001,1.0,Lomerizinedihydrochloride,Artemether,17,plasmodium_falciparum_Dd2
0.0390625,0.003125,104.45575,1.0,Lomerizinedihydrochloride,Artemether,17,plasmodium_falciparum_Dd2
0.0390625,0.0015625,102.49027,1.0,Lomerizinedihydrochloride,Artemether,17,plasmodium_falciparum_Dd2
0.0390625,0.00078125,111.5578,1.0,Lomerizinedihydrochloride,Artemether,17,plasmodium_falciparum_Dd2
0.0390625,0.000390625,113.281586,1.0,Lomerizinedihydrochloride,Artemether,17,plasmodium_falciparum_Dd2
0.0390625,0.000195375,96.94505,1.0,Lomerizinedihydrochloride,Artemether,17,plasmodium_falciparum_Dd2
0.0390625,0.0,98.48915,1.0,Lomerizinedihydrochloride,Artemether,17,plasmodium_falciparum_Dd2
0.0,0.05,2.477907,1.0,Lomerizinedihydrochloride,Artemether,17,plasmodium_falciparum_Dd2
0.0,0.025,2.2344180000000002,1.0,Lomerizinedihydrochloride,Artemether,17,plasmodium_falciparum_Dd2
0.0,0.0125,75.15972,1.0,Lomerizinedihydrochloride,Artemether,17,plasmodium_falciparum_Dd2
0.0,0.00625,103.089096,1.0,Lomerizinedihydrochloride,Artemether,17,plasmodium_falciparum_Dd2
0.0,0.003125,103.236786,1.0,Lomerizinedihydrochloride,Artemether,17,plasmodium_falciparum_Dd2
0.0,0.0015625,106.97327,1.0,Lomerizinedihydrochloride,Artemether,17,plasmodium_falciparum_Dd2
0.0,0.00078125,95.92279,1.0,Lomerizinedihydrochloride,Artemether,17,plasmodium_falciparum_Dd2
0.0,0.000390625,109.50028999999999,1.0,Lomerizinedihydrochloride,Artemether,17,plasmodium_falciparum_Dd2
0.0,0.000195375,106.43852,1.0,Lomerizinedihydrochloride,Artemether,17,plasmodium_falciparum_Dd2
0.0,0.0,102.13566,1.0,Lomerizinedihydrochloride,Artemether,17,plasmodium_falciparum_Dd2
