drug1.conc,drug2.conc,effect,effect.95ci,drug1,drug2,expt,sample
10.0,0.075,2.214113,1.0,Manidipinedihydrochloride,Methyleneblue,84,plasmodium_falciparum_Dd2
10.0,0.0375,2.430618,1.0,Manidipinedihydrochloride,Methyleneblue,84,plasmodium_falciparum_Dd2
10.0,0.01875,9.355669,1.0,Manidipinedihydrochloride,Methyleneblue,84,plasmodium_falciparum_Dd2
10.0,0.009375,24.742392000000002,1.0,Manidipinedihydrochloride,Methyleneblue,84,plasmodium_falciparum_Dd2
10.0,0.0046875,47.87843,1.0,Manidipinedihydrochloride,Methyleneblue,84,plasmodium_falciparum_Dd2
10.0,0.00234375,57.932019999999994,1.0,Manidipinedihydrochloride,Methyleneblue,84,plasmodium_falciparum_Dd2
10.0,0.001171875,63.278442000000005,1.0,Manidipinedihydrochloride,Methyleneblue,84,plasmodium_falciparum_Dd2
10.0,0.000586,52.47935,1.0,Manidipinedihydrochloride,Methyleneblue,84,plasmodium_falciparum_Dd2
10.0,0.000293,48.84134,1.0,Manidipinedihydrochloride,Methyleneblue,84,plasmodium_falciparum_Dd2
10.0,0.0,24.56863,1.0,Manidipinedihydrochloride,Methyleneblue,84,plasmodium_falciparum_Dd2
5.0,0.075,6.080114,1.0,Manidipinedihydrochloride,Methyleneblue,84,plasmodium_falciparum_Dd2
5.0,0.0375,4.267836,1.0,Manidipinedihydrochloride,Methyleneblue,84,plasmodium_falciparum_Dd2
5.0,0.01875,30.170447999999997,1.0,Manidipinedihydrochloride,Methyleneblue,84,plasmodium_falciparum_Dd2
5.0,0.009375,76.93681,1.0,Manidipinedihydrochloride,Methyleneblue,84,plasmodium_falciparum_Dd2
5.0,0.0046875,80.045746,1.0,Manidipinedihydrochloride,Methyleneblue,84,plasmodium_falciparum_Dd2
5.0,0.00234375,90.86576,1.0,Manidipinedihydrochloride,Methyleneblue,84,plasmodium_falciparum_Dd2
5.0,0.000586,97.13374,1.0,Manidipinedihydrochloride,Methyleneblue,84,plasmodium_falciparum_Dd2
5.0,0.000293,82.49597,1.0,Manidipinedihydrochloride,Methyleneblue,84,plasmodium_falciparum_Dd2
5.0,0.0,81.05214000000001,1.0,Manidipinedihydrochloride,Methyleneblue,84,plasmodium_falciparum_Dd2
2.5,0.075,3.949765,1.0,Manidipinedihydrochloride,Methyleneblue,84,plasmodium_falciparum_Dd2
2.5,0.0375,2.7260470000000003,1.0,Manidipinedihydrochloride,Methyleneblue,84,plasmodium_falciparum_Dd2
2.5,0.01875,45.78672,1.0,Manidipinedihydrochloride,Methyleneblue,84,plasmodium_falciparum_Dd2
2.5,0.0046875,109.92116999999999,1.0,Manidipinedihydrochloride,Methyleneblue,84,plasmodium_falciparum_Dd2
2.5,0.001171875,108.56464,1.0,Manidipinedihydrochloride,Methyleneblue,84,plasmodium_falciparum_Dd2
2.5,0.0,103.13797,1.0,Manidipinedihydrochloride,Methyleneblue,84,plasmodium_falciparum_Dd2
1.25,0.075,3.4136290000000002,1.0,Manidipinedihydrochloride,Methyleneblue,84,plasmodium_falciparum_Dd2
1.25,0.0375,6.22106,1.0,Manidipinedihydrochloride,Methyleneblue,84,plasmodium_falciparum_Dd2
1.25,0.01875,54.53529,1.0,Manidipinedihydrochloride,Methyleneblue,84,plasmodium_falciparum_Dd2
1.25,0.009375,107.4182,1.0,Manidipinedihydrochloride,Methyleneblue,84,plasmodium_falciparum_Dd2
1.25,0.0046875,115.72941000000002,1.0,Manidipinedihydrochloride,Methyleneblue,84,plasmodium_falciparum_Dd2
1.25,0.000586,112.95273999999999,1.0,Manidipinedihydrochloride,Methyleneblue,84,plasmodium_falciparum_Dd2
1.25,0.000293,102.87913499999999,1.0,Manidipinedihydrochloride,Methyleneblue,84,plasmodium_falciparum_Dd2
0.625,0.075,4.008506,1.0,Manidipinedihydrochloride,Methyleneblue,84,plasmodium_falciparum_Dd2
0.625,0.0375,3.39435,1.0,Manidipinedihydrochloride,Methyleneblue,84,plasmodium_falciparum_Dd2
0.625,0.01875,108.536,1.0,Manidipinedihydrochloride,Methyleneblue,84,plasmodium_falciparum_Dd2
0.625,0.009375,100.08861,1.0,Manidipinedihydrochloride,Methyleneblue,84,plasmodium_falciparum_Dd2
0.625,0.0046875,95.484726,1.0,Manidipinedihydrochloride,Methyleneblue,84,plasmodium_falciparum_Dd2
0.625,0.00234375,99.393555,1.0,Manidipinedihydrochloride,Methyleneblue,84,plasmodium_falciparum_Dd2
0.625,0.001171875,112.15095500000001,1.0,Manidipinedihydrochloride,Methyleneblue,84,plasmodium_falciparum_Dd2
0.625,0.000586,100.93239,1.0,Manidipinedihydrochloride,Methyleneblue,84,plasmodium_falciparum_Dd2
0.625,0.000293,108.49243999999999,1.0,Manidipinedihydrochloride,Methyleneblue,84,plasmodium_falciparum_Dd2
0.625,0.0,99.3988,1.0,Manidipinedihydrochloride,Methyleneblue,84,plasmodium_falciparum_Dd2
0.3125,0.075,5.085864,1.0,Manidipinedihydrochloride,Methyleneblue,84,plasmodium_falciparum_Dd2
0.3125,0.0375,5.646776,1.0,Manidipinedihydrochloride,Methyleneblue,84,plasmodium_falciparum_Dd2
0.3125,0.01875,101.38435,1.0,Manidipinedihydrochloride,Methyleneblue,84,plasmodium_falciparum_Dd2
0.3125,0.009375,96.72059,1.0,Manidipinedihydrochloride,Methyleneblue,84,plasmodium_falciparum_Dd2
0.3125,0.000586,114.7843,1.0,Manidipinedihydrochloride,Methyleneblue,84,plasmodium_falciparum_Dd2
0.3125,0.0,118.61001599999999,1.0,Manidipinedihydrochloride,Methyleneblue,84,plasmodium_falciparum_Dd2
0.15625,0.075,3.53226,1.0,Manidipinedihydrochloride,Methyleneblue,84,plasmodium_falciparum_Dd2
0.15625,0.0375,6.920949,1.0,Manidipinedihydrochloride,Methyleneblue,84,plasmodium_falciparum_Dd2
0.15625,0.01875,66.81841,1.0,Manidipinedihydrochloride,Methyleneblue,84,plasmodium_falciparum_Dd2
0.15625,0.009375,107.2044,1.0,Manidipinedihydrochloride,Methyleneblue,84,plasmodium_falciparum_Dd2
0.15625,0.000586,103.44128,1.0,Manidipinedihydrochloride,Methyleneblue,84,plasmodium_falciparum_Dd2
0.15625,0.0,100.16704,1.0,Manidipinedihydrochloride,Methyleneblue,84,plasmodium_falciparum_Dd2
0.078125,0.075,5.203182,1.0,Manidipinedihydrochloride,Methyleneblue,84,plasmodium_falciparum_Dd2
0.078125,0.0375,9.686867,1.0,Manidipinedihydrochloride,Methyleneblue,84,plasmodium_falciparum_Dd2
0.078125,0.01875,69.77294,1.0,Manidipinedihydrochloride,Methyleneblue,84,plasmodium_falciparum_Dd2
0.078125,0.009375,119.125725,1.0,Manidipinedihydrochloride,Methyleneblue,84,plasmodium_falciparum_Dd2
0.078125,0.00234375,104.9619,1.0,Manidipinedihydrochloride,Methyleneblue,84,plasmodium_falciparum_Dd2
0.078125,0.001171875,109.47807,1.0,Manidipinedihydrochloride,Methyleneblue,84,plasmodium_falciparum_Dd2
0.078125,0.000586,117.86066000000001,1.0,Manidipinedihydrochloride,Methyleneblue,84,plasmodium_falciparum_Dd2
0.078125,0.0,107.26026999999999,1.0,Manidipinedihydrochloride,Methyleneblue,84,plasmodium_falciparum_Dd2
0.0390625,0.075,2.588711,1.0,Manidipinedihydrochloride,Methyleneblue,84,plasmodium_falciparum_Dd2
0.0390625,0.0375,10.058758000000001,1.0,Manidipinedihydrochloride,Methyleneblue,84,plasmodium_falciparum_Dd2
0.0390625,0.01875,63.69315699999999,1.0,Manidipinedihydrochloride,Methyleneblue,84,plasmodium_falciparum_Dd2
0.0390625,0.009375,117.37686000000001,1.0,Manidipinedihydrochloride,Methyleneblue,84,plasmodium_falciparum_Dd2
0.0390625,0.00234375,119.90454,1.0,Manidipinedihydrochloride,Methyleneblue,84,plasmodium_falciparum_Dd2
0.0390625,0.001171875,100.555824,1.0,Manidipinedihydrochloride,Methyleneblue,84,plasmodium_falciparum_Dd2
0.0390625,0.000586,109.78532,1.0,Manidipinedihydrochloride,Methyleneblue,84,plasmodium_falciparum_Dd2
0.0390625,0.0,104.37761,1.0,Manidipinedihydrochloride,Methyleneblue,84,plasmodium_falciparum_Dd2
0.0,0.075,6.930302,1.0,Manidipinedihydrochloride,Methyleneblue,84,plasmodium_falciparum_Dd2
0.0,0.0375,5.141323000000001,1.0,Manidipinedihydrochloride,Methyleneblue,84,plasmodium_falciparum_Dd2
0.0,0.01875,42.981586,1.0,Manidipinedihydrochloride,Methyleneblue,84,plasmodium_falciparum_Dd2
0.0,0.009375,106.58663,1.0,Manidipinedihydrochloride,Methyleneblue,84,plasmodium_falciparum_Dd2
0.0,0.00234375,115.321175,1.0,Manidipinedihydrochloride,Methyleneblue,84,plasmodium_falciparum_Dd2
0.0,0.001171875,110.3879,1.0,Manidipinedihydrochloride,Methyleneblue,84,plasmodium_falciparum_Dd2
0.0,0.000586,118.07683600000001,1.0,Manidipinedihydrochloride,Methyleneblue,84,plasmodium_falciparum_Dd2
0.0,0.000293,110.69728,1.0,Manidipinedihydrochloride,Methyleneblue,84,plasmodium_falciparum_Dd2
0.0,0.0,113.95068,1.0,Manidipinedihydrochloride,Methyleneblue,84,plasmodium_falciparum_Dd2
