drug1.conc,drug2.conc,effect,effect.95ci,drug1,drug2,expt,sample
10.0,0.05,0.7759149999999999,1.0,Manidipinedihydrochloride,Artesunate,81,plasmodium_falciparum_HB3
10.0,0.025,2.128486,1.0,Manidipinedihydrochloride,Artesunate,81,plasmodium_falciparum_HB3
10.0,0.0125,2.8315770000000002,1.0,Manidipinedihydrochloride,Artesunate,81,plasmodium_falciparum_HB3
10.0,0.00625,10.36773,1.0,Manidipinedihydrochloride,Artesunate,81,plasmodium_falciparum_HB3
10.0,0.003125,16.697210000000002,1.0,Manidipinedihydrochloride,Artesunate,81,plasmodium_falciparum_HB3
10.0,0.0015625,20.946285,1.0,Manidipinedihydrochloride,Artesunate,81,plasmodium_falciparum_HB3
10.0,0.00078125,26.763385999999997,1.0,Manidipinedihydrochloride,Artesunate,81,plasmodium_falciparum_HB3
10.0,0.000390625,19.513851000000003,1.0,Manidipinedihydrochloride,Artesunate,81,plasmodium_falciparum_HB3
10.0,0.000195375,28.157597999999997,1.0,Manidipinedihydrochloride,Artesunate,81,plasmodium_falciparum_HB3
10.0,0.0,33.64151,1.0,Manidipinedihydrochloride,Artesunate,81,plasmodium_falciparum_HB3
5.0,0.05,1.94366,1.0,Manidipinedihydrochloride,Artesunate,81,plasmodium_falciparum_HB3
5.0,0.025,3.649989,1.0,Manidipinedihydrochloride,Artesunate,81,plasmodium_falciparum_HB3
5.0,0.0125,9.743246000000001,1.0,Manidipinedihydrochloride,Artesunate,81,plasmodium_falciparum_HB3
5.0,0.00625,29.98116,1.0,Manidipinedihydrochloride,Artesunate,81,plasmodium_falciparum_HB3
5.0,0.003125,51.671375,1.0,Manidipinedihydrochloride,Artesunate,81,plasmodium_falciparum_HB3
5.0,0.0015625,38.795753000000005,1.0,Manidipinedihydrochloride,Artesunate,81,plasmodium_falciparum_HB3
5.0,0.00078125,38.58035,1.0,Manidipinedihydrochloride,Artesunate,81,plasmodium_falciparum_HB3
5.0,0.000390625,64.81798,1.0,Manidipinedihydrochloride,Artesunate,81,plasmodium_falciparum_HB3
5.0,0.000195375,70.739235,1.0,Manidipinedihydrochloride,Artesunate,81,plasmodium_falciparum_HB3
5.0,0.0,44.88041,1.0,Manidipinedihydrochloride,Artesunate,81,plasmodium_falciparum_HB3
2.5,0.05,2.128284,1.0,Manidipinedihydrochloride,Artesunate,81,plasmodium_falciparum_HB3
2.5,0.025,4.357456,1.0,Manidipinedihydrochloride,Artesunate,81,plasmodium_falciparum_HB3
2.5,0.0125,13.72064,1.0,Manidipinedihydrochloride,Artesunate,81,plasmodium_falciparum_HB3
2.5,0.00625,53.553276000000004,1.0,Manidipinedihydrochloride,Artesunate,81,plasmodium_falciparum_HB3
2.5,0.003125,77.198975,1.0,Manidipinedihydrochloride,Artesunate,81,plasmodium_falciparum_HB3
2.5,0.0015625,77.416534,1.0,Manidipinedihydrochloride,Artesunate,81,plasmodium_falciparum_HB3
2.5,0.00078125,83.35525,1.0,Manidipinedihydrochloride,Artesunate,81,plasmodium_falciparum_HB3
2.5,0.000390625,82.06111,1.0,Manidipinedihydrochloride,Artesunate,81,plasmodium_falciparum_HB3
2.5,0.000195375,83.73706999999999,1.0,Manidipinedihydrochloride,Artesunate,81,plasmodium_falciparum_HB3
2.5,0.0,83.89237,1.0,Manidipinedihydrochloride,Artesunate,81,plasmodium_falciparum_HB3
1.25,0.05,2.1215450000000002,1.0,Manidipinedihydrochloride,Artesunate,81,plasmodium_falciparum_HB3
1.25,0.025,4.682397,1.0,Manidipinedihydrochloride,Artesunate,81,plasmodium_falciparum_HB3
1.25,0.0125,16.305582,1.0,Manidipinedihydrochloride,Artesunate,81,plasmodium_falciparum_HB3
1.25,0.00625,69.95653,1.0,Manidipinedihydrochloride,Artesunate,81,plasmodium_falciparum_HB3
1.25,0.003125,91.146126,1.0,Manidipinedihydrochloride,Artesunate,81,plasmodium_falciparum_HB3
1.25,0.0015625,88.46991,1.0,Manidipinedihydrochloride,Artesunate,81,plasmodium_falciparum_HB3
1.25,0.00078125,97.50960500000001,1.0,Manidipinedihydrochloride,Artesunate,81,plasmodium_falciparum_HB3
1.25,0.000390625,93.70814,1.0,Manidipinedihydrochloride,Artesunate,81,plasmodium_falciparum_HB3
1.25,0.000195375,93.13455,1.0,Manidipinedihydrochloride,Artesunate,81,plasmodium_falciparum_HB3
1.25,0.0,95.5493,1.0,Manidipinedihydrochloride,Artesunate,81,plasmodium_falciparum_HB3
0.625,0.05,1.362579,1.0,Manidipinedihydrochloride,Artesunate,81,plasmodium_falciparum_HB3
0.625,0.025,4.66223,1.0,Manidipinedihydrochloride,Artesunate,81,plasmodium_falciparum_HB3
0.625,0.0125,24.266356,1.0,Manidipinedihydrochloride,Artesunate,81,plasmodium_falciparum_HB3
0.625,0.00625,73.44498,1.0,Manidipinedihydrochloride,Artesunate,81,plasmodium_falciparum_HB3
0.625,0.003125,96.8216,1.0,Manidipinedihydrochloride,Artesunate,81,plasmodium_falciparum_HB3
0.625,0.0015625,95.87334,1.0,Manidipinedihydrochloride,Artesunate,81,plasmodium_falciparum_HB3
0.625,0.00078125,97.39820999999999,1.0,Manidipinedihydrochloride,Artesunate,81,plasmodium_falciparum_HB3
0.625,0.000390625,95.84518,1.0,Manidipinedihydrochloride,Artesunate,81,plasmodium_falciparum_HB3
0.625,0.000195375,93.76472,1.0,Manidipinedihydrochloride,Artesunate,81,plasmodium_falciparum_HB3
0.625,0.0,98.82853,1.0,Manidipinedihydrochloride,Artesunate,81,plasmodium_falciparum_HB3
0.3125,0.05,2.754629,1.0,Manidipinedihydrochloride,Artesunate,81,plasmodium_falciparum_HB3
0.3125,0.025,4.750493,1.0,Manidipinedihydrochloride,Artesunate,81,plasmodium_falciparum_HB3
0.3125,0.0125,28.27116,1.0,Manidipinedihydrochloride,Artesunate,81,plasmodium_falciparum_HB3
0.3125,0.00625,79.97754,1.0,Manidipinedihydrochloride,Artesunate,81,plasmodium_falciparum_HB3
0.3125,0.003125,99.01255,1.0,Manidipinedihydrochloride,Artesunate,81,plasmodium_falciparum_HB3
0.3125,0.0015625,99.942314,1.0,Manidipinedihydrochloride,Artesunate,81,plasmodium_falciparum_HB3
0.3125,0.00078125,98.83774,1.0,Manidipinedihydrochloride,Artesunate,81,plasmodium_falciparum_HB3
0.3125,0.000390625,98.27506,1.0,Manidipinedihydrochloride,Artesunate,81,plasmodium_falciparum_HB3
0.3125,0.000195375,100.15379,1.0,Manidipinedihydrochloride,Artesunate,81,plasmodium_falciparum_HB3
0.3125,0.0,99.46876,1.0,Manidipinedihydrochloride,Artesunate,81,plasmodium_falciparum_HB3
0.15625,0.05,2.463535,1.0,Manidipinedihydrochloride,Artesunate,81,plasmodium_falciparum_HB3
0.15625,0.025,3.965525,1.0,Manidipinedihydrochloride,Artesunate,81,plasmodium_falciparum_HB3
0.15625,0.0125,27.611874,1.0,Manidipinedihydrochloride,Artesunate,81,plasmodium_falciparum_HB3
0.15625,0.00625,85.98725999999999,1.0,Manidipinedihydrochloride,Artesunate,81,plasmodium_falciparum_HB3
0.15625,0.003125,99.40981,1.0,Manidipinedihydrochloride,Artesunate,81,plasmodium_falciparum_HB3
0.15625,0.0015625,97.96451,1.0,Manidipinedihydrochloride,Artesunate,81,plasmodium_falciparum_HB3
0.15625,0.00078125,96.505165,1.0,Manidipinedihydrochloride,Artesunate,81,plasmodium_falciparum_HB3
0.15625,0.000390625,101.57683,1.0,Manidipinedihydrochloride,Artesunate,81,plasmodium_falciparum_HB3
0.15625,0.000195375,102.08865,1.0,Manidipinedihydrochloride,Artesunate,81,plasmodium_falciparum_HB3
0.15625,0.0,101.86068,1.0,Manidipinedihydrochloride,Artesunate,81,plasmodium_falciparum_HB3
0.078125,0.05,2.841585,1.0,Manidipinedihydrochloride,Artesunate,81,plasmodium_falciparum_HB3
0.078125,0.025,5.398363,1.0,Manidipinedihydrochloride,Artesunate,81,plasmodium_falciparum_HB3
0.078125,0.0125,46.853943,1.0,Manidipinedihydrochloride,Artesunate,81,plasmodium_falciparum_HB3
0.078125,0.00625,71.6968,1.0,Manidipinedihydrochloride,Artesunate,81,plasmodium_falciparum_HB3
0.078125,0.003125,96.136215,1.0,Manidipinedihydrochloride,Artesunate,81,plasmodium_falciparum_HB3
0.078125,0.0015625,103.13795999999999,1.0,Manidipinedihydrochloride,Artesunate,81,plasmodium_falciparum_HB3
0.078125,0.00078125,100.78054,1.0,Manidipinedihydrochloride,Artesunate,81,plasmodium_falciparum_HB3
0.078125,0.000390625,99.31527,1.0,Manidipinedihydrochloride,Artesunate,81,plasmodium_falciparum_HB3
0.078125,0.000195375,101.572,1.0,Manidipinedihydrochloride,Artesunate,81,plasmodium_falciparum_HB3
0.078125,0.0,105.33117,1.0,Manidipinedihydrochloride,Artesunate,81,plasmodium_falciparum_HB3
0.0390625,0.05,1.626615,1.0,Manidipinedihydrochloride,Artesunate,81,plasmodium_falciparum_HB3
0.0390625,0.025,6.645872,1.0,Manidipinedihydrochloride,Artesunate,81,plasmodium_falciparum_HB3
0.0390625,0.0125,65.97058,1.0,Manidipinedihydrochloride,Artesunate,81,plasmodium_falciparum_HB3
0.0390625,0.00625,88.989426,1.0,Manidipinedihydrochloride,Artesunate,81,plasmodium_falciparum_HB3
0.0390625,0.003125,96.16060999999999,1.0,Manidipinedihydrochloride,Artesunate,81,plasmodium_falciparum_HB3
0.0390625,0.0015625,99.2097,1.0,Manidipinedihydrochloride,Artesunate,81,plasmodium_falciparum_HB3
0.0390625,0.00078125,96.92445,1.0,Manidipinedihydrochloride,Artesunate,81,plasmodium_falciparum_HB3
0.0390625,0.000390625,99.69779,1.0,Manidipinedihydrochloride,Artesunate,81,plasmodium_falciparum_HB3
0.0390625,0.000195375,103.44258,1.0,Manidipinedihydrochloride,Artesunate,81,plasmodium_falciparum_HB3
0.0390625,0.0,105.79372,1.0,Manidipinedihydrochloride,Artesunate,81,plasmodium_falciparum_HB3
0.0,0.05,2.182953,1.0,Manidipinedihydrochloride,Artesunate,81,plasmodium_falciparum_HB3
0.0,0.025,9.686415,1.0,Manidipinedihydrochloride,Artesunate,81,plasmodium_falciparum_HB3
0.0,0.0125,66.86282,1.0,Manidipinedihydrochloride,Artesunate,81,plasmodium_falciparum_HB3
0.0,0.00625,94.58439,1.0,Manidipinedihydrochloride,Artesunate,81,plasmodium_falciparum_HB3
0.0,0.003125,103.97346999999999,1.0,Manidipinedihydrochloride,Artesunate,81,plasmodium_falciparum_HB3
0.0,0.0015625,101.9075,1.0,Manidipinedihydrochloride,Artesunate,81,plasmodium_falciparum_HB3
0.0,0.00078125,101.43510400000001,1.0,Manidipinedihydrochloride,Artesunate,81,plasmodium_falciparum_HB3
0.0,0.000390625,102.88493000000001,1.0,Manidipinedihydrochloride,Artesunate,81,plasmodium_falciparum_HB3
0.0,0.000195375,103.07700000000001,1.0,Manidipinedihydrochloride,Artesunate,81,plasmodium_falciparum_HB3
0.0,0.0,101.0406,1.0,Manidipinedihydrochloride,Artesunate,81,plasmodium_falciparum_HB3
