drug1.conc,drug2.conc,effect,effect.95ci,drug1,drug2,expt,sample
10.0,0.025,0.69111,1.0,Manidipinedihydrochloride,Artenimol,82,plasmodium_falciparum_Dd2
10.0,0.0125,0.284435,1.0,Manidipinedihydrochloride,Artenimol,82,plasmodium_falciparum_Dd2
10.0,0.00625,0.172778,1.0,Manidipinedihydrochloride,Artenimol,82,plasmodium_falciparum_Dd2
10.0,0.003125,0.555825,1.0,Manidipinedihydrochloride,Artenimol,82,plasmodium_falciparum_Dd2
10.0,0.0015625,3.3695730000000004,1.0,Manidipinedihydrochloride,Artenimol,82,plasmodium_falciparum_Dd2
10.0,0.00078125,5.978794000000001,1.0,Manidipinedihydrochloride,Artenimol,82,plasmodium_falciparum_Dd2
10.0,0.000390625,15.982666,1.0,Manidipinedihydrochloride,Artenimol,82,plasmodium_falciparum_Dd2
10.0,0.000195375,35.408825,1.0,Manidipinedihydrochloride,Artenimol,82,plasmodium_falciparum_Dd2
10.0,9.7625e-05,17.054035,1.0,Manidipinedihydrochloride,Artenimol,82,plasmodium_falciparum_Dd2
10.0,0.0,11.427605999999999,1.0,Manidipinedihydrochloride,Artenimol,82,plasmodium_falciparum_Dd2
5.0,0.025,0.465663,1.0,Manidipinedihydrochloride,Artenimol,82,plasmodium_falciparum_Dd2
5.0,0.0125,3.422572,1.0,Manidipinedihydrochloride,Artenimol,82,plasmodium_falciparum_Dd2
5.0,0.00625,2.729246,1.0,Manidipinedihydrochloride,Artenimol,82,plasmodium_falciparum_Dd2
5.0,0.003125,1.8433709999999999,1.0,Manidipinedihydrochloride,Artenimol,82,plasmodium_falciparum_Dd2
5.0,0.0015625,4.82038,1.0,Manidipinedihydrochloride,Artenimol,82,plasmodium_falciparum_Dd2
5.0,0.00078125,35.429417,1.0,Manidipinedihydrochloride,Artenimol,82,plasmodium_falciparum_Dd2
5.0,0.000390625,76.54639,1.0,Manidipinedihydrochloride,Artenimol,82,plasmodium_falciparum_Dd2
5.0,0.000195375,64.71087,1.0,Manidipinedihydrochloride,Artenimol,82,plasmodium_falciparum_Dd2
5.0,9.7625e-05,73.29774,1.0,Manidipinedihydrochloride,Artenimol,82,plasmodium_falciparum_Dd2
5.0,0.0,60.597846999999994,1.0,Manidipinedihydrochloride,Artenimol,82,plasmodium_falciparum_Dd2
2.5,0.025,-0.20239400000000002,1.0,Manidipinedihydrochloride,Artenimol,82,plasmodium_falciparum_Dd2
2.5,0.0125,-0.5654239999999999,1.0,Manidipinedihydrochloride,Artenimol,82,plasmodium_falciparum_Dd2
2.5,0.00625,0.609644,1.0,Manidipinedihydrochloride,Artenimol,82,plasmodium_falciparum_Dd2
2.5,0.003125,3.387786,1.0,Manidipinedihydrochloride,Artenimol,82,plasmodium_falciparum_Dd2
2.5,0.0015625,21.563316,1.0,Manidipinedihydrochloride,Artenimol,82,plasmodium_falciparum_Dd2
2.5,0.00078125,66.77723,1.0,Manidipinedihydrochloride,Artenimol,82,plasmodium_falciparum_Dd2
2.5,0.000390625,83.28898000000001,1.0,Manidipinedihydrochloride,Artenimol,82,plasmodium_falciparum_Dd2
2.5,0.000195375,57.64414,1.0,Manidipinedihydrochloride,Artenimol,82,plasmodium_falciparum_Dd2
2.5,9.7625e-05,99.8808,1.0,Manidipinedihydrochloride,Artenimol,82,plasmodium_falciparum_Dd2
2.5,0.0,84.18215,1.0,Manidipinedihydrochloride,Artenimol,82,plasmodium_falciparum_Dd2
1.25,0.025,1.720474,1.0,Manidipinedihydrochloride,Artenimol,82,plasmodium_falciparum_Dd2
1.25,0.0125,3.5535910000000004,1.0,Manidipinedihydrochloride,Artenimol,82,plasmodium_falciparum_Dd2
1.25,0.00625,3.379418,1.0,Manidipinedihydrochloride,Artenimol,82,plasmodium_falciparum_Dd2
1.25,0.003125,3.393365,1.0,Manidipinedihydrochloride,Artenimol,82,plasmodium_falciparum_Dd2
1.25,0.0015625,37.136520000000004,1.0,Manidipinedihydrochloride,Artenimol,82,plasmodium_falciparum_Dd2
1.25,0.00078125,94.57531,1.0,Manidipinedihydrochloride,Artenimol,82,plasmodium_falciparum_Dd2
1.25,0.000390625,115.9396,1.0,Manidipinedihydrochloride,Artenimol,82,plasmodium_falciparum_Dd2
1.25,0.000195375,113.32283000000001,1.0,Manidipinedihydrochloride,Artenimol,82,plasmodium_falciparum_Dd2
1.25,9.7625e-05,119.42698,1.0,Manidipinedihydrochloride,Artenimol,82,plasmodium_falciparum_Dd2
1.25,0.0,95.25731,1.0,Manidipinedihydrochloride,Artenimol,82,plasmodium_falciparum_Dd2
0.625,0.025,-1.6059459999999999,1.0,Manidipinedihydrochloride,Artenimol,82,plasmodium_falciparum_Dd2
0.625,0.0125,-0.135121,1.0,Manidipinedihydrochloride,Artenimol,82,plasmodium_falciparum_Dd2
0.625,0.00625,0.011075,1.0,Manidipinedihydrochloride,Artenimol,82,plasmodium_falciparum_Dd2
0.625,0.003125,1.104841,1.0,Manidipinedihydrochloride,Artenimol,82,plasmodium_falciparum_Dd2
0.625,0.0015625,48.849790000000006,1.0,Manidipinedihydrochloride,Artenimol,82,plasmodium_falciparum_Dd2
0.625,0.00078125,102.28056,1.0,Manidipinedihydrochloride,Artenimol,82,plasmodium_falciparum_Dd2
0.625,0.000390625,114.89867,1.0,Manidipinedihydrochloride,Artenimol,82,plasmodium_falciparum_Dd2
0.625,9.7625e-05,97.83782,1.0,Manidipinedihydrochloride,Artenimol,82,plasmodium_falciparum_Dd2
0.625,0.0,97.62106,1.0,Manidipinedihydrochloride,Artenimol,82,plasmodium_falciparum_Dd2
0.3125,0.025,1.564351,1.0,Manidipinedihydrochloride,Artenimol,82,plasmodium_falciparum_Dd2
0.3125,0.0125,0.18163800000000002,1.0,Manidipinedihydrochloride,Artenimol,82,plasmodium_falciparum_Dd2
0.3125,0.003125,2.482878,1.0,Manidipinedihydrochloride,Artenimol,82,plasmodium_falciparum_Dd2
0.3125,0.0015625,22.458218,1.0,Manidipinedihydrochloride,Artenimol,82,plasmodium_falciparum_Dd2
0.3125,0.00078125,99.085495,1.0,Manidipinedihydrochloride,Artenimol,82,plasmodium_falciparum_Dd2
0.3125,0.000390625,103.50978,1.0,Manidipinedihydrochloride,Artenimol,82,plasmodium_falciparum_Dd2
0.3125,0.000195375,105.93236,1.0,Manidipinedihydrochloride,Artenimol,82,plasmodium_falciparum_Dd2
0.3125,9.7625e-05,102.49059,1.0,Manidipinedihydrochloride,Artenimol,82,plasmodium_falciparum_Dd2
0.3125,0.0,103.12886999999999,1.0,Manidipinedihydrochloride,Artenimol,82,plasmodium_falciparum_Dd2
0.15625,0.025,0.9314889999999999,1.0,Manidipinedihydrochloride,Artenimol,82,plasmodium_falciparum_Dd2
0.15625,0.0125,-0.17048,1.0,Manidipinedihydrochloride,Artenimol,82,plasmodium_falciparum_Dd2
0.15625,0.00625,4.402793,1.0,Manidipinedihydrochloride,Artenimol,82,plasmodium_falciparum_Dd2
0.15625,0.003125,2.853784,1.0,Manidipinedihydrochloride,Artenimol,82,plasmodium_falciparum_Dd2
0.15625,0.0015625,26.771175,1.0,Manidipinedihydrochloride,Artenimol,82,plasmodium_falciparum_Dd2
0.15625,0.00078125,99.90024,1.0,Manidipinedihydrochloride,Artenimol,82,plasmodium_falciparum_Dd2
0.15625,0.000390625,109.93191999999999,1.0,Manidipinedihydrochloride,Artenimol,82,plasmodium_falciparum_Dd2
0.15625,0.0,109.77785,1.0,Manidipinedihydrochloride,Artenimol,82,plasmodium_falciparum_Dd2
0.078125,0.025,0.7774989999999999,1.0,Manidipinedihydrochloride,Artenimol,82,plasmodium_falciparum_Dd2
0.078125,0.0125,1.6624720000000002,1.0,Manidipinedihydrochloride,Artenimol,82,plasmodium_falciparum_Dd2
0.078125,0.00625,0.9433030000000001,1.0,Manidipinedihydrochloride,Artenimol,82,plasmodium_falciparum_Dd2
0.078125,0.003125,1.1822059999999999,1.0,Manidipinedihydrochloride,Artenimol,82,plasmodium_falciparum_Dd2
0.078125,0.0015625,24.992617000000003,1.0,Manidipinedihydrochloride,Artenimol,82,plasmodium_falciparum_Dd2
0.078125,0.00078125,79.19293,1.0,Manidipinedihydrochloride,Artenimol,82,plasmodium_falciparum_Dd2
0.078125,0.000390625,105.54553999999999,1.0,Manidipinedihydrochloride,Artenimol,82,plasmodium_falciparum_Dd2
0.078125,0.000195375,111.6848,1.0,Manidipinedihydrochloride,Artenimol,82,plasmodium_falciparum_Dd2
0.078125,9.7625e-05,112.78126999999999,1.0,Manidipinedihydrochloride,Artenimol,82,plasmodium_falciparum_Dd2
0.078125,0.0,102.007126,1.0,Manidipinedihydrochloride,Artenimol,82,plasmodium_falciparum_Dd2
0.0390625,0.025,1.72835,1.0,Manidipinedihydrochloride,Artenimol,82,plasmodium_falciparum_Dd2
0.0390625,0.0125,4.365547,1.0,Manidipinedihydrochloride,Artenimol,82,plasmodium_falciparum_Dd2
0.0390625,0.00625,0.869139,1.0,Manidipinedihydrochloride,Artenimol,82,plasmodium_falciparum_Dd2
0.0390625,0.003125,1.6025,1.0,Manidipinedihydrochloride,Artenimol,82,plasmodium_falciparum_Dd2
0.0390625,0.0015625,31.121709999999997,1.0,Manidipinedihydrochloride,Artenimol,82,plasmodium_falciparum_Dd2
0.0390625,0.00078125,75.10903,1.0,Manidipinedihydrochloride,Artenimol,82,plasmodium_falciparum_Dd2
0.0390625,0.000195375,107.7343,1.0,Manidipinedihydrochloride,Artenimol,82,plasmodium_falciparum_Dd2
0.0390625,9.7625e-05,113.14718,1.0,Manidipinedihydrochloride,Artenimol,82,plasmodium_falciparum_Dd2
0.0,0.025,1.958146,1.0,Manidipinedihydrochloride,Artenimol,82,plasmodium_falciparum_Dd2
0.0,0.0125,1.367043,1.0,Manidipinedihydrochloride,Artenimol,82,plasmodium_falciparum_Dd2
0.0,0.00625,5.4438889999999995,1.0,Manidipinedihydrochloride,Artenimol,82,plasmodium_falciparum_Dd2
0.0,0.003125,4.589518,1.0,Manidipinedihydrochloride,Artenimol,82,plasmodium_falciparum_Dd2
0.0,0.0015625,15.444316,1.0,Manidipinedihydrochloride,Artenimol,82,plasmodium_falciparum_Dd2
0.0,0.00078125,108.01529,1.0,Manidipinedihydrochloride,Artenimol,82,plasmodium_falciparum_Dd2
0.0,0.000390625,117.28465,1.0,Manidipinedihydrochloride,Artenimol,82,plasmodium_falciparum_Dd2
