drug1.conc,drug2.conc,effect,effect.95ci,drug1,drug2,expt,sample
10.0,0.05,-0.128246,1.0,Manidipinedihydrochloride,Lumefantrine,83,plasmodium_falciparum_HB3
10.0,0.025,-0.368042,1.0,Manidipinedihydrochloride,Lumefantrine,83,plasmodium_falciparum_HB3
10.0,0.0125,0.9047149999999999,1.0,Manidipinedihydrochloride,Lumefantrine,83,plasmodium_falciparum_HB3
10.0,0.00625,1.0862209999999999,1.0,Manidipinedihydrochloride,Lumefantrine,83,plasmodium_falciparum_HB3
10.0,0.003125,6.425892,1.0,Manidipinedihydrochloride,Lumefantrine,83,plasmodium_falciparum_HB3
10.0,0.0015625,12.865615,1.0,Manidipinedihydrochloride,Lumefantrine,83,plasmodium_falciparum_HB3
10.0,0.00078125,15.044695,1.0,Manidipinedihydrochloride,Lumefantrine,83,plasmodium_falciparum_HB3
10.0,0.000390625,6.333404,1.0,Manidipinedihydrochloride,Lumefantrine,83,plasmodium_falciparum_HB3
10.0,0.000195375,32.208572,1.0,Manidipinedihydrochloride,Lumefantrine,83,plasmodium_falciparum_HB3
10.0,0.0,15.328748000000001,1.0,Manidipinedihydrochloride,Lumefantrine,83,plasmodium_falciparum_HB3
5.0,0.05,0.735279,1.0,Manidipinedihydrochloride,Lumefantrine,83,plasmodium_falciparum_HB3
5.0,0.025,0.8873129999999999,1.0,Manidipinedihydrochloride,Lumefantrine,83,plasmodium_falciparum_HB3
5.0,0.0125,0.722152,1.0,Manidipinedihydrochloride,Lumefantrine,83,plasmodium_falciparum_HB3
5.0,0.00625,9.799472999999999,1.0,Manidipinedihydrochloride,Lumefantrine,83,plasmodium_falciparum_HB3
5.0,0.003125,27.543978000000003,1.0,Manidipinedihydrochloride,Lumefantrine,83,plasmodium_falciparum_HB3
5.0,0.0015625,50.938663,1.0,Manidipinedihydrochloride,Lumefantrine,83,plasmodium_falciparum_HB3
5.0,0.00078125,45.395004,1.0,Manidipinedihydrochloride,Lumefantrine,83,plasmodium_falciparum_HB3
5.0,0.000390625,31.999203,1.0,Manidipinedihydrochloride,Lumefantrine,83,plasmodium_falciparum_HB3
5.0,0.000195375,65.05148,1.0,Manidipinedihydrochloride,Lumefantrine,83,plasmodium_falciparum_HB3
5.0,0.0,48.427096999999996,1.0,Manidipinedihydrochloride,Lumefantrine,83,plasmodium_falciparum_HB3
2.5,0.05,0.920356,1.0,Manidipinedihydrochloride,Lumefantrine,83,plasmodium_falciparum_HB3
2.5,0.025,3.7464510000000004,1.0,Manidipinedihydrochloride,Lumefantrine,83,plasmodium_falciparum_HB3
2.5,0.0125,12.236957,1.0,Manidipinedihydrochloride,Lumefantrine,83,plasmodium_falciparum_HB3
2.5,0.00625,57.962986,1.0,Manidipinedihydrochloride,Lumefantrine,83,plasmodium_falciparum_HB3
2.5,0.003125,37.753284,1.0,Manidipinedihydrochloride,Lumefantrine,83,plasmodium_falciparum_HB3
2.5,0.0015625,78.866325,1.0,Manidipinedihydrochloride,Lumefantrine,83,plasmodium_falciparum_HB3
2.5,0.00078125,65.53827,1.0,Manidipinedihydrochloride,Lumefantrine,83,plasmodium_falciparum_HB3
2.5,0.000390625,68.08509000000001,1.0,Manidipinedihydrochloride,Lumefantrine,83,plasmodium_falciparum_HB3
2.5,0.000195375,84.09585600000001,1.0,Manidipinedihydrochloride,Lumefantrine,83,plasmodium_falciparum_HB3
2.5,0.0,85.62836999999999,1.0,Manidipinedihydrochloride,Lumefantrine,83,plasmodium_falciparum_HB3
1.25,0.05,0.9221659999999999,1.0,Manidipinedihydrochloride,Lumefantrine,83,plasmodium_falciparum_HB3
1.25,0.025,2.131654,1.0,Manidipinedihydrochloride,Lumefantrine,83,plasmodium_falciparum_HB3
1.25,0.0125,44.926125,1.0,Manidipinedihydrochloride,Lumefantrine,83,plasmodium_falciparum_HB3
1.25,0.00625,68.954796,1.0,Manidipinedihydrochloride,Lumefantrine,83,plasmodium_falciparum_HB3
1.25,0.003125,72.892715,1.0,Manidipinedihydrochloride,Lumefantrine,83,plasmodium_falciparum_HB3
1.25,0.0015625,89.063866,1.0,Manidipinedihydrochloride,Lumefantrine,83,plasmodium_falciparum_HB3
1.25,0.00078125,92.38518499999999,1.0,Manidipinedihydrochloride,Lumefantrine,83,plasmodium_falciparum_HB3
1.25,0.000390625,97.15926999999999,1.0,Manidipinedihydrochloride,Lumefantrine,83,plasmodium_falciparum_HB3
1.25,0.000195375,93.57939,1.0,Manidipinedihydrochloride,Lumefantrine,83,plasmodium_falciparum_HB3
1.25,0.0,94.88971,1.0,Manidipinedihydrochloride,Lumefantrine,83,plasmodium_falciparum_HB3
0.625,0.05,1.756672,1.0,Manidipinedihydrochloride,Lumefantrine,83,plasmodium_falciparum_HB3
0.625,0.025,9.315205,1.0,Manidipinedihydrochloride,Lumefantrine,83,plasmodium_falciparum_HB3
0.625,0.0125,37.324795,1.0,Manidipinedihydrochloride,Lumefantrine,83,plasmodium_falciparum_HB3
0.625,0.00625,73.322464,1.0,Manidipinedihydrochloride,Lumefantrine,83,plasmodium_falciparum_HB3
0.625,0.003125,93.156075,1.0,Manidipinedihydrochloride,Lumefantrine,83,plasmodium_falciparum_HB3
0.625,0.0015625,95.05799,1.0,Manidipinedihydrochloride,Lumefantrine,83,plasmodium_falciparum_HB3
0.625,0.00078125,101.67012,1.0,Manidipinedihydrochloride,Lumefantrine,83,plasmodium_falciparum_HB3
0.625,0.000390625,97.06045,1.0,Manidipinedihydrochloride,Lumefantrine,83,plasmodium_falciparum_HB3
0.625,0.000195375,94.51403,1.0,Manidipinedihydrochloride,Lumefantrine,83,plasmodium_falciparum_HB3
0.625,0.0,96.6746,1.0,Manidipinedihydrochloride,Lumefantrine,83,plasmodium_falciparum_HB3
0.3125,0.05,2.2095569999999998,1.0,Manidipinedihydrochloride,Lumefantrine,83,plasmodium_falciparum_HB3
0.3125,0.025,11.661408,1.0,Manidipinedihydrochloride,Lumefantrine,83,plasmodium_falciparum_HB3
0.3125,0.0125,32.623787,1.0,Manidipinedihydrochloride,Lumefantrine,83,plasmodium_falciparum_HB3
0.3125,0.00625,84.81045999999999,1.0,Manidipinedihydrochloride,Lumefantrine,83,plasmodium_falciparum_HB3
0.3125,0.003125,92.29386,1.0,Manidipinedihydrochloride,Lumefantrine,83,plasmodium_falciparum_HB3
0.3125,0.0015625,95.73951,1.0,Manidipinedihydrochloride,Lumefantrine,83,plasmodium_falciparum_HB3
0.3125,0.00078125,103.67317,1.0,Manidipinedihydrochloride,Lumefantrine,83,plasmodium_falciparum_HB3
0.3125,0.000390625,101.48076999999999,1.0,Manidipinedihydrochloride,Lumefantrine,83,plasmodium_falciparum_HB3
0.3125,0.000195375,97.914665,1.0,Manidipinedihydrochloride,Lumefantrine,83,plasmodium_falciparum_HB3
0.3125,0.0,102.37165,1.0,Manidipinedihydrochloride,Lumefantrine,83,plasmodium_falciparum_HB3
0.15625,0.05,2.381609,1.0,Manidipinedihydrochloride,Lumefantrine,83,plasmodium_falciparum_HB3
0.15625,0.025,9.452957000000001,1.0,Manidipinedihydrochloride,Lumefantrine,83,plasmodium_falciparum_HB3
0.15625,0.0125,42.463295,1.0,Manidipinedihydrochloride,Lumefantrine,83,plasmodium_falciparum_HB3
0.15625,0.00625,74.857895,1.0,Manidipinedihydrochloride,Lumefantrine,83,plasmodium_falciparum_HB3
0.15625,0.003125,79.568054,1.0,Manidipinedihydrochloride,Lumefantrine,83,plasmodium_falciparum_HB3
0.15625,0.0015625,97.18713000000001,1.0,Manidipinedihydrochloride,Lumefantrine,83,plasmodium_falciparum_HB3
0.15625,0.00078125,100.22686999999999,1.0,Manidipinedihydrochloride,Lumefantrine,83,plasmodium_falciparum_HB3
0.15625,0.000390625,96.413025,1.0,Manidipinedihydrochloride,Lumefantrine,83,plasmodium_falciparum_HB3
0.15625,0.000195375,92.80815,1.0,Manidipinedihydrochloride,Lumefantrine,83,plasmodium_falciparum_HB3
0.15625,0.0,100.92971,1.0,Manidipinedihydrochloride,Lumefantrine,83,plasmodium_falciparum_HB3
0.078125,0.05,2.154235,1.0,Manidipinedihydrochloride,Lumefantrine,83,plasmodium_falciparum_HB3
0.078125,0.025,9.057606,1.0,Manidipinedihydrochloride,Lumefantrine,83,plasmodium_falciparum_HB3
0.078125,0.0125,48.379670000000004,1.0,Manidipinedihydrochloride,Lumefantrine,83,plasmodium_falciparum_HB3
0.078125,0.00625,77.63284,1.0,Manidipinedihydrochloride,Lumefantrine,83,plasmodium_falciparum_HB3
0.078125,0.003125,90.03139499999999,1.0,Manidipinedihydrochloride,Lumefantrine,83,plasmodium_falciparum_HB3
0.078125,0.0015625,96.85611,1.0,Manidipinedihydrochloride,Lumefantrine,83,plasmodium_falciparum_HB3
0.078125,0.00078125,100.01977,1.0,Manidipinedihydrochloride,Lumefantrine,83,plasmodium_falciparum_HB3
0.078125,0.000390625,94.85375,1.0,Manidipinedihydrochloride,Lumefantrine,83,plasmodium_falciparum_HB3
0.078125,0.000195375,98.20013,1.0,Manidipinedihydrochloride,Lumefantrine,83,plasmodium_falciparum_HB3
0.078125,0.0,95.30905,1.0,Manidipinedihydrochloride,Lumefantrine,83,plasmodium_falciparum_HB3
0.0390625,0.05,2.470174,1.0,Manidipinedihydrochloride,Lumefantrine,83,plasmodium_falciparum_HB3
0.0390625,0.025,12.035484,1.0,Manidipinedihydrochloride,Lumefantrine,83,plasmodium_falciparum_HB3
0.0390625,0.0125,43.309265,1.0,Manidipinedihydrochloride,Lumefantrine,83,plasmodium_falciparum_HB3
0.0390625,0.00625,75.38708000000001,1.0,Manidipinedihydrochloride,Lumefantrine,83,plasmodium_falciparum_HB3
0.0390625,0.003125,89.79753000000001,1.0,Manidipinedihydrochloride,Lumefantrine,83,plasmodium_falciparum_HB3
0.0390625,0.0015625,93.26023,1.0,Manidipinedihydrochloride,Lumefantrine,83,plasmodium_falciparum_HB3
0.0390625,0.00078125,93.46115,1.0,Manidipinedihydrochloride,Lumefantrine,83,plasmodium_falciparum_HB3
0.0390625,0.000390625,96.69582,1.0,Manidipinedihydrochloride,Lumefantrine,83,plasmodium_falciparum_HB3
0.0390625,0.000195375,97.49689000000001,1.0,Manidipinedihydrochloride,Lumefantrine,83,plasmodium_falciparum_HB3
0.0390625,0.0,96.16619,1.0,Manidipinedihydrochloride,Lumefantrine,83,plasmodium_falciparum_HB3
0.0,0.05,2.2799169999999997,1.0,Manidipinedihydrochloride,Lumefantrine,83,plasmodium_falciparum_HB3
0.0,0.025,10.168822,1.0,Manidipinedihydrochloride,Lumefantrine,83,plasmodium_falciparum_HB3
0.0,0.0125,63.54165,1.0,Manidipinedihydrochloride,Lumefantrine,83,plasmodium_falciparum_HB3
0.0,0.00625,85.65371999999999,1.0,Manidipinedihydrochloride,Lumefantrine,83,plasmodium_falciparum_HB3
0.0,0.003125,90.27159,1.0,Manidipinedihydrochloride,Lumefantrine,83,plasmodium_falciparum_HB3
0.0,0.0015625,98.25665,1.0,Manidipinedihydrochloride,Lumefantrine,83,plasmodium_falciparum_HB3
0.0,0.00078125,98.81636,1.0,Manidipinedihydrochloride,Lumefantrine,83,plasmodium_falciparum_HB3
0.0,0.000390625,102.04691,1.0,Manidipinedihydrochloride,Lumefantrine,83,plasmodium_falciparum_HB3
0.0,0.000195375,105.35687,1.0,Manidipinedihydrochloride,Lumefantrine,83,plasmodium_falciparum_HB3
0.0,0.0,97.57519,1.0,Manidipinedihydrochloride,Lumefantrine,83,plasmodium_falciparum_HB3
