drug1.conc,drug2.conc,effect,effect.95ci,drug1,drug2,expt,sample
0.25,0.075,0.036483,1.0,Mefloquine,Methyleneblue,235,plasmodium_falciparum_HB3
0.25,0.0375,-0.675225,1.0,Mefloquine,Methyleneblue,235,plasmodium_falciparum_HB3
0.25,0.01875,-0.810775,1.0,Mefloquine,Methyleneblue,235,plasmodium_falciparum_HB3
0.25,0.009375,-0.586374,1.0,Mefloquine,Methyleneblue,235,plasmodium_falciparum_HB3
0.25,0.0046875,-0.10810299999999999,1.0,Mefloquine,Methyleneblue,235,plasmodium_falciparum_HB3
0.25,0.00234375,-0.172483,1.0,Mefloquine,Methyleneblue,235,plasmodium_falciparum_HB3
0.25,0.001171875,-0.236806,1.0,Mefloquine,Methyleneblue,235,plasmodium_falciparum_HB3
0.25,0.000586,0.022844,1.0,Mefloquine,Methyleneblue,235,plasmodium_falciparum_HB3
0.25,0.000293,0.05764400000000001,1.0,Mefloquine,Methyleneblue,235,plasmodium_falciparum_HB3
0.25,0.0,-0.032105,1.0,Mefloquine,Methyleneblue,235,plasmodium_falciparum_HB3
0.125,0.075,0.030534,1.0,Mefloquine,Methyleneblue,235,plasmodium_falciparum_HB3
0.125,0.0375,-0.068084,1.0,Mefloquine,Methyleneblue,235,plasmodium_falciparum_HB3
0.125,0.01875,-0.017737,1.0,Mefloquine,Methyleneblue,235,plasmodium_falciparum_HB3
0.125,0.009375,0.8582040000000001,1.0,Mefloquine,Methyleneblue,235,plasmodium_falciparum_HB3
0.125,0.0046875,1.225957,1.0,Mefloquine,Methyleneblue,235,plasmodium_falciparum_HB3
0.125,0.00234375,0.978992,1.0,Mefloquine,Methyleneblue,235,plasmodium_falciparum_HB3
0.125,0.001171875,1.317503,1.0,Mefloquine,Methyleneblue,235,plasmodium_falciparum_HB3
0.125,0.000586,1.7751740000000003,1.0,Mefloquine,Methyleneblue,235,plasmodium_falciparum_HB3
0.125,0.000293,1.715566,1.0,Mefloquine,Methyleneblue,235,plasmodium_falciparum_HB3
0.125,0.0,1.523831,1.0,Mefloquine,Methyleneblue,235,plasmodium_falciparum_HB3
0.0625,0.075,-0.146102,1.0,Mefloquine,Methyleneblue,235,plasmodium_falciparum_HB3
0.0625,0.0375,0.273065,1.0,Mefloquine,Methyleneblue,235,plasmodium_falciparum_HB3
0.0625,0.01875,1.080978,1.0,Mefloquine,Methyleneblue,235,plasmodium_falciparum_HB3
0.0625,0.009375,1.888161,1.0,Mefloquine,Methyleneblue,235,plasmodium_falciparum_HB3
0.0625,0.0046875,2.90083,1.0,Mefloquine,Methyleneblue,235,plasmodium_falciparum_HB3
0.0625,0.00234375,4.266154,1.0,Mefloquine,Methyleneblue,235,plasmodium_falciparum_HB3
0.0625,0.001171875,4.339009,1.0,Mefloquine,Methyleneblue,235,plasmodium_falciparum_HB3
0.0625,0.000586,5.179364,1.0,Mefloquine,Methyleneblue,235,plasmodium_falciparum_HB3
0.0625,0.000293,5.105836,1.0,Mefloquine,Methyleneblue,235,plasmodium_falciparum_HB3
0.0625,0.0,4.406307,1.0,Mefloquine,Methyleneblue,235,plasmodium_falciparum_HB3
0.03125,0.075,0.360064,1.0,Mefloquine,Methyleneblue,235,plasmodium_falciparum_HB3
0.03125,0.0375,1.159726,1.0,Mefloquine,Methyleneblue,235,plasmodium_falciparum_HB3
0.03125,0.01875,2.022027,1.0,Mefloquine,Methyleneblue,235,plasmodium_falciparum_HB3
0.03125,0.009375,3.5788050000000005,1.0,Mefloquine,Methyleneblue,235,plasmodium_falciparum_HB3
0.03125,0.0046875,7.985111999999999,1.0,Mefloquine,Methyleneblue,235,plasmodium_falciparum_HB3
0.03125,0.00234375,10.75999,1.0,Mefloquine,Methyleneblue,235,plasmodium_falciparum_HB3
0.03125,0.001171875,12.281015,1.0,Mefloquine,Methyleneblue,235,plasmodium_falciparum_HB3
0.03125,0.000586,12.885518,1.0,Mefloquine,Methyleneblue,235,plasmodium_falciparum_HB3
0.03125,0.000293,14.374325,1.0,Mefloquine,Methyleneblue,235,plasmodium_falciparum_HB3
0.03125,0.0,13.441076999999998,1.0,Mefloquine,Methyleneblue,235,plasmodium_falciparum_HB3
0.015625,0.075,0.979273,1.0,Mefloquine,Methyleneblue,235,plasmodium_falciparum_HB3
0.015625,0.0375,1.561269,1.0,Mefloquine,Methyleneblue,235,plasmodium_falciparum_HB3
0.015625,0.01875,2.49721,1.0,Mefloquine,Methyleneblue,235,plasmodium_falciparum_HB3
0.015625,0.009375,7.352152,1.0,Mefloquine,Methyleneblue,235,plasmodium_falciparum_HB3
0.015625,0.0046875,25.242698999999998,1.0,Mefloquine,Methyleneblue,235,plasmodium_falciparum_HB3
0.015625,0.00234375,37.00952,1.0,Mefloquine,Methyleneblue,235,plasmodium_falciparum_HB3
0.015625,0.001171875,38.717175,1.0,Mefloquine,Methyleneblue,235,plasmodium_falciparum_HB3
0.015625,0.000586,38.62288,1.0,Mefloquine,Methyleneblue,235,plasmodium_falciparum_HB3
0.015625,0.000293,45.249959999999994,1.0,Mefloquine,Methyleneblue,235,plasmodium_falciparum_HB3
0.015625,0.0,44.63008,1.0,Mefloquine,Methyleneblue,235,plasmodium_falciparum_HB3
0.0078125,0.075,1.311553,1.0,Mefloquine,Methyleneblue,235,plasmodium_falciparum_HB3
0.0078125,0.0375,1.998678,1.0,Mefloquine,Methyleneblue,235,plasmodium_falciparum_HB3
0.0078125,0.01875,3.154082,1.0,Mefloquine,Methyleneblue,235,plasmodium_falciparum_HB3
0.0078125,0.009375,16.964205,1.0,Mefloquine,Methyleneblue,235,plasmodium_falciparum_HB3
0.0078125,0.0046875,55.722015,1.0,Mefloquine,Methyleneblue,235,plasmodium_falciparum_HB3
0.0078125,0.00234375,73.24593,1.0,Mefloquine,Methyleneblue,235,plasmodium_falciparum_HB3
0.0078125,0.001171875,76.01739,1.0,Mefloquine,Methyleneblue,235,plasmodium_falciparum_HB3
0.0078125,0.000586,76.223434,1.0,Mefloquine,Methyleneblue,235,plasmodium_falciparum_HB3
0.0078125,0.000293,80.49906999999999,1.0,Mefloquine,Methyleneblue,235,plasmodium_falciparum_HB3
0.0078125,0.0,72.82789,1.0,Mefloquine,Methyleneblue,235,plasmodium_falciparum_HB3
0.00390625,0.075,2.043524,1.0,Mefloquine,Methyleneblue,235,plasmodium_falciparum_HB3
0.00390625,0.0375,1.959893,1.0,Mefloquine,Methyleneblue,235,plasmodium_falciparum_HB3
0.00390625,0.01875,5.783531,1.0,Mefloquine,Methyleneblue,235,plasmodium_falciparum_HB3
0.00390625,0.009375,68.65961999999999,1.0,Mefloquine,Methyleneblue,235,plasmodium_falciparum_HB3
0.00390625,0.0046875,104.801506,1.0,Mefloquine,Methyleneblue,235,plasmodium_falciparum_HB3
0.00390625,0.00234375,109.20366000000001,1.0,Mefloquine,Methyleneblue,235,plasmodium_falciparum_HB3
0.00390625,0.001171875,114.16205,1.0,Mefloquine,Methyleneblue,235,plasmodium_falciparum_HB3
0.00390625,0.000586,104.923645,1.0,Mefloquine,Methyleneblue,235,plasmodium_falciparum_HB3
0.00390625,0.000293,112.66005,1.0,Mefloquine,Methyleneblue,235,plasmodium_falciparum_HB3
0.00390625,0.0,105.8959,1.0,Mefloquine,Methyleneblue,235,plasmodium_falciparum_HB3
0.001953125,0.075,2.060082,1.0,Mefloquine,Methyleneblue,235,plasmodium_falciparum_HB3
0.001953125,0.0375,1.8894520000000001,1.0,Mefloquine,Methyleneblue,235,plasmodium_falciparum_HB3
0.001953125,0.01875,6.608899000000001,1.0,Mefloquine,Methyleneblue,235,plasmodium_falciparum_HB3
0.001953125,0.009375,70.96931,1.0,Mefloquine,Methyleneblue,235,plasmodium_falciparum_HB3
0.001953125,0.0046875,108.29831000000001,1.0,Mefloquine,Methyleneblue,235,plasmodium_falciparum_HB3
0.001953125,0.00234375,107.81133999999999,1.0,Mefloquine,Methyleneblue,235,plasmodium_falciparum_HB3
0.001953125,0.001171875,108.23723999999999,1.0,Mefloquine,Methyleneblue,235,plasmodium_falciparum_HB3
0.001953125,0.000586,103.80444,1.0,Mefloquine,Methyleneblue,235,plasmodium_falciparum_HB3
0.001953125,0.000293,110.00046,1.0,Mefloquine,Methyleneblue,235,plasmodium_falciparum_HB3
0.001953125,0.0,107.381226,1.0,Mefloquine,Methyleneblue,235,plasmodium_falciparum_HB3
0.000976625,0.075,1.6923849999999998,1.0,Mefloquine,Methyleneblue,235,plasmodium_falciparum_HB3
0.000976625,0.0375,2.121655,1.0,Mefloquine,Methyleneblue,235,plasmodium_falciparum_HB3
0.000976625,0.01875,4.543373,1.0,Mefloquine,Methyleneblue,235,plasmodium_falciparum_HB3
0.000976625,0.009375,60.177937,1.0,Mefloquine,Methyleneblue,235,plasmodium_falciparum_HB3
0.000976625,0.0046875,92.397964,1.0,Mefloquine,Methyleneblue,235,plasmodium_falciparum_HB3
0.000976625,0.00234375,99.32758000000001,1.0,Mefloquine,Methyleneblue,235,plasmodium_falciparum_HB3
0.000976625,0.001171875,110.38022600000001,1.0,Mefloquine,Methyleneblue,235,plasmodium_falciparum_HB3
0.000976625,0.000586,108.823784,1.0,Mefloquine,Methyleneblue,235,plasmodium_falciparum_HB3
0.000976625,0.000293,105.90314,1.0,Mefloquine,Methyleneblue,235,plasmodium_falciparum_HB3
0.000976625,0.0,105.77078999999999,1.0,Mefloquine,Methyleneblue,235,plasmodium_falciparum_HB3
0.0,0.075,1.81424,1.0,Mefloquine,Methyleneblue,235,plasmodium_falciparum_HB3
0.0,0.0375,2.145566,1.0,Mefloquine,Methyleneblue,235,plasmodium_falciparum_HB3
0.0,0.01875,5.479539,1.0,Mefloquine,Methyleneblue,235,plasmodium_falciparum_HB3
0.0,0.009375,60.497536,1.0,Mefloquine,Methyleneblue,235,plasmodium_falciparum_HB3
0.0,0.0046875,96.37674,1.0,Mefloquine,Methyleneblue,235,plasmodium_falciparum_HB3
0.0,0.00234375,101.38879,1.0,Mefloquine,Methyleneblue,235,plasmodium_falciparum_HB3
0.0,0.001171875,107.73213999999999,1.0,Mefloquine,Methyleneblue,235,plasmodium_falciparum_HB3
0.0,0.000586,109.93782,1.0,Mefloquine,Methyleneblue,235,plasmodium_falciparum_HB3
0.0,0.000293,107.164345,1.0,Mefloquine,Methyleneblue,235,plasmodium_falciparum_HB3
0.0,0.0,111.32688999999999,1.0,Mefloquine,Methyleneblue,235,plasmodium_falciparum_HB3
