drug1.conc,drug2.conc,effect,effect.95ci,drug1,drug2,expt,sample
0.25,0.075,0.024268,1.0,Mefloquine,Methyleneblue,235,plasmodium_falciparum_Dd2
0.25,0.0375,-0.516303,1.0,Mefloquine,Methyleneblue,235,plasmodium_falciparum_Dd2
0.25,0.01875,-0.368723,1.0,Mefloquine,Methyleneblue,235,plasmodium_falciparum_Dd2
0.25,0.009375,-0.612162,1.0,Mefloquine,Methyleneblue,235,plasmodium_falciparum_Dd2
0.25,0.0046875,-0.359471,1.0,Mefloquine,Methyleneblue,235,plasmodium_falciparum_Dd2
0.25,0.00234375,-0.699754,1.0,Mefloquine,Methyleneblue,235,plasmodium_falciparum_Dd2
0.25,0.001171875,-0.220536,1.0,Mefloquine,Methyleneblue,235,plasmodium_falciparum_Dd2
0.25,0.000586,0.34377199999999997,1.0,Mefloquine,Methyleneblue,235,plasmodium_falciparum_Dd2
0.25,0.000293,-0.010995999999999999,1.0,Mefloquine,Methyleneblue,235,plasmodium_falciparum_Dd2
0.25,0.0,-0.191338,1.0,Mefloquine,Methyleneblue,235,plasmodium_falciparum_Dd2
0.125,0.075,1.042692,1.0,Mefloquine,Methyleneblue,235,plasmodium_falciparum_Dd2
0.125,0.0375,0.187395,1.0,Mefloquine,Methyleneblue,235,plasmodium_falciparum_Dd2
0.125,0.01875,-0.210677,1.0,Mefloquine,Methyleneblue,235,plasmodium_falciparum_Dd2
0.125,0.009375,0.074245,1.0,Mefloquine,Methyleneblue,235,plasmodium_falciparum_Dd2
0.125,0.0046875,-0.184665,1.0,Mefloquine,Methyleneblue,235,plasmodium_falciparum_Dd2
0.125,0.00234375,0.80623,1.0,Mefloquine,Methyleneblue,235,plasmodium_falciparum_Dd2
0.125,0.001171875,0.20825,1.0,Mefloquine,Methyleneblue,235,plasmodium_falciparum_Dd2
0.125,0.000586,0.8340629999999999,1.0,Mefloquine,Methyleneblue,235,plasmodium_falciparum_Dd2
0.125,0.000293,1.719012,1.0,Mefloquine,Methyleneblue,235,plasmodium_falciparum_Dd2
0.125,0.0,1.959418,1.0,Mefloquine,Methyleneblue,235,plasmodium_falciparum_Dd2
0.0625,0.075,0.741617,1.0,Mefloquine,Methyleneblue,235,plasmodium_falciparum_Dd2
0.0625,0.0375,0.315409,1.0,Mefloquine,Methyleneblue,235,plasmodium_falciparum_Dd2
0.0625,0.01875,-0.005764,1.0,Mefloquine,Methyleneblue,235,plasmodium_falciparum_Dd2
0.0625,0.0046875,1.46617,1.0,Mefloquine,Methyleneblue,235,plasmodium_falciparum_Dd2
0.0625,0.00234375,2.845353,1.0,Mefloquine,Methyleneblue,235,plasmodium_falciparum_Dd2
0.0625,0.001171875,4.597583,1.0,Mefloquine,Methyleneblue,235,plasmodium_falciparum_Dd2
0.0625,0.000586,6.548051999999999,1.0,Mefloquine,Methyleneblue,235,plasmodium_falciparum_Dd2
0.0625,0.000293,6.285805,1.0,Mefloquine,Methyleneblue,235,plasmodium_falciparum_Dd2
0.0625,0.0,6.942862,1.0,Mefloquine,Methyleneblue,235,plasmodium_falciparum_Dd2
0.03125,0.075,0.995597,1.0,Mefloquine,Methyleneblue,235,plasmodium_falciparum_Dd2
0.03125,0.0375,0.658574,1.0,Mefloquine,Methyleneblue,235,plasmodium_falciparum_Dd2
0.03125,0.01875,1.7526080000000002,1.0,Mefloquine,Methyleneblue,235,plasmodium_falciparum_Dd2
0.03125,0.009375,13.948063000000001,1.0,Mefloquine,Methyleneblue,235,plasmodium_falciparum_Dd2
0.03125,0.0046875,12.700989,1.0,Mefloquine,Methyleneblue,235,plasmodium_falciparum_Dd2
0.03125,0.00234375,40.257515000000005,1.0,Mefloquine,Methyleneblue,235,plasmodium_falciparum_Dd2
0.03125,0.001171875,32.4407,1.0,Mefloquine,Methyleneblue,235,plasmodium_falciparum_Dd2
0.03125,0.000586,38.436806,1.0,Mefloquine,Methyleneblue,235,plasmodium_falciparum_Dd2
0.03125,0.000293,39.622982,1.0,Mefloquine,Methyleneblue,235,plasmodium_falciparum_Dd2
0.03125,0.0,36.77596,1.0,Mefloquine,Methyleneblue,235,plasmodium_falciparum_Dd2
0.015625,0.075,0.763458,1.0,Mefloquine,Methyleneblue,235,plasmodium_falciparum_Dd2
0.015625,0.0375,1.6694900000000001,1.0,Mefloquine,Methyleneblue,235,plasmodium_falciparum_Dd2
0.015625,0.01875,3.123981,1.0,Mefloquine,Methyleneblue,235,plasmodium_falciparum_Dd2
0.015625,0.009375,46.334084000000004,1.0,Mefloquine,Methyleneblue,235,plasmodium_falciparum_Dd2
0.015625,0.0046875,57.06678,1.0,Mefloquine,Methyleneblue,235,plasmodium_falciparum_Dd2
0.015625,0.00234375,73.76146,1.0,Mefloquine,Methyleneblue,235,plasmodium_falciparum_Dd2
0.015625,0.001171875,68.69429000000001,1.0,Mefloquine,Methyleneblue,235,plasmodium_falciparum_Dd2
0.015625,0.000586,73.71065,1.0,Mefloquine,Methyleneblue,235,plasmodium_falciparum_Dd2
0.015625,0.000293,71.118286,1.0,Mefloquine,Methyleneblue,235,plasmodium_falciparum_Dd2
0.015625,0.0,69.81244000000001,1.0,Mefloquine,Methyleneblue,235,plasmodium_falciparum_Dd2
0.0078125,0.075,2.3253340000000002,1.0,Mefloquine,Methyleneblue,235,plasmodium_falciparum_Dd2
0.0078125,0.0375,2.955015,1.0,Mefloquine,Methyleneblue,235,plasmodium_falciparum_Dd2
0.0078125,0.01875,11.431694,1.0,Mefloquine,Methyleneblue,235,plasmodium_falciparum_Dd2
0.0078125,0.009375,73.14043000000001,1.0,Mefloquine,Methyleneblue,235,plasmodium_falciparum_Dd2
0.0078125,0.0046875,82.20189,1.0,Mefloquine,Methyleneblue,235,plasmodium_falciparum_Dd2
0.0078125,0.00234375,83.89655,1.0,Mefloquine,Methyleneblue,235,plasmodium_falciparum_Dd2
0.0078125,0.001171875,83.76164,1.0,Mefloquine,Methyleneblue,235,plasmodium_falciparum_Dd2
0.0078125,0.000586,82.62718000000001,1.0,Mefloquine,Methyleneblue,235,plasmodium_falciparum_Dd2
0.0078125,0.000293,89.208984,1.0,Mefloquine,Methyleneblue,235,plasmodium_falciparum_Dd2
0.0078125,0.0,91.87923,1.0,Mefloquine,Methyleneblue,235,plasmodium_falciparum_Dd2
0.00390625,0.075,1.913688,1.0,Mefloquine,Methyleneblue,235,plasmodium_falciparum_Dd2
0.00390625,0.0375,2.741835,1.0,Mefloquine,Methyleneblue,235,plasmodium_falciparum_Dd2
0.00390625,0.01875,17.882217,1.0,Mefloquine,Methyleneblue,235,plasmodium_falciparum_Dd2
0.00390625,0.009375,85.967606,1.0,Mefloquine,Methyleneblue,235,plasmodium_falciparum_Dd2
0.00390625,0.0046875,94.74688,1.0,Mefloquine,Methyleneblue,235,plasmodium_falciparum_Dd2
0.00390625,0.00234375,97.25392,1.0,Mefloquine,Methyleneblue,235,plasmodium_falciparum_Dd2
0.00390625,0.000586,111.87891,1.0,Mefloquine,Methyleneblue,235,plasmodium_falciparum_Dd2
0.00390625,0.000293,98.26749000000001,1.0,Mefloquine,Methyleneblue,235,plasmodium_falciparum_Dd2
0.00390625,0.0,97.34189,1.0,Mefloquine,Methyleneblue,235,plasmodium_falciparum_Dd2
0.001953125,0.075,1.898596,1.0,Mefloquine,Methyleneblue,235,plasmodium_falciparum_Dd2
0.001953125,0.0375,3.468511,1.0,Mefloquine,Methyleneblue,235,plasmodium_falciparum_Dd2
0.001953125,0.01875,24.097721,1.0,Mefloquine,Methyleneblue,235,plasmodium_falciparum_Dd2
0.001953125,0.009375,89.0052,1.0,Mefloquine,Methyleneblue,235,plasmodium_falciparum_Dd2
0.001953125,0.0046875,98.44594000000001,1.0,Mefloquine,Methyleneblue,235,plasmodium_falciparum_Dd2
0.001953125,0.00234375,99.36205,1.0,Mefloquine,Methyleneblue,235,plasmodium_falciparum_Dd2
0.001953125,0.001171875,98.8977,1.0,Mefloquine,Methyleneblue,235,plasmodium_falciparum_Dd2
0.001953125,0.000586,99.32914,1.0,Mefloquine,Methyleneblue,235,plasmodium_falciparum_Dd2
0.001953125,0.000293,104.487236,1.0,Mefloquine,Methyleneblue,235,plasmodium_falciparum_Dd2
0.001953125,0.0,90.613045,1.0,Mefloquine,Methyleneblue,235,plasmodium_falciparum_Dd2
0.000976625,0.075,5.052533,1.0,Mefloquine,Methyleneblue,235,plasmodium_falciparum_Dd2
0.000976625,0.0375,7.39622,1.0,Mefloquine,Methyleneblue,235,plasmodium_falciparum_Dd2
0.000976625,0.01875,18.293182,1.0,Mefloquine,Methyleneblue,235,plasmodium_falciparum_Dd2
0.000976625,0.009375,104.78081,1.0,Mefloquine,Methyleneblue,235,plasmodium_falciparum_Dd2
0.000976625,0.0046875,107.67553000000001,1.0,Mefloquine,Methyleneblue,235,plasmodium_falciparum_Dd2
0.000976625,0.00234375,116.2285,1.0,Mefloquine,Methyleneblue,235,plasmodium_falciparum_Dd2
0.000976625,0.000586,117.24609,1.0,Mefloquine,Methyleneblue,235,plasmodium_falciparum_Dd2
0.000976625,0.000293,111.473785,1.0,Mefloquine,Methyleneblue,235,plasmodium_falciparum_Dd2
0.000976625,0.0,119.18541,1.0,Mefloquine,Methyleneblue,235,plasmodium_falciparum_Dd2
0.0,0.075,3.764733,1.0,Mefloquine,Methyleneblue,235,plasmodium_falciparum_Dd2
0.0,0.0375,4.553142,1.0,Mefloquine,Methyleneblue,235,plasmodium_falciparum_Dd2
0.0,0.01875,19.0643,1.0,Mefloquine,Methyleneblue,235,plasmodium_falciparum_Dd2
0.0,0.009375,90.11265999999999,1.0,Mefloquine,Methyleneblue,235,plasmodium_falciparum_Dd2
0.0,0.0046875,117.72766000000001,1.0,Mefloquine,Methyleneblue,235,plasmodium_falciparum_Dd2
0.0,0.00234375,109.25506999999999,1.0,Mefloquine,Methyleneblue,235,plasmodium_falciparum_Dd2
0.0,0.001171875,111.652,1.0,Mefloquine,Methyleneblue,235,plasmodium_falciparum_Dd2
0.0,0.000586,109.25431999999999,1.0,Mefloquine,Methyleneblue,235,plasmodium_falciparum_Dd2
0.0,0.000293,106.67561,1.0,Mefloquine,Methyleneblue,235,plasmodium_falciparum_Dd2
0.0,0.0,105.12518,1.0,Mefloquine,Methyleneblue,235,plasmodium_falciparum_Dd2
