drug1.conc,drug2.conc,effect,effect.95ci,drug1,drug2,expt,sample
5.0,0.037500000000000006,-0.49225699999999994,1.0,Miconazole,Methyleneblue,106,plasmodium_falciparum_3D7
5.0,0.018750000000000003,-0.713357,1.0,Miconazole,Methyleneblue,106,plasmodium_falciparum_3D7
5.0,0.009375000000000001,-0.64027,1.0,Miconazole,Methyleneblue,106,plasmodium_falciparum_3D7
5.0,0.004687500000000001,0.190394,1.0,Miconazole,Methyleneblue,106,plasmodium_falciparum_3D7
5.0,0.0023438,1.0991959999999998,1.0,Miconazole,Methyleneblue,106,plasmodium_falciparum_3D7
5.0,0.0011719,1.718545,1.0,Miconazole,Methyleneblue,106,plasmodium_falciparum_3D7
5.0,0.0005859,4.240923,1.0,Miconazole,Methyleneblue,106,plasmodium_falciparum_3D7
5.0,0.000293,4.283941,1.0,Miconazole,Methyleneblue,106,plasmodium_falciparum_3D7
5.0,0.0001465,5.933887,1.0,Miconazole,Methyleneblue,106,plasmodium_falciparum_3D7
5.0,0.0,5.856459,1.0,Miconazole,Methyleneblue,106,plasmodium_falciparum_3D7
2.5,0.037500000000000006,0.268435,1.0,Miconazole,Methyleneblue,106,plasmodium_falciparum_3D7
2.5,0.018750000000000003,-1.0483049999999998,1.0,Miconazole,Methyleneblue,106,plasmodium_falciparum_3D7
2.5,0.009375000000000001,0.023594,1.0,Miconazole,Methyleneblue,106,plasmodium_falciparum_3D7
2.5,0.004687500000000001,1.7315189999999998,1.0,Miconazole,Methyleneblue,106,plasmodium_falciparum_3D7
2.5,0.0023438,9.001522,1.0,Miconazole,Methyleneblue,106,plasmodium_falciparum_3D7
2.5,0.0011719,20.388592000000003,1.0,Miconazole,Methyleneblue,106,plasmodium_falciparum_3D7
2.5,0.0005859,33.753983000000005,1.0,Miconazole,Methyleneblue,106,plasmodium_falciparum_3D7
2.5,0.000293,36.69955,1.0,Miconazole,Methyleneblue,106,plasmodium_falciparum_3D7
2.5,0.0001465,33.961056,1.0,Miconazole,Methyleneblue,106,plasmodium_falciparum_3D7
2.5,0.0,43.365192,1.0,Miconazole,Methyleneblue,106,plasmodium_falciparum_3D7
1.25,0.037500000000000006,0.042871,1.0,Miconazole,Methyleneblue,106,plasmodium_falciparum_3D7
1.25,0.018750000000000003,0.033158999999999994,1.0,Miconazole,Methyleneblue,106,plasmodium_falciparum_3D7
1.25,0.009375000000000001,1.147365,1.0,Miconazole,Methyleneblue,106,plasmodium_falciparum_3D7
1.25,0.004687500000000001,10.671849,1.0,Miconazole,Methyleneblue,106,plasmodium_falciparum_3D7
1.25,0.0023438,46.64946,1.0,Miconazole,Methyleneblue,106,plasmodium_falciparum_3D7
1.25,0.0011719,57.743916000000006,1.0,Miconazole,Methyleneblue,106,plasmodium_falciparum_3D7
1.25,0.0005859,59.363987,1.0,Miconazole,Methyleneblue,106,plasmodium_falciparum_3D7
1.25,0.000293,72.53612,1.0,Miconazole,Methyleneblue,106,plasmodium_falciparum_3D7
1.25,0.0001465,63.398945,1.0,Miconazole,Methyleneblue,106,plasmodium_falciparum_3D7
1.25,0.0,64.43079,1.0,Miconazole,Methyleneblue,106,plasmodium_falciparum_3D7
0.625,0.037500000000000006,-0.282095,1.0,Miconazole,Methyleneblue,106,plasmodium_falciparum_3D7
0.625,0.018750000000000003,-0.078777,1.0,Miconazole,Methyleneblue,106,plasmodium_falciparum_3D7
0.625,0.009375000000000001,2.112895,1.0,Miconazole,Methyleneblue,106,plasmodium_falciparum_3D7
0.625,0.004687500000000001,26.77873,1.0,Miconazole,Methyleneblue,106,plasmodium_falciparum_3D7
0.625,0.0023438,69.344604,1.0,Miconazole,Methyleneblue,106,plasmodium_falciparum_3D7
0.625,0.0011719,70.85412,1.0,Miconazole,Methyleneblue,106,plasmodium_falciparum_3D7
0.625,0.0005859,75.97024,1.0,Miconazole,Methyleneblue,106,plasmodium_falciparum_3D7
0.625,0.000293,79.130974,1.0,Miconazole,Methyleneblue,106,plasmodium_falciparum_3D7
0.625,0.0001465,81.04433,1.0,Miconazole,Methyleneblue,106,plasmodium_falciparum_3D7
0.625,0.0,72.97147,1.0,Miconazole,Methyleneblue,106,plasmodium_falciparum_3D7
0.3125,0.037500000000000006,0.9500059999999999,1.0,Miconazole,Methyleneblue,106,plasmodium_falciparum_3D7
0.3125,0.018750000000000003,0.617804,1.0,Miconazole,Methyleneblue,106,plasmodium_falciparum_3D7
0.3125,0.009375000000000001,2.931467,1.0,Miconazole,Methyleneblue,106,plasmodium_falciparum_3D7
0.3125,0.004687500000000001,47.269447,1.0,Miconazole,Methyleneblue,106,plasmodium_falciparum_3D7
0.3125,0.0023438,80.27476,1.0,Miconazole,Methyleneblue,106,plasmodium_falciparum_3D7
0.3125,0.0011719,86.33272,1.0,Miconazole,Methyleneblue,106,plasmodium_falciparum_3D7
0.3125,0.0005859,85.88973,1.0,Miconazole,Methyleneblue,106,plasmodium_falciparum_3D7
0.3125,0.000293,94.21064,1.0,Miconazole,Methyleneblue,106,plasmodium_falciparum_3D7
0.3125,0.0001465,82.422134,1.0,Miconazole,Methyleneblue,106,plasmodium_falciparum_3D7
0.3125,0.0,80.351326,1.0,Miconazole,Methyleneblue,106,plasmodium_falciparum_3D7
0.15625,0.037500000000000006,0.28754,1.0,Miconazole,Methyleneblue,106,plasmodium_falciparum_3D7
0.15625,0.018750000000000003,0.44075299999999995,1.0,Miconazole,Methyleneblue,106,plasmodium_falciparum_3D7
0.15625,0.009375000000000001,4.902358,1.0,Miconazole,Methyleneblue,106,plasmodium_falciparum_3D7
0.15625,0.004687500000000001,57.313095,1.0,Miconazole,Methyleneblue,106,plasmodium_falciparum_3D7
0.15625,0.0023438,79.97873,1.0,Miconazole,Methyleneblue,106,plasmodium_falciparum_3D7
0.15625,0.0011719,87.158966,1.0,Miconazole,Methyleneblue,106,plasmodium_falciparum_3D7
0.15625,0.0005859,92.39307,1.0,Miconazole,Methyleneblue,106,plasmodium_falciparum_3D7
0.15625,0.000293,98.1279,1.0,Miconazole,Methyleneblue,106,plasmodium_falciparum_3D7
0.15625,0.0001465,92.48236,1.0,Miconazole,Methyleneblue,106,plasmodium_falciparum_3D7
0.15625,0.0,88.53981999999999,1.0,Miconazole,Methyleneblue,106,plasmodium_falciparum_3D7
0.078125,0.037500000000000006,-0.022956,1.0,Miconazole,Methyleneblue,106,plasmodium_falciparum_3D7
0.078125,0.018750000000000003,0.7498020000000001,1.0,Miconazole,Methyleneblue,106,plasmodium_falciparum_3D7
0.078125,0.009375000000000001,5.5597959999999995,1.0,Miconazole,Methyleneblue,106,plasmodium_falciparum_3D7
0.078125,0.004687500000000001,57.323809999999995,1.0,Miconazole,Methyleneblue,106,plasmodium_falciparum_3D7
0.078125,0.0023438,85.574486,1.0,Miconazole,Methyleneblue,106,plasmodium_falciparum_3D7
0.078125,0.0011719,102.86363,1.0,Miconazole,Methyleneblue,106,plasmodium_falciparum_3D7
0.078125,0.0005859,98.09295,1.0,Miconazole,Methyleneblue,106,plasmodium_falciparum_3D7
0.078125,0.000293,98.26007,1.0,Miconazole,Methyleneblue,106,plasmodium_falciparum_3D7
0.078125,0.0001465,91.1708,1.0,Miconazole,Methyleneblue,106,plasmodium_falciparum_3D7
0.078125,0.0,95.47666,1.0,Miconazole,Methyleneblue,106,plasmodium_falciparum_3D7
0.0390625,0.037500000000000006,0.65474,1.0,Miconazole,Methyleneblue,106,plasmodium_falciparum_3D7
0.0390625,0.018750000000000003,0.690474,1.0,Miconazole,Methyleneblue,106,plasmodium_falciparum_3D7
0.0390625,0.009375000000000001,8.054287,1.0,Miconazole,Methyleneblue,106,plasmodium_falciparum_3D7
0.0390625,0.004687500000000001,56.002340000000004,1.0,Miconazole,Methyleneblue,106,plasmodium_falciparum_3D7
0.0390625,0.0023438,100.38653000000001,1.0,Miconazole,Methyleneblue,106,plasmodium_falciparum_3D7
0.0390625,0.0011719,101.74396,1.0,Miconazole,Methyleneblue,106,plasmodium_falciparum_3D7
0.0390625,0.0005859,83.37008,1.0,Miconazole,Methyleneblue,106,plasmodium_falciparum_3D7
0.0390625,0.000293,95.13245,1.0,Miconazole,Methyleneblue,106,plasmodium_falciparum_3D7
0.0390625,0.0001465,107.84143,1.0,Miconazole,Methyleneblue,106,plasmodium_falciparum_3D7
0.0390625,0.0,94.975555,1.0,Miconazole,Methyleneblue,106,plasmodium_falciparum_3D7
0.0195313,0.037500000000000006,0.772684,1.0,Miconazole,Methyleneblue,106,plasmodium_falciparum_3D7
0.0195313,0.018750000000000003,0.592199,1.0,Miconazole,Methyleneblue,106,plasmodium_falciparum_3D7
0.0195313,0.009375000000000001,6.671009,1.0,Miconazole,Methyleneblue,106,plasmodium_falciparum_3D7
0.0195313,0.004687500000000001,58.119453,1.0,Miconazole,Methyleneblue,106,plasmodium_falciparum_3D7
0.0195313,0.0023438,89.63499499999999,1.0,Miconazole,Methyleneblue,106,plasmodium_falciparum_3D7
0.0195313,0.0011719,94.33877,1.0,Miconazole,Methyleneblue,106,plasmodium_falciparum_3D7
0.0195313,0.0005859,100.78225,1.0,Miconazole,Methyleneblue,106,plasmodium_falciparum_3D7
0.0195313,0.000293,96.40649,1.0,Miconazole,Methyleneblue,106,plasmodium_falciparum_3D7
0.0195313,0.0001465,96.260704,1.0,Miconazole,Methyleneblue,106,plasmodium_falciparum_3D7
0.0195313,0.0,93.803566,1.0,Miconazole,Methyleneblue,106,plasmodium_falciparum_3D7
0.0,0.037500000000000006,0.26115,1.0,Miconazole,Methyleneblue,106,plasmodium_falciparum_3D7
0.0,0.018750000000000003,1.158107,1.0,Miconazole,Methyleneblue,106,plasmodium_falciparum_3D7
0.0,0.009375000000000001,8.076017,1.0,Miconazole,Methyleneblue,106,plasmodium_falciparum_3D7
0.0,0.004687500000000001,63.30935,1.0,Miconazole,Methyleneblue,106,plasmodium_falciparum_3D7
0.0,0.0023438,84.78139499999999,1.0,Miconazole,Methyleneblue,106,plasmodium_falciparum_3D7
0.0,0.0011719,98.41075,1.0,Miconazole,Methyleneblue,106,plasmodium_falciparum_3D7
0.0,0.0005859,101.25831600000001,1.0,Miconazole,Methyleneblue,106,plasmodium_falciparum_3D7
0.0,0.000293,95.19935,1.0,Miconazole,Methyleneblue,106,plasmodium_falciparum_3D7
0.0,0.0001465,101.2734,1.0,Miconazole,Methyleneblue,106,plasmodium_falciparum_3D7
0.0,0.0,100.10431,1.0,Miconazole,Methyleneblue,106,plasmodium_falciparum_3D7
