drug1.conc,drug2.conc,effect,effect.95ci,drug1,drug2,expt,sample
0.05,0.17500000000000002,4.665293,1.0,ML238,Proguanil,210,plasmodium_falciparum_HB3
0.05,0.08750000000000001,5.555872,1.0,ML238,Proguanil,210,plasmodium_falciparum_HB3
0.05,0.043750000000000004,6.064811,1.0,ML238,Proguanil,210,plasmodium_falciparum_HB3
0.05,0.021875000000000002,-8.439554,1.0,ML238,Proguanil,210,plasmodium_falciparum_HB3
0.05,0.010937500000000001,9.264211999999999,1.0,ML238,Proguanil,210,plasmodium_falciparum_HB3
0.05,0.0054687500000000005,9.073518,1.0,ML238,Proguanil,210,plasmodium_falciparum_HB3
0.05,0.0027343750000000003,10.523157000000001,1.0,ML238,Proguanil,210,plasmodium_falciparum_HB3
0.05,0.0013672500000000002,10.758269,1.0,ML238,Proguanil,210,plasmodium_falciparum_HB3
0.05,0.0006836250000000001,9.90484,1.0,ML238,Proguanil,210,plasmodium_falciparum_HB3
0.05,0.0,10.189214999999999,1.0,ML238,Proguanil,210,plasmodium_falciparum_HB3
0.025,0.17500000000000002,4.739138,1.0,ML238,Proguanil,210,plasmodium_falciparum_HB3
0.025,0.08750000000000001,5.834494,1.0,ML238,Proguanil,210,plasmodium_falciparum_HB3
0.025,0.043750000000000004,8.099656,1.0,ML238,Proguanil,210,plasmodium_falciparum_HB3
0.025,0.021875000000000002,10.541984,1.0,ML238,Proguanil,210,plasmodium_falciparum_HB3
0.025,0.010937500000000001,12.941308,1.0,ML238,Proguanil,210,plasmodium_falciparum_HB3
0.025,0.0054687500000000005,17.329596,1.0,ML238,Proguanil,210,plasmodium_falciparum_HB3
0.025,0.0027343750000000003,19.776114,1.0,ML238,Proguanil,210,plasmodium_falciparum_HB3
0.025,0.0013672500000000002,19.072191,1.0,ML238,Proguanil,210,plasmodium_falciparum_HB3
0.025,0.0006836250000000001,20.269102,1.0,ML238,Proguanil,210,plasmodium_falciparum_HB3
0.025,0.0,18.998345999999998,1.0,ML238,Proguanil,210,plasmodium_falciparum_HB3
0.0125,0.17500000000000002,5.2023459999999995,1.0,ML238,Proguanil,210,plasmodium_falciparum_HB3
0.0125,0.08750000000000001,7.600762,1.0,ML238,Proguanil,210,plasmodium_falciparum_HB3
0.0125,0.043750000000000004,11.663688,1.0,ML238,Proguanil,210,plasmodium_falciparum_HB3
0.0125,0.021875000000000002,18.581474,1.0,ML238,Proguanil,210,plasmodium_falciparum_HB3
0.0125,0.010937500000000001,23.062887,1.0,ML238,Proguanil,210,plasmodium_falciparum_HB3
0.0125,0.0054687500000000005,30.30997,1.0,ML238,Proguanil,210,plasmodium_falciparum_HB3
0.0125,0.0027343750000000003,31.702421,1.0,ML238,Proguanil,210,plasmodium_falciparum_HB3
0.0125,0.0013672500000000002,31.843601,1.0,ML238,Proguanil,210,plasmodium_falciparum_HB3
0.0125,0.0006836250000000001,33.064537,1.0,ML238,Proguanil,210,plasmodium_falciparum_HB3
0.0125,0.0,31.153406,1.0,ML238,Proguanil,210,plasmodium_falciparum_HB3
0.00625,0.17500000000000002,6.293462,1.0,ML238,Proguanil,210,plasmodium_falciparum_HB3
0.00625,0.08750000000000001,10.669888,1.0,ML238,Proguanil,210,plasmodium_falciparum_HB3
0.00625,0.043750000000000004,20.245428,1.0,ML238,Proguanil,210,plasmodium_falciparum_HB3
0.00625,0.021875000000000002,32.132366,1.0,ML238,Proguanil,210,plasmodium_falciparum_HB3
0.00625,0.010937500000000001,44.172146000000005,1.0,ML238,Proguanil,210,plasmodium_falciparum_HB3
0.00625,0.0054687500000000005,50.386913,1.0,ML238,Proguanil,210,plasmodium_falciparum_HB3
0.00625,0.0027343750000000003,54.540240000000004,1.0,ML238,Proguanil,210,plasmodium_falciparum_HB3
0.00625,0.0013672500000000002,51.92009,1.0,ML238,Proguanil,210,plasmodium_falciparum_HB3
0.00625,0.0006836250000000001,57.937355000000004,1.0,ML238,Proguanil,210,plasmodium_falciparum_HB3
0.00625,0.0,48.897602,1.0,ML238,Proguanil,210,plasmodium_falciparum_HB3
0.003125,0.17500000000000002,7.684702000000001,1.0,ML238,Proguanil,210,plasmodium_falciparum_HB3
0.003125,0.08750000000000001,15.543895000000001,1.0,ML238,Proguanil,210,plasmodium_falciparum_HB3
0.003125,0.043750000000000004,29.516102000000004,1.0,ML238,Proguanil,210,plasmodium_falciparum_HB3
0.003125,0.021875000000000002,44.969646000000004,1.0,ML238,Proguanil,210,plasmodium_falciparum_HB3
0.003125,0.010937500000000001,57.68513000000001,1.0,ML238,Proguanil,210,plasmodium_falciparum_HB3
0.003125,0.0054687500000000005,64.59479,1.0,ML238,Proguanil,210,plasmodium_falciparum_HB3
0.003125,0.0027343750000000003,71.08677,1.0,ML238,Proguanil,210,plasmodium_falciparum_HB3
0.003125,0.0013672500000000002,70.41162,1.0,ML238,Proguanil,210,plasmodium_falciparum_HB3
0.003125,0.0006836250000000001,71.79311,1.0,ML238,Proguanil,210,plasmodium_falciparum_HB3
0.003125,0.0,56.663669999999996,1.0,ML238,Proguanil,210,plasmodium_falciparum_HB3
0.0015625,0.17500000000000002,8.727917,1.0,ML238,Proguanil,210,plasmodium_falciparum_HB3
0.0015625,0.08750000000000001,25.008139,1.0,ML238,Proguanil,210,plasmodium_falciparum_HB3
0.0015625,0.043750000000000004,41.736275,1.0,ML238,Proguanil,210,plasmodium_falciparum_HB3
0.0015625,0.021875000000000002,60.178185,1.0,ML238,Proguanil,210,plasmodium_falciparum_HB3
0.0015625,0.010937500000000001,72.21221,1.0,ML238,Proguanil,210,plasmodium_falciparum_HB3
0.0015625,0.0054687500000000005,81.01387,1.0,ML238,Proguanil,210,plasmodium_falciparum_HB3
0.0015625,0.0027343750000000003,87.95830500000001,1.0,ML238,Proguanil,210,plasmodium_falciparum_HB3
0.0015625,0.0013672500000000002,84.18298,1.0,ML238,Proguanil,210,plasmodium_falciparum_HB3
0.0015625,0.0006836250000000001,87.55188000000001,1.0,ML238,Proguanil,210,plasmodium_falciparum_HB3
0.0015625,0.0,76.14612,1.0,ML238,Proguanil,210,plasmodium_falciparum_HB3
0.00078125,0.17500000000000002,12.924298,1.0,ML238,Proguanil,210,plasmodium_falciparum_HB3
0.00078125,0.08750000000000001,32.937138,1.0,ML238,Proguanil,210,plasmodium_falciparum_HB3
0.00078125,0.043750000000000004,49.20939,1.0,ML238,Proguanil,210,plasmodium_falciparum_HB3
0.00078125,0.021875000000000002,72.8856,1.0,ML238,Proguanil,210,plasmodium_falciparum_HB3
0.00078125,0.010937500000000001,81.9524,1.0,ML238,Proguanil,210,plasmodium_falciparum_HB3
0.00078125,0.0054687500000000005,82.62467,1.0,ML238,Proguanil,210,plasmodium_falciparum_HB3
0.00078125,0.0027343750000000003,93.32575,1.0,ML238,Proguanil,210,plasmodium_falciparum_HB3
0.00078125,0.0013672500000000002,85.87501,1.0,ML238,Proguanil,210,plasmodium_falciparum_HB3
0.00078125,0.0006836250000000001,97.07533000000001,1.0,ML238,Proguanil,210,plasmodium_falciparum_HB3
0.00078125,0.0,87.96461500000001,1.0,ML238,Proguanil,210,plasmodium_falciparum_HB3
0.000390625,0.17500000000000002,16.011039999999998,1.0,ML238,Proguanil,210,plasmodium_falciparum_HB3
0.000390625,0.08750000000000001,38.930374,1.0,ML238,Proguanil,210,plasmodium_falciparum_HB3
0.000390625,0.043750000000000004,59.785393000000006,1.0,ML238,Proguanil,210,plasmodium_falciparum_HB3
0.000390625,0.021875000000000002,78.42158,1.0,ML238,Proguanil,210,plasmodium_falciparum_HB3
0.000390625,0.010937500000000001,85.725296,1.0,ML238,Proguanil,210,plasmodium_falciparum_HB3
0.000390625,0.0054687500000000005,94.15526,1.0,ML238,Proguanil,210,plasmodium_falciparum_HB3
0.000390625,0.0027343750000000003,97.08639000000001,1.0,ML238,Proguanil,210,plasmodium_falciparum_HB3
0.000390625,0.0013672500000000002,96.05705,1.0,ML238,Proguanil,210,plasmodium_falciparum_HB3
0.000390625,0.0006836250000000001,98.51765400000001,1.0,ML238,Proguanil,210,plasmodium_falciparum_HB3
0.000390625,0.0,96.31775999999999,1.0,ML238,Proguanil,210,plasmodium_falciparum_HB3
0.000195375,0.17500000000000002,19.19217,1.0,ML238,Proguanil,210,plasmodium_falciparum_HB3
0.000195375,0.08750000000000001,41.13305,1.0,ML238,Proguanil,210,plasmodium_falciparum_HB3
0.000195375,0.043750000000000004,66.80433000000001,1.0,ML238,Proguanil,210,plasmodium_falciparum_HB3
0.000195375,0.021875000000000002,62.00861,1.0,ML238,Proguanil,210,plasmodium_falciparum_HB3
0.000195375,0.010937500000000001,90.94314,1.0,ML238,Proguanil,210,plasmodium_falciparum_HB3
0.000195375,0.0054687500000000005,92.80657,1.0,ML238,Proguanil,210,plasmodium_falciparum_HB3
0.000195375,0.0027343750000000003,102.63625,1.0,ML238,Proguanil,210,plasmodium_falciparum_HB3
0.000195375,0.0013672500000000002,102.20721400000001,1.0,ML238,Proguanil,210,plasmodium_falciparum_HB3
0.000195375,0.0006836250000000001,94.62785,1.0,ML238,Proguanil,210,plasmodium_falciparum_HB3
0.000195375,0.0,102.78778,1.0,ML238,Proguanil,210,plasmodium_falciparum_HB3
0.0,0.17500000000000002,22.735506,1.0,ML238,Proguanil,210,plasmodium_falciparum_HB3
0.0,0.08750000000000001,54.350609999999996,1.0,ML238,Proguanil,210,plasmodium_falciparum_HB3
0.0,0.043750000000000004,73.51133,1.0,ML238,Proguanil,210,plasmodium_falciparum_HB3
0.0,0.021875000000000002,81.200424,1.0,ML238,Proguanil,210,plasmodium_falciparum_HB3
0.0,0.010937500000000001,97.16427,1.0,ML238,Proguanil,210,plasmodium_falciparum_HB3
0.0,0.0054687500000000005,97.65085,1.0,ML238,Proguanil,210,plasmodium_falciparum_HB3
0.0,0.0027343750000000003,104.13975,1.0,ML238,Proguanil,210,plasmodium_falciparum_HB3
0.0,0.0013672500000000002,108.33481599999999,1.0,ML238,Proguanil,210,plasmodium_falciparum_HB3
0.0,0.0006836250000000001,100.32081600000001,1.0,ML238,Proguanil,210,plasmodium_falciparum_HB3
0.0,0.0,104.71844499999999,1.0,ML238,Proguanil,210,plasmodium_falciparum_HB3
