drug1.conc,drug2.conc,effect,effect.95ci,drug1,drug2,expt,sample
0.025,0.01,12.913074,1.0,Monensinsodiumsalt,NVPBGT226,133,plasmodium_falciparum_3D7
0.025,0.005,63.589256000000006,1.0,Monensinsodiumsalt,NVPBGT226,133,plasmodium_falciparum_3D7
0.025,0.0025,53.00036600000001,1.0,Monensinsodiumsalt,NVPBGT226,133,plasmodium_falciparum_3D7
0.025,0.0003125,22.031347,1.0,Monensinsodiumsalt,NVPBGT226,133,plasmodium_falciparum_3D7
0.025,0.00015625,-18.556901999999997,1.0,Monensinsodiumsalt,NVPBGT226,133,plasmodium_falciparum_3D7
0.025,3.9125e-05,-10.178237,1.0,Monensinsodiumsalt,NVPBGT226,133,plasmodium_falciparum_3D7
0.0125,0.01,13.011975999999999,1.0,Monensinsodiumsalt,NVPBGT226,133,plasmodium_falciparum_3D7
0.0125,0.005,-3.031541,1.0,Monensinsodiumsalt,NVPBGT226,133,plasmodium_falciparum_3D7
0.0125,0.0025,16.516523,1.0,Monensinsodiumsalt,NVPBGT226,133,plasmodium_falciparum_3D7
0.0125,0.00125,-1.5566209999999998,1.0,Monensinsodiumsalt,NVPBGT226,133,plasmodium_falciparum_3D7
0.0125,0.000625,13.762336,1.0,Monensinsodiumsalt,NVPBGT226,133,plasmodium_falciparum_3D7
0.0125,0.0003125,-14.955601999999999,1.0,Monensinsodiumsalt,NVPBGT226,133,plasmodium_falciparum_3D7
0.0125,0.00015625,20.595126999999998,1.0,Monensinsodiumsalt,NVPBGT226,133,plasmodium_falciparum_3D7
0.0125,7.8125e-05,18.150545,1.0,Monensinsodiumsalt,NVPBGT226,133,plasmodium_falciparum_3D7
0.0125,3.9125e-05,8.88822,1.0,Monensinsodiumsalt,NVPBGT226,133,plasmodium_falciparum_3D7
0.0125,0.0,16.978779,1.0,Monensinsodiumsalt,NVPBGT226,133,plasmodium_falciparum_3D7
0.00625,0.01,16.419771,1.0,Monensinsodiumsalt,NVPBGT226,133,plasmodium_falciparum_3D7
0.00625,0.005,-7.254198,1.0,Monensinsodiumsalt,NVPBGT226,133,plasmodium_falciparum_3D7
0.00625,0.00125,7.606803,1.0,Monensinsodiumsalt,NVPBGT226,133,plasmodium_falciparum_3D7
0.00625,0.000625,-15.106104,1.0,Monensinsodiumsalt,NVPBGT226,133,plasmodium_falciparum_3D7
0.00625,0.0003125,-11.135,1.0,Monensinsodiumsalt,NVPBGT226,133,plasmodium_falciparum_3D7
0.00625,0.00015625,16.669173999999998,1.0,Monensinsodiumsalt,NVPBGT226,133,plasmodium_falciparum_3D7
0.00625,7.8125e-05,10.584593,1.0,Monensinsodiumsalt,NVPBGT226,133,plasmodium_falciparum_3D7
0.00625,3.9125e-05,-7.7272039999999995,1.0,Monensinsodiumsalt,NVPBGT226,133,plasmodium_falciparum_3D7
0.00625,0.0,-0.42570600000000003,1.0,Monensinsodiumsalt,NVPBGT226,133,plasmodium_falciparum_3D7
0.003125,0.01,4.175356,1.0,Monensinsodiumsalt,NVPBGT226,133,plasmodium_falciparum_3D7
0.003125,0.005,28.864140000000003,1.0,Monensinsodiumsalt,NVPBGT226,133,plasmodium_falciparum_3D7
0.003125,0.0025,40.9387,1.0,Monensinsodiumsalt,NVPBGT226,133,plasmodium_falciparum_3D7
0.003125,0.00125,40.81185,1.0,Monensinsodiumsalt,NVPBGT226,133,plasmodium_falciparum_3D7
0.003125,0.000625,42.273872,1.0,Monensinsodiumsalt,NVPBGT226,133,plasmodium_falciparum_3D7
0.003125,0.0003125,53.91198000000001,1.0,Monensinsodiumsalt,NVPBGT226,133,plasmodium_falciparum_3D7
0.003125,0.00015625,65.00828,1.0,Monensinsodiumsalt,NVPBGT226,133,plasmodium_falciparum_3D7
0.003125,7.8125e-05,64.02786,1.0,Monensinsodiumsalt,NVPBGT226,133,plasmodium_falciparum_3D7
0.003125,3.9125e-05,84.81864,1.0,Monensinsodiumsalt,NVPBGT226,133,plasmodium_falciparum_3D7
0.003125,0.0,46.126723999999996,1.0,Monensinsodiumsalt,NVPBGT226,133,plasmodium_falciparum_3D7
0.0015625,0.005,6.204984,1.0,Monensinsodiumsalt,NVPBGT226,133,plasmodium_falciparum_3D7
0.0015625,0.0025,-7.744405,1.0,Monensinsodiumsalt,NVPBGT226,133,plasmodium_falciparum_3D7
0.0015625,0.00125,44.047646,1.0,Monensinsodiumsalt,NVPBGT226,133,plasmodium_falciparum_3D7
0.0015625,0.000625,69.76844,1.0,Monensinsodiumsalt,NVPBGT226,133,plasmodium_falciparum_3D7
0.0015625,0.0003125,53.322869999999995,1.0,Monensinsodiumsalt,NVPBGT226,133,plasmodium_falciparum_3D7
0.0015625,0.00015625,65.22113,1.0,Monensinsodiumsalt,NVPBGT226,133,plasmodium_falciparum_3D7
0.0015625,7.8125e-05,78.76846,1.0,Monensinsodiumsalt,NVPBGT226,133,plasmodium_falciparum_3D7
0.0015625,3.9125e-05,48.32405,1.0,Monensinsodiumsalt,NVPBGT226,133,plasmodium_falciparum_3D7
0.0015625,0.0,101.80601999999999,1.0,Monensinsodiumsalt,NVPBGT226,133,plasmodium_falciparum_3D7
0.00078125,0.01,13.246329000000001,1.0,Monensinsodiumsalt,NVPBGT226,133,plasmodium_falciparum_3D7
0.00078125,0.005,44.901207,1.0,Monensinsodiumsalt,NVPBGT226,133,plasmodium_falciparum_3D7
0.00078125,0.0025,67.10455,1.0,Monensinsodiumsalt,NVPBGT226,133,plasmodium_falciparum_3D7
0.00078125,0.00125,96.59435,1.0,Monensinsodiumsalt,NVPBGT226,133,plasmodium_falciparum_3D7
0.00078125,0.000625,72.862335,1.0,Monensinsodiumsalt,NVPBGT226,133,plasmodium_falciparum_3D7
0.00078125,0.00015625,67.52596,1.0,Monensinsodiumsalt,NVPBGT226,133,plasmodium_falciparum_3D7
0.00078125,7.8125e-05,84.79929,1.0,Monensinsodiumsalt,NVPBGT226,133,plasmodium_falciparum_3D7
0.00078125,0.0,112.898026,1.0,Monensinsodiumsalt,NVPBGT226,133,plasmodium_falciparum_3D7
0.000390625,0.01,-6.622089,1.0,Monensinsodiumsalt,NVPBGT226,133,plasmodium_falciparum_3D7
0.000390625,0.005,10.621143,1.0,Monensinsodiumsalt,NVPBGT226,133,plasmodium_falciparum_3D7
0.000390625,0.0025,10.500742,1.0,Monensinsodiumsalt,NVPBGT226,133,plasmodium_falciparum_3D7
0.000390625,0.00125,103.12184,1.0,Monensinsodiumsalt,NVPBGT226,133,plasmodium_falciparum_3D7
0.000390625,0.000625,75.34562,1.0,Monensinsodiumsalt,NVPBGT226,133,plasmodium_falciparum_3D7
0.000390625,0.0003125,113.26353,1.0,Monensinsodiumsalt,NVPBGT226,133,plasmodium_falciparum_3D7
0.000390625,0.00015625,90.35067,1.0,Monensinsodiumsalt,NVPBGT226,133,plasmodium_falciparum_3D7
0.000390625,7.8125e-05,110.8641,1.0,Monensinsodiumsalt,NVPBGT226,133,plasmodium_falciparum_3D7
0.000390625,3.9125e-05,112.67227,1.0,Monensinsodiumsalt,NVPBGT226,133,plasmodium_falciparum_3D7
0.000390625,0.0,101.40827,1.0,Monensinsodiumsalt,NVPBGT226,133,plasmodium_falciparum_3D7
0.000195375,0.01,14.697598000000001,1.0,Monensinsodiumsalt,NVPBGT226,133,plasmodium_falciparum_3D7
0.000195375,0.005,47.010384,1.0,Monensinsodiumsalt,NVPBGT226,133,plasmodium_falciparum_3D7
0.000195375,0.0025,53.469069999999995,1.0,Monensinsodiumsalt,NVPBGT226,133,plasmodium_falciparum_3D7
0.000195375,0.00125,112.09606000000001,1.0,Monensinsodiumsalt,NVPBGT226,133,plasmodium_falciparum_3D7
0.000195375,7.8125e-05,79.677925,1.0,Monensinsodiumsalt,NVPBGT226,133,plasmodium_falciparum_3D7
9.7625e-05,0.01,38.556473,1.0,Monensinsodiumsalt,NVPBGT226,133,plasmodium_falciparum_3D7
9.7625e-05,0.005,61.011375,1.0,Monensinsodiumsalt,NVPBGT226,133,plasmodium_falciparum_3D7
9.7625e-05,0.0025,86.85687,1.0,Monensinsodiumsalt,NVPBGT226,133,plasmodium_falciparum_3D7
0.0,0.01,80.97009,1.0,Monensinsodiumsalt,NVPBGT226,133,plasmodium_falciparum_3D7
0.0,0.005,62.7916,1.0,Monensinsodiumsalt,NVPBGT226,133,plasmodium_falciparum_3D7
0.0,0.0025,84.11774,1.0,Monensinsodiumsalt,NVPBGT226,133,plasmodium_falciparum_3D7
