drug1.conc,drug2.conc,effect,effect.95ci,drug1,drug2,expt,sample
0.01,0.05,13.9985,1.0,Nanchangmycin,Lumefantrine,178,plasmodium_falciparum_3D7
0.01,0.025,24.038510000000002,1.0,Nanchangmycin,Lumefantrine,178,plasmodium_falciparum_3D7
0.01,0.0125,13.133282999999999,1.0,Nanchangmycin,Lumefantrine,178,plasmodium_falciparum_3D7
0.01,0.00625,10.037509,1.0,Nanchangmycin,Lumefantrine,178,plasmodium_falciparum_3D7
0.01,0.003125,0.512628,1.0,Nanchangmycin,Lumefantrine,178,plasmodium_falciparum_3D7
0.01,0.0015625,11.795449000000001,1.0,Nanchangmycin,Lumefantrine,178,plasmodium_falciparum_3D7
0.01,0.00078125,6.841710000000001,1.0,Nanchangmycin,Lumefantrine,178,plasmodium_falciparum_3D7
0.01,0.000390625,0.897724,1.0,Nanchangmycin,Lumefantrine,178,plasmodium_falciparum_3D7
0.01,0.000195375,0.770193,1.0,Nanchangmycin,Lumefantrine,178,plasmodium_falciparum_3D7
0.01,0.0,5.741435,1.0,Nanchangmycin,Lumefantrine,178,plasmodium_falciparum_3D7
0.005,0.05,50.500126,1.0,Nanchangmycin,Lumefantrine,178,plasmodium_falciparum_3D7
0.005,0.025,41.827957,1.0,Nanchangmycin,Lumefantrine,178,plasmodium_falciparum_3D7
0.005,0.0125,93.82345600000001,1.0,Nanchangmycin,Lumefantrine,178,plasmodium_falciparum_3D7
0.005,0.00625,36.36159,1.0,Nanchangmycin,Lumefantrine,178,plasmodium_falciparum_3D7
0.005,0.003125,78.36209000000001,1.0,Nanchangmycin,Lumefantrine,178,plasmodium_falciparum_3D7
0.005,0.0015625,45.5989,1.0,Nanchangmycin,Lumefantrine,178,plasmodium_falciparum_3D7
0.005,0.00078125,112.21555,1.0,Nanchangmycin,Lumefantrine,178,plasmodium_falciparum_3D7
0.005,0.000390625,107.43936000000001,1.0,Nanchangmycin,Lumefantrine,178,plasmodium_falciparum_3D7
0.005,0.000195375,119.13228600000001,1.0,Nanchangmycin,Lumefantrine,178,plasmodium_falciparum_3D7
0.005,0.0,93.95849,1.0,Nanchangmycin,Lumefantrine,178,plasmodium_falciparum_3D7
0.0025,0.05,22.8057,1.0,Nanchangmycin,Lumefantrine,178,plasmodium_falciparum_3D7
0.0025,0.025,41.302826,1.0,Nanchangmycin,Lumefantrine,178,plasmodium_falciparum_3D7
0.0025,0.0125,14.368592000000001,1.0,Nanchangmycin,Lumefantrine,178,plasmodium_falciparum_3D7
0.0025,0.00625,14.098525,1.0,Nanchangmycin,Lumefantrine,178,plasmodium_falciparum_3D7
0.0025,0.003125,24.393599,1.0,Nanchangmycin,Lumefantrine,178,plasmodium_falciparum_3D7
0.0025,0.0015625,47.694424,1.0,Nanchangmycin,Lumefantrine,178,plasmodium_falciparum_3D7
0.0025,0.00078125,13.938485,1.0,Nanchangmycin,Lumefantrine,178,plasmodium_falciparum_3D7
0.0025,0.000390625,46.389095000000005,1.0,Nanchangmycin,Lumefantrine,178,plasmodium_falciparum_3D7
0.0025,0.000195375,56.131535,1.0,Nanchangmycin,Lumefantrine,178,plasmodium_falciparum_3D7
0.0025,0.0,65.00375,1.0,Nanchangmycin,Lumefantrine,178,plasmodium_falciparum_3D7
0.00125,0.05,49.35484,1.0,Nanchangmycin,Lumefantrine,178,plasmodium_falciparum_3D7
0.00125,0.025,36.854214,1.0,Nanchangmycin,Lumefantrine,178,plasmodium_falciparum_3D7
0.00125,0.0125,58.864716,1.0,Nanchangmycin,Lumefantrine,178,plasmodium_falciparum_3D7
0.00125,0.00625,82.08051999999999,1.0,Nanchangmycin,Lumefantrine,178,plasmodium_falciparum_3D7
0.00125,0.003125,72.32808,1.0,Nanchangmycin,Lumefantrine,178,plasmodium_falciparum_3D7
0.00125,0.0015625,83.48836999999999,1.0,Nanchangmycin,Lumefantrine,178,plasmodium_falciparum_3D7
0.00125,0.00078125,79.139786,1.0,Nanchangmycin,Lumefantrine,178,plasmodium_falciparum_3D7
0.00125,0.000390625,61.172793999999996,1.0,Nanchangmycin,Lumefantrine,178,plasmodium_falciparum_3D7
0.00125,0.000195375,83.12328000000001,1.0,Nanchangmycin,Lumefantrine,178,plasmodium_falciparum_3D7
0.00125,0.0,58.4021,1.0,Nanchangmycin,Lumefantrine,178,plasmodium_falciparum_3D7
0.000625,0.05,-7.8519630000000005,1.0,Nanchangmycin,Lumefantrine,178,plasmodium_falciparum_3D7
0.000625,0.025,28.184546,1.0,Nanchangmycin,Lumefantrine,178,plasmodium_falciparum_3D7
0.000625,0.0125,109.09227,1.0,Nanchangmycin,Lumefantrine,178,plasmodium_falciparum_3D7
0.000625,0.00625,63.283319999999996,1.0,Nanchangmycin,Lumefantrine,178,plasmodium_falciparum_3D7
0.000625,0.003125,77.299324,1.0,Nanchangmycin,Lumefantrine,178,plasmodium_falciparum_3D7
0.000625,0.0015625,73.938484,1.0,Nanchangmycin,Lumefantrine,178,plasmodium_falciparum_3D7
0.000625,0.00078125,69.69993000000001,1.0,Nanchangmycin,Lumefantrine,178,plasmodium_falciparum_3D7
0.000625,0.000195375,44.008503000000005,1.0,Nanchangmycin,Lumefantrine,178,plasmodium_falciparum_3D7
0.000625,0.0,102.96324,1.0,Nanchangmycin,Lumefantrine,178,plasmodium_falciparum_3D7
0.0003125,0.05,51.15529,1.0,Nanchangmycin,Lumefantrine,178,plasmodium_falciparum_3D7
0.0003125,0.025,111.55538999999999,1.0,Nanchangmycin,Lumefantrine,178,plasmodium_falciparum_3D7
0.0003125,0.0125,83.42836,1.0,Nanchangmycin,Lumefantrine,178,plasmodium_falciparum_3D7
0.0003125,0.000390625,109.229805,1.0,Nanchangmycin,Lumefantrine,178,plasmodium_falciparum_3D7
0.0003125,0.000195375,103.80095,1.0,Nanchangmycin,Lumefantrine,178,plasmodium_falciparum_3D7
0.00015625,0.05,5.578894999999999,1.0,Nanchangmycin,Lumefantrine,178,plasmodium_falciparum_3D7
0.00015625,0.025,30.812702,1.0,Nanchangmycin,Lumefantrine,178,plasmodium_falciparum_3D7
0.00015625,0.0125,119.187294,1.0,Nanchangmycin,Lumefantrine,178,plasmodium_falciparum_3D7
0.00015625,0.00625,80.99025,1.0,Nanchangmycin,Lumefantrine,178,plasmodium_falciparum_3D7
0.00015625,0.003125,87.66441,1.0,Nanchangmycin,Lumefantrine,178,plasmodium_falciparum_3D7
0.00015625,0.0,115.236305,1.0,Nanchangmycin,Lumefantrine,178,plasmodium_falciparum_3D7
7.8125e-05,0.05,4.28107,1.0,Nanchangmycin,Lumefantrine,178,plasmodium_falciparum_3D7
7.8125e-05,0.025,55.653909999999996,1.0,Nanchangmycin,Lumefantrine,178,plasmodium_falciparum_3D7
7.8125e-05,0.0125,94.34859,1.0,Nanchangmycin,Lumefantrine,178,plasmodium_falciparum_3D7
7.8125e-05,0.00625,96.22156,1.0,Nanchangmycin,Lumefantrine,178,plasmodium_falciparum_3D7
7.8125e-05,0.003125,99.14979,1.0,Nanchangmycin,Lumefantrine,178,plasmodium_falciparum_3D7
7.8125e-05,0.0015625,117.12428,1.0,Nanchangmycin,Lumefantrine,178,plasmodium_falciparum_3D7
7.8125e-05,0.0,116.05901000000001,1.0,Nanchangmycin,Lumefantrine,178,plasmodium_falciparum_3D7
3.9125e-05,0.05,40.99025,1.0,Nanchangmycin,Lumefantrine,178,plasmodium_falciparum_3D7
3.9125e-05,0.025,70.187546,1.0,Nanchangmycin,Lumefantrine,178,plasmodium_falciparum_3D7
3.9125e-05,0.0125,99.11978,1.0,Nanchangmycin,Lumefantrine,178,plasmodium_falciparum_3D7
3.9125e-05,0.00625,70.71768,1.0,Nanchangmycin,Lumefantrine,178,plasmodium_falciparum_3D7
0.0,0.05,49.452362,1.0,Nanchangmycin,Lumefantrine,178,plasmodium_falciparum_3D7
0.0,0.025,60.945236,1.0,Nanchangmycin,Lumefantrine,178,plasmodium_falciparum_3D7
0.0,0.0125,103.25081999999999,1.0,Nanchangmycin,Lumefantrine,178,plasmodium_falciparum_3D7
0.0,0.00625,116.73168000000001,1.0,Nanchangmycin,Lumefantrine,178,plasmodium_falciparum_3D7
