drug1.conc,drug2.conc,effect,effect.95ci,drug1,drug2,expt,sample
0.01,0.025,-0.664798,1.0,Nanchangmycin,Artenimol,177,plasmodium_falciparum_HB3
0.01,0.0125,-0.8274790000000001,1.0,Nanchangmycin,Artenimol,177,plasmodium_falciparum_HB3
0.01,0.00625,-1.147039,1.0,Nanchangmycin,Artenimol,177,plasmodium_falciparum_HB3
0.01,0.003125,-0.2387,1.0,Nanchangmycin,Artenimol,177,plasmodium_falciparum_HB3
0.01,0.0015625,1.036769,1.0,Nanchangmycin,Artenimol,177,plasmodium_falciparum_HB3
0.01,0.00078125,0.190829,1.0,Nanchangmycin,Artenimol,177,plasmodium_falciparum_HB3
0.01,0.000390625,2.40672,1.0,Nanchangmycin,Artenimol,177,plasmodium_falciparum_HB3
0.01,0.000195375,1.410809,1.0,Nanchangmycin,Artenimol,177,plasmodium_falciparum_HB3
0.01,9.7625e-05,2.647033,1.0,Nanchangmycin,Artenimol,177,plasmodium_falciparum_HB3
0.01,0.0,3.7428220000000003,1.0,Nanchangmycin,Artenimol,177,plasmodium_falciparum_HB3
0.005,0.025,0.508775,1.0,Nanchangmycin,Artenimol,177,plasmodium_falciparum_HB3
0.005,0.0125,1.117177,1.0,Nanchangmycin,Artenimol,177,plasmodium_falciparum_HB3
0.005,0.00625,1.660607,1.0,Nanchangmycin,Artenimol,177,plasmodium_falciparum_HB3
0.005,0.003125,3.1954569999999998,1.0,Nanchangmycin,Artenimol,177,plasmodium_falciparum_HB3
0.005,0.0015625,5.214668,1.0,Nanchangmycin,Artenimol,177,plasmodium_falciparum_HB3
0.005,0.00078125,6.1953949999999995,1.0,Nanchangmycin,Artenimol,177,plasmodium_falciparum_HB3
0.005,0.000390625,7.414922,1.0,Nanchangmycin,Artenimol,177,plasmodium_falciparum_HB3
0.005,0.000195375,10.436146,1.0,Nanchangmycin,Artenimol,177,plasmodium_falciparum_HB3
0.005,9.7625e-05,9.372137,1.0,Nanchangmycin,Artenimol,177,plasmodium_falciparum_HB3
0.005,0.0,8.94841,1.0,Nanchangmycin,Artenimol,177,plasmodium_falciparum_HB3
0.0025,0.025,0.363699,1.0,Nanchangmycin,Artenimol,177,plasmodium_falciparum_HB3
0.0025,0.0125,1.271938,1.0,Nanchangmycin,Artenimol,177,plasmodium_falciparum_HB3
0.0025,0.00625,2.33176,1.0,Nanchangmycin,Artenimol,177,plasmodium_falciparum_HB3
0.0025,0.003125,8.480242,1.0,Nanchangmycin,Artenimol,177,plasmodium_falciparum_HB3
0.0025,0.0015625,13.000906,1.0,Nanchangmycin,Artenimol,177,plasmodium_falciparum_HB3
0.0025,0.00078125,14.204392000000002,1.0,Nanchangmycin,Artenimol,177,plasmodium_falciparum_HB3
0.0025,0.000390625,16.84179,1.0,Nanchangmycin,Artenimol,177,plasmodium_falciparum_HB3
0.0025,0.000195375,13.712566,1.0,Nanchangmycin,Artenimol,177,plasmodium_falciparum_HB3
0.0025,9.7625e-05,15.398697,1.0,Nanchangmycin,Artenimol,177,plasmodium_falciparum_HB3
0.0025,0.0,15.177954999999999,1.0,Nanchangmycin,Artenimol,177,plasmodium_falciparum_HB3
0.00125,0.025,0.61395,1.0,Nanchangmycin,Artenimol,177,plasmodium_falciparum_HB3
0.00125,0.0125,2.076263,1.0,Nanchangmycin,Artenimol,177,plasmodium_falciparum_HB3
0.00125,0.00625,4.557185,1.0,Nanchangmycin,Artenimol,177,plasmodium_falciparum_HB3
0.00125,0.003125,17.978286999999998,1.0,Nanchangmycin,Artenimol,177,plasmodium_falciparum_HB3
0.00125,0.0015625,21.61901,1.0,Nanchangmycin,Artenimol,177,plasmodium_falciparum_HB3
0.00125,0.00078125,25.112993,1.0,Nanchangmycin,Artenimol,177,plasmodium_falciparum_HB3
0.00125,0.000390625,34.44064,1.0,Nanchangmycin,Artenimol,177,plasmodium_falciparum_HB3
0.00125,0.000195375,34.486645,1.0,Nanchangmycin,Artenimol,177,plasmodium_falciparum_HB3
0.00125,9.7625e-05,36.49385,1.0,Nanchangmycin,Artenimol,177,plasmodium_falciparum_HB3
0.00125,0.0,28.863129999999998,1.0,Nanchangmycin,Artenimol,177,plasmodium_falciparum_HB3
0.000625,0.025,0.267957,1.0,Nanchangmycin,Artenimol,177,plasmodium_falciparum_HB3
0.000625,0.0125,1.2492379999999998,1.0,Nanchangmycin,Artenimol,177,plasmodium_falciparum_HB3
0.000625,0.00625,6.424056,1.0,Nanchangmycin,Artenimol,177,plasmodium_falciparum_HB3
0.000625,0.003125,23.629799,1.0,Nanchangmycin,Artenimol,177,plasmodium_falciparum_HB3
0.000625,0.0015625,49.147903,1.0,Nanchangmycin,Artenimol,177,plasmodium_falciparum_HB3
0.000625,0.00078125,45.881523,1.0,Nanchangmycin,Artenimol,177,plasmodium_falciparum_HB3
0.000625,0.000390625,57.17148,1.0,Nanchangmycin,Artenimol,177,plasmodium_falciparum_HB3
0.000625,0.000195375,59.747840000000004,1.0,Nanchangmycin,Artenimol,177,plasmodium_falciparum_HB3
0.000625,9.7625e-05,74.567696,1.0,Nanchangmycin,Artenimol,177,plasmodium_falciparum_HB3
0.000625,0.0,51.849014000000004,1.0,Nanchangmycin,Artenimol,177,plasmodium_falciparum_HB3
0.0003125,0.025,0.6720109999999999,1.0,Nanchangmycin,Artenimol,177,plasmodium_falciparum_HB3
0.0003125,0.0125,1.611475,1.0,Nanchangmycin,Artenimol,177,plasmodium_falciparum_HB3
0.0003125,0.00625,8.621232000000001,1.0,Nanchangmycin,Artenimol,177,plasmodium_falciparum_HB3
0.0003125,0.003125,33.719395,1.0,Nanchangmycin,Artenimol,177,plasmodium_falciparum_HB3
0.0003125,0.0015625,70.21047,1.0,Nanchangmycin,Artenimol,177,plasmodium_falciparum_HB3
0.0003125,0.00078125,84.638885,1.0,Nanchangmycin,Artenimol,177,plasmodium_falciparum_HB3
0.0003125,0.000390625,98.4255,1.0,Nanchangmycin,Artenimol,177,plasmodium_falciparum_HB3
0.0003125,0.000195375,93.63239,1.0,Nanchangmycin,Artenimol,177,plasmodium_falciparum_HB3
0.0003125,9.7625e-05,91.15222,1.0,Nanchangmycin,Artenimol,177,plasmodium_falciparum_HB3
0.0003125,0.0,88.33045,1.0,Nanchangmycin,Artenimol,177,plasmodium_falciparum_HB3
0.00015625,0.025,0.33202,1.0,Nanchangmycin,Artenimol,177,plasmodium_falciparum_HB3
0.00015625,0.0125,1.01861,1.0,Nanchangmycin,Artenimol,177,plasmodium_falciparum_HB3
0.00015625,0.00625,11.2778,1.0,Nanchangmycin,Artenimol,177,plasmodium_falciparum_HB3
0.00015625,0.003125,49.814265999999996,1.0,Nanchangmycin,Artenimol,177,plasmodium_falciparum_HB3
0.00015625,0.0015625,71.84914,1.0,Nanchangmycin,Artenimol,177,plasmodium_falciparum_HB3
0.00015625,0.00078125,93.50391,1.0,Nanchangmycin,Artenimol,177,plasmodium_falciparum_HB3
0.00015625,0.000390625,102.39305,1.0,Nanchangmycin,Artenimol,177,plasmodium_falciparum_HB3
0.00015625,0.000195375,97.62550999999999,1.0,Nanchangmycin,Artenimol,177,plasmodium_falciparum_HB3
0.00015625,9.7625e-05,102.08111,1.0,Nanchangmycin,Artenimol,177,plasmodium_falciparum_HB3
0.00015625,0.0,93.96431,1.0,Nanchangmycin,Artenimol,177,plasmodium_falciparum_HB3
7.8125e-05,0.025,0.48763900000000004,1.0,Nanchangmycin,Artenimol,177,plasmodium_falciparum_HB3
7.8125e-05,0.0125,2.2959959999999997,1.0,Nanchangmycin,Artenimol,177,plasmodium_falciparum_HB3
7.8125e-05,0.00625,8.635861,1.0,Nanchangmycin,Artenimol,177,plasmodium_falciparum_HB3
7.8125e-05,0.003125,50.68765,1.0,Nanchangmycin,Artenimol,177,plasmodium_falciparum_HB3
7.8125e-05,0.0015625,75.12379,1.0,Nanchangmycin,Artenimol,177,plasmodium_falciparum_HB3
7.8125e-05,0.00078125,92.94898,1.0,Nanchangmycin,Artenimol,177,plasmodium_falciparum_HB3
7.8125e-05,0.000390625,105.678246,1.0,Nanchangmycin,Artenimol,177,plasmodium_falciparum_HB3
7.8125e-05,0.000195375,104.97415,1.0,Nanchangmycin,Artenimol,177,plasmodium_falciparum_HB3
7.8125e-05,9.7625e-05,101.21276999999999,1.0,Nanchangmycin,Artenimol,177,plasmodium_falciparum_HB3
7.8125e-05,0.0,92.54079,1.0,Nanchangmycin,Artenimol,177,plasmodium_falciparum_HB3
3.9125e-05,0.025,1.379686,1.0,Nanchangmycin,Artenimol,177,plasmodium_falciparum_HB3
3.9125e-05,0.0125,2.314962,1.0,Nanchangmycin,Artenimol,177,plasmodium_falciparum_HB3
3.9125e-05,0.00625,23.42651,1.0,Nanchangmycin,Artenimol,177,plasmodium_falciparum_HB3
3.9125e-05,0.003125,50.70374,1.0,Nanchangmycin,Artenimol,177,plasmodium_falciparum_HB3
3.9125e-05,0.0015625,89.71115,1.0,Nanchangmycin,Artenimol,177,plasmodium_falciparum_HB3
3.9125e-05,0.00078125,98.34630600000001,1.0,Nanchangmycin,Artenimol,177,plasmodium_falciparum_HB3
3.9125e-05,0.000390625,100.296814,1.0,Nanchangmycin,Artenimol,177,plasmodium_falciparum_HB3
3.9125e-05,0.000195375,99.54419,1.0,Nanchangmycin,Artenimol,177,plasmodium_falciparum_HB3
3.9125e-05,9.7625e-05,99.045204,1.0,Nanchangmycin,Artenimol,177,plasmodium_falciparum_HB3
3.9125e-05,0.0,96.22585,1.0,Nanchangmycin,Artenimol,177,plasmodium_falciparum_HB3
0.0,0.025,0.894972,1.0,Nanchangmycin,Artenimol,177,plasmodium_falciparum_HB3
0.0,0.0125,3.068844,1.0,Nanchangmycin,Artenimol,177,plasmodium_falciparum_HB3
0.0,0.00625,27.068192,1.0,Nanchangmycin,Artenimol,177,plasmodium_falciparum_HB3
0.0,0.003125,54.59385699999999,1.0,Nanchangmycin,Artenimol,177,plasmodium_falciparum_HB3
0.0,0.0015625,80.95034,1.0,Nanchangmycin,Artenimol,177,plasmodium_falciparum_HB3
0.0,0.00078125,95.01717,1.0,Nanchangmycin,Artenimol,177,plasmodium_falciparum_HB3
0.0,0.000390625,105.91256000000001,1.0,Nanchangmycin,Artenimol,177,plasmodium_falciparum_HB3
0.0,0.000195375,102.442635,1.0,Nanchangmycin,Artenimol,177,plasmodium_falciparum_HB3
0.0,9.7625e-05,109.67903999999999,1.0,Nanchangmycin,Artenimol,177,plasmodium_falciparum_HB3
0.0,0.0,100.81506999999999,1.0,Nanchangmycin,Artenimol,177,plasmodium_falciparum_HB3
