drug1.conc,drug2.conc,effect,effect.95ci,drug1,drug2,expt,sample
10.0,0.05,2.38883,1.0,Nicardipine,Lumefantrine,89,plasmodium_falciparum_Dd2
10.0,0.025,3.854229,1.0,Nicardipine,Lumefantrine,89,plasmodium_falciparum_Dd2
10.0,0.0125,7.337304,1.0,Nicardipine,Lumefantrine,89,plasmodium_falciparum_Dd2
10.0,0.00625,5.96235,1.0,Nicardipine,Lumefantrine,89,plasmodium_falciparum_Dd2
10.0,0.003125,8.726707000000001,1.0,Nicardipine,Lumefantrine,89,plasmodium_falciparum_Dd2
10.0,0.0015625,20.819489,1.0,Nicardipine,Lumefantrine,89,plasmodium_falciparum_Dd2
10.0,0.00078125,21.528835,1.0,Nicardipine,Lumefantrine,89,plasmodium_falciparum_Dd2
10.0,0.000390625,17.178877,1.0,Nicardipine,Lumefantrine,89,plasmodium_falciparum_Dd2
10.0,0.000195375,25.438128,1.0,Nicardipine,Lumefantrine,89,plasmodium_falciparum_Dd2
10.0,0.0,19.37596,1.0,Nicardipine,Lumefantrine,89,plasmodium_falciparum_Dd2
5.0,0.05,4.1125989999999994,1.0,Nicardipine,Lumefantrine,89,plasmodium_falciparum_Dd2
5.0,0.025,4.915983,1.0,Nicardipine,Lumefantrine,89,plasmodium_falciparum_Dd2
5.0,0.0125,22.0619,1.0,Nicardipine,Lumefantrine,89,plasmodium_falciparum_Dd2
5.0,0.00625,22.90707,1.0,Nicardipine,Lumefantrine,89,plasmodium_falciparum_Dd2
5.0,0.003125,35.04398,1.0,Nicardipine,Lumefantrine,89,plasmodium_falciparum_Dd2
5.0,0.0015625,45.932545000000005,1.0,Nicardipine,Lumefantrine,89,plasmodium_falciparum_Dd2
5.0,0.00078125,50.686306,1.0,Nicardipine,Lumefantrine,89,plasmodium_falciparum_Dd2
5.0,0.000195375,72.48859,1.0,Nicardipine,Lumefantrine,89,plasmodium_falciparum_Dd2
5.0,0.0,59.352869999999996,1.0,Nicardipine,Lumefantrine,89,plasmodium_falciparum_Dd2
2.5,0.05,1.653787,1.0,Nicardipine,Lumefantrine,89,plasmodium_falciparum_Dd2
2.5,0.025,5.307053,1.0,Nicardipine,Lumefantrine,89,plasmodium_falciparum_Dd2
2.5,0.0125,17.536596,1.0,Nicardipine,Lumefantrine,89,plasmodium_falciparum_Dd2
2.5,0.00625,34.484283000000005,1.0,Nicardipine,Lumefantrine,89,plasmodium_falciparum_Dd2
2.5,0.003125,52.010020000000004,1.0,Nicardipine,Lumefantrine,89,plasmodium_falciparum_Dd2
2.5,0.0015625,73.470825,1.0,Nicardipine,Lumefantrine,89,plasmodium_falciparum_Dd2
2.5,0.00078125,78.43766,1.0,Nicardipine,Lumefantrine,89,plasmodium_falciparum_Dd2
2.5,0.000390625,77.45042,1.0,Nicardipine,Lumefantrine,89,plasmodium_falciparum_Dd2
2.5,0.000195375,70.083664,1.0,Nicardipine,Lumefantrine,89,plasmodium_falciparum_Dd2
2.5,0.0,76.02930500000001,1.0,Nicardipine,Lumefantrine,89,plasmodium_falciparum_Dd2
1.25,0.05,5.259721,1.0,Nicardipine,Lumefantrine,89,plasmodium_falciparum_Dd2
1.25,0.025,12.890152,1.0,Nicardipine,Lumefantrine,89,plasmodium_falciparum_Dd2
1.25,0.0125,52.401638,1.0,Nicardipine,Lumefantrine,89,plasmodium_falciparum_Dd2
1.25,0.00625,69.81444,1.0,Nicardipine,Lumefantrine,89,plasmodium_falciparum_Dd2
1.25,0.003125,81.37478,1.0,Nicardipine,Lumefantrine,89,plasmodium_falciparum_Dd2
1.25,0.0015625,80.941536,1.0,Nicardipine,Lumefantrine,89,plasmodium_falciparum_Dd2
1.25,0.00078125,81.17554,1.0,Nicardipine,Lumefantrine,89,plasmodium_falciparum_Dd2
1.25,0.000390625,83.36934000000001,1.0,Nicardipine,Lumefantrine,89,plasmodium_falciparum_Dd2
1.25,0.000195375,90.547386,1.0,Nicardipine,Lumefantrine,89,plasmodium_falciparum_Dd2
1.25,0.0,88.12826,1.0,Nicardipine,Lumefantrine,89,plasmodium_falciparum_Dd2
0.625,0.05,4.681122,1.0,Nicardipine,Lumefantrine,89,plasmodium_falciparum_Dd2
0.625,0.025,14.253936999999999,1.0,Nicardipine,Lumefantrine,89,plasmodium_falciparum_Dd2
0.625,0.0125,48.328014,1.0,Nicardipine,Lumefantrine,89,plasmodium_falciparum_Dd2
0.625,0.00625,68.53851999999999,1.0,Nicardipine,Lumefantrine,89,plasmodium_falciparum_Dd2
0.625,0.003125,84.96908,1.0,Nicardipine,Lumefantrine,89,plasmodium_falciparum_Dd2
0.625,0.0015625,100.67584000000001,1.0,Nicardipine,Lumefantrine,89,plasmodium_falciparum_Dd2
0.625,0.000390625,89.38308,1.0,Nicardipine,Lumefantrine,89,plasmodium_falciparum_Dd2
0.625,0.000195375,94.129654,1.0,Nicardipine,Lumefantrine,89,plasmodium_falciparum_Dd2
0.625,0.0,94.194016,1.0,Nicardipine,Lumefantrine,89,plasmodium_falciparum_Dd2
0.3125,0.05,5.872764,1.0,Nicardipine,Lumefantrine,89,plasmodium_falciparum_Dd2
0.3125,0.025,14.311969,1.0,Nicardipine,Lumefantrine,89,plasmodium_falciparum_Dd2
0.3125,0.0125,61.624153,1.0,Nicardipine,Lumefantrine,89,plasmodium_falciparum_Dd2
0.3125,0.00625,78.926125,1.0,Nicardipine,Lumefantrine,89,plasmodium_falciparum_Dd2
0.3125,0.003125,86.023026,1.0,Nicardipine,Lumefantrine,89,plasmodium_falciparum_Dd2
0.3125,0.0015625,85.39568,1.0,Nicardipine,Lumefantrine,89,plasmodium_falciparum_Dd2
0.3125,0.00078125,100.10068000000001,1.0,Nicardipine,Lumefantrine,89,plasmodium_falciparum_Dd2
0.3125,0.000390625,111.31697,1.0,Nicardipine,Lumefantrine,89,plasmodium_falciparum_Dd2
0.3125,0.000195375,93.93588000000001,1.0,Nicardipine,Lumefantrine,89,plasmodium_falciparum_Dd2
0.3125,0.0,90.50216999999999,1.0,Nicardipine,Lumefantrine,89,plasmodium_falciparum_Dd2
0.15625,0.05,6.690364,1.0,Nicardipine,Lumefantrine,89,plasmodium_falciparum_Dd2
0.15625,0.025,39.74791,1.0,Nicardipine,Lumefantrine,89,plasmodium_falciparum_Dd2
0.15625,0.0125,73.50386999999999,1.0,Nicardipine,Lumefantrine,89,plasmodium_falciparum_Dd2
0.15625,0.0015625,94.866104,1.0,Nicardipine,Lumefantrine,89,plasmodium_falciparum_Dd2
0.15625,0.00078125,99.41242,1.0,Nicardipine,Lumefantrine,89,plasmodium_falciparum_Dd2
0.15625,0.000390625,92.4351,1.0,Nicardipine,Lumefantrine,89,plasmodium_falciparum_Dd2
0.15625,0.000195375,89.20961,1.0,Nicardipine,Lumefantrine,89,plasmodium_falciparum_Dd2
0.15625,0.0,95.15798000000001,1.0,Nicardipine,Lumefantrine,89,plasmodium_falciparum_Dd2
0.078125,0.05,5.9879690000000005,1.0,Nicardipine,Lumefantrine,89,plasmodium_falciparum_Dd2
0.078125,0.025,18.71574,1.0,Nicardipine,Lumefantrine,89,plasmodium_falciparum_Dd2
0.078125,0.0125,63.95261,1.0,Nicardipine,Lumefantrine,89,plasmodium_falciparum_Dd2
0.078125,0.00625,93.84442,1.0,Nicardipine,Lumefantrine,89,plasmodium_falciparum_Dd2
0.078125,0.003125,93.528564,1.0,Nicardipine,Lumefantrine,89,plasmodium_falciparum_Dd2
0.078125,0.0015625,102.94369,1.0,Nicardipine,Lumefantrine,89,plasmodium_falciparum_Dd2
0.078125,0.00078125,96.392426,1.0,Nicardipine,Lumefantrine,89,plasmodium_falciparum_Dd2
0.078125,0.000390625,94.49580999999999,1.0,Nicardipine,Lumefantrine,89,plasmodium_falciparum_Dd2
0.078125,0.000195375,103.58508,1.0,Nicardipine,Lumefantrine,89,plasmodium_falciparum_Dd2
0.078125,0.0,109.5575,1.0,Nicardipine,Lumefantrine,89,plasmodium_falciparum_Dd2
0.0390625,0.05,7.563261,1.0,Nicardipine,Lumefantrine,89,plasmodium_falciparum_Dd2
0.0390625,0.025,17.791842000000003,1.0,Nicardipine,Lumefantrine,89,plasmodium_falciparum_Dd2
0.0390625,0.0125,82.93,1.0,Nicardipine,Lumefantrine,89,plasmodium_falciparum_Dd2
0.0390625,0.00625,83.83804,1.0,Nicardipine,Lumefantrine,89,plasmodium_falciparum_Dd2
0.0390625,0.003125,108.93603,1.0,Nicardipine,Lumefantrine,89,plasmodium_falciparum_Dd2
0.0390625,0.0015625,98.0641,1.0,Nicardipine,Lumefantrine,89,plasmodium_falciparum_Dd2
0.0390625,0.00078125,91.20183,1.0,Nicardipine,Lumefantrine,89,plasmodium_falciparum_Dd2
0.0390625,0.000390625,97.19144,1.0,Nicardipine,Lumefantrine,89,plasmodium_falciparum_Dd2
0.0390625,0.000195375,102.02807,1.0,Nicardipine,Lumefantrine,89,plasmodium_falciparum_Dd2
0.0390625,0.0,90.14952,1.0,Nicardipine,Lumefantrine,89,plasmodium_falciparum_Dd2
0.0,0.05,8.85597,1.0,Nicardipine,Lumefantrine,89,plasmodium_falciparum_Dd2
0.0,0.025,24.697697,1.0,Nicardipine,Lumefantrine,89,plasmodium_falciparum_Dd2
0.0,0.0125,64.305565,1.0,Nicardipine,Lumefantrine,89,plasmodium_falciparum_Dd2
0.0,0.00625,82.60149399999999,1.0,Nicardipine,Lumefantrine,89,plasmodium_falciparum_Dd2
0.0,0.003125,91.748245,1.0,Nicardipine,Lumefantrine,89,plasmodium_falciparum_Dd2
0.0,0.0015625,100.80721,1.0,Nicardipine,Lumefantrine,89,plasmodium_falciparum_Dd2
0.0,0.00078125,102.27409,1.0,Nicardipine,Lumefantrine,89,plasmodium_falciparum_Dd2
0.0,0.000390625,98.664955,1.0,Nicardipine,Lumefantrine,89,plasmodium_falciparum_Dd2
0.0,0.000195375,100.61350999999999,1.0,Nicardipine,Lumefantrine,89,plasmodium_falciparum_Dd2
0.0,0.0,106.11707,1.0,Nicardipine,Lumefantrine,89,plasmodium_falciparum_Dd2
