drug1.conc,drug2.conc,effect,effect.95ci,drug1,drug2,expt,sample
5.0,0.125,0.630447,1.0,Nicardipine,Mefloquine,121,plasmodium_falciparum_Dd2
5.0,0.0625,1.173777,1.0,Nicardipine,Mefloquine,121,plasmodium_falciparum_Dd2
5.0,0.03125,0.5881810000000001,1.0,Nicardipine,Mefloquine,121,plasmodium_falciparum_Dd2
5.0,0.015625,2.415477,1.0,Nicardipine,Mefloquine,121,plasmodium_falciparum_Dd2
5.0,0.0078125,4.542607,1.0,Nicardipine,Mefloquine,121,plasmodium_falciparum_Dd2
5.0,0.003906300000000001,6.912438000000001,1.0,Nicardipine,Mefloquine,121,plasmodium_falciparum_Dd2
5.0,0.0019531000000000001,7.825514,1.0,Nicardipine,Mefloquine,121,plasmodium_falciparum_Dd2
5.0,0.0009766,11.461707,1.0,Nicardipine,Mefloquine,121,plasmodium_falciparum_Dd2
5.0,0.0004883,15.065729999999999,1.0,Nicardipine,Mefloquine,121,plasmodium_falciparum_Dd2
5.0,0.0,14.65536,1.0,Nicardipine,Mefloquine,121,plasmodium_falciparum_Dd2
2.5,0.125,0.097558,1.0,Nicardipine,Mefloquine,121,plasmodium_falciparum_Dd2
2.5,0.0625,0.7404850000000001,1.0,Nicardipine,Mefloquine,121,plasmodium_falciparum_Dd2
2.5,0.03125,1.649534,1.0,Nicardipine,Mefloquine,121,plasmodium_falciparum_Dd2
2.5,0.015625,5.121887999999999,1.0,Nicardipine,Mefloquine,121,plasmodium_falciparum_Dd2
2.5,0.0078125,14.819051000000002,1.0,Nicardipine,Mefloquine,121,plasmodium_falciparum_Dd2
2.5,0.003906300000000001,20.774654,1.0,Nicardipine,Mefloquine,121,plasmodium_falciparum_Dd2
2.5,0.0019531000000000001,27.007769,1.0,Nicardipine,Mefloquine,121,plasmodium_falciparum_Dd2
2.5,0.0009766,30.272078000000004,1.0,Nicardipine,Mefloquine,121,plasmodium_falciparum_Dd2
2.5,0.0004883,35.093933,1.0,Nicardipine,Mefloquine,121,plasmodium_falciparum_Dd2
2.5,0.0,44.074627,1.0,Nicardipine,Mefloquine,121,plasmodium_falciparum_Dd2
1.25,0.125,1.233943,1.0,Nicardipine,Mefloquine,121,plasmodium_falciparum_Dd2
1.25,0.0625,2.910327,1.0,Nicardipine,Mefloquine,121,plasmodium_falciparum_Dd2
1.25,0.03125,3.21762,1.0,Nicardipine,Mefloquine,121,plasmodium_falciparum_Dd2
1.25,0.015625,10.475786,1.0,Nicardipine,Mefloquine,121,plasmodium_falciparum_Dd2
1.25,0.0078125,27.202038,1.0,Nicardipine,Mefloquine,121,plasmodium_falciparum_Dd2
1.25,0.003906300000000001,41.1012,1.0,Nicardipine,Mefloquine,121,plasmodium_falciparum_Dd2
1.25,0.0019531000000000001,46.788246,1.0,Nicardipine,Mefloquine,121,plasmodium_falciparum_Dd2
1.25,0.0009766,49.158726,1.0,Nicardipine,Mefloquine,121,plasmodium_falciparum_Dd2
1.25,0.0004883,45.496970000000005,1.0,Nicardipine,Mefloquine,121,plasmodium_falciparum_Dd2
1.25,0.0,53.853336,1.0,Nicardipine,Mefloquine,121,plasmodium_falciparum_Dd2
0.625,0.125,1.516075,1.0,Nicardipine,Mefloquine,121,plasmodium_falciparum_Dd2
0.625,0.0625,1.936738,1.0,Nicardipine,Mefloquine,121,plasmodium_falciparum_Dd2
0.625,0.03125,6.335792,1.0,Nicardipine,Mefloquine,121,plasmodium_falciparum_Dd2
0.625,0.015625,27.531607,1.0,Nicardipine,Mefloquine,121,plasmodium_falciparum_Dd2
0.625,0.0078125,52.43451999999999,1.0,Nicardipine,Mefloquine,121,plasmodium_falciparum_Dd2
0.625,0.003906300000000001,56.523003,1.0,Nicardipine,Mefloquine,121,plasmodium_falciparum_Dd2
0.625,0.0019531000000000001,64.67957,1.0,Nicardipine,Mefloquine,121,plasmodium_falciparum_Dd2
0.625,0.0009766,71.00418,1.0,Nicardipine,Mefloquine,121,plasmodium_falciparum_Dd2
0.625,0.0004883,67.09466,1.0,Nicardipine,Mefloquine,121,plasmodium_falciparum_Dd2
0.625,0.0,74.28361,1.0,Nicardipine,Mefloquine,121,plasmodium_falciparum_Dd2
0.3125,0.125,2.104953,1.0,Nicardipine,Mefloquine,121,plasmodium_falciparum_Dd2
0.3125,0.0625,1.507274,1.0,Nicardipine,Mefloquine,121,plasmodium_falciparum_Dd2
0.3125,0.03125,8.438507000000001,1.0,Nicardipine,Mefloquine,121,plasmodium_falciparum_Dd2
0.3125,0.015625,31.535853999999997,1.0,Nicardipine,Mefloquine,121,plasmodium_falciparum_Dd2
0.3125,0.0078125,53.02150699999999,1.0,Nicardipine,Mefloquine,121,plasmodium_falciparum_Dd2
0.3125,0.003906300000000001,71.75431,1.0,Nicardipine,Mefloquine,121,plasmodium_falciparum_Dd2
0.3125,0.0019531000000000001,80.47739,1.0,Nicardipine,Mefloquine,121,plasmodium_falciparum_Dd2
0.3125,0.0009766,83.11398,1.0,Nicardipine,Mefloquine,121,plasmodium_falciparum_Dd2
0.3125,0.0004883,101.50379000000001,1.0,Nicardipine,Mefloquine,121,plasmodium_falciparum_Dd2
0.3125,0.0,82.6168,1.0,Nicardipine,Mefloquine,121,plasmodium_falciparum_Dd2
0.15625,0.125,1.496186,1.0,Nicardipine,Mefloquine,121,plasmodium_falciparum_Dd2
0.15625,0.0625,4.488607,1.0,Nicardipine,Mefloquine,121,plasmodium_falciparum_Dd2
0.15625,0.03125,10.816194,1.0,Nicardipine,Mefloquine,121,plasmodium_falciparum_Dd2
0.15625,0.015625,39.11275,1.0,Nicardipine,Mefloquine,121,plasmodium_falciparum_Dd2
0.15625,0.0078125,65.10029,1.0,Nicardipine,Mefloquine,121,plasmodium_falciparum_Dd2
0.15625,0.003906300000000001,72.586784,1.0,Nicardipine,Mefloquine,121,plasmodium_falciparum_Dd2
0.15625,0.0019531000000000001,74.94165,1.0,Nicardipine,Mefloquine,121,plasmodium_falciparum_Dd2
0.15625,0.0009766,90.75845,1.0,Nicardipine,Mefloquine,121,plasmodium_falciparum_Dd2
0.15625,0.0004883,97.05104,1.0,Nicardipine,Mefloquine,121,plasmodium_falciparum_Dd2
0.15625,0.0,90.418144,1.0,Nicardipine,Mefloquine,121,plasmodium_falciparum_Dd2
0.078125,0.125,1.251794,1.0,Nicardipine,Mefloquine,121,plasmodium_falciparum_Dd2
0.078125,0.0625,2.8287310000000003,1.0,Nicardipine,Mefloquine,121,plasmodium_falciparum_Dd2
0.078125,0.03125,13.073450999999999,1.0,Nicardipine,Mefloquine,121,plasmodium_falciparum_Dd2
0.078125,0.015625,36.026053999999995,1.0,Nicardipine,Mefloquine,121,plasmodium_falciparum_Dd2
0.078125,0.0078125,55.066646999999996,1.0,Nicardipine,Mefloquine,121,plasmodium_falciparum_Dd2
0.078125,0.003906300000000001,82.115486,1.0,Nicardipine,Mefloquine,121,plasmodium_falciparum_Dd2
0.078125,0.0019531000000000001,83.16048,1.0,Nicardipine,Mefloquine,121,plasmodium_falciparum_Dd2
0.078125,0.0009766,84.339874,1.0,Nicardipine,Mefloquine,121,plasmodium_falciparum_Dd2
0.078125,0.0004883,106.89583,1.0,Nicardipine,Mefloquine,121,plasmodium_falciparum_Dd2
0.078125,0.0,98.44856999999999,1.0,Nicardipine,Mefloquine,121,plasmodium_falciparum_Dd2
0.0390625,0.125,2.437753,1.0,Nicardipine,Mefloquine,121,plasmodium_falciparum_Dd2
0.0390625,0.0625,3.173366,1.0,Nicardipine,Mefloquine,121,plasmodium_falciparum_Dd2
0.0390625,0.03125,13.143412,1.0,Nicardipine,Mefloquine,121,plasmodium_falciparum_Dd2
0.0390625,0.015625,42.88832,1.0,Nicardipine,Mefloquine,121,plasmodium_falciparum_Dd2
0.0390625,0.0078125,62.426745999999994,1.0,Nicardipine,Mefloquine,121,plasmodium_falciparum_Dd2
0.0390625,0.003906300000000001,77.14431,1.0,Nicardipine,Mefloquine,121,plasmodium_falciparum_Dd2
0.0390625,0.0019531000000000001,89.73723000000001,1.0,Nicardipine,Mefloquine,121,plasmodium_falciparum_Dd2
0.0390625,0.0009766,105.99448999999998,1.0,Nicardipine,Mefloquine,121,plasmodium_falciparum_Dd2
0.0390625,0.0004883,99.89215,1.0,Nicardipine,Mefloquine,121,plasmodium_falciparum_Dd2
0.0390625,0.0,92.418236,1.0,Nicardipine,Mefloquine,121,plasmodium_falciparum_Dd2
0.0195313,0.125,0.8274020000000001,1.0,Nicardipine,Mefloquine,121,plasmodium_falciparum_Dd2
0.0195313,0.0625,2.765234,1.0,Nicardipine,Mefloquine,121,plasmodium_falciparum_Dd2
0.0195313,0.03125,10.924145,1.0,Nicardipine,Mefloquine,121,plasmodium_falciparum_Dd2
0.0195313,0.015625,42.40809,1.0,Nicardipine,Mefloquine,121,plasmodium_falciparum_Dd2
0.0195313,0.0078125,62.590137,1.0,Nicardipine,Mefloquine,121,plasmodium_falciparum_Dd2
0.0195313,0.003906300000000001,79.82939,1.0,Nicardipine,Mefloquine,121,plasmodium_falciparum_Dd2
0.0195313,0.0019531000000000001,93.8097,1.0,Nicardipine,Mefloquine,121,plasmodium_falciparum_Dd2
0.0195313,0.0009766,95.51423,1.0,Nicardipine,Mefloquine,121,plasmodium_falciparum_Dd2
0.0195313,0.0004883,94.59647,1.0,Nicardipine,Mefloquine,121,plasmodium_falciparum_Dd2
0.0195313,0.0,88.5377,1.0,Nicardipine,Mefloquine,121,plasmodium_falciparum_Dd2
0.0,0.125,1.105059,1.0,Nicardipine,Mefloquine,121,plasmodium_falciparum_Dd2
0.0,0.0625,2.1879419999999996,1.0,Nicardipine,Mefloquine,121,plasmodium_falciparum_Dd2
0.0,0.03125,9.073478999999999,1.0,Nicardipine,Mefloquine,121,plasmodium_falciparum_Dd2
0.0,0.015625,42.78758,1.0,Nicardipine,Mefloquine,121,plasmodium_falciparum_Dd2
0.0,0.0078125,54.86441800000001,1.0,Nicardipine,Mefloquine,121,plasmodium_falciparum_Dd2
0.0,0.003906300000000001,88.699394,1.0,Nicardipine,Mefloquine,121,plasmodium_falciparum_Dd2
0.0,0.0019531000000000001,91.5691,1.0,Nicardipine,Mefloquine,121,plasmodium_falciparum_Dd2
0.0,0.0009766,93.03103,1.0,Nicardipine,Mefloquine,121,plasmodium_falciparum_Dd2
0.0,0.0004883,94.91983,1.0,Nicardipine,Mefloquine,121,plasmodium_falciparum_Dd2
0.0,0.0,92.01453000000001,1.0,Nicardipine,Mefloquine,121,plasmodium_falciparum_Dd2
