drug1.conc,drug2.conc,effect,effect.95ci,drug1,drug2,expt,sample
0.01,0.05,-1.6618950000000001,1.0,NITD609,Artesunate,220,plasmodium_falciparum_Dd2
0.01,0.025,-1.329546,1.0,NITD609,Artesunate,220,plasmodium_falciparum_Dd2
0.01,0.0125,-1.059504,1.0,NITD609,Artesunate,220,plasmodium_falciparum_Dd2
0.01,0.00625,-0.5680470000000001,1.0,NITD609,Artesunate,220,plasmodium_falciparum_Dd2
0.01,0.003125,-0.950468,1.0,NITD609,Artesunate,220,plasmodium_falciparum_Dd2
0.01,0.0015625,-1.315338,1.0,NITD609,Artesunate,220,plasmodium_falciparum_Dd2
0.01,0.00078125,-1.5929790000000001,1.0,NITD609,Artesunate,220,plasmodium_falciparum_Dd2
0.01,0.000390625,-0.409547,1.0,NITD609,Artesunate,220,plasmodium_falciparum_Dd2
0.01,0.000195375,-1.118694,1.0,NITD609,Artesunate,220,plasmodium_falciparum_Dd2
0.01,0.0,-0.82183,1.0,NITD609,Artesunate,220,plasmodium_falciparum_Dd2
0.005,0.05,0.372923,1.0,NITD609,Artesunate,220,plasmodium_falciparum_Dd2
0.005,0.025,0.205761,1.0,NITD609,Artesunate,220,plasmodium_falciparum_Dd2
0.005,0.0125,-0.520254,1.0,NITD609,Artesunate,220,plasmodium_falciparum_Dd2
0.005,0.00625,-0.711807,1.0,NITD609,Artesunate,220,plasmodium_falciparum_Dd2
0.005,0.003125,0.857389,1.0,NITD609,Artesunate,220,plasmodium_falciparum_Dd2
0.005,0.0015625,-0.319659,1.0,NITD609,Artesunate,220,plasmodium_falciparum_Dd2
0.005,0.00078125,-0.503538,1.0,NITD609,Artesunate,220,plasmodium_falciparum_Dd2
0.005,0.000390625,-1.0821459999999998,1.0,NITD609,Artesunate,220,plasmodium_falciparum_Dd2
0.005,0.000195375,-0.529068,1.0,NITD609,Artesunate,220,plasmodium_falciparum_Dd2
0.005,0.0,-0.977974,1.0,NITD609,Artesunate,220,plasmodium_falciparum_Dd2
0.0025,0.05,1.252424,1.0,NITD609,Artesunate,220,plasmodium_falciparum_Dd2
0.0025,0.025,1.5334079999999999,1.0,NITD609,Artesunate,220,plasmodium_falciparum_Dd2
0.0025,0.0125,3.680225,1.0,NITD609,Artesunate,220,plasmodium_falciparum_Dd2
0.0025,0.00625,11.832491000000001,1.0,NITD609,Artesunate,220,plasmodium_falciparum_Dd2
0.0025,0.003125,6.576384,1.0,NITD609,Artesunate,220,plasmodium_falciparum_Dd2
0.0025,0.0015625,18.357662,1.0,NITD609,Artesunate,220,plasmodium_falciparum_Dd2
0.0025,0.00078125,34.624508,1.0,NITD609,Artesunate,220,plasmodium_falciparum_Dd2
0.0025,0.000390625,49.770835999999996,1.0,NITD609,Artesunate,220,plasmodium_falciparum_Dd2
0.0025,0.000195375,21.775597,1.0,NITD609,Artesunate,220,plasmodium_falciparum_Dd2
0.0025,0.0,2.390342,1.0,NITD609,Artesunate,220,plasmodium_falciparum_Dd2
0.00125,0.05,1.144072,1.0,NITD609,Artesunate,220,plasmodium_falciparum_Dd2
0.00125,0.025,2.197269,1.0,NITD609,Artesunate,220,plasmodium_falciparum_Dd2
0.00125,0.0125,8.058580000000001,1.0,NITD609,Artesunate,220,plasmodium_falciparum_Dd2
0.00125,0.00625,85.01491,1.0,NITD609,Artesunate,220,plasmodium_falciparum_Dd2
0.00125,0.003125,88.093575,1.0,NITD609,Artesunate,220,plasmodium_falciparum_Dd2
0.00125,0.0015625,97.73123000000001,1.0,NITD609,Artesunate,220,plasmodium_falciparum_Dd2
0.00125,0.00078125,93.09909,1.0,NITD609,Artesunate,220,plasmodium_falciparum_Dd2
0.00125,0.000390625,118.67763000000001,1.0,NITD609,Artesunate,220,plasmodium_falciparum_Dd2
0.00125,0.000195375,106.24586000000001,1.0,NITD609,Artesunate,220,plasmodium_falciparum_Dd2
0.00125,0.0,111.15852,1.0,NITD609,Artesunate,220,plasmodium_falciparum_Dd2
0.000625,0.05,3.3697589999999997,1.0,NITD609,Artesunate,220,plasmodium_falciparum_Dd2
0.000625,0.025,3.986739,1.0,NITD609,Artesunate,220,plasmodium_falciparum_Dd2
0.000625,0.0125,12.42075,1.0,NITD609,Artesunate,220,plasmodium_falciparum_Dd2
0.000625,0.00625,80.67219,1.0,NITD609,Artesunate,220,plasmodium_falciparum_Dd2
0.000625,0.003125,95.80415,1.0,NITD609,Artesunate,220,plasmodium_falciparum_Dd2
0.000625,0.0015625,101.33639000000001,1.0,NITD609,Artesunate,220,plasmodium_falciparum_Dd2
0.000625,0.00078125,100.7482,1.0,NITD609,Artesunate,220,plasmodium_falciparum_Dd2
0.000625,0.000390625,109.30128,1.0,NITD609,Artesunate,220,plasmodium_falciparum_Dd2
0.000625,0.000195375,105.50448999999999,1.0,NITD609,Artesunate,220,plasmodium_falciparum_Dd2
0.000625,0.0,108.63931000000001,1.0,NITD609,Artesunate,220,plasmodium_falciparum_Dd2
0.0003125,0.05,1.679903,1.0,NITD609,Artesunate,220,plasmodium_falciparum_Dd2
0.0003125,0.025,2.05199,1.0,NITD609,Artesunate,220,plasmodium_falciparum_Dd2
0.0003125,0.0125,6.265842,1.0,NITD609,Artesunate,220,plasmodium_falciparum_Dd2
0.0003125,0.00625,84.910736,1.0,NITD609,Artesunate,220,plasmodium_falciparum_Dd2
0.0003125,0.003125,97.65935,1.0,NITD609,Artesunate,220,plasmodium_falciparum_Dd2
0.0003125,0.0015625,94.95224,1.0,NITD609,Artesunate,220,plasmodium_falciparum_Dd2
0.0003125,0.00078125,104.64384,1.0,NITD609,Artesunate,220,plasmodium_falciparum_Dd2
0.0003125,0.000390625,96.96327,1.0,NITD609,Artesunate,220,plasmodium_falciparum_Dd2
0.0003125,0.000195375,109.69691999999999,1.0,NITD609,Artesunate,220,plasmodium_falciparum_Dd2
0.0003125,0.0,101.30037,1.0,NITD609,Artesunate,220,plasmodium_falciparum_Dd2
0.00015625,0.05,0.990891,1.0,NITD609,Artesunate,220,plasmodium_falciparum_Dd2
0.00015625,0.025,2.392925,1.0,NITD609,Artesunate,220,plasmodium_falciparum_Dd2
0.00015625,0.0125,6.720827000000001,1.0,NITD609,Artesunate,220,plasmodium_falciparum_Dd2
0.00015625,0.00625,91.64904,1.0,NITD609,Artesunate,220,plasmodium_falciparum_Dd2
0.00015625,0.003125,102.36131,1.0,NITD609,Artesunate,220,plasmodium_falciparum_Dd2
0.00015625,0.0015625,110.66668999999999,1.0,NITD609,Artesunate,220,plasmodium_falciparum_Dd2
0.00015625,0.00078125,99.32588,1.0,NITD609,Artesunate,220,plasmodium_falciparum_Dd2
0.00015625,0.000390625,96.68943,1.0,NITD609,Artesunate,220,plasmodium_falciparum_Dd2
0.00015625,0.000195375,109.896904,1.0,NITD609,Artesunate,220,plasmodium_falciparum_Dd2
0.00015625,0.0,117.0968,1.0,NITD609,Artesunate,220,plasmodium_falciparum_Dd2
7.8125e-05,0.05,1.552784,1.0,NITD609,Artesunate,220,plasmodium_falciparum_Dd2
7.8125e-05,0.025,3.168329,1.0,NITD609,Artesunate,220,plasmodium_falciparum_Dd2
7.8125e-05,0.0125,4.958558999999999,1.0,NITD609,Artesunate,220,plasmodium_falciparum_Dd2
7.8125e-05,0.00625,79.29568499999999,1.0,NITD609,Artesunate,220,plasmodium_falciparum_Dd2
7.8125e-05,0.003125,95.33405,1.0,NITD609,Artesunate,220,plasmodium_falciparum_Dd2
7.8125e-05,0.0015625,99.72988000000001,1.0,NITD609,Artesunate,220,plasmodium_falciparum_Dd2
7.8125e-05,0.00078125,106.05171999999999,1.0,NITD609,Artesunate,220,plasmodium_falciparum_Dd2
7.8125e-05,0.000390625,98.82675,1.0,NITD609,Artesunate,220,plasmodium_falciparum_Dd2
7.8125e-05,0.000195375,104.33839,1.0,NITD609,Artesunate,220,plasmodium_falciparum_Dd2
7.8125e-05,0.0,116.11738600000001,1.0,NITD609,Artesunate,220,plasmodium_falciparum_Dd2
3.9125e-05,0.05,3.902703,1.0,NITD609,Artesunate,220,plasmodium_falciparum_Dd2
3.9125e-05,0.025,4.295989,1.0,NITD609,Artesunate,220,plasmodium_falciparum_Dd2
3.9125e-05,0.0125,6.503289,1.0,NITD609,Artesunate,220,plasmodium_falciparum_Dd2
3.9125e-05,0.00625,96.22533,1.0,NITD609,Artesunate,220,plasmodium_falciparum_Dd2
3.9125e-05,0.0015625,112.50311,1.0,NITD609,Artesunate,220,plasmodium_falciparum_Dd2
3.9125e-05,0.000195375,116.45551,1.0,NITD609,Artesunate,220,plasmodium_falciparum_Dd2
0.0,0.05,2.989846,1.0,NITD609,Artesunate,220,plasmodium_falciparum_Dd2
0.0,0.025,3.190668,1.0,NITD609,Artesunate,220,plasmodium_falciparum_Dd2
0.0,0.0125,7.050896000000001,1.0,NITD609,Artesunate,220,plasmodium_falciparum_Dd2
0.0,0.00625,90.92583499999999,1.0,NITD609,Artesunate,220,plasmodium_falciparum_Dd2
0.0,0.003125,102.71623000000001,1.0,NITD609,Artesunate,220,plasmodium_falciparum_Dd2
0.0,0.0015625,107.97833999999999,1.0,NITD609,Artesunate,220,plasmodium_falciparum_Dd2
0.0,0.00078125,115.84111000000001,1.0,NITD609,Artesunate,220,plasmodium_falciparum_Dd2
0.0,0.000390625,97.70076,1.0,NITD609,Artesunate,220,plasmodium_falciparum_Dd2
0.0,0.000195375,117.11747,1.0,NITD609,Artesunate,220,plasmodium_falciparum_Dd2
0.0,0.0,118.594574,1.0,NITD609,Artesunate,220,plasmodium_falciparum_Dd2
