drug1.conc,drug2.conc,effect,effect.95ci,drug1,drug2,expt,sample
0.01,0.05,-0.643034,1.0,NITD609,Artesunate,220,plasmodium_falciparum_HB3
0.01,0.025,-0.747079,1.0,NITD609,Artesunate,220,plasmodium_falciparum_HB3
0.01,0.0125,-0.8922129999999999,1.0,NITD609,Artesunate,220,plasmodium_falciparum_HB3
0.01,0.00625,-1.066232,1.0,NITD609,Artesunate,220,plasmodium_falciparum_HB3
0.01,0.003125,-0.779829,1.0,NITD609,Artesunate,220,plasmodium_falciparum_HB3
0.01,0.0015625,-0.710109,1.0,NITD609,Artesunate,220,plasmodium_falciparum_HB3
0.01,0.00078125,-0.45971000000000006,1.0,NITD609,Artesunate,220,plasmodium_falciparum_HB3
0.01,0.000390625,-0.737214,1.0,NITD609,Artesunate,220,plasmodium_falciparum_HB3
0.01,0.000195375,-0.875381,1.0,NITD609,Artesunate,220,plasmodium_falciparum_HB3
0.01,0.0,-0.691294,1.0,NITD609,Artesunate,220,plasmodium_falciparum_HB3
0.005,0.05,-0.406518,1.0,NITD609,Artesunate,220,plasmodium_falciparum_HB3
0.005,0.025,0.52231,1.0,NITD609,Artesunate,220,plasmodium_falciparum_HB3
0.005,0.0125,0.23717800000000003,1.0,NITD609,Artesunate,220,plasmodium_falciparum_HB3
0.005,0.00625,-0.118843,1.0,NITD609,Artesunate,220,plasmodium_falciparum_HB3
0.005,0.003125,0.528259,1.0,NITD609,Artesunate,220,plasmodium_falciparum_HB3
0.005,0.0015625,0.46032,1.0,NITD609,Artesunate,220,plasmodium_falciparum_HB3
0.005,0.00078125,1.137629,1.0,NITD609,Artesunate,220,plasmodium_falciparum_HB3
0.005,0.000390625,-0.300896,1.0,NITD609,Artesunate,220,plasmodium_falciparum_HB3
0.005,0.000195375,0.985274,1.0,NITD609,Artesunate,220,plasmodium_falciparum_HB3
0.005,0.0,0.246941,1.0,NITD609,Artesunate,220,plasmodium_falciparum_HB3
0.0025,0.05,2.260206,1.0,NITD609,Artesunate,220,plasmodium_falciparum_HB3
0.0025,0.025,2.956432,1.0,NITD609,Artesunate,220,plasmodium_falciparum_HB3
0.0025,0.0125,1.05179,1.0,NITD609,Artesunate,220,plasmodium_falciparum_HB3
0.0025,0.00625,28.034871999999996,1.0,NITD609,Artesunate,220,plasmodium_falciparum_HB3
0.0025,0.003125,7.89277,1.0,NITD609,Artesunate,220,plasmodium_falciparum_HB3
0.0025,0.0015625,8.986411,1.0,NITD609,Artesunate,220,plasmodium_falciparum_HB3
0.0025,0.00078125,100.03793,1.0,NITD609,Artesunate,220,plasmodium_falciparum_HB3
0.0025,0.000390625,1.5191270000000001,1.0,NITD609,Artesunate,220,plasmodium_falciparum_HB3
0.0025,0.000195375,45.34905,1.0,NITD609,Artesunate,220,plasmodium_falciparum_HB3
0.0025,0.0,8.104724000000001,1.0,NITD609,Artesunate,220,plasmodium_falciparum_HB3
0.00125,0.05,2.481263,1.0,NITD609,Artesunate,220,plasmodium_falciparum_HB3
0.00125,0.025,4.980325,1.0,NITD609,Artesunate,220,plasmodium_falciparum_HB3
0.00125,0.0125,18.360218,1.0,NITD609,Artesunate,220,plasmodium_falciparum_HB3
0.00125,0.00625,58.510124,1.0,NITD609,Artesunate,220,plasmodium_falciparum_HB3
0.00125,0.003125,84.86191600000001,1.0,NITD609,Artesunate,220,plasmodium_falciparum_HB3
0.00125,0.0015625,102.59304,1.0,NITD609,Artesunate,220,plasmodium_falciparum_HB3
0.00125,0.00078125,91.12018,1.0,NITD609,Artesunate,220,plasmodium_falciparum_HB3
0.00125,0.000390625,98.42503,1.0,NITD609,Artesunate,220,plasmodium_falciparum_HB3
0.00125,0.000195375,84.20902,1.0,NITD609,Artesunate,220,plasmodium_falciparum_HB3
0.00125,0.0,105.375404,1.0,NITD609,Artesunate,220,plasmodium_falciparum_HB3
0.000625,0.05,2.2520189999999998,1.0,NITD609,Artesunate,220,plasmodium_falciparum_HB3
0.000625,0.025,4.511665,1.0,NITD609,Artesunate,220,plasmodium_falciparum_HB3
0.000625,0.0125,25.491976,1.0,NITD609,Artesunate,220,plasmodium_falciparum_HB3
0.000625,0.00625,70.07386,1.0,NITD609,Artesunate,220,plasmodium_falciparum_HB3
0.000625,0.003125,101.882576,1.0,NITD609,Artesunate,220,plasmodium_falciparum_HB3
0.000625,0.0015625,102.83952,1.0,NITD609,Artesunate,220,plasmodium_falciparum_HB3
0.000625,0.00078125,104.92022,1.0,NITD609,Artesunate,220,plasmodium_falciparum_HB3
0.000625,0.000390625,106.31333000000001,1.0,NITD609,Artesunate,220,plasmodium_falciparum_HB3
0.000625,0.000195375,110.46038,1.0,NITD609,Artesunate,220,plasmodium_falciparum_HB3
0.000625,0.0,110.38278000000001,1.0,NITD609,Artesunate,220,plasmodium_falciparum_HB3
0.0003125,0.05,2.711881,1.0,NITD609,Artesunate,220,plasmodium_falciparum_HB3
0.0003125,0.025,4.443929,1.0,NITD609,Artesunate,220,plasmodium_falciparum_HB3
0.0003125,0.0125,11.564396,1.0,NITD609,Artesunate,220,plasmodium_falciparum_HB3
0.0003125,0.00625,47.849636,1.0,NITD609,Artesunate,220,plasmodium_falciparum_HB3
0.0003125,0.003125,102.66932,1.0,NITD609,Artesunate,220,plasmodium_falciparum_HB3
0.0003125,0.0015625,104.70297,1.0,NITD609,Artesunate,220,plasmodium_falciparum_HB3
0.0003125,0.00078125,105.201126,1.0,NITD609,Artesunate,220,plasmodium_falciparum_HB3
0.0003125,0.000390625,107.38576499999999,1.0,NITD609,Artesunate,220,plasmodium_falciparum_HB3
0.0003125,0.000195375,108.35528000000001,1.0,NITD609,Artesunate,220,plasmodium_falciparum_HB3
0.0003125,0.0,107.60606399999999,1.0,NITD609,Artesunate,220,plasmodium_falciparum_HB3
0.00015625,0.05,2.392474,1.0,NITD609,Artesunate,220,plasmodium_falciparum_HB3
0.00015625,0.025,4.535362999999999,1.0,NITD609,Artesunate,220,plasmodium_falciparum_HB3
0.00015625,0.0125,10.897766,1.0,NITD609,Artesunate,220,plasmodium_falciparum_HB3
0.00015625,0.00625,54.240517000000004,1.0,NITD609,Artesunate,220,plasmodium_falciparum_HB3
0.00015625,0.003125,99.0191,1.0,NITD609,Artesunate,220,plasmodium_falciparum_HB3
0.00015625,0.0015625,106.30153999999999,1.0,NITD609,Artesunate,220,plasmodium_falciparum_HB3
0.00015625,0.00078125,108.15628999999998,1.0,NITD609,Artesunate,220,plasmodium_falciparum_HB3
0.00015625,0.000390625,107.41994,1.0,NITD609,Artesunate,220,plasmodium_falciparum_HB3
0.00015625,0.000195375,106.74043999999999,1.0,NITD609,Artesunate,220,plasmodium_falciparum_HB3
0.00015625,0.0,108.23903,1.0,NITD609,Artesunate,220,plasmodium_falciparum_HB3
7.8125e-05,0.05,2.4786189999999997,1.0,NITD609,Artesunate,220,plasmodium_falciparum_HB3
7.8125e-05,0.025,3.8540360000000002,1.0,NITD609,Artesunate,220,plasmodium_falciparum_HB3
7.8125e-05,0.0125,9.580016,1.0,NITD609,Artesunate,220,plasmodium_falciparum_HB3
7.8125e-05,0.00625,49.028812,1.0,NITD609,Artesunate,220,plasmodium_falciparum_HB3
7.8125e-05,0.003125,95.49022,1.0,NITD609,Artesunate,220,plasmodium_falciparum_HB3
7.8125e-05,0.0015625,106.25465,1.0,NITD609,Artesunate,220,plasmodium_falciparum_HB3
7.8125e-05,0.00078125,109.05323,1.0,NITD609,Artesunate,220,plasmodium_falciparum_HB3
7.8125e-05,0.000390625,107.54763,1.0,NITD609,Artesunate,220,plasmodium_falciparum_HB3
7.8125e-05,0.000195375,102.12158000000001,1.0,NITD609,Artesunate,220,plasmodium_falciparum_HB3
7.8125e-05,0.0,108.14743999999999,1.0,NITD609,Artesunate,220,plasmodium_falciparum_HB3
3.9125e-05,0.05,2.0699650000000003,1.0,NITD609,Artesunate,220,plasmodium_falciparum_HB3
3.9125e-05,0.025,3.268262,1.0,NITD609,Artesunate,220,plasmodium_falciparum_HB3
3.9125e-05,0.0125,6.035216999999999,1.0,NITD609,Artesunate,220,plasmodium_falciparum_HB3
3.9125e-05,0.00625,42.84312,1.0,NITD609,Artesunate,220,plasmodium_falciparum_HB3
3.9125e-05,0.003125,94.290596,1.0,NITD609,Artesunate,220,plasmodium_falciparum_HB3
3.9125e-05,0.0015625,100.19294000000001,1.0,NITD609,Artesunate,220,plasmodium_falciparum_HB3
3.9125e-05,0.00078125,105.98945,1.0,NITD609,Artesunate,220,plasmodium_falciparum_HB3
3.9125e-05,0.000390625,100.193344,1.0,NITD609,Artesunate,220,plasmodium_falciparum_HB3
3.9125e-05,0.000195375,99.51644,1.0,NITD609,Artesunate,220,plasmodium_falciparum_HB3
3.9125e-05,0.0,104.56475999999999,1.0,NITD609,Artesunate,220,plasmodium_falciparum_HB3
0.0,0.05,1.8438740000000002,1.0,NITD609,Artesunate,220,plasmodium_falciparum_HB3
0.0,0.025,4.149186,1.0,NITD609,Artesunate,220,plasmodium_falciparum_HB3
0.0,0.0125,8.466136,1.0,NITD609,Artesunate,220,plasmodium_falciparum_HB3
0.0,0.00625,43.28839,1.0,NITD609,Artesunate,220,plasmodium_falciparum_HB3
0.0,0.003125,95.16806,1.0,NITD609,Artesunate,220,plasmodium_falciparum_HB3
0.0,0.0015625,104.19541,1.0,NITD609,Artesunate,220,plasmodium_falciparum_HB3
0.0,0.00078125,104.49549,1.0,NITD609,Artesunate,220,plasmodium_falciparum_HB3
0.0,0.000390625,105.72308000000001,1.0,NITD609,Artesunate,220,plasmodium_falciparum_HB3
0.0,0.000195375,103.012215,1.0,NITD609,Artesunate,220,plasmodium_falciparum_HB3
0.0,0.0,103.589096,1.0,NITD609,Artesunate,220,plasmodium_falciparum_HB3
