drug1.conc,drug2.conc,effect,effect.95ci,drug1,drug2,expt,sample
0.5,0.01,-1.258903,1.0,NVPAUY922,Nanchangmycin,70,plasmodium_falciparum_HB3
0.5,0.005,-1.2027139999999998,1.0,NVPAUY922,Nanchangmycin,70,plasmodium_falciparum_HB3
0.5,0.0025,-0.9781120000000001,1.0,NVPAUY922,Nanchangmycin,70,plasmodium_falciparum_HB3
0.5,0.00125,-0.27544,1.0,NVPAUY922,Nanchangmycin,70,plasmodium_falciparum_HB3
0.5,0.000625,-0.0106,1.0,NVPAUY922,Nanchangmycin,70,plasmodium_falciparum_HB3
0.5,0.0003125,-0.14011300000000002,1.0,NVPAUY922,Nanchangmycin,70,plasmodium_falciparum_HB3
0.5,0.00015625,-0.509921,1.0,NVPAUY922,Nanchangmycin,70,plasmodium_falciparum_HB3
0.5,7.8125e-05,-0.23458400000000001,1.0,NVPAUY922,Nanchangmycin,70,plasmodium_falciparum_HB3
0.5,3.9125e-05,-0.6014079999999999,1.0,NVPAUY922,Nanchangmycin,70,plasmodium_falciparum_HB3
0.5,0.0,-0.6853319999999999,1.0,NVPAUY922,Nanchangmycin,70,plasmodium_falciparum_HB3
0.25,0.01,-0.952024,1.0,NVPAUY922,Nanchangmycin,70,plasmodium_falciparum_HB3
0.25,0.005,-0.64,1.0,NVPAUY922,Nanchangmycin,70,plasmodium_falciparum_HB3
0.25,0.0025,0.283673,1.0,NVPAUY922,Nanchangmycin,70,plasmodium_falciparum_HB3
0.25,0.00125,0.253211,1.0,NVPAUY922,Nanchangmycin,70,plasmodium_falciparum_HB3
0.25,0.000625,0.7873680000000001,1.0,NVPAUY922,Nanchangmycin,70,plasmodium_falciparum_HB3
0.25,0.0003125,0.395999,1.0,NVPAUY922,Nanchangmycin,70,plasmodium_falciparum_HB3
0.25,0.00015625,-0.31737600000000005,1.0,NVPAUY922,Nanchangmycin,70,plasmodium_falciparum_HB3
0.25,7.8125e-05,0.393993,1.0,NVPAUY922,Nanchangmycin,70,plasmodium_falciparum_HB3
0.25,3.9125e-05,5.473547,1.0,NVPAUY922,Nanchangmycin,70,plasmodium_falciparum_HB3
0.25,0.0,-0.121023,1.0,NVPAUY922,Nanchangmycin,70,plasmodium_falciparum_HB3
0.125,0.01,-1.143232,1.0,NVPAUY922,Nanchangmycin,70,plasmodium_falciparum_HB3
0.125,0.005,-0.620807,1.0,NVPAUY922,Nanchangmycin,70,plasmodium_falciparum_HB3
0.125,0.0025,1.410902,1.0,NVPAUY922,Nanchangmycin,70,plasmodium_falciparum_HB3
0.125,0.00125,3.52746,1.0,NVPAUY922,Nanchangmycin,70,plasmodium_falciparum_HB3
0.125,0.000625,2.7051540000000003,1.0,NVPAUY922,Nanchangmycin,70,plasmodium_falciparum_HB3
0.125,0.0003125,8.676737,1.0,NVPAUY922,Nanchangmycin,70,plasmodium_falciparum_HB3
0.125,0.00015625,11.212141,1.0,NVPAUY922,Nanchangmycin,70,plasmodium_falciparum_HB3
0.125,7.8125e-05,27.121834000000003,1.0,NVPAUY922,Nanchangmycin,70,plasmodium_falciparum_HB3
0.125,3.9125e-05,25.051172,1.0,NVPAUY922,Nanchangmycin,70,plasmodium_falciparum_HB3
0.125,0.0,17.256532999999997,1.0,NVPAUY922,Nanchangmycin,70,plasmodium_falciparum_HB3
0.0625,0.01,-0.9863959999999999,1.0,NVPAUY922,Nanchangmycin,70,plasmodium_falciparum_HB3
0.0625,0.005,0.072758,1.0,NVPAUY922,Nanchangmycin,70,plasmodium_falciparum_HB3
0.0625,0.0025,0.805222,1.0,NVPAUY922,Nanchangmycin,70,plasmodium_falciparum_HB3
0.0625,0.00125,13.045438,1.0,NVPAUY922,Nanchangmycin,70,plasmodium_falciparum_HB3
0.0625,0.000625,14.243572,1.0,NVPAUY922,Nanchangmycin,70,plasmodium_falciparum_HB3
0.0625,0.0003125,15.445978,1.0,NVPAUY922,Nanchangmycin,70,plasmodium_falciparum_HB3
0.0625,0.00015625,23.201717000000002,1.0,NVPAUY922,Nanchangmycin,70,plasmodium_falciparum_HB3
0.0625,7.8125e-05,38.60334,1.0,NVPAUY922,Nanchangmycin,70,plasmodium_falciparum_HB3
0.0625,3.9125e-05,38.307938,1.0,NVPAUY922,Nanchangmycin,70,plasmodium_falciparum_HB3
0.0625,0.0,21.514193,1.0,NVPAUY922,Nanchangmycin,70,plasmodium_falciparum_HB3
0.03125,0.01,-0.892027,1.0,NVPAUY922,Nanchangmycin,70,plasmodium_falciparum_HB3
0.03125,0.005,-0.770696,1.0,NVPAUY922,Nanchangmycin,70,plasmodium_falciparum_HB3
0.03125,0.0025,0.998231,1.0,NVPAUY922,Nanchangmycin,70,plasmodium_falciparum_HB3
0.03125,0.00125,8.863159,1.0,NVPAUY922,Nanchangmycin,70,plasmodium_falciparum_HB3
0.03125,0.000625,15.977047,1.0,NVPAUY922,Nanchangmycin,70,plasmodium_falciparum_HB3
0.03125,0.0003125,16.817825,1.0,NVPAUY922,Nanchangmycin,70,plasmodium_falciparum_HB3
0.03125,0.00015625,37.4085,1.0,NVPAUY922,Nanchangmycin,70,plasmodium_falciparum_HB3
0.03125,7.8125e-05,51.30583,1.0,NVPAUY922,Nanchangmycin,70,plasmodium_falciparum_HB3
0.03125,3.9125e-05,99.71844,1.0,NVPAUY922,Nanchangmycin,70,plasmodium_falciparum_HB3
0.03125,0.0,56.783184,1.0,NVPAUY922,Nanchangmycin,70,plasmodium_falciparum_HB3
0.015625,0.01,-0.6683,1.0,NVPAUY922,Nanchangmycin,70,plasmodium_falciparum_HB3
0.015625,0.005,0.048111,1.0,NVPAUY922,Nanchangmycin,70,plasmodium_falciparum_HB3
0.015625,0.0025,1.499765,1.0,NVPAUY922,Nanchangmycin,70,plasmodium_falciparum_HB3
0.015625,0.00125,12.442074,1.0,NVPAUY922,Nanchangmycin,70,plasmodium_falciparum_HB3
0.015625,0.000625,17.59773,1.0,NVPAUY922,Nanchangmycin,70,plasmodium_falciparum_HB3
0.015625,0.0003125,19.55874,1.0,NVPAUY922,Nanchangmycin,70,plasmodium_falciparum_HB3
0.015625,0.00015625,63.299316000000005,1.0,NVPAUY922,Nanchangmycin,70,plasmodium_falciparum_HB3
0.015625,7.8125e-05,99.72523000000001,1.0,NVPAUY922,Nanchangmycin,70,plasmodium_falciparum_HB3
0.015625,3.9125e-05,85.05041,1.0,NVPAUY922,Nanchangmycin,70,plasmodium_falciparum_HB3
0.015625,0.0,106.158775,1.0,NVPAUY922,Nanchangmycin,70,plasmodium_falciparum_HB3
0.0078125,0.01,-0.53251,1.0,NVPAUY922,Nanchangmycin,70,plasmodium_falciparum_HB3
0.0078125,0.005,0.475034,1.0,NVPAUY922,Nanchangmycin,70,plasmodium_falciparum_HB3
0.0078125,0.0025,8.491807000000001,1.0,NVPAUY922,Nanchangmycin,70,plasmodium_falciparum_HB3
0.0078125,0.00125,13.847419,1.0,NVPAUY922,Nanchangmycin,70,plasmodium_falciparum_HB3
0.0078125,0.000625,19.822243,1.0,NVPAUY922,Nanchangmycin,70,plasmodium_falciparum_HB3
0.0078125,0.0003125,57.554398,1.0,NVPAUY922,Nanchangmycin,70,plasmodium_falciparum_HB3
0.0078125,0.00015625,79.01693,1.0,NVPAUY922,Nanchangmycin,70,plasmodium_falciparum_HB3
0.0078125,7.8125e-05,99.7649,1.0,NVPAUY922,Nanchangmycin,70,plasmodium_falciparum_HB3
0.0078125,3.9125e-05,101.427986,1.0,NVPAUY922,Nanchangmycin,70,plasmodium_falciparum_HB3
0.0078125,0.0,105.68673000000001,1.0,NVPAUY922,Nanchangmycin,70,plasmodium_falciparum_HB3
0.00390625,0.01,-0.7538189999999999,1.0,NVPAUY922,Nanchangmycin,70,plasmodium_falciparum_HB3
0.00390625,0.005,0.747798,1.0,NVPAUY922,Nanchangmycin,70,plasmodium_falciparum_HB3
0.00390625,0.0025,2.516571,1.0,NVPAUY922,Nanchangmycin,70,plasmodium_falciparum_HB3
0.00390625,0.00125,14.666226000000002,1.0,NVPAUY922,Nanchangmycin,70,plasmodium_falciparum_HB3
0.00390625,0.000625,23.739784,1.0,NVPAUY922,Nanchangmycin,70,plasmodium_falciparum_HB3
0.00390625,0.0003125,56.42974,1.0,NVPAUY922,Nanchangmycin,70,plasmodium_falciparum_HB3
0.00390625,0.00015625,96.358925,1.0,NVPAUY922,Nanchangmycin,70,plasmodium_falciparum_HB3
0.00390625,7.8125e-05,103.90334,1.0,NVPAUY922,Nanchangmycin,70,plasmodium_falciparum_HB3
0.00390625,3.9125e-05,100.8715,1.0,NVPAUY922,Nanchangmycin,70,plasmodium_falciparum_HB3
0.00390625,0.0,106.65871399999999,1.0,NVPAUY922,Nanchangmycin,70,plasmodium_falciparum_HB3
0.001953125,0.01,-0.7304069999999999,1.0,NVPAUY922,Nanchangmycin,70,plasmodium_falciparum_HB3
0.001953125,0.005,0.897893,1.0,NVPAUY922,Nanchangmycin,70,plasmodium_falciparum_HB3
0.001953125,0.0025,5.518982,1.0,NVPAUY922,Nanchangmycin,70,plasmodium_falciparum_HB3
0.001953125,0.00125,11.001636999999999,1.0,NVPAUY922,Nanchangmycin,70,plasmodium_falciparum_HB3
0.001953125,0.000625,16.772029999999997,1.0,NVPAUY922,Nanchangmycin,70,plasmodium_falciparum_HB3
0.001953125,0.0003125,45.48707,1.0,NVPAUY922,Nanchangmycin,70,plasmodium_falciparum_HB3
0.001953125,0.00015625,77.89145,1.0,NVPAUY922,Nanchangmycin,70,plasmodium_falciparum_HB3
0.001953125,7.8125e-05,94.88139,1.0,NVPAUY922,Nanchangmycin,70,plasmodium_falciparum_HB3
0.001953125,3.9125e-05,96.81817,1.0,NVPAUY922,Nanchangmycin,70,plasmodium_falciparum_HB3
0.001953125,0.0,98.9641,1.0,NVPAUY922,Nanchangmycin,70,plasmodium_falciparum_HB3
0.0,0.01,-0.93206,1.0,NVPAUY922,Nanchangmycin,70,plasmodium_falciparum_HB3
0.0,0.005,-0.463663,1.0,NVPAUY922,Nanchangmycin,70,plasmodium_falciparum_HB3
0.0,0.0025,5.2370589999999995,1.0,NVPAUY922,Nanchangmycin,70,plasmodium_falciparum_HB3
0.0,0.00125,11.132591,1.0,NVPAUY922,Nanchangmycin,70,plasmodium_falciparum_HB3
0.0,0.000625,18.113004999999998,1.0,NVPAUY922,Nanchangmycin,70,plasmodium_falciparum_HB3
0.0,0.0003125,35.966879999999996,1.0,NVPAUY922,Nanchangmycin,70,plasmodium_falciparum_HB3
0.0,0.00015625,86.474335,1.0,NVPAUY922,Nanchangmycin,70,plasmodium_falciparum_HB3
0.0,7.8125e-05,101.76481,1.0,NVPAUY922,Nanchangmycin,70,plasmodium_falciparum_HB3
0.0,3.9125e-05,103.8612,1.0,NVPAUY922,Nanchangmycin,70,plasmodium_falciparum_HB3
0.0,0.0,106.97362,1.0,NVPAUY922,Nanchangmycin,70,plasmodium_falciparum_HB3
