drug1.conc,drug2.conc,effect,effect.95ci,drug1,drug2,expt,sample
0.01,0.05,1.230693,1.0,NVPBGT226,Lumefantrine,228,plasmodium_falciparum_Dd2
0.01,0.025,2.289437,1.0,NVPBGT226,Lumefantrine,228,plasmodium_falciparum_Dd2
0.01,0.0125,3.5414809999999997,1.0,NVPBGT226,Lumefantrine,228,plasmodium_falciparum_Dd2
0.01,0.00625,4.293178,1.0,NVPBGT226,Lumefantrine,228,plasmodium_falciparum_Dd2
0.01,0.003125,3.465726,1.0,NVPBGT226,Lumefantrine,228,plasmodium_falciparum_Dd2
0.01,0.0015625,4.670128,1.0,NVPBGT226,Lumefantrine,228,plasmodium_falciparum_Dd2
0.01,0.00078125,4.01075,1.0,NVPBGT226,Lumefantrine,228,plasmodium_falciparum_Dd2
0.01,0.000390625,4.948301,1.0,NVPBGT226,Lumefantrine,228,plasmodium_falciparum_Dd2
0.01,0.000195375,5.920881,1.0,NVPBGT226,Lumefantrine,228,plasmodium_falciparum_Dd2
0.01,0.0,2.6619040000000003,1.0,NVPBGT226,Lumefantrine,228,plasmodium_falciparum_Dd2
0.005,0.05,4.375923,1.0,NVPBGT226,Lumefantrine,228,plasmodium_falciparum_Dd2
0.005,0.025,4.136805000000001,1.0,NVPBGT226,Lumefantrine,228,plasmodium_falciparum_Dd2
0.005,0.0125,6.884494,1.0,NVPBGT226,Lumefantrine,228,plasmodium_falciparum_Dd2
0.005,0.00625,7.7313220000000005,1.0,NVPBGT226,Lumefantrine,228,plasmodium_falciparum_Dd2
0.005,0.003125,5.511789,1.0,NVPBGT226,Lumefantrine,228,plasmodium_falciparum_Dd2
0.005,0.0015625,6.809499000000001,1.0,NVPBGT226,Lumefantrine,228,plasmodium_falciparum_Dd2
0.005,0.00078125,8.077575,1.0,NVPBGT226,Lumefantrine,228,plasmodium_falciparum_Dd2
0.005,0.000390625,7.6396869999999995,1.0,NVPBGT226,Lumefantrine,228,plasmodium_falciparum_Dd2
0.005,0.000195375,8.152722,1.0,NVPBGT226,Lumefantrine,228,plasmodium_falciparum_Dd2
0.005,0.0,6.385971,1.0,NVPBGT226,Lumefantrine,228,plasmodium_falciparum_Dd2
0.0025,0.05,4.274866,1.0,NVPBGT226,Lumefantrine,228,plasmodium_falciparum_Dd2
0.0025,0.025,5.089021,1.0,NVPBGT226,Lumefantrine,228,plasmodium_falciparum_Dd2
0.0025,0.0125,20.856735,1.0,NVPBGT226,Lumefantrine,228,plasmodium_falciparum_Dd2
0.0025,0.00625,10.607649,1.0,NVPBGT226,Lumefantrine,228,plasmodium_falciparum_Dd2
0.0025,0.003125,24.044062,1.0,NVPBGT226,Lumefantrine,228,plasmodium_falciparum_Dd2
0.0025,0.0015625,24.708607,1.0,NVPBGT226,Lumefantrine,228,plasmodium_falciparum_Dd2
0.0025,0.00078125,33.041332000000004,1.0,NVPBGT226,Lumefantrine,228,plasmodium_falciparum_Dd2
0.0025,0.000390625,30.975740000000002,1.0,NVPBGT226,Lumefantrine,228,plasmodium_falciparum_Dd2
0.0025,0.000195375,46.68586,1.0,NVPBGT226,Lumefantrine,228,plasmodium_falciparum_Dd2
0.0025,0.0,12.264074,1.0,NVPBGT226,Lumefantrine,228,plasmodium_falciparum_Dd2
0.00125,0.05,7.664913,1.0,NVPBGT226,Lumefantrine,228,plasmodium_falciparum_Dd2
0.00125,0.025,13.587541,1.0,NVPBGT226,Lumefantrine,228,plasmodium_falciparum_Dd2
0.00125,0.0125,59.89668,1.0,NVPBGT226,Lumefantrine,228,plasmodium_falciparum_Dd2
0.00125,0.00625,84.764015,1.0,NVPBGT226,Lumefantrine,228,plasmodium_falciparum_Dd2
0.00125,0.003125,86.00344,1.0,NVPBGT226,Lumefantrine,228,plasmodium_falciparum_Dd2
0.00125,0.0015625,100.73331,1.0,NVPBGT226,Lumefantrine,228,plasmodium_falciparum_Dd2
0.00125,0.00078125,104.117584,1.0,NVPBGT226,Lumefantrine,228,plasmodium_falciparum_Dd2
0.00125,0.000390625,108.21001399999999,1.0,NVPBGT226,Lumefantrine,228,plasmodium_falciparum_Dd2
0.00125,0.000195375,109.70642,1.0,NVPBGT226,Lumefantrine,228,plasmodium_falciparum_Dd2
0.00125,0.0,118.62078999999999,1.0,NVPBGT226,Lumefantrine,228,plasmodium_falciparum_Dd2
0.000625,0.05,4.096155,1.0,NVPBGT226,Lumefantrine,228,plasmodium_falciparum_Dd2
0.000625,0.025,14.565667000000001,1.0,NVPBGT226,Lumefantrine,228,plasmodium_falciparum_Dd2
0.000625,0.0125,60.964767,1.0,NVPBGT226,Lumefantrine,228,plasmodium_falciparum_Dd2
0.000625,0.00625,76.81667,1.0,NVPBGT226,Lumefantrine,228,plasmodium_falciparum_Dd2
0.000625,0.003125,93.27271,1.0,NVPBGT226,Lumefantrine,228,plasmodium_falciparum_Dd2
0.000625,0.0015625,101.63447,1.0,NVPBGT226,Lumefantrine,228,plasmodium_falciparum_Dd2
0.000625,0.00078125,97.29175,1.0,NVPBGT226,Lumefantrine,228,plasmodium_falciparum_Dd2
0.000625,0.000390625,105.98433,1.0,NVPBGT226,Lumefantrine,228,plasmodium_falciparum_Dd2
0.000625,0.000195375,101.28442,1.0,NVPBGT226,Lumefantrine,228,plasmodium_falciparum_Dd2
0.000625,0.0,104.91434,1.0,NVPBGT226,Lumefantrine,228,plasmodium_falciparum_Dd2
0.0003125,0.05,5.522579,1.0,NVPBGT226,Lumefantrine,228,plasmodium_falciparum_Dd2
0.0003125,0.025,15.881993,1.0,NVPBGT226,Lumefantrine,228,plasmodium_falciparum_Dd2
0.0003125,0.0125,64.14715600000001,1.0,NVPBGT226,Lumefantrine,228,plasmodium_falciparum_Dd2
0.0003125,0.00625,78.64489,1.0,NVPBGT226,Lumefantrine,228,plasmodium_falciparum_Dd2
0.0003125,0.003125,104.32159399999999,1.0,NVPBGT226,Lumefantrine,228,plasmodium_falciparum_Dd2
0.0003125,0.0015625,109.85633,1.0,NVPBGT226,Lumefantrine,228,plasmodium_falciparum_Dd2
0.0003125,0.00078125,108.66788500000001,1.0,NVPBGT226,Lumefantrine,228,plasmodium_falciparum_Dd2
0.0003125,0.000390625,97.28248,1.0,NVPBGT226,Lumefantrine,228,plasmodium_falciparum_Dd2
0.0003125,0.000195375,118.374756,1.0,NVPBGT226,Lumefantrine,228,plasmodium_falciparum_Dd2
0.00015625,0.05,4.136577,1.0,NVPBGT226,Lumefantrine,228,plasmodium_falciparum_Dd2
0.00015625,0.025,12.336865,1.0,NVPBGT226,Lumefantrine,228,plasmodium_falciparum_Dd2
0.00015625,0.0125,66.94689,1.0,NVPBGT226,Lumefantrine,228,plasmodium_falciparum_Dd2
0.00015625,0.00625,88.30139,1.0,NVPBGT226,Lumefantrine,228,plasmodium_falciparum_Dd2
0.00015625,0.003125,93.35949000000001,1.0,NVPBGT226,Lumefantrine,228,plasmodium_falciparum_Dd2
0.00015625,0.0015625,98.14496,1.0,NVPBGT226,Lumefantrine,228,plasmodium_falciparum_Dd2
0.00015625,0.00078125,97.7794,1.0,NVPBGT226,Lumefantrine,228,plasmodium_falciparum_Dd2
0.00015625,0.000390625,101.38448000000001,1.0,NVPBGT226,Lumefantrine,228,plasmodium_falciparum_Dd2
0.00015625,0.000195375,95.29264,1.0,NVPBGT226,Lumefantrine,228,plasmodium_falciparum_Dd2
0.00015625,0.0,111.16673,1.0,NVPBGT226,Lumefantrine,228,plasmodium_falciparum_Dd2
7.8125e-05,0.05,4.20595,1.0,NVPBGT226,Lumefantrine,228,plasmodium_falciparum_Dd2
7.8125e-05,0.025,12.445672,1.0,NVPBGT226,Lumefantrine,228,plasmodium_falciparum_Dd2
7.8125e-05,0.0125,59.230309999999996,1.0,NVPBGT226,Lumefantrine,228,plasmodium_falciparum_Dd2
7.8125e-05,0.00625,80.255806,1.0,NVPBGT226,Lumefantrine,228,plasmodium_falciparum_Dd2
7.8125e-05,0.003125,87.08984,1.0,NVPBGT226,Lumefantrine,228,plasmodium_falciparum_Dd2
7.8125e-05,0.0015625,95.38116,1.0,NVPBGT226,Lumefantrine,228,plasmodium_falciparum_Dd2
7.8125e-05,0.00078125,114.82127,1.0,NVPBGT226,Lumefantrine,228,plasmodium_falciparum_Dd2
7.8125e-05,0.000390625,114.04093,1.0,NVPBGT226,Lumefantrine,228,plasmodium_falciparum_Dd2
7.8125e-05,0.000195375,100.78011,1.0,NVPBGT226,Lumefantrine,228,plasmodium_falciparum_Dd2
7.8125e-05,0.0,104.02846,1.0,NVPBGT226,Lumefantrine,228,plasmodium_falciparum_Dd2
3.9125e-05,0.05,4.778556,1.0,NVPBGT226,Lumefantrine,228,plasmodium_falciparum_Dd2
3.9125e-05,0.025,13.820656,1.0,NVPBGT226,Lumefantrine,228,plasmodium_falciparum_Dd2
3.9125e-05,0.0125,72.525925,1.0,NVPBGT226,Lumefantrine,228,plasmodium_falciparum_Dd2
3.9125e-05,0.00625,76.56638000000001,1.0,NVPBGT226,Lumefantrine,228,plasmodium_falciparum_Dd2
3.9125e-05,0.003125,96.17487,1.0,NVPBGT226,Lumefantrine,228,plasmodium_falciparum_Dd2
3.9125e-05,0.0015625,108.75358999999999,1.0,NVPBGT226,Lumefantrine,228,plasmodium_falciparum_Dd2
3.9125e-05,0.00078125,95.37698,1.0,NVPBGT226,Lumefantrine,228,plasmodium_falciparum_Dd2
3.9125e-05,0.000390625,98.90926,1.0,NVPBGT226,Lumefantrine,228,plasmodium_falciparum_Dd2
3.9125e-05,0.000195375,92.43295,1.0,NVPBGT226,Lumefantrine,228,plasmodium_falciparum_Dd2
3.9125e-05,0.0,97.07421,1.0,NVPBGT226,Lumefantrine,228,plasmodium_falciparum_Dd2
0.0,0.05,3.0287490000000004,1.0,NVPBGT226,Lumefantrine,228,plasmodium_falciparum_Dd2
0.0,0.025,11.341567,1.0,NVPBGT226,Lumefantrine,228,plasmodium_falciparum_Dd2
0.0,0.0125,42.224987,1.0,NVPBGT226,Lumefantrine,228,plasmodium_falciparum_Dd2
0.0,0.00625,83.95769,1.0,NVPBGT226,Lumefantrine,228,plasmodium_falciparum_Dd2
0.0,0.003125,93.57019,1.0,NVPBGT226,Lumefantrine,228,plasmodium_falciparum_Dd2
0.0,0.0015625,112.26742,1.0,NVPBGT226,Lumefantrine,228,plasmodium_falciparum_Dd2
0.0,0.00078125,112.07191499999999,1.0,NVPBGT226,Lumefantrine,228,plasmodium_falciparum_Dd2
