drug1.conc,drug2.conc,effect,effect.95ci,drug1,drug2,expt,sample
0.01,0.25,-0.093734,1.0,NVPBGT226,Mefloquine,230,plasmodium_falciparum_HB3
0.01,0.125,0.47479,1.0,NVPBGT226,Mefloquine,230,plasmodium_falciparum_HB3
0.01,0.0625,0.684823,1.0,NVPBGT226,Mefloquine,230,plasmodium_falciparum_HB3
0.01,0.03125,1.354155,1.0,NVPBGT226,Mefloquine,230,plasmodium_falciparum_HB3
0.01,0.015625,1.747896,1.0,NVPBGT226,Mefloquine,230,plasmodium_falciparum_HB3
0.01,0.0078125,2.425478,1.0,NVPBGT226,Mefloquine,230,plasmodium_falciparum_HB3
0.01,0.00390625,2.443159,1.0,NVPBGT226,Mefloquine,230,plasmodium_falciparum_HB3
0.01,0.001953125,2.079446,1.0,NVPBGT226,Mefloquine,230,plasmodium_falciparum_HB3
0.01,0.000976625,2.880624,1.0,NVPBGT226,Mefloquine,230,plasmodium_falciparum_HB3
0.01,0.0,2.175202,1.0,NVPBGT226,Mefloquine,230,plasmodium_falciparum_HB3
0.005,0.25,0.33222399999999996,1.0,NVPBGT226,Mefloquine,230,plasmodium_falciparum_HB3
0.005,0.125,0.935493,1.0,NVPBGT226,Mefloquine,230,plasmodium_falciparum_HB3
0.005,0.0625,2.099933,1.0,NVPBGT226,Mefloquine,230,plasmodium_falciparum_HB3
0.005,0.03125,5.444066,1.0,NVPBGT226,Mefloquine,230,plasmodium_falciparum_HB3
0.005,0.015625,6.312541,1.0,NVPBGT226,Mefloquine,230,plasmodium_falciparum_HB3
0.005,0.0078125,7.990725,1.0,NVPBGT226,Mefloquine,230,plasmodium_falciparum_HB3
0.005,0.00390625,8.90966,1.0,NVPBGT226,Mefloquine,230,plasmodium_falciparum_HB3
0.005,0.001953125,10.013987,1.0,NVPBGT226,Mefloquine,230,plasmodium_falciparum_HB3
0.005,0.000976625,11.691217,1.0,NVPBGT226,Mefloquine,230,plasmodium_falciparum_HB3
0.005,0.0,10.013594,1.0,NVPBGT226,Mefloquine,230,plasmodium_falciparum_HB3
0.0025,0.25,1.1453010000000001,1.0,NVPBGT226,Mefloquine,230,plasmodium_falciparum_HB3
0.0025,0.125,1.963373,1.0,NVPBGT226,Mefloquine,230,plasmodium_falciparum_HB3
0.0025,0.0625,4.955075,1.0,NVPBGT226,Mefloquine,230,plasmodium_falciparum_HB3
0.0025,0.03125,11.258467,1.0,NVPBGT226,Mefloquine,230,plasmodium_falciparum_HB3
0.0025,0.015625,18.473047,1.0,NVPBGT226,Mefloquine,230,plasmodium_falciparum_HB3
0.0025,0.0078125,20.69422,1.0,NVPBGT226,Mefloquine,230,plasmodium_falciparum_HB3
0.0025,0.00390625,21.914284,1.0,NVPBGT226,Mefloquine,230,plasmodium_falciparum_HB3
0.0025,0.001953125,22.236629999999998,1.0,NVPBGT226,Mefloquine,230,plasmodium_falciparum_HB3
0.0025,0.000976625,23.681206,1.0,NVPBGT226,Mefloquine,230,plasmodium_falciparum_HB3
0.0025,0.0,24.120691,1.0,NVPBGT226,Mefloquine,230,plasmodium_falciparum_HB3
0.00125,0.25,1.001387,1.0,NVPBGT226,Mefloquine,230,plasmodium_falciparum_HB3
0.00125,0.125,2.5059099999999996,1.0,NVPBGT226,Mefloquine,230,plasmodium_falciparum_HB3
0.00125,0.0625,5.7042209999999995,1.0,NVPBGT226,Mefloquine,230,plasmodium_falciparum_HB3
0.00125,0.03125,14.619382,1.0,NVPBGT226,Mefloquine,230,plasmodium_falciparum_HB3
0.00125,0.015625,20.492829999999998,1.0,NVPBGT226,Mefloquine,230,plasmodium_falciparum_HB3
0.00125,0.0078125,25.277217999999998,1.0,NVPBGT226,Mefloquine,230,plasmodium_falciparum_HB3
0.00125,0.00390625,27.765,1.0,NVPBGT226,Mefloquine,230,plasmodium_falciparum_HB3
0.00125,0.001953125,27.458090000000002,1.0,NVPBGT226,Mefloquine,230,plasmodium_falciparum_HB3
0.00125,0.000976625,27.269721999999998,1.0,NVPBGT226,Mefloquine,230,plasmodium_falciparum_HB3
0.00125,0.0,26.45569,1.0,NVPBGT226,Mefloquine,230,plasmodium_falciparum_HB3
0.000625,0.25,0.713561,1.0,NVPBGT226,Mefloquine,230,plasmodium_falciparum_HB3
0.000625,0.125,1.7433490000000003,1.0,NVPBGT226,Mefloquine,230,plasmodium_falciparum_HB3
0.000625,0.0625,6.267358,1.0,NVPBGT226,Mefloquine,230,plasmodium_falciparum_HB3
0.000625,0.03125,18.514359,1.0,NVPBGT226,Mefloquine,230,plasmodium_falciparum_HB3
0.000625,0.015625,51.413146999999995,1.0,NVPBGT226,Mefloquine,230,plasmodium_falciparum_HB3
0.000625,0.0078125,64.59008,1.0,NVPBGT226,Mefloquine,230,plasmodium_falciparum_HB3
0.000625,0.00390625,92.25613,1.0,NVPBGT226,Mefloquine,230,plasmodium_falciparum_HB3
0.000625,0.001953125,96.64672,1.0,NVPBGT226,Mefloquine,230,plasmodium_falciparum_HB3
0.000625,0.000976625,98.627884,1.0,NVPBGT226,Mefloquine,230,plasmodium_falciparum_HB3
0.000625,0.0,96.70919,1.0,NVPBGT226,Mefloquine,230,plasmodium_falciparum_HB3
0.0003125,0.25,1.2631139999999998,1.0,NVPBGT226,Mefloquine,230,plasmodium_falciparum_HB3
0.0003125,0.125,2.530102,1.0,NVPBGT226,Mefloquine,230,plasmodium_falciparum_HB3
0.0003125,0.0625,7.512061999999999,1.0,NVPBGT226,Mefloquine,230,plasmodium_falciparum_HB3
0.0003125,0.03125,24.201012,1.0,NVPBGT226,Mefloquine,230,plasmodium_falciparum_HB3
0.0003125,0.015625,58.855553,1.0,NVPBGT226,Mefloquine,230,plasmodium_falciparum_HB3
0.0003125,0.0078125,86.31993,1.0,NVPBGT226,Mefloquine,230,plasmodium_falciparum_HB3
0.0003125,0.00390625,117.24462,1.0,NVPBGT226,Mefloquine,230,plasmodium_falciparum_HB3
0.0003125,0.001953125,118.61876000000001,1.0,NVPBGT226,Mefloquine,230,plasmodium_falciparum_HB3
0.0003125,0.000976625,116.56838,1.0,NVPBGT226,Mefloquine,230,plasmodium_falciparum_HB3
0.0003125,0.0,117.64941999999999,1.0,NVPBGT226,Mefloquine,230,plasmodium_falciparum_HB3
0.00015625,0.25,0.614438,1.0,NVPBGT226,Mefloquine,230,plasmodium_falciparum_HB3
0.00015625,0.125,1.646079,1.0,NVPBGT226,Mefloquine,230,plasmodium_falciparum_HB3
0.00015625,0.0625,4.942278,1.0,NVPBGT226,Mefloquine,230,plasmodium_falciparum_HB3
0.00015625,0.03125,21.354795000000003,1.0,NVPBGT226,Mefloquine,230,plasmodium_falciparum_HB3
0.00015625,0.015625,51.62604,1.0,NVPBGT226,Mefloquine,230,plasmodium_falciparum_HB3
0.00015625,0.0078125,85.07988,1.0,NVPBGT226,Mefloquine,230,plasmodium_falciparum_HB3
0.00015625,0.00390625,114.44516000000002,1.0,NVPBGT226,Mefloquine,230,plasmodium_falciparum_HB3
0.00015625,0.001953125,112.8913,1.0,NVPBGT226,Mefloquine,230,plasmodium_falciparum_HB3
0.00015625,0.000976625,115.07481000000001,1.0,NVPBGT226,Mefloquine,230,plasmodium_falciparum_HB3
0.00015625,0.0,112.354996,1.0,NVPBGT226,Mefloquine,230,plasmodium_falciparum_HB3
7.8125e-05,0.25,0.30359899999999995,1.0,NVPBGT226,Mefloquine,230,plasmodium_falciparum_HB3
7.8125e-05,0.125,2.223416,1.0,NVPBGT226,Mefloquine,230,plasmodium_falciparum_HB3
7.8125e-05,0.0625,5.267093,1.0,NVPBGT226,Mefloquine,230,plasmodium_falciparum_HB3
7.8125e-05,0.03125,18.084695999999997,1.0,NVPBGT226,Mefloquine,230,plasmodium_falciparum_HB3
7.8125e-05,0.015625,59.166615,1.0,NVPBGT226,Mefloquine,230,plasmodium_falciparum_HB3
7.8125e-05,0.0078125,87.52983,1.0,NVPBGT226,Mefloquine,230,plasmodium_falciparum_HB3
7.8125e-05,0.00390625,109.37636599999999,1.0,NVPBGT226,Mefloquine,230,plasmodium_falciparum_HB3
7.8125e-05,0.001953125,111.03631000000001,1.0,NVPBGT226,Mefloquine,230,plasmodium_falciparum_HB3
7.8125e-05,0.000976625,115.79841599999999,1.0,NVPBGT226,Mefloquine,230,plasmodium_falciparum_HB3
7.8125e-05,0.0,115.26053999999999,1.0,NVPBGT226,Mefloquine,230,plasmodium_falciparum_HB3
3.9125e-05,0.25,0.23596399999999998,1.0,NVPBGT226,Mefloquine,230,plasmodium_falciparum_HB3
3.9125e-05,0.125,1.774725,1.0,NVPBGT226,Mefloquine,230,plasmodium_falciparum_HB3
3.9125e-05,0.0625,5.968698000000001,1.0,NVPBGT226,Mefloquine,230,plasmodium_falciparum_HB3
3.9125e-05,0.03125,16.954493,1.0,NVPBGT226,Mefloquine,230,plasmodium_falciparum_HB3
3.9125e-05,0.015625,49.984566,1.0,NVPBGT226,Mefloquine,230,plasmodium_falciparum_HB3
3.9125e-05,0.0078125,87.45333000000001,1.0,NVPBGT226,Mefloquine,230,plasmodium_falciparum_HB3
3.9125e-05,0.00390625,113.84565,1.0,NVPBGT226,Mefloquine,230,plasmodium_falciparum_HB3
3.9125e-05,0.001953125,106.35368000000001,1.0,NVPBGT226,Mefloquine,230,plasmodium_falciparum_HB3
3.9125e-05,0.000976625,107.44028,1.0,NVPBGT226,Mefloquine,230,plasmodium_falciparum_HB3
3.9125e-05,0.0,109.2887,1.0,NVPBGT226,Mefloquine,230,plasmodium_falciparum_HB3
0.0,0.25,0.673541,1.0,NVPBGT226,Mefloquine,230,plasmodium_falciparum_HB3
0.0,0.125,3.014883,1.0,NVPBGT226,Mefloquine,230,plasmodium_falciparum_HB3
0.0,0.0625,6.136915,1.0,NVPBGT226,Mefloquine,230,plasmodium_falciparum_HB3
0.0,0.03125,19.487514,1.0,NVPBGT226,Mefloquine,230,plasmodium_falciparum_HB3
0.0,0.015625,52.17133,1.0,NVPBGT226,Mefloquine,230,plasmodium_falciparum_HB3
0.0,0.0078125,84.28612,1.0,NVPBGT226,Mefloquine,230,plasmodium_falciparum_HB3
0.0,0.00390625,107.16322,1.0,NVPBGT226,Mefloquine,230,plasmodium_falciparum_HB3
0.0,0.001953125,109.72577,1.0,NVPBGT226,Mefloquine,230,plasmodium_falciparum_HB3
0.0,0.000976625,108.28759,1.0,NVPBGT226,Mefloquine,230,plasmodium_falciparum_HB3
0.0,0.0,112.54638999999999,1.0,NVPBGT226,Mefloquine,230,plasmodium_falciparum_HB3
