drug1.conc,drug2.conc,effect,effect.95ci,drug1,drug2,expt,sample
0.01,0.075,0.978382,1.0,NVPBGT226,Methyleneblue,229,plasmodium_falciparum_Dd2
0.01,0.0375,2.289767,1.0,NVPBGT226,Methyleneblue,229,plasmodium_falciparum_Dd2
0.01,0.01875,2.781195,1.0,NVPBGT226,Methyleneblue,229,plasmodium_falciparum_Dd2
0.01,0.009375,2.863858,1.0,NVPBGT226,Methyleneblue,229,plasmodium_falciparum_Dd2
0.01,0.0046875,2.010456,1.0,NVPBGT226,Methyleneblue,229,plasmodium_falciparum_Dd2
0.01,0.00234375,1.9754189999999998,1.0,NVPBGT226,Methyleneblue,229,plasmodium_falciparum_Dd2
0.01,0.001171875,2.039275,1.0,NVPBGT226,Methyleneblue,229,plasmodium_falciparum_Dd2
0.01,0.000586,2.268077,1.0,NVPBGT226,Methyleneblue,229,plasmodium_falciparum_Dd2
0.01,0.000293,3.2690580000000002,1.0,NVPBGT226,Methyleneblue,229,plasmodium_falciparum_Dd2
0.01,0.0,2.53093,1.0,NVPBGT226,Methyleneblue,229,plasmodium_falciparum_Dd2
0.005,0.075,1.9235470000000001,1.0,NVPBGT226,Methyleneblue,229,plasmodium_falciparum_Dd2
0.005,0.0375,0.740024,1.0,NVPBGT226,Methyleneblue,229,plasmodium_falciparum_Dd2
0.005,0.01875,4.989057,1.0,NVPBGT226,Methyleneblue,229,plasmodium_falciparum_Dd2
0.005,0.009375,4.084919999999999,1.0,NVPBGT226,Methyleneblue,229,plasmodium_falciparum_Dd2
0.005,0.0046875,6.001338,1.0,NVPBGT226,Methyleneblue,229,plasmodium_falciparum_Dd2
0.005,0.00234375,4.8564169999999995,1.0,NVPBGT226,Methyleneblue,229,plasmodium_falciparum_Dd2
0.005,0.001171875,3.842315,1.0,NVPBGT226,Methyleneblue,229,plasmodium_falciparum_Dd2
0.005,0.000293,4.296204,1.0,NVPBGT226,Methyleneblue,229,plasmodium_falciparum_Dd2
0.005,0.0,5.408591,1.0,NVPBGT226,Methyleneblue,229,plasmodium_falciparum_Dd2
0.0025,0.075,1.3027389999999999,1.0,NVPBGT226,Methyleneblue,229,plasmodium_falciparum_Dd2
0.0025,0.0375,1.167597,1.0,NVPBGT226,Methyleneblue,229,plasmodium_falciparum_Dd2
0.0025,0.01875,6.192297,1.0,NVPBGT226,Methyleneblue,229,plasmodium_falciparum_Dd2
0.0025,0.009375,26.253028999999998,1.0,NVPBGT226,Methyleneblue,229,plasmodium_falciparum_Dd2
0.0025,0.0046875,30.679215999999997,1.0,NVPBGT226,Methyleneblue,229,plasmodium_falciparum_Dd2
0.0025,0.00234375,11.642447,1.0,NVPBGT226,Methyleneblue,229,plasmodium_falciparum_Dd2
0.0025,0.001171875,11.623714999999999,1.0,NVPBGT226,Methyleneblue,229,plasmodium_falciparum_Dd2
0.0025,0.000586,10.903788,1.0,NVPBGT226,Methyleneblue,229,plasmodium_falciparum_Dd2
0.0025,0.000293,8.704647,1.0,NVPBGT226,Methyleneblue,229,plasmodium_falciparum_Dd2
0.0025,0.0,8.882335000000001,1.0,NVPBGT226,Methyleneblue,229,plasmodium_falciparum_Dd2
0.00125,0.075,1.39382,1.0,NVPBGT226,Methyleneblue,229,plasmodium_falciparum_Dd2
0.00125,0.0375,2.214536,1.0,NVPBGT226,Methyleneblue,229,plasmodium_falciparum_Dd2
0.00125,0.01875,35.058840000000004,1.0,NVPBGT226,Methyleneblue,229,plasmodium_falciparum_Dd2
0.00125,0.009375,82.165184,1.0,NVPBGT226,Methyleneblue,229,plasmodium_falciparum_Dd2
0.00125,0.0046875,97.15533,1.0,NVPBGT226,Methyleneblue,229,plasmodium_falciparum_Dd2
0.00125,0.00234375,104.33875,1.0,NVPBGT226,Methyleneblue,229,plasmodium_falciparum_Dd2
0.00125,0.001171875,104.50013,1.0,NVPBGT226,Methyleneblue,229,plasmodium_falciparum_Dd2
0.00125,0.000586,91.19676,1.0,NVPBGT226,Methyleneblue,229,plasmodium_falciparum_Dd2
0.00125,0.000293,93.19023,1.0,NVPBGT226,Methyleneblue,229,plasmodium_falciparum_Dd2
0.00125,0.0,112.46286,1.0,NVPBGT226,Methyleneblue,229,plasmodium_falciparum_Dd2
0.000625,0.075,1.427037,1.0,NVPBGT226,Methyleneblue,229,plasmodium_falciparum_Dd2
0.000625,0.0375,2.120118,1.0,NVPBGT226,Methyleneblue,229,plasmodium_falciparum_Dd2
0.000625,0.01875,17.722883,1.0,NVPBGT226,Methyleneblue,229,plasmodium_falciparum_Dd2
0.000625,0.009375,87.56664,1.0,NVPBGT226,Methyleneblue,229,plasmodium_falciparum_Dd2
0.000625,0.0046875,98.75186,1.0,NVPBGT226,Methyleneblue,229,plasmodium_falciparum_Dd2
0.000625,0.00234375,103.16547,1.0,NVPBGT226,Methyleneblue,229,plasmodium_falciparum_Dd2
0.000625,0.001171875,108.61766000000001,1.0,NVPBGT226,Methyleneblue,229,plasmodium_falciparum_Dd2
0.000625,0.000586,107.34746000000001,1.0,NVPBGT226,Methyleneblue,229,plasmodium_falciparum_Dd2
0.000625,0.000293,99.84196,1.0,NVPBGT226,Methyleneblue,229,plasmodium_falciparum_Dd2
0.000625,0.0,117.255875,1.0,NVPBGT226,Methyleneblue,229,plasmodium_falciparum_Dd2
0.0003125,0.075,1.363334,1.0,NVPBGT226,Methyleneblue,229,plasmodium_falciparum_Dd2
0.0003125,0.0375,1.4657149999999999,1.0,NVPBGT226,Methyleneblue,229,plasmodium_falciparum_Dd2
0.0003125,0.01875,24.585888,1.0,NVPBGT226,Methyleneblue,229,plasmodium_falciparum_Dd2
0.0003125,0.009375,82.04095500000001,1.0,NVPBGT226,Methyleneblue,229,plasmodium_falciparum_Dd2
0.0003125,0.0046875,105.18236499999999,1.0,NVPBGT226,Methyleneblue,229,plasmodium_falciparum_Dd2
0.0003125,0.00234375,101.51872,1.0,NVPBGT226,Methyleneblue,229,plasmodium_falciparum_Dd2
0.0003125,0.001171875,112.732155,1.0,NVPBGT226,Methyleneblue,229,plasmodium_falciparum_Dd2
0.0003125,0.000586,109.47568999999999,1.0,NVPBGT226,Methyleneblue,229,plasmodium_falciparum_Dd2
0.0003125,0.000293,100.85681,1.0,NVPBGT226,Methyleneblue,229,plasmodium_falciparum_Dd2
0.0003125,0.0,111.77516000000001,1.0,NVPBGT226,Methyleneblue,229,plasmodium_falciparum_Dd2
0.00015625,0.075,1.589861,1.0,NVPBGT226,Methyleneblue,229,plasmodium_falciparum_Dd2
0.00015625,0.0375,2.0079540000000002,1.0,NVPBGT226,Methyleneblue,229,plasmodium_falciparum_Dd2
0.00015625,0.01875,13.161703,1.0,NVPBGT226,Methyleneblue,229,plasmodium_falciparum_Dd2
0.00015625,0.009375,83.96253,1.0,NVPBGT226,Methyleneblue,229,plasmodium_falciparum_Dd2
0.00015625,0.0046875,100.9623,1.0,NVPBGT226,Methyleneblue,229,plasmodium_falciparum_Dd2
0.00015625,0.00234375,102.972305,1.0,NVPBGT226,Methyleneblue,229,plasmodium_falciparum_Dd2
0.00015625,0.001171875,108.96834,1.0,NVPBGT226,Methyleneblue,229,plasmodium_falciparum_Dd2
0.00015625,0.000586,106.44324499999999,1.0,NVPBGT226,Methyleneblue,229,plasmodium_falciparum_Dd2
0.00015625,0.000293,103.06513000000001,1.0,NVPBGT226,Methyleneblue,229,plasmodium_falciparum_Dd2
0.00015625,0.0,107.81522,1.0,NVPBGT226,Methyleneblue,229,plasmodium_falciparum_Dd2
7.8125e-05,0.075,1.388967,1.0,NVPBGT226,Methyleneblue,229,plasmodium_falciparum_Dd2
7.8125e-05,0.0375,2.150605,1.0,NVPBGT226,Methyleneblue,229,plasmodium_falciparum_Dd2
7.8125e-05,0.01875,26.103931,1.0,NVPBGT226,Methyleneblue,229,plasmodium_falciparum_Dd2
7.8125e-05,0.009375,87.39692,1.0,NVPBGT226,Methyleneblue,229,plasmodium_falciparum_Dd2
7.8125e-05,0.0046875,105.756836,1.0,NVPBGT226,Methyleneblue,229,plasmodium_falciparum_Dd2
7.8125e-05,0.00234375,104.58287,1.0,NVPBGT226,Methyleneblue,229,plasmodium_falciparum_Dd2
7.8125e-05,0.001171875,107.54061000000002,1.0,NVPBGT226,Methyleneblue,229,plasmodium_falciparum_Dd2
7.8125e-05,0.000586,107.64686599999999,1.0,NVPBGT226,Methyleneblue,229,plasmodium_falciparum_Dd2
7.8125e-05,0.000293,103.60032,1.0,NVPBGT226,Methyleneblue,229,plasmodium_falciparum_Dd2
7.8125e-05,0.0,104.74478,1.0,NVPBGT226,Methyleneblue,229,plasmodium_falciparum_Dd2
3.9125e-05,0.075,1.790982,1.0,NVPBGT226,Methyleneblue,229,plasmodium_falciparum_Dd2
3.9125e-05,0.0375,3.789911,1.0,NVPBGT226,Methyleneblue,229,plasmodium_falciparum_Dd2
3.9125e-05,0.01875,12.974763000000001,1.0,NVPBGT226,Methyleneblue,229,plasmodium_falciparum_Dd2
3.9125e-05,0.009375,97.03945,1.0,NVPBGT226,Methyleneblue,229,plasmodium_falciparum_Dd2
3.9125e-05,0.0046875,109.36368,1.0,NVPBGT226,Methyleneblue,229,plasmodium_falciparum_Dd2
3.9125e-05,0.00234375,115.54331,1.0,NVPBGT226,Methyleneblue,229,plasmodium_falciparum_Dd2
3.9125e-05,0.000586,117.27135,1.0,NVPBGT226,Methyleneblue,229,plasmodium_falciparum_Dd2
3.9125e-05,0.000293,113.17133000000001,1.0,NVPBGT226,Methyleneblue,229,plasmodium_falciparum_Dd2
3.9125e-05,0.0,113.48598500000001,1.0,NVPBGT226,Methyleneblue,229,plasmodium_falciparum_Dd2
0.0,0.075,2.413761,1.0,NVPBGT226,Methyleneblue,229,plasmodium_falciparum_Dd2
0.0,0.0375,5.977373,1.0,NVPBGT226,Methyleneblue,229,plasmodium_falciparum_Dd2
0.0,0.01875,19.718475,1.0,NVPBGT226,Methyleneblue,229,plasmodium_falciparum_Dd2
0.0,0.009375,104.74266,1.0,NVPBGT226,Methyleneblue,229,plasmodium_falciparum_Dd2
0.0,0.0046875,108.20859499999999,1.0,NVPBGT226,Methyleneblue,229,plasmodium_falciparum_Dd2
0.0,0.00234375,114.00289,1.0,NVPBGT226,Methyleneblue,229,plasmodium_falciparum_Dd2
0.0,0.000586,102.71734000000001,1.0,NVPBGT226,Methyleneblue,229,plasmodium_falciparum_Dd2
