drug1.conc,drug2.conc,effect,effect.95ci,drug1,drug2,expt,sample
0.5,0.05,0.6101310000000001,1.0,PanobinostatLBH589,Artesunate,119,plasmodium_falciparum_HB3
0.5,0.025,0.41689799999999994,1.0,PanobinostatLBH589,Artesunate,119,plasmodium_falciparum_HB3
0.5,0.0125,0.37254899999999996,1.0,PanobinostatLBH589,Artesunate,119,plasmodium_falciparum_HB3
0.5,0.00625,0.447017,1.0,PanobinostatLBH589,Artesunate,119,plasmodium_falciparum_HB3
0.5,0.003125,1.117283,1.0,PanobinostatLBH589,Artesunate,119,plasmodium_falciparum_HB3
0.5,0.0015625,1.17529,1.0,PanobinostatLBH589,Artesunate,119,plasmodium_falciparum_HB3
0.5,0.00078125,1.572661,1.0,PanobinostatLBH589,Artesunate,119,plasmodium_falciparum_HB3
0.5,0.000390625,1.332899,1.0,PanobinostatLBH589,Artesunate,119,plasmodium_falciparum_HB3
0.5,0.000195375,2.53514,1.0,PanobinostatLBH589,Artesunate,119,plasmodium_falciparum_HB3
0.5,0.0,0.7238060000000001,1.0,PanobinostatLBH589,Artesunate,119,plasmodium_falciparum_HB3
0.25,0.05,1.802298,1.0,PanobinostatLBH589,Artesunate,119,plasmodium_falciparum_HB3
0.25,0.025,2.291067,1.0,PanobinostatLBH589,Artesunate,119,plasmodium_falciparum_HB3
0.25,0.0125,2.946741,1.0,PanobinostatLBH589,Artesunate,119,plasmodium_falciparum_HB3
0.25,0.00625,3.1415319999999998,1.0,PanobinostatLBH589,Artesunate,119,plasmodium_falciparum_HB3
0.25,0.003125,7.014711,1.0,PanobinostatLBH589,Artesunate,119,plasmodium_falciparum_HB3
0.25,0.0015625,8.193999999999999,1.0,PanobinostatLBH589,Artesunate,119,plasmodium_falciparum_HB3
0.25,0.00078125,7.908019,1.0,PanobinostatLBH589,Artesunate,119,plasmodium_falciparum_HB3
0.25,0.000390625,10.120878,1.0,PanobinostatLBH589,Artesunate,119,plasmodium_falciparum_HB3
0.25,0.000195375,9.515162,1.0,PanobinostatLBH589,Artesunate,119,plasmodium_falciparum_HB3
0.25,0.0,6.168141,1.0,PanobinostatLBH589,Artesunate,119,plasmodium_falciparum_HB3
0.125,0.05,2.076127,1.0,PanobinostatLBH589,Artesunate,119,plasmodium_falciparum_HB3
0.125,0.025,2.888319,1.0,PanobinostatLBH589,Artesunate,119,plasmodium_falciparum_HB3
0.125,0.0125,4.2011199999999995,1.0,PanobinostatLBH589,Artesunate,119,plasmodium_falciparum_HB3
0.125,0.00625,12.706391,1.0,PanobinostatLBH589,Artesunate,119,plasmodium_falciparum_HB3
0.125,0.003125,20.258581,1.0,PanobinostatLBH589,Artesunate,119,plasmodium_falciparum_HB3
0.125,0.0015625,24.3722,1.0,PanobinostatLBH589,Artesunate,119,plasmodium_falciparum_HB3
0.125,0.00078125,23.354832000000002,1.0,PanobinostatLBH589,Artesunate,119,plasmodium_falciparum_HB3
0.125,0.000390625,23.828073999999997,1.0,PanobinostatLBH589,Artesunate,119,plasmodium_falciparum_HB3
0.125,0.000195375,29.3569,1.0,PanobinostatLBH589,Artesunate,119,plasmodium_falciparum_HB3
0.125,0.0,20.202757000000002,1.0,PanobinostatLBH589,Artesunate,119,plasmodium_falciparum_HB3
0.0625,0.05,2.538671,1.0,PanobinostatLBH589,Artesunate,119,plasmodium_falciparum_HB3
0.0625,0.025,3.351071,1.0,PanobinostatLBH589,Artesunate,119,plasmodium_falciparum_HB3
0.0625,0.0125,13.207935,1.0,PanobinostatLBH589,Artesunate,119,plasmodium_falciparum_HB3
0.0625,0.00625,17.198217,1.0,PanobinostatLBH589,Artesunate,119,plasmodium_falciparum_HB3
0.0625,0.003125,27.580565999999997,1.0,PanobinostatLBH589,Artesunate,119,plasmodium_falciparum_HB3
0.0625,0.0015625,60.960724,1.0,PanobinostatLBH589,Artesunate,119,plasmodium_falciparum_HB3
0.0625,0.00078125,55.560165000000005,1.0,PanobinostatLBH589,Artesunate,119,plasmodium_falciparum_HB3
0.0625,0.000390625,64.638855,1.0,PanobinostatLBH589,Artesunate,119,plasmodium_falciparum_HB3
0.0625,0.000195375,61.522766000000004,1.0,PanobinostatLBH589,Artesunate,119,plasmodium_falciparum_HB3
0.0625,0.0,55.0339,1.0,PanobinostatLBH589,Artesunate,119,plasmodium_falciparum_HB3
0.03125,0.05,2.811825,1.0,PanobinostatLBH589,Artesunate,119,plasmodium_falciparum_HB3
0.03125,0.025,4.315523000000001,1.0,PanobinostatLBH589,Artesunate,119,plasmodium_falciparum_HB3
0.03125,0.0125,10.373572,1.0,PanobinostatLBH589,Artesunate,119,plasmodium_falciparum_HB3
0.03125,0.00625,53.081680000000006,1.0,PanobinostatLBH589,Artesunate,119,plasmodium_falciparum_HB3
0.03125,0.003125,87.73895999999999,1.0,PanobinostatLBH589,Artesunate,119,plasmodium_falciparum_HB3
0.03125,0.0015625,89.25725600000001,1.0,PanobinostatLBH589,Artesunate,119,plasmodium_falciparum_HB3
0.03125,0.00078125,91.67805,1.0,PanobinostatLBH589,Artesunate,119,plasmodium_falciparum_HB3
0.03125,0.000390625,88.08185999999999,1.0,PanobinostatLBH589,Artesunate,119,plasmodium_falciparum_HB3
0.03125,0.000195375,80.323715,1.0,PanobinostatLBH589,Artesunate,119,plasmodium_falciparum_HB3
0.03125,0.0,85.977486,1.0,PanobinostatLBH589,Artesunate,119,plasmodium_falciparum_HB3
0.015625,0.05,5.967898,1.0,PanobinostatLBH589,Artesunate,119,plasmodium_falciparum_HB3
0.015625,0.025,5.226279,1.0,PanobinostatLBH589,Artesunate,119,plasmodium_falciparum_HB3
0.015625,0.0125,10.075595,1.0,PanobinostatLBH589,Artesunate,119,plasmodium_falciparum_HB3
0.015625,0.00625,69.344376,1.0,PanobinostatLBH589,Artesunate,119,plasmodium_falciparum_HB3
0.015625,0.003125,96.14816,1.0,PanobinostatLBH589,Artesunate,119,plasmodium_falciparum_HB3
0.015625,0.0015625,103.37558,1.0,PanobinostatLBH589,Artesunate,119,plasmodium_falciparum_HB3
0.015625,0.00078125,102.55405,1.0,PanobinostatLBH589,Artesunate,119,plasmodium_falciparum_HB3
0.015625,0.000390625,104.04216,1.0,PanobinostatLBH589,Artesunate,119,plasmodium_falciparum_HB3
0.015625,0.000195375,97.50516,1.0,PanobinostatLBH589,Artesunate,119,plasmodium_falciparum_HB3
0.015625,0.0,103.97943000000001,1.0,PanobinostatLBH589,Artesunate,119,plasmodium_falciparum_HB3
0.0078125,0.05,2.092433,1.0,PanobinostatLBH589,Artesunate,119,plasmodium_falciparum_HB3
0.0078125,0.025,5.892079,1.0,PanobinostatLBH589,Artesunate,119,plasmodium_falciparum_HB3
0.0078125,0.0125,16.4526,1.0,PanobinostatLBH589,Artesunate,119,plasmodium_falciparum_HB3
0.0078125,0.00625,56.29233000000001,1.0,PanobinostatLBH589,Artesunate,119,plasmodium_falciparum_HB3
0.0078125,0.003125,99.93607,1.0,PanobinostatLBH589,Artesunate,119,plasmodium_falciparum_HB3
0.0078125,0.0015625,101.30127,1.0,PanobinostatLBH589,Artesunate,119,plasmodium_falciparum_HB3
0.0078125,0.00078125,101.90559,1.0,PanobinostatLBH589,Artesunate,119,plasmodium_falciparum_HB3
0.0078125,0.000390625,103.772385,1.0,PanobinostatLBH589,Artesunate,119,plasmodium_falciparum_HB3
0.0078125,0.000195375,101.26041,1.0,PanobinostatLBH589,Artesunate,119,plasmodium_falciparum_HB3
0.0078125,0.0,102.043205,1.0,PanobinostatLBH589,Artesunate,119,plasmodium_falciparum_HB3
0.00390625,0.05,2.7274380000000003,1.0,PanobinostatLBH589,Artesunate,119,plasmodium_falciparum_HB3
0.00390625,0.025,5.497148,1.0,PanobinostatLBH589,Artesunate,119,plasmodium_falciparum_HB3
0.00390625,0.0125,19.770435,1.0,PanobinostatLBH589,Artesunate,119,plasmodium_falciparum_HB3
0.00390625,0.00625,52.291924,1.0,PanobinostatLBH589,Artesunate,119,plasmodium_falciparum_HB3
0.00390625,0.003125,96.93969,1.0,PanobinostatLBH589,Artesunate,119,plasmodium_falciparum_HB3
0.00390625,0.0015625,106.050835,1.0,PanobinostatLBH589,Artesunate,119,plasmodium_falciparum_HB3
0.00390625,0.00078125,101.51294,1.0,PanobinostatLBH589,Artesunate,119,plasmodium_falciparum_HB3
0.00390625,0.000390625,102.31609,1.0,PanobinostatLBH589,Artesunate,119,plasmodium_falciparum_HB3
0.00390625,0.000195375,102.04663000000001,1.0,PanobinostatLBH589,Artesunate,119,plasmodium_falciparum_HB3
0.00390625,0.0,103.83854000000001,1.0,PanobinostatLBH589,Artesunate,119,plasmodium_falciparum_HB3
0.001953125,0.05,2.559807,1.0,PanobinostatLBH589,Artesunate,119,plasmodium_falciparum_HB3
0.001953125,0.025,6.478841,1.0,PanobinostatLBH589,Artesunate,119,plasmodium_falciparum_HB3
0.001953125,0.0125,26.416286,1.0,PanobinostatLBH589,Artesunate,119,plasmodium_falciparum_HB3
0.001953125,0.00625,67.9128,1.0,PanobinostatLBH589,Artesunate,119,plasmodium_falciparum_HB3
0.001953125,0.003125,98.24377,1.0,PanobinostatLBH589,Artesunate,119,plasmodium_falciparum_HB3
0.001953125,0.0015625,103.68358,1.0,PanobinostatLBH589,Artesunate,119,plasmodium_falciparum_HB3
0.001953125,0.00078125,106.48346000000001,1.0,PanobinostatLBH589,Artesunate,119,plasmodium_falciparum_HB3
0.001953125,0.000390625,101.7244,1.0,PanobinostatLBH589,Artesunate,119,plasmodium_falciparum_HB3
0.001953125,0.000195375,105.38975500000001,1.0,PanobinostatLBH589,Artesunate,119,plasmodium_falciparum_HB3
0.001953125,0.0,101.99916999999999,1.0,PanobinostatLBH589,Artesunate,119,plasmodium_falciparum_HB3
0.0,0.05,2.987818,1.0,PanobinostatLBH589,Artesunate,119,plasmodium_falciparum_HB3
0.0,0.025,4.8720099999999995,1.0,PanobinostatLBH589,Artesunate,119,plasmodium_falciparum_HB3
0.0,0.0125,21.127743,1.0,PanobinostatLBH589,Artesunate,119,plasmodium_falciparum_HB3
0.0,0.00625,70.457245,1.0,PanobinostatLBH589,Artesunate,119,plasmodium_falciparum_HB3
0.0,0.003125,101.57390600000001,1.0,PanobinostatLBH589,Artesunate,119,plasmodium_falciparum_HB3
0.0,0.0015625,82.41407,1.0,PanobinostatLBH589,Artesunate,119,plasmodium_falciparum_HB3
0.0,0.00078125,94.36383000000001,1.0,PanobinostatLBH589,Artesunate,119,plasmodium_falciparum_HB3
0.0,0.000390625,104.76706,1.0,PanobinostatLBH589,Artesunate,119,plasmodium_falciparum_HB3
0.0,0.000195375,107.15274,1.0,PanobinostatLBH589,Artesunate,119,plasmodium_falciparum_HB3
0.0,0.0,105.31631999999999,1.0,PanobinostatLBH589,Artesunate,119,plasmodium_falciparum_HB3
