drug1.conc,drug2.conc,effect,effect.95ci,drug1,drug2,expt,sample
0.5,0.01,-0.675771,1.0,PanobinostatLBH589,NITD609,123,plasmodium_falciparum_HB3
0.5,0.005,-0.646625,1.0,PanobinostatLBH589,NITD609,123,plasmodium_falciparum_HB3
0.5,0.0025,-0.442295,1.0,PanobinostatLBH589,NITD609,123,plasmodium_falciparum_HB3
0.5,0.00125,0.9894629999999999,1.0,PanobinostatLBH589,NITD609,123,plasmodium_falciparum_HB3
0.5,0.000625,0.649617,1.0,PanobinostatLBH589,NITD609,123,plasmodium_falciparum_HB3
0.5,0.0003125,0.853226,1.0,PanobinostatLBH589,NITD609,123,plasmodium_falciparum_HB3
0.5,0.00015625,0.958667,1.0,PanobinostatLBH589,NITD609,123,plasmodium_falciparum_HB3
0.5,7.8125e-05,1.0724639999999999,1.0,PanobinostatLBH589,NITD609,123,plasmodium_falciparum_HB3
0.5,3.9125e-05,1.5061959999999999,1.0,PanobinostatLBH589,NITD609,123,plasmodium_falciparum_HB3
0.5,0.0,1.6397509999999997,1.0,PanobinostatLBH589,NITD609,123,plasmodium_falciparum_HB3
0.25,0.01,-0.910744,1.0,PanobinostatLBH589,NITD609,123,plasmodium_falciparum_HB3
0.25,0.005,-0.129325,1.0,PanobinostatLBH589,NITD609,123,plasmodium_falciparum_HB3
0.25,0.0025,2.70716,1.0,PanobinostatLBH589,NITD609,123,plasmodium_falciparum_HB3
0.25,0.00125,6.825083,1.0,PanobinostatLBH589,NITD609,123,plasmodium_falciparum_HB3
0.25,0.000625,8.511828,1.0,PanobinostatLBH589,NITD609,123,plasmodium_falciparum_HB3
0.25,0.0003125,8.167494,1.0,PanobinostatLBH589,NITD609,123,plasmodium_falciparum_HB3
0.25,0.00015625,8.613864,1.0,PanobinostatLBH589,NITD609,123,plasmodium_falciparum_HB3
0.25,7.8125e-05,6.841487,1.0,PanobinostatLBH589,NITD609,123,plasmodium_falciparum_HB3
0.25,3.9125e-05,8.789874000000001,1.0,PanobinostatLBH589,NITD609,123,plasmodium_falciparum_HB3
0.25,0.0,7.878305,1.0,PanobinostatLBH589,NITD609,123,plasmodium_falciparum_HB3
0.125,0.01,-0.760836,1.0,PanobinostatLBH589,NITD609,123,plasmodium_falciparum_HB3
0.125,0.005,-0.41412899999999997,1.0,PanobinostatLBH589,NITD609,123,plasmodium_falciparum_HB3
0.125,0.0025,2.216014,1.0,PanobinostatLBH589,NITD609,123,plasmodium_falciparum_HB3
0.125,0.00125,25.094117999999998,1.0,PanobinostatLBH589,NITD609,123,plasmodium_falciparum_HB3
0.125,0.000625,20.615406,1.0,PanobinostatLBH589,NITD609,123,plasmodium_falciparum_HB3
0.125,0.0003125,21.102373,1.0,PanobinostatLBH589,NITD609,123,plasmodium_falciparum_HB3
0.125,0.00015625,20.731215,1.0,PanobinostatLBH589,NITD609,123,plasmodium_falciparum_HB3
0.125,7.8125e-05,17.488441,1.0,PanobinostatLBH589,NITD609,123,plasmodium_falciparum_HB3
0.125,3.9125e-05,21.622201999999998,1.0,PanobinostatLBH589,NITD609,123,plasmodium_falciparum_HB3
0.125,0.0,18.278579999999998,1.0,PanobinostatLBH589,NITD609,123,plasmodium_falciparum_HB3
0.0625,0.01,-0.522201,1.0,PanobinostatLBH589,NITD609,123,plasmodium_falciparum_HB3
0.0625,0.005,-0.403296,1.0,PanobinostatLBH589,NITD609,123,plasmodium_falciparum_HB3
0.0625,0.0025,3.0898220000000003,1.0,PanobinostatLBH589,NITD609,123,plasmodium_falciparum_HB3
0.0625,0.00125,56.699419999999996,1.0,PanobinostatLBH589,NITD609,123,plasmodium_falciparum_HB3
0.0625,0.000625,56.01942,1.0,PanobinostatLBH589,NITD609,123,plasmodium_falciparum_HB3
0.0625,0.0003125,62.42351,1.0,PanobinostatLBH589,NITD609,123,plasmodium_falciparum_HB3
0.0625,0.00015625,55.588524,1.0,PanobinostatLBH589,NITD609,123,plasmodium_falciparum_HB3
0.0625,7.8125e-05,54.84327,1.0,PanobinostatLBH589,NITD609,123,plasmodium_falciparum_HB3
0.0625,3.9125e-05,57.542793,1.0,PanobinostatLBH589,NITD609,123,plasmodium_falciparum_HB3
0.0625,0.0,56.849174,1.0,PanobinostatLBH589,NITD609,123,plasmodium_falciparum_HB3
0.03125,0.01,-0.878915,1.0,PanobinostatLBH589,NITD609,123,plasmodium_falciparum_HB3
0.03125,0.005,-0.822068,1.0,PanobinostatLBH589,NITD609,123,plasmodium_falciparum_HB3
0.03125,0.0025,24.601837,1.0,PanobinostatLBH589,NITD609,123,plasmodium_falciparum_HB3
0.03125,0.00125,67.01143,1.0,PanobinostatLBH589,NITD609,123,plasmodium_falciparum_HB3
0.03125,0.000625,71.57046,1.0,PanobinostatLBH589,NITD609,123,plasmodium_falciparum_HB3
0.03125,0.0003125,74.26179,1.0,PanobinostatLBH589,NITD609,123,plasmodium_falciparum_HB3
0.03125,0.00015625,75.87234000000001,1.0,PanobinostatLBH589,NITD609,123,plasmodium_falciparum_HB3
0.03125,7.8125e-05,84.27320999999999,1.0,PanobinostatLBH589,NITD609,123,plasmodium_falciparum_HB3
0.03125,3.9125e-05,86.0086,1.0,PanobinostatLBH589,NITD609,123,plasmodium_falciparum_HB3
0.03125,0.0,91.26548000000001,1.0,PanobinostatLBH589,NITD609,123,plasmodium_falciparum_HB3
0.015625,0.01,-0.783224,1.0,PanobinostatLBH589,NITD609,123,plasmodium_falciparum_HB3
0.015625,0.005,-0.7430899999999999,1.0,PanobinostatLBH589,NITD609,123,plasmodium_falciparum_HB3
0.015625,0.0025,8.136439999999999,1.0,PanobinostatLBH589,NITD609,123,plasmodium_falciparum_HB3
0.015625,0.00125,84.075165,1.0,PanobinostatLBH589,NITD609,123,plasmodium_falciparum_HB3
0.015625,0.000625,101.72523000000001,1.0,PanobinostatLBH589,NITD609,123,plasmodium_falciparum_HB3
0.015625,0.0003125,99.66067,1.0,PanobinostatLBH589,NITD609,123,plasmodium_falciparum_HB3
0.015625,0.00015625,101.359436,1.0,PanobinostatLBH589,NITD609,123,plasmodium_falciparum_HB3
0.015625,7.8125e-05,100.13825,1.0,PanobinostatLBH589,NITD609,123,plasmodium_falciparum_HB3
0.015625,3.9125e-05,103.314835,1.0,PanobinostatLBH589,NITD609,123,plasmodium_falciparum_HB3
0.015625,0.0,100.58349,1.0,PanobinostatLBH589,NITD609,123,plasmodium_falciparum_HB3
0.0078125,0.01,-0.723075,1.0,PanobinostatLBH589,NITD609,123,plasmodium_falciparum_HB3
0.0078125,0.005,-0.630789,1.0,PanobinostatLBH589,NITD609,123,plasmodium_falciparum_HB3
0.0078125,0.0025,15.324735999999998,1.0,PanobinostatLBH589,NITD609,123,plasmodium_falciparum_HB3
0.0078125,0.00125,94.64129,1.0,PanobinostatLBH589,NITD609,123,plasmodium_falciparum_HB3
0.0078125,0.000625,103.61703,1.0,PanobinostatLBH589,NITD609,123,plasmodium_falciparum_HB3
0.0078125,0.0003125,105.147,1.0,PanobinostatLBH589,NITD609,123,plasmodium_falciparum_HB3
0.0078125,0.00015625,100.03636999999999,1.0,PanobinostatLBH589,NITD609,123,plasmodium_falciparum_HB3
0.0078125,7.8125e-05,100.42099,1.0,PanobinostatLBH589,NITD609,123,plasmodium_falciparum_HB3
0.0078125,3.9125e-05,98.97241,1.0,PanobinostatLBH589,NITD609,123,plasmodium_falciparum_HB3
0.0078125,0.0,100.13547,1.0,PanobinostatLBH589,NITD609,123,plasmodium_falciparum_HB3
0.00390625,0.01,-0.586631,1.0,PanobinostatLBH589,NITD609,123,plasmodium_falciparum_HB3
0.00390625,0.005,-0.165744,1.0,PanobinostatLBH589,NITD609,123,plasmodium_falciparum_HB3
0.00390625,0.0025,5.463997,1.0,PanobinostatLBH589,NITD609,123,plasmodium_falciparum_HB3
0.00390625,0.00125,96.25097,1.0,PanobinostatLBH589,NITD609,123,plasmodium_falciparum_HB3
0.00390625,0.000625,98.97515,1.0,PanobinostatLBH589,NITD609,123,plasmodium_falciparum_HB3
0.00390625,0.0003125,105.81525,1.0,PanobinostatLBH589,NITD609,123,plasmodium_falciparum_HB3
0.00390625,0.00015625,108.36197,1.0,PanobinostatLBH589,NITD609,123,plasmodium_falciparum_HB3
0.00390625,7.8125e-05,105.29056499999999,1.0,PanobinostatLBH589,NITD609,123,plasmodium_falciparum_HB3
0.00390625,3.9125e-05,105.12008,1.0,PanobinostatLBH589,NITD609,123,plasmodium_falciparum_HB3
0.00390625,0.0,106.61471599999999,1.0,PanobinostatLBH589,NITD609,123,plasmodium_falciparum_HB3
0.001953125,0.01,-1.096916,1.0,PanobinostatLBH589,NITD609,123,plasmodium_falciparum_HB3
0.001953125,0.005,-1.071123,1.0,PanobinostatLBH589,NITD609,123,plasmodium_falciparum_HB3
0.001953125,0.0025,4.460038,1.0,PanobinostatLBH589,NITD609,123,plasmodium_falciparum_HB3
0.001953125,0.00125,80.17448,1.0,PanobinostatLBH589,NITD609,123,plasmodium_falciparum_HB3
0.001953125,0.000625,92.00433000000001,1.0,PanobinostatLBH589,NITD609,123,plasmodium_falciparum_HB3
0.001953125,0.0003125,89.37223,1.0,PanobinostatLBH589,NITD609,123,plasmodium_falciparum_HB3
0.001953125,0.00015625,89.232956,1.0,PanobinostatLBH589,NITD609,123,plasmodium_falciparum_HB3
0.001953125,7.8125e-05,102.94874,1.0,PanobinostatLBH589,NITD609,123,plasmodium_falciparum_HB3
0.001953125,3.9125e-05,114.88296000000001,1.0,PanobinostatLBH589,NITD609,123,plasmodium_falciparum_HB3
0.001953125,0.0,112.86993400000001,1.0,PanobinostatLBH589,NITD609,123,plasmodium_falciparum_HB3
0.0,0.01,-0.617841,1.0,PanobinostatLBH589,NITD609,123,plasmodium_falciparum_HB3
0.0,0.005,-0.477579,1.0,PanobinostatLBH589,NITD609,123,plasmodium_falciparum_HB3
0.0,0.0025,3.9349489999999996,1.0,PanobinostatLBH589,NITD609,123,plasmodium_falciparum_HB3
0.0,0.00125,89.11219,1.0,PanobinostatLBH589,NITD609,123,plasmodium_falciparum_HB3
0.0,0.000625,103.80165,1.0,PanobinostatLBH589,NITD609,123,plasmodium_falciparum_HB3
0.0,0.0003125,107.91576,1.0,PanobinostatLBH589,NITD609,123,plasmodium_falciparum_HB3
0.0,0.00015625,102.45826,1.0,PanobinostatLBH589,NITD609,123,plasmodium_falciparum_HB3
0.0,7.8125e-05,103.70483,1.0,PanobinostatLBH589,NITD609,123,plasmodium_falciparum_HB3
0.0,3.9125e-05,102.54838000000001,1.0,PanobinostatLBH589,NITD609,123,plasmodium_falciparum_HB3
0.0,0.0,105.128075,1.0,PanobinostatLBH589,NITD609,123,plasmodium_falciparum_HB3
