drug1.conc,drug2.conc,effect,effect.95ci,drug1,drug2,expt,sample
0.5,0.025,0.068704,1.0,PanobinostatLBH589,Artenimol,120,plasmodium_falciparum_HB3
0.5,0.0125,0.5570579999999999,1.0,PanobinostatLBH589,Artenimol,120,plasmodium_falciparum_HB3
0.5,0.00625,0.681275,1.0,PanobinostatLBH589,Artenimol,120,plasmodium_falciparum_HB3
0.5,0.003125,0.371406,1.0,PanobinostatLBH589,Artenimol,120,plasmodium_falciparum_HB3
0.5,0.0015625,1.026717,1.0,PanobinostatLBH589,Artenimol,120,plasmodium_falciparum_HB3
0.5,0.00078125,2.922593,1.0,PanobinostatLBH589,Artenimol,120,plasmodium_falciparum_HB3
0.5,0.000390625,1.8135150000000002,1.0,PanobinostatLBH589,Artenimol,120,plasmodium_falciparum_HB3
0.5,0.000195375,2.050733,1.0,PanobinostatLBH589,Artenimol,120,plasmodium_falciparum_HB3
0.5,9.7625e-05,0.297665,1.0,PanobinostatLBH589,Artenimol,120,plasmodium_falciparum_HB3
0.5,0.0,0.596006,1.0,PanobinostatLBH589,Artenimol,120,plasmodium_falciparum_HB3
0.25,0.025,0.48663999999999996,1.0,PanobinostatLBH589,Artenimol,120,plasmodium_falciparum_HB3
0.25,0.0125,1.528417,1.0,PanobinostatLBH589,Artenimol,120,plasmodium_falciparum_HB3
0.25,0.00625,2.277253,1.0,PanobinostatLBH589,Artenimol,120,plasmodium_falciparum_HB3
0.25,0.003125,4.889458,1.0,PanobinostatLBH589,Artenimol,120,plasmodium_falciparum_HB3
0.25,0.0015625,6.1816949999999995,1.0,PanobinostatLBH589,Artenimol,120,plasmodium_falciparum_HB3
0.25,0.00078125,7.784892,1.0,PanobinostatLBH589,Artenimol,120,plasmodium_falciparum_HB3
0.25,0.000390625,9.835417,1.0,PanobinostatLBH589,Artenimol,120,plasmodium_falciparum_HB3
0.25,0.000195375,10.238241,1.0,PanobinostatLBH589,Artenimol,120,plasmodium_falciparum_HB3
0.25,9.7625e-05,9.306142,1.0,PanobinostatLBH589,Artenimol,120,plasmodium_falciparum_HB3
0.25,0.0,4.785234,1.0,PanobinostatLBH589,Artenimol,120,plasmodium_falciparum_HB3
0.125,0.025,0.601666,1.0,PanobinostatLBH589,Artenimol,120,plasmodium_falciparum_HB3
0.125,0.0125,1.18095,1.0,PanobinostatLBH589,Artenimol,120,plasmodium_falciparum_HB3
0.125,0.00625,3.906104,1.0,PanobinostatLBH589,Artenimol,120,plasmodium_falciparum_HB3
0.125,0.003125,10.884360000000001,1.0,PanobinostatLBH589,Artenimol,120,plasmodium_falciparum_HB3
0.125,0.0015625,19.667822,1.0,PanobinostatLBH589,Artenimol,120,plasmodium_falciparum_HB3
0.125,0.00078125,28.73633,1.0,PanobinostatLBH589,Artenimol,120,plasmodium_falciparum_HB3
0.125,0.000390625,29.273602,1.0,PanobinostatLBH589,Artenimol,120,plasmodium_falciparum_HB3
0.125,0.000195375,21.448309,1.0,PanobinostatLBH589,Artenimol,120,plasmodium_falciparum_HB3
0.125,9.7625e-05,33.43354,1.0,PanobinostatLBH589,Artenimol,120,plasmodium_falciparum_HB3
0.125,0.0,12.305748,1.0,PanobinostatLBH589,Artenimol,120,plasmodium_falciparum_HB3
0.0625,0.025,0.6673060000000001,1.0,PanobinostatLBH589,Artenimol,120,plasmodium_falciparum_HB3
0.0625,0.0125,1.86503,1.0,PanobinostatLBH589,Artenimol,120,plasmodium_falciparum_HB3
0.0625,0.00625,7.058592999999999,1.0,PanobinostatLBH589,Artenimol,120,plasmodium_falciparum_HB3
0.0625,0.003125,27.407429999999998,1.0,PanobinostatLBH589,Artenimol,120,plasmodium_falciparum_HB3
0.0625,0.0015625,43.796986,1.0,PanobinostatLBH589,Artenimol,120,plasmodium_falciparum_HB3
0.0625,0.00078125,68.05338,1.0,PanobinostatLBH589,Artenimol,120,plasmodium_falciparum_HB3
0.0625,0.000390625,58.91539,1.0,PanobinostatLBH589,Artenimol,120,plasmodium_falciparum_HB3
0.0625,0.000195375,75.00842,1.0,PanobinostatLBH589,Artenimol,120,plasmodium_falciparum_HB3
0.0625,9.7625e-05,57.821686,1.0,PanobinostatLBH589,Artenimol,120,plasmodium_falciparum_HB3
0.0625,0.0,50.976215,1.0,PanobinostatLBH589,Artenimol,120,plasmodium_falciparum_HB3
0.03125,0.025,0.61335,1.0,PanobinostatLBH589,Artenimol,120,plasmodium_falciparum_HB3
0.03125,0.0125,2.190114,1.0,PanobinostatLBH589,Artenimol,120,plasmodium_falciparum_HB3
0.03125,0.00625,11.779952,1.0,PanobinostatLBH589,Artenimol,120,plasmodium_falciparum_HB3
0.03125,0.003125,31.636592999999998,1.0,PanobinostatLBH589,Artenimol,120,plasmodium_falciparum_HB3
0.03125,0.0015625,62.917719999999996,1.0,PanobinostatLBH589,Artenimol,120,plasmodium_falciparum_HB3
0.03125,0.00078125,82.99096999999999,1.0,PanobinostatLBH589,Artenimol,120,plasmodium_falciparum_HB3
0.03125,0.000390625,83.58484,1.0,PanobinostatLBH589,Artenimol,120,plasmodium_falciparum_HB3
0.03125,0.000195375,93.42732,1.0,PanobinostatLBH589,Artenimol,120,plasmodium_falciparum_HB3
0.03125,9.7625e-05,88.9708,1.0,PanobinostatLBH589,Artenimol,120,plasmodium_falciparum_HB3
0.03125,0.0,89.301704,1.0,PanobinostatLBH589,Artenimol,120,plasmodium_falciparum_HB3
0.015625,0.025,0.866823,1.0,PanobinostatLBH589,Artenimol,120,plasmodium_falciparum_HB3
0.015625,0.0125,2.3857880000000002,1.0,PanobinostatLBH589,Artenimol,120,plasmodium_falciparum_HB3
0.015625,0.00625,13.019324000000001,1.0,PanobinostatLBH589,Artenimol,120,plasmodium_falciparum_HB3
0.015625,0.003125,41.6803,1.0,PanobinostatLBH589,Artenimol,120,plasmodium_falciparum_HB3
0.015625,0.0015625,76.35171,1.0,PanobinostatLBH589,Artenimol,120,plasmodium_falciparum_HB3
0.015625,0.00078125,96.14171999999999,1.0,PanobinostatLBH589,Artenimol,120,plasmodium_falciparum_HB3
0.015625,0.000390625,103.51465,1.0,PanobinostatLBH589,Artenimol,120,plasmodium_falciparum_HB3
0.015625,0.000195375,100.93994,1.0,PanobinostatLBH589,Artenimol,120,plasmodium_falciparum_HB3
0.015625,9.7625e-05,95.87963,1.0,PanobinostatLBH589,Artenimol,120,plasmodium_falciparum_HB3
0.015625,0.0,99.6301,1.0,PanobinostatLBH589,Artenimol,120,plasmodium_falciparum_HB3
0.0078125,0.025,1.000284,1.0,PanobinostatLBH589,Artenimol,120,plasmodium_falciparum_HB3
0.0078125,0.0125,2.387813,1.0,PanobinostatLBH589,Artenimol,120,plasmodium_falciparum_HB3
0.0078125,0.00625,14.815078,1.0,PanobinostatLBH589,Artenimol,120,plasmodium_falciparum_HB3
0.0078125,0.003125,50.316437,1.0,PanobinostatLBH589,Artenimol,120,plasmodium_falciparum_HB3
0.0078125,0.0015625,74.378456,1.0,PanobinostatLBH589,Artenimol,120,plasmodium_falciparum_HB3
0.0078125,0.00078125,97.618576,1.0,PanobinostatLBH589,Artenimol,120,plasmodium_falciparum_HB3
0.0078125,0.000390625,98.40906,1.0,PanobinostatLBH589,Artenimol,120,plasmodium_falciparum_HB3
0.0078125,0.000195375,104.07171,1.0,PanobinostatLBH589,Artenimol,120,plasmodium_falciparum_HB3
0.0078125,9.7625e-05,99.731674,1.0,PanobinostatLBH589,Artenimol,120,plasmodium_falciparum_HB3
0.0078125,0.0,100.68231,1.0,PanobinostatLBH589,Artenimol,120,plasmodium_falciparum_HB3
0.00390625,0.025,0.527821,1.0,PanobinostatLBH589,Artenimol,120,plasmodium_falciparum_HB3
0.00390625,0.0125,2.879179,1.0,PanobinostatLBH589,Artenimol,120,plasmodium_falciparum_HB3
0.00390625,0.00625,15.867707999999999,1.0,PanobinostatLBH589,Artenimol,120,plasmodium_falciparum_HB3
0.00390625,0.003125,57.864113,1.0,PanobinostatLBH589,Artenimol,120,plasmodium_falciparum_HB3
0.00390625,0.0015625,78.41356,1.0,PanobinostatLBH589,Artenimol,120,plasmodium_falciparum_HB3
0.00390625,0.00078125,97.23034,1.0,PanobinostatLBH589,Artenimol,120,plasmodium_falciparum_HB3
0.00390625,0.000390625,103.8535,1.0,PanobinostatLBH589,Artenimol,120,plasmodium_falciparum_HB3
0.00390625,0.000195375,101.59546,1.0,PanobinostatLBH589,Artenimol,120,plasmodium_falciparum_HB3
0.00390625,9.7625e-05,101.449844,1.0,PanobinostatLBH589,Artenimol,120,plasmodium_falciparum_HB3
0.00390625,0.0,100.40002,1.0,PanobinostatLBH589,Artenimol,120,plasmodium_falciparum_HB3
0.001953125,0.025,0.956299,1.0,PanobinostatLBH589,Artenimol,120,plasmodium_falciparum_HB3
0.001953125,0.0125,2.485806,1.0,PanobinostatLBH589,Artenimol,120,plasmodium_falciparum_HB3
0.001953125,0.00625,33.563629999999996,1.0,PanobinostatLBH589,Artenimol,120,plasmodium_falciparum_HB3
0.001953125,0.003125,54.145374,1.0,PanobinostatLBH589,Artenimol,120,plasmodium_falciparum_HB3
0.001953125,0.0015625,80.7175,1.0,PanobinostatLBH589,Artenimol,120,plasmodium_falciparum_HB3
0.001953125,0.00078125,100.889984,1.0,PanobinostatLBH589,Artenimol,120,plasmodium_falciparum_HB3
0.001953125,0.000390625,100.77501,1.0,PanobinostatLBH589,Artenimol,120,plasmodium_falciparum_HB3
0.001953125,0.000195375,99.27879,1.0,PanobinostatLBH589,Artenimol,120,plasmodium_falciparum_HB3
0.001953125,9.7625e-05,103.918724,1.0,PanobinostatLBH589,Artenimol,120,plasmodium_falciparum_HB3
0.001953125,0.0,101.69184,1.0,PanobinostatLBH589,Artenimol,120,plasmodium_falciparum_HB3
0.0,0.025,0.5342600000000001,1.0,PanobinostatLBH589,Artenimol,120,plasmodium_falciparum_HB3
0.0,0.0125,5.586157,1.0,PanobinostatLBH589,Artenimol,120,plasmodium_falciparum_HB3
0.0,0.00625,18.623241,1.0,PanobinostatLBH589,Artenimol,120,plasmodium_falciparum_HB3
0.0,0.003125,47.973907000000004,1.0,PanobinostatLBH589,Artenimol,120,plasmodium_falciparum_HB3
0.0,0.0015625,73.52405,1.0,PanobinostatLBH589,Artenimol,120,plasmodium_falciparum_HB3
0.0,0.00078125,102.48725999999999,1.0,PanobinostatLBH589,Artenimol,120,plasmodium_falciparum_HB3
0.0,0.000390625,105.24616999999999,1.0,PanobinostatLBH589,Artenimol,120,plasmodium_falciparum_HB3
0.0,0.000195375,106.51498400000001,1.0,PanobinostatLBH589,Artenimol,120,plasmodium_falciparum_HB3
0.0,9.7625e-05,103.399055,1.0,PanobinostatLBH589,Artenimol,120,plasmodium_falciparum_HB3
0.0,0.0,102.67998,1.0,PanobinostatLBH589,Artenimol,120,plasmodium_falciparum_HB3
