drug1.conc,drug2.conc,effect,effect.95ci,drug1,drug2,expt,sample
0.5,0.025,25.664993,1.0,PanobinostatLBH589,Atovaquone,122,plasmodium_falciparum_3D7
0.5,0.0125,33.272971999999996,1.0,PanobinostatLBH589,Atovaquone,122,plasmodium_falciparum_3D7
0.5,0.00625,55.504709999999996,1.0,PanobinostatLBH589,Atovaquone,122,plasmodium_falciparum_3D7
0.5,0.003125,72.33329,1.0,PanobinostatLBH589,Atovaquone,122,plasmodium_falciparum_3D7
0.5,0.0015625,114.81953,1.0,PanobinostatLBH589,Atovaquone,122,plasmodium_falciparum_3D7
0.5,0.00078125,36.57653,1.0,PanobinostatLBH589,Atovaquone,122,plasmodium_falciparum_3D7
0.5,0.000390625,28.398384000000004,1.0,PanobinostatLBH589,Atovaquone,122,plasmodium_falciparum_3D7
0.5,0.000195375,74.31543,1.0,PanobinostatLBH589,Atovaquone,122,plasmodium_falciparum_3D7
0.5,9.7625e-05,60.19331700000001,1.0,PanobinostatLBH589,Atovaquone,122,plasmodium_falciparum_3D7
0.5,0.0,73.28520999999999,1.0,PanobinostatLBH589,Atovaquone,122,plasmodium_falciparum_3D7
0.25,0.025,67.30454,1.0,PanobinostatLBH589,Atovaquone,122,plasmodium_falciparum_3D7
0.25,0.0125,53.640034,1.0,PanobinostatLBH589,Atovaquone,122,plasmodium_falciparum_3D7
0.25,0.00625,60.070965,1.0,PanobinostatLBH589,Atovaquone,122,plasmodium_falciparum_3D7
0.25,0.003125,106.34283400000001,1.0,PanobinostatLBH589,Atovaquone,122,plasmodium_falciparum_3D7
0.25,0.00078125,49.536278,1.0,PanobinostatLBH589,Atovaquone,122,plasmodium_falciparum_3D7
0.25,0.000390625,110.43191000000002,1.0,PanobinostatLBH589,Atovaquone,122,plasmodium_falciparum_3D7
0.25,0.000195375,88.37392,1.0,PanobinostatLBH589,Atovaquone,122,plasmodium_falciparum_3D7
0.25,9.7625e-05,74.19797,1.0,PanobinostatLBH589,Atovaquone,122,plasmodium_falciparum_3D7
0.25,0.0,90.65704000000001,1.0,PanobinostatLBH589,Atovaquone,122,plasmodium_falciparum_3D7
0.125,0.025,10.874832000000001,1.0,PanobinostatLBH589,Atovaquone,122,plasmodium_falciparum_3D7
0.125,0.0125,-0.144378,1.0,PanobinostatLBH589,Atovaquone,122,plasmodium_falciparum_3D7
0.125,0.00625,43.247276,1.0,PanobinostatLBH589,Atovaquone,122,plasmodium_falciparum_3D7
0.125,0.003125,72.088585,1.0,PanobinostatLBH589,Atovaquone,122,plasmodium_falciparum_3D7
0.125,0.0015625,79.57176,1.0,PanobinostatLBH589,Atovaquone,122,plasmodium_falciparum_3D7
0.125,0.00078125,34.910070000000005,1.0,PanobinostatLBH589,Atovaquone,122,plasmodium_falciparum_3D7
0.125,0.000390625,47.52967,1.0,PanobinostatLBH589,Atovaquone,122,plasmodium_falciparum_3D7
0.125,0.000195375,33.764835,1.0,PanobinostatLBH589,Atovaquone,122,plasmodium_falciparum_3D7
0.125,9.7625e-05,77.67772,1.0,PanobinostatLBH589,Atovaquone,122,plasmodium_falciparum_3D7
0.125,0.0,38.974674,1.0,PanobinostatLBH589,Atovaquone,122,plasmodium_falciparum_3D7
0.0625,0.025,34.721645,1.0,PanobinostatLBH589,Atovaquone,122,plasmodium_falciparum_3D7
0.0625,0.0125,63.822342000000006,1.0,PanobinostatLBH589,Atovaquone,122,plasmodium_falciparum_3D7
0.0625,0.00625,25.510828,1.0,PanobinostatLBH589,Atovaquone,122,plasmodium_falciparum_3D7
0.0625,0.003125,78.30173,1.0,PanobinostatLBH589,Atovaquone,122,plasmodium_falciparum_3D7
0.0625,0.0015625,62.099593999999996,1.0,PanobinostatLBH589,Atovaquone,122,plasmodium_falciparum_3D7
0.0625,0.00078125,112.60491999999999,1.0,PanobinostatLBH589,Atovaquone,122,plasmodium_falciparum_3D7
0.0625,0.000195375,81.2578,1.0,PanobinostatLBH589,Atovaquone,122,plasmodium_falciparum_3D7
0.03125,0.025,71.92953,1.0,PanobinostatLBH589,Atovaquone,122,plasmodium_falciparum_3D7
0.03125,0.0125,43.643703,1.0,PanobinostatLBH589,Atovaquone,122,plasmodium_falciparum_3D7
0.03125,0.00625,79.5791,1.0,PanobinostatLBH589,Atovaquone,122,plasmodium_falciparum_3D7
0.03125,0.003125,102.30515,1.0,PanobinostatLBH589,Atovaquone,122,plasmodium_falciparum_3D7
0.03125,0.0015625,109.895996,1.0,PanobinostatLBH589,Atovaquone,122,plasmodium_falciparum_3D7
0.015625,0.025,39.743057,1.0,PanobinostatLBH589,Atovaquone,122,plasmodium_falciparum_3D7
0.015625,0.0125,42.706474,1.0,PanobinostatLBH589,Atovaquone,122,plasmodium_falciparum_3D7
0.015625,0.00625,107.83800500000001,1.0,PanobinostatLBH589,Atovaquone,122,plasmodium_falciparum_3D7
0.015625,0.003125,117.51376,1.0,PanobinostatLBH589,Atovaquone,122,plasmodium_falciparum_3D7
0.015625,0.0015625,108.594154,1.0,PanobinostatLBH589,Atovaquone,122,plasmodium_falciparum_3D7
0.015625,0.0,107.360825,1.0,PanobinostatLBH589,Atovaquone,122,plasmodium_falciparum_3D7
0.0078125,0.025,80.978836,1.0,PanobinostatLBH589,Atovaquone,122,plasmodium_falciparum_3D7
0.0078125,0.0125,30.75003,1.0,PanobinostatLBH589,Atovaquone,122,plasmodium_falciparum_3D7
0.0078125,0.00625,47.686283,1.0,PanobinostatLBH589,Atovaquone,122,plasmodium_falciparum_3D7
0.0078125,0.003125,99.552185,1.0,PanobinostatLBH589,Atovaquone,122,plasmodium_falciparum_3D7
0.00390625,0.0125,53.209346999999994,1.0,PanobinostatLBH589,Atovaquone,122,plasmodium_falciparum_3D7
0.00390625,0.00625,82.11183,1.0,PanobinostatLBH589,Atovaquone,122,plasmodium_falciparum_3D7
0.00390625,0.003125,113.43203000000001,1.0,PanobinostatLBH589,Atovaquone,122,plasmodium_falciparum_3D7
0.00390625,0.0015625,112.42383600000001,1.0,PanobinostatLBH589,Atovaquone,122,plasmodium_falciparum_3D7
0.001953125,0.025,19.121498000000003,1.0,PanobinostatLBH589,Atovaquone,122,plasmodium_falciparum_3D7
0.001953125,0.0125,33.821117,1.0,PanobinostatLBH589,Atovaquone,122,plasmodium_falciparum_3D7
0.001953125,0.00625,50.033035,1.0,PanobinostatLBH589,Atovaquone,122,plasmodium_falciparum_3D7
0.001953125,0.003125,72.93038,1.0,PanobinostatLBH589,Atovaquone,122,plasmodium_falciparum_3D7
0.001953125,0.0015625,69.66108,1.0,PanobinostatLBH589,Atovaquone,122,plasmodium_falciparum_3D7
0.001953125,0.00078125,100.07831,1.0,PanobinostatLBH589,Atovaquone,122,plasmodium_falciparum_3D7
0.0,0.0125,56.040623,1.0,PanobinostatLBH589,Atovaquone,122,plasmodium_falciparum_3D7
