drug1.conc,drug2.conc,effect,effect.95ci,drug1,drug2,expt,sample
0.5,0.025,0.241471,1.0,PanobinostatLBH589,Artenimol,120,plasmodium_falciparum_Dd2
0.5,0.0125,1.181124,1.0,PanobinostatLBH589,Artenimol,120,plasmodium_falciparum_Dd2
0.5,0.00625,0.695006,1.0,PanobinostatLBH589,Artenimol,120,plasmodium_falciparum_Dd2
0.5,0.003125,0.493987,1.0,PanobinostatLBH589,Artenimol,120,plasmodium_falciparum_Dd2
0.5,0.0015625,4.02949,1.0,PanobinostatLBH589,Artenimol,120,plasmodium_falciparum_Dd2
0.5,0.00078125,5.205989,1.0,PanobinostatLBH589,Artenimol,120,plasmodium_falciparum_Dd2
0.5,0.000390625,1.372962,1.0,PanobinostatLBH589,Artenimol,120,plasmodium_falciparum_Dd2
0.5,0.000195375,1.513164,1.0,PanobinostatLBH589,Artenimol,120,plasmodium_falciparum_Dd2
0.5,9.7625e-05,2.804807,1.0,PanobinostatLBH589,Artenimol,120,plasmodium_falciparum_Dd2
0.5,0.0,-0.062818,1.0,PanobinostatLBH589,Artenimol,120,plasmodium_falciparum_Dd2
0.25,0.025,8.336969,1.0,PanobinostatLBH589,Artenimol,120,plasmodium_falciparum_Dd2
0.25,0.0125,3.015629,1.0,PanobinostatLBH589,Artenimol,120,plasmodium_falciparum_Dd2
0.25,0.00625,8.110339,1.0,PanobinostatLBH589,Artenimol,120,plasmodium_falciparum_Dd2
0.25,0.003125,5.046734,1.0,PanobinostatLBH589,Artenimol,120,plasmodium_falciparum_Dd2
0.25,0.0015625,8.70456,1.0,PanobinostatLBH589,Artenimol,120,plasmodium_falciparum_Dd2
0.25,0.00078125,5.600226,1.0,PanobinostatLBH589,Artenimol,120,plasmodium_falciparum_Dd2
0.25,0.000390625,7.072178999999999,1.0,PanobinostatLBH589,Artenimol,120,plasmodium_falciparum_Dd2
0.25,0.000195375,7.8772899999999995,1.0,PanobinostatLBH589,Artenimol,120,plasmodium_falciparum_Dd2
0.25,9.7625e-05,8.003686,1.0,PanobinostatLBH589,Artenimol,120,plasmodium_falciparum_Dd2
0.25,0.0,9.244384,1.0,PanobinostatLBH589,Artenimol,120,plasmodium_falciparum_Dd2
0.125,0.025,0.418605,1.0,PanobinostatLBH589,Artenimol,120,plasmodium_falciparum_Dd2
0.125,0.00625,1.3104200000000001,1.0,PanobinostatLBH589,Artenimol,120,plasmodium_falciparum_Dd2
0.125,0.003125,4.376233999999999,1.0,PanobinostatLBH589,Artenimol,120,plasmodium_falciparum_Dd2
0.125,0.0015625,16.80917,1.0,PanobinostatLBH589,Artenimol,120,plasmodium_falciparum_Dd2
0.125,0.00078125,13.029228,1.0,PanobinostatLBH589,Artenimol,120,plasmodium_falciparum_Dd2
0.125,0.000390625,15.326656,1.0,PanobinostatLBH589,Artenimol,120,plasmodium_falciparum_Dd2
0.125,0.000195375,11.760019999999999,1.0,PanobinostatLBH589,Artenimol,120,plasmodium_falciparum_Dd2
0.125,9.7625e-05,12.935276,1.0,PanobinostatLBH589,Artenimol,120,plasmodium_falciparum_Dd2
0.125,0.0,12.461722,1.0,PanobinostatLBH589,Artenimol,120,plasmodium_falciparum_Dd2
0.0625,0.025,7.3955210000000005,1.0,PanobinostatLBH589,Artenimol,120,plasmodium_falciparum_Dd2
0.0625,0.0125,5.502478,1.0,PanobinostatLBH589,Artenimol,120,plasmodium_falciparum_Dd2
0.0625,0.003125,19.166930999999998,1.0,PanobinostatLBH589,Artenimol,120,plasmodium_falciparum_Dd2
0.0625,0.0015625,51.781834,1.0,PanobinostatLBH589,Artenimol,120,plasmodium_falciparum_Dd2
0.0625,0.00078125,67.24965999999999,1.0,PanobinostatLBH589,Artenimol,120,plasmodium_falciparum_Dd2
0.0625,0.000390625,89.74859000000001,1.0,PanobinostatLBH589,Artenimol,120,plasmodium_falciparum_Dd2
0.0625,0.000195375,60.552733999999994,1.0,PanobinostatLBH589,Artenimol,120,plasmodium_falciparum_Dd2
0.0625,9.7625e-05,89.049644,1.0,PanobinostatLBH589,Artenimol,120,plasmodium_falciparum_Dd2
0.0625,0.0,45.545345000000005,1.0,PanobinostatLBH589,Artenimol,120,plasmodium_falciparum_Dd2
0.03125,0.025,3.142715,1.0,PanobinostatLBH589,Artenimol,120,plasmodium_falciparum_Dd2
0.03125,0.0125,1.132388,1.0,PanobinostatLBH589,Artenimol,120,plasmodium_falciparum_Dd2
0.03125,0.00625,8.935539,1.0,PanobinostatLBH589,Artenimol,120,plasmodium_falciparum_Dd2
0.03125,0.003125,15.453121,1.0,PanobinostatLBH589,Artenimol,120,plasmodium_falciparum_Dd2
0.03125,0.0015625,76.26071999999999,1.0,PanobinostatLBH589,Artenimol,120,plasmodium_falciparum_Dd2
0.03125,0.00078125,94.79656,1.0,PanobinostatLBH589,Artenimol,120,plasmodium_falciparum_Dd2
0.03125,0.000195375,106.51924,1.0,PanobinostatLBH589,Artenimol,120,plasmodium_falciparum_Dd2
0.03125,9.7625e-05,109.6594,1.0,PanobinostatLBH589,Artenimol,120,plasmodium_falciparum_Dd2
0.03125,0.0,109.211044,1.0,PanobinostatLBH589,Artenimol,120,plasmodium_falciparum_Dd2
0.015625,0.025,3.515139,1.0,PanobinostatLBH589,Artenimol,120,plasmodium_falciparum_Dd2
0.015625,0.0125,4.8197589999999995,1.0,PanobinostatLBH589,Artenimol,120,plasmodium_falciparum_Dd2
0.015625,0.00625,2.483191,1.0,PanobinostatLBH589,Artenimol,120,plasmodium_falciparum_Dd2
0.015625,0.003125,19.366777,1.0,PanobinostatLBH589,Artenimol,120,plasmodium_falciparum_Dd2
0.015625,0.0015625,86.510124,1.0,PanobinostatLBH589,Artenimol,120,plasmodium_falciparum_Dd2
0.015625,0.00078125,97.9292,1.0,PanobinostatLBH589,Artenimol,120,plasmodium_falciparum_Dd2
0.015625,0.000390625,109.11447,1.0,PanobinostatLBH589,Artenimol,120,plasmodium_falciparum_Dd2
0.015625,0.000195375,111.09283400000001,1.0,PanobinostatLBH589,Artenimol,120,plasmodium_falciparum_Dd2
0.015625,9.7625e-05,108.66334499999999,1.0,PanobinostatLBH589,Artenimol,120,plasmodium_falciparum_Dd2
0.015625,0.0,101.87171,1.0,PanobinostatLBH589,Artenimol,120,plasmodium_falciparum_Dd2
0.0078125,0.025,2.1711009999999997,1.0,PanobinostatLBH589,Artenimol,120,plasmodium_falciparum_Dd2
0.0078125,0.0125,4.281523,1.0,PanobinostatLBH589,Artenimol,120,plasmodium_falciparum_Dd2
0.0078125,0.00625,6.682705,1.0,PanobinostatLBH589,Artenimol,120,plasmodium_falciparum_Dd2
0.0078125,0.003125,45.033894000000004,1.0,PanobinostatLBH589,Artenimol,120,plasmodium_falciparum_Dd2
0.0078125,0.0015625,101.35046,1.0,PanobinostatLBH589,Artenimol,120,plasmodium_falciparum_Dd2
0.0078125,0.0,113.337524,1.0,PanobinostatLBH589,Artenimol,120,plasmodium_falciparum_Dd2
0.00390625,0.025,2.851334,1.0,PanobinostatLBH589,Artenimol,120,plasmodium_falciparum_Dd2
0.00390625,0.0125,8.098673,1.0,PanobinostatLBH589,Artenimol,120,plasmodium_falciparum_Dd2
0.00390625,0.00625,6.494664,1.0,PanobinostatLBH589,Artenimol,120,plasmodium_falciparum_Dd2
0.00390625,0.003125,41.22468,1.0,PanobinostatLBH589,Artenimol,120,plasmodium_falciparum_Dd2
0.00390625,0.0015625,98.10585,1.0,PanobinostatLBH589,Artenimol,120,plasmodium_falciparum_Dd2
0.00390625,0.00078125,113.45508000000001,1.0,PanobinostatLBH589,Artenimol,120,plasmodium_falciparum_Dd2
0.00390625,0.000195375,119.60942,1.0,PanobinostatLBH589,Artenimol,120,plasmodium_falciparum_Dd2
0.00390625,0.0,115.74913000000001,1.0,PanobinostatLBH589,Artenimol,120,plasmodium_falciparum_Dd2
0.001953125,0.025,5.159393,1.0,PanobinostatLBH589,Artenimol,120,plasmodium_falciparum_Dd2
0.001953125,0.0125,2.274164,1.0,PanobinostatLBH589,Artenimol,120,plasmodium_falciparum_Dd2
0.001953125,0.00625,8.245641,1.0,PanobinostatLBH589,Artenimol,120,plasmodium_falciparum_Dd2
0.001953125,0.003125,56.84693000000001,1.0,PanobinostatLBH589,Artenimol,120,plasmodium_falciparum_Dd2
0.001953125,0.0,103.564705,1.0,PanobinostatLBH589,Artenimol,120,plasmodium_falciparum_Dd2
0.0,0.025,9.296641000000001,1.0,PanobinostatLBH589,Artenimol,120,plasmodium_falciparum_Dd2
0.0,0.0125,6.703828,1.0,PanobinostatLBH589,Artenimol,120,plasmodium_falciparum_Dd2
0.0,0.00625,9.161961,1.0,PanobinostatLBH589,Artenimol,120,plasmodium_falciparum_Dd2
0.0,0.003125,21.875372,1.0,PanobinostatLBH589,Artenimol,120,plasmodium_falciparum_Dd2
0.0,0.0015625,105.33121499999999,1.0,PanobinostatLBH589,Artenimol,120,plasmodium_falciparum_Dd2
