drug1.conc,drug2.conc,effect,effect.95ci,drug1,drug2,expt,sample
2.5,0.75,1.205114,1.0,PKC412,Tafenoquine,103,plasmodium_falciparum_HB3
2.5,0.375,1.335053,1.0,PKC412,Tafenoquine,103,plasmodium_falciparum_HB3
2.5,0.1875,-0.184003,1.0,PKC412,Tafenoquine,103,plasmodium_falciparum_HB3
2.5,0.09375,-0.171827,1.0,PKC412,Tafenoquine,103,plasmodium_falciparum_HB3
2.5,0.046875,-0.14769000000000002,1.0,PKC412,Tafenoquine,103,plasmodium_falciparum_HB3
2.5,0.0234375,-0.112621,1.0,PKC412,Tafenoquine,103,plasmodium_falciparum_HB3
2.5,0.01171875,2.523607,1.0,PKC412,Tafenoquine,103,plasmodium_falciparum_HB3
2.5,0.005859375,2.72114,1.0,PKC412,Tafenoquine,103,plasmodium_falciparum_HB3
2.5,0.00292975,-0.267941,1.0,PKC412,Tafenoquine,103,plasmodium_falciparum_HB3
2.5,0.0,-0.225025,1.0,PKC412,Tafenoquine,103,plasmodium_falciparum_HB3
1.25,0.75,6.572277000000001,1.0,PKC412,Tafenoquine,103,plasmodium_falciparum_HB3
1.25,0.375,2.676329,1.0,PKC412,Tafenoquine,103,plasmodium_falciparum_HB3
1.25,0.1875,6.550358,1.0,PKC412,Tafenoquine,103,plasmodium_falciparum_HB3
1.25,0.09375,4.519232,1.0,PKC412,Tafenoquine,103,plasmodium_falciparum_HB3
1.25,0.046875,4.670385,1.0,PKC412,Tafenoquine,103,plasmodium_falciparum_HB3
1.25,0.0234375,19.774735999999997,1.0,PKC412,Tafenoquine,103,plasmodium_falciparum_HB3
1.25,0.01171875,11.445228,1.0,PKC412,Tafenoquine,103,plasmodium_falciparum_HB3
1.25,0.005859375,4.386912000000001,1.0,PKC412,Tafenoquine,103,plasmodium_falciparum_HB3
1.25,0.00292975,3.860175,1.0,PKC412,Tafenoquine,103,plasmodium_falciparum_HB3
1.25,0.0,3.53595,1.0,PKC412,Tafenoquine,103,plasmodium_falciparum_HB3
0.625,0.75,8.856029,1.0,PKC412,Tafenoquine,103,plasmodium_falciparum_HB3
0.625,0.375,14.381001999999999,1.0,PKC412,Tafenoquine,103,plasmodium_falciparum_HB3
0.625,0.1875,19.777820000000002,1.0,PKC412,Tafenoquine,103,plasmodium_falciparum_HB3
0.625,0.09375,17.094997,1.0,PKC412,Tafenoquine,103,plasmodium_falciparum_HB3
0.625,0.046875,8.937045,1.0,PKC412,Tafenoquine,103,plasmodium_falciparum_HB3
0.625,0.0234375,14.881275,1.0,PKC412,Tafenoquine,103,plasmodium_falciparum_HB3
0.625,0.01171875,9.9883,1.0,PKC412,Tafenoquine,103,plasmodium_falciparum_HB3
0.625,0.005859375,23.376549,1.0,PKC412,Tafenoquine,103,plasmodium_falciparum_HB3
0.625,0.00292975,16.404823,1.0,PKC412,Tafenoquine,103,plasmodium_falciparum_HB3
0.625,0.0,16.02334,1.0,PKC412,Tafenoquine,103,plasmodium_falciparum_HB3
0.3125,0.75,23.472178,1.0,PKC412,Tafenoquine,103,plasmodium_falciparum_HB3
0.3125,0.375,27.849021999999998,1.0,PKC412,Tafenoquine,103,plasmodium_falciparum_HB3
0.3125,0.1875,40.308647,1.0,PKC412,Tafenoquine,103,plasmodium_falciparum_HB3
0.3125,0.09375,51.093845,1.0,PKC412,Tafenoquine,103,plasmodium_falciparum_HB3
0.3125,0.046875,58.31295,1.0,PKC412,Tafenoquine,103,plasmodium_falciparum_HB3
0.3125,0.0234375,65.0485,1.0,PKC412,Tafenoquine,103,plasmodium_falciparum_HB3
0.3125,0.01171875,55.509007,1.0,PKC412,Tafenoquine,103,plasmodium_falciparum_HB3
0.3125,0.005859375,59.25115,1.0,PKC412,Tafenoquine,103,plasmodium_falciparum_HB3
0.3125,0.00292975,50.626315999999996,1.0,PKC412,Tafenoquine,103,plasmodium_falciparum_HB3
0.3125,0.0,57.549225,1.0,PKC412,Tafenoquine,103,plasmodium_falciparum_HB3
0.15625,0.75,28.671139,1.0,PKC412,Tafenoquine,103,plasmodium_falciparum_HB3
0.15625,0.375,35.284924,1.0,PKC412,Tafenoquine,103,plasmodium_falciparum_HB3
0.15625,0.1875,50.108509999999995,1.0,PKC412,Tafenoquine,103,plasmodium_falciparum_HB3
0.15625,0.09375,57.3091,1.0,PKC412,Tafenoquine,103,plasmodium_falciparum_HB3
0.15625,0.046875,82.67933000000001,1.0,PKC412,Tafenoquine,103,plasmodium_falciparum_HB3
0.15625,0.0234375,82.59685,1.0,PKC412,Tafenoquine,103,plasmodium_falciparum_HB3
0.15625,0.01171875,84.18718,1.0,PKC412,Tafenoquine,103,plasmodium_falciparum_HB3
0.15625,0.005859375,69.58402,1.0,PKC412,Tafenoquine,103,plasmodium_falciparum_HB3
0.15625,0.00292975,86.46682,1.0,PKC412,Tafenoquine,103,plasmodium_falciparum_HB3
0.15625,0.0,72.83677,1.0,PKC412,Tafenoquine,103,plasmodium_falciparum_HB3
0.078125,0.75,28.066038,1.0,PKC412,Tafenoquine,103,plasmodium_falciparum_HB3
0.078125,0.375,39.76638,1.0,PKC412,Tafenoquine,103,plasmodium_falciparum_HB3
0.078125,0.1875,55.685703000000004,1.0,PKC412,Tafenoquine,103,plasmodium_falciparum_HB3
0.078125,0.09375,70.82994000000001,1.0,PKC412,Tafenoquine,103,plasmodium_falciparum_HB3
0.078125,0.046875,96.49262,1.0,PKC412,Tafenoquine,103,plasmodium_falciparum_HB3
0.078125,0.0234375,97.75159000000001,1.0,PKC412,Tafenoquine,103,plasmodium_falciparum_HB3
0.078125,0.01171875,101.54644,1.0,PKC412,Tafenoquine,103,plasmodium_falciparum_HB3
0.078125,0.005859375,98.240654,1.0,PKC412,Tafenoquine,103,plasmodium_falciparum_HB3
0.078125,0.00292975,93.98904399999999,1.0,PKC412,Tafenoquine,103,plasmodium_falciparum_HB3
0.078125,0.0,74.41779,1.0,PKC412,Tafenoquine,103,plasmodium_falciparum_HB3
0.0390625,0.75,27.762756,1.0,PKC412,Tafenoquine,103,plasmodium_falciparum_HB3
0.0390625,0.375,43.33502,1.0,PKC412,Tafenoquine,103,plasmodium_falciparum_HB3
0.0390625,0.1875,60.05941,1.0,PKC412,Tafenoquine,103,plasmodium_falciparum_HB3
0.0390625,0.09375,80.84751999999999,1.0,PKC412,Tafenoquine,103,plasmodium_falciparum_HB3
0.0390625,0.046875,101.59541999999999,1.0,PKC412,Tafenoquine,103,plasmodium_falciparum_HB3
0.0390625,0.0234375,107.85868,1.0,PKC412,Tafenoquine,103,plasmodium_falciparum_HB3
0.0390625,0.01171875,102.50975,1.0,PKC412,Tafenoquine,103,plasmodium_falciparum_HB3
0.0390625,0.005859375,97.61277,1.0,PKC412,Tafenoquine,103,plasmodium_falciparum_HB3
0.0390625,0.00292975,104.430534,1.0,PKC412,Tafenoquine,103,plasmodium_falciparum_HB3
0.0390625,0.0,65.84209399999999,1.0,PKC412,Tafenoquine,103,plasmodium_falciparum_HB3
0.01953125,0.75,29.407206,1.0,PKC412,Tafenoquine,103,plasmodium_falciparum_HB3
0.01953125,0.375,42.452236,1.0,PKC412,Tafenoquine,103,plasmodium_falciparum_HB3
0.01953125,0.1875,58.930496,1.0,PKC412,Tafenoquine,103,plasmodium_falciparum_HB3
0.01953125,0.09375,81.503815,1.0,PKC412,Tafenoquine,103,plasmodium_falciparum_HB3
0.01953125,0.046875,101.60191,1.0,PKC412,Tafenoquine,103,plasmodium_falciparum_HB3
0.01953125,0.0234375,107.4543,1.0,PKC412,Tafenoquine,103,plasmodium_falciparum_HB3
0.01953125,0.01171875,108.44976000000001,1.0,PKC412,Tafenoquine,103,plasmodium_falciparum_HB3
0.01953125,0.005859375,108.05578,1.0,PKC412,Tafenoquine,103,plasmodium_falciparum_HB3
0.01953125,0.00292975,111.14648999999999,1.0,PKC412,Tafenoquine,103,plasmodium_falciparum_HB3
0.01953125,0.0,97.72355999999999,1.0,PKC412,Tafenoquine,103,plasmodium_falciparum_HB3
0.009765625,0.75,29.600355,1.0,PKC412,Tafenoquine,103,plasmodium_falciparum_HB3
0.009765625,0.375,41.70859,1.0,PKC412,Tafenoquine,103,plasmodium_falciparum_HB3
0.009765625,0.1875,59.127598,1.0,PKC412,Tafenoquine,103,plasmodium_falciparum_HB3
0.009765625,0.09375,78.33116,1.0,PKC412,Tafenoquine,103,plasmodium_falciparum_HB3
0.009765625,0.046875,97.890236,1.0,PKC412,Tafenoquine,103,plasmodium_falciparum_HB3
0.009765625,0.0234375,104.39871,1.0,PKC412,Tafenoquine,103,plasmodium_falciparum_HB3
0.009765625,0.01171875,108.89185,1.0,PKC412,Tafenoquine,103,plasmodium_falciparum_HB3
0.009765625,0.005859375,109.152115,1.0,PKC412,Tafenoquine,103,plasmodium_falciparum_HB3
0.009765625,0.00292975,110.484245,1.0,PKC412,Tafenoquine,103,plasmodium_falciparum_HB3
0.009765625,0.0,96.69963,1.0,PKC412,Tafenoquine,103,plasmodium_falciparum_HB3
0.0,0.75,31.114487,1.0,PKC412,Tafenoquine,103,plasmodium_falciparum_HB3
0.0,0.375,45.906628000000005,1.0,PKC412,Tafenoquine,103,plasmodium_falciparum_HB3
0.0,0.1875,56.863163,1.0,PKC412,Tafenoquine,103,plasmodium_falciparum_HB3
0.0,0.09375,74.82011,1.0,PKC412,Tafenoquine,103,plasmodium_falciparum_HB3
0.0,0.046875,104.20734399999999,1.0,PKC412,Tafenoquine,103,plasmodium_falciparum_HB3
0.0,0.0234375,112.20818999999999,1.0,PKC412,Tafenoquine,103,plasmodium_falciparum_HB3
0.0,0.01171875,112.40463999999999,1.0,PKC412,Tafenoquine,103,plasmodium_falciparum_HB3
0.0,0.005859375,112.61944,1.0,PKC412,Tafenoquine,103,plasmodium_falciparum_HB3
0.0,0.00292975,107.78638000000001,1.0,PKC412,Tafenoquine,103,plasmodium_falciparum_HB3
0.0,0.0,95.783615,1.0,PKC412,Tafenoquine,103,plasmodium_falciparum_HB3
