drug1.conc,drug2.conc,effect,effect.95ci,drug1,drug2,expt,sample
2.5,0.25,-0.999517,1.0,PKC412,Mefloquine,102,plasmodium_falciparum_HB3
2.5,0.125,-0.9350620000000001,1.0,PKC412,Mefloquine,102,plasmodium_falciparum_HB3
2.5,0.0625,-0.73347,1.0,PKC412,Mefloquine,102,plasmodium_falciparum_HB3
2.5,0.03125,-0.150666,1.0,PKC412,Mefloquine,102,plasmodium_falciparum_HB3
2.5,0.015625,0.209439,1.0,PKC412,Mefloquine,102,plasmodium_falciparum_HB3
2.5,0.0078125,0.84739,1.0,PKC412,Mefloquine,102,plasmodium_falciparum_HB3
2.5,0.00390625,2.314925,1.0,PKC412,Mefloquine,102,plasmodium_falciparum_HB3
2.5,0.001953125,1.990646,1.0,PKC412,Mefloquine,102,plasmodium_falciparum_HB3
2.5,0.000976625,1.9948669999999997,1.0,PKC412,Mefloquine,102,plasmodium_falciparum_HB3
2.5,0.0,2.290409,1.0,PKC412,Mefloquine,102,plasmodium_falciparum_HB3
1.25,0.25,-0.590921,1.0,PKC412,Mefloquine,102,plasmodium_falciparum_HB3
1.25,0.125,-0.338674,1.0,PKC412,Mefloquine,102,plasmodium_falciparum_HB3
1.25,0.0625,0.016614,1.0,PKC412,Mefloquine,102,plasmodium_falciparum_HB3
1.25,0.03125,1.30112,1.0,PKC412,Mefloquine,102,plasmodium_falciparum_HB3
1.25,0.015625,2.722114,1.0,PKC412,Mefloquine,102,plasmodium_falciparum_HB3
1.25,0.0078125,5.967663,1.0,PKC412,Mefloquine,102,plasmodium_falciparum_HB3
1.25,0.00390625,5.853905999999999,1.0,PKC412,Mefloquine,102,plasmodium_falciparum_HB3
1.25,0.001953125,8.32886,1.0,PKC412,Mefloquine,102,plasmodium_falciparum_HB3
1.25,0.000976625,8.041273,1.0,PKC412,Mefloquine,102,plasmodium_falciparum_HB3
1.25,0.0,8.695350999999999,1.0,PKC412,Mefloquine,102,plasmodium_falciparum_HB3
0.625,0.25,-0.150396,1.0,PKC412,Mefloquine,102,plasmodium_falciparum_HB3
0.625,0.125,-0.48214300000000004,1.0,PKC412,Mefloquine,102,plasmodium_falciparum_HB3
0.625,0.0625,0.58946,1.0,PKC412,Mefloquine,102,plasmodium_falciparum_HB3
0.625,0.03125,5.145276,1.0,PKC412,Mefloquine,102,plasmodium_falciparum_HB3
0.625,0.015625,7.874425,1.0,PKC412,Mefloquine,102,plasmodium_falciparum_HB3
0.625,0.0078125,17.727860999999997,1.0,PKC412,Mefloquine,102,plasmodium_falciparum_HB3
0.625,0.00390625,20.766949,1.0,PKC412,Mefloquine,102,plasmodium_falciparum_HB3
0.625,0.001953125,19.420963,1.0,PKC412,Mefloquine,102,plasmodium_falciparum_HB3
0.625,0.000976625,27.941565,1.0,PKC412,Mefloquine,102,plasmodium_falciparum_HB3
0.625,0.0,28.685803999999997,1.0,PKC412,Mefloquine,102,plasmodium_falciparum_HB3
0.3125,0.25,0.40313000000000004,1.0,PKC412,Mefloquine,102,plasmodium_falciparum_HB3
0.3125,0.125,0.8207629999999999,1.0,PKC412,Mefloquine,102,plasmodium_falciparum_HB3
0.3125,0.0625,3.649599,1.0,PKC412,Mefloquine,102,plasmodium_falciparum_HB3
0.3125,0.03125,8.779776,1.0,PKC412,Mefloquine,102,plasmodium_falciparum_HB3
0.3125,0.015625,22.398138,1.0,PKC412,Mefloquine,102,plasmodium_falciparum_HB3
0.3125,0.0078125,34.709697999999996,1.0,PKC412,Mefloquine,102,plasmodium_falciparum_HB3
0.3125,0.00390625,55.41457,1.0,PKC412,Mefloquine,102,plasmodium_falciparum_HB3
0.3125,0.001953125,56.456030000000005,1.0,PKC412,Mefloquine,102,plasmodium_falciparum_HB3
0.3125,0.000976625,67.01864,1.0,PKC412,Mefloquine,102,plasmodium_falciparum_HB3
0.3125,0.0,55.69469,1.0,PKC412,Mefloquine,102,plasmodium_falciparum_HB3
0.15625,0.25,0.025382,1.0,PKC412,Mefloquine,102,plasmodium_falciparum_HB3
0.15625,0.125,0.766482,1.0,PKC412,Mefloquine,102,plasmodium_falciparum_HB3
0.15625,0.0625,4.9108339999999995,1.0,PKC412,Mefloquine,102,plasmodium_falciparum_HB3
0.15625,0.03125,18.115460000000002,1.0,PKC412,Mefloquine,102,plasmodium_falciparum_HB3
0.15625,0.015625,35.92953,1.0,PKC412,Mefloquine,102,plasmodium_falciparum_HB3
0.15625,0.0078125,56.645171999999995,1.0,PKC412,Mefloquine,102,plasmodium_falciparum_HB3
0.15625,0.00390625,74.11884,1.0,PKC412,Mefloquine,102,plasmodium_falciparum_HB3
0.15625,0.001953125,81.2881,1.0,PKC412,Mefloquine,102,plasmodium_falciparum_HB3
0.15625,0.000976625,83.69416,1.0,PKC412,Mefloquine,102,plasmodium_falciparum_HB3
0.15625,0.0,85.05503,1.0,PKC412,Mefloquine,102,plasmodium_falciparum_HB3
0.078125,0.25,0.147257,1.0,PKC412,Mefloquine,102,plasmodium_falciparum_HB3
0.078125,0.125,2.519764,1.0,PKC412,Mefloquine,102,plasmodium_falciparum_HB3
0.078125,0.0625,7.389739,1.0,PKC412,Mefloquine,102,plasmodium_falciparum_HB3
0.078125,0.03125,23.555195,1.0,PKC412,Mefloquine,102,plasmodium_falciparum_HB3
0.078125,0.015625,56.73328000000001,1.0,PKC412,Mefloquine,102,plasmodium_falciparum_HB3
0.078125,0.0078125,79.01144000000001,1.0,PKC412,Mefloquine,102,plasmodium_falciparum_HB3
0.078125,0.00390625,93.987686,1.0,PKC412,Mefloquine,102,plasmodium_falciparum_HB3
0.078125,0.001953125,92.75303000000001,1.0,PKC412,Mefloquine,102,plasmodium_falciparum_HB3
0.078125,0.000976625,100.38089000000001,1.0,PKC412,Mefloquine,102,plasmodium_falciparum_HB3
0.078125,0.0,106.59062,1.0,PKC412,Mefloquine,102,plasmodium_falciparum_HB3
0.0390625,0.25,0.614625,1.0,PKC412,Mefloquine,102,plasmodium_falciparum_HB3
0.0390625,0.125,1.966834,1.0,PKC412,Mefloquine,102,plasmodium_falciparum_HB3
0.0390625,0.0625,7.507175999999999,1.0,PKC412,Mefloquine,102,plasmodium_falciparum_HB3
0.0390625,0.03125,29.671034000000002,1.0,PKC412,Mefloquine,102,plasmodium_falciparum_HB3
0.0390625,0.015625,60.63312,1.0,PKC412,Mefloquine,102,plasmodium_falciparum_HB3
0.0390625,0.0078125,84.795204,1.0,PKC412,Mefloquine,102,plasmodium_falciparum_HB3
0.0390625,0.00390625,92.847466,1.0,PKC412,Mefloquine,102,plasmodium_falciparum_HB3
0.0390625,0.001953125,95.0055,1.0,PKC412,Mefloquine,102,plasmodium_falciparum_HB3
0.0390625,0.000976625,102.26486,1.0,PKC412,Mefloquine,102,plasmodium_falciparum_HB3
0.0390625,0.0,69.918205,1.0,PKC412,Mefloquine,102,plasmodium_falciparum_HB3
0.01953125,0.25,0.977924,1.0,PKC412,Mefloquine,102,plasmodium_falciparum_HB3
0.01953125,0.125,2.545092,1.0,PKC412,Mefloquine,102,plasmodium_falciparum_HB3
0.01953125,0.0625,5.960086,1.0,PKC412,Mefloquine,102,plasmodium_falciparum_HB3
0.01953125,0.03125,35.907127,1.0,PKC412,Mefloquine,102,plasmodium_falciparum_HB3
0.01953125,0.015625,65.809845,1.0,PKC412,Mefloquine,102,plasmodium_falciparum_HB3
0.01953125,0.0078125,92.23267,1.0,PKC412,Mefloquine,102,plasmodium_falciparum_HB3
0.01953125,0.00390625,94.060585,1.0,PKC412,Mefloquine,102,plasmodium_falciparum_HB3
0.01953125,0.001953125,101.46607,1.0,PKC412,Mefloquine,102,plasmodium_falciparum_HB3
0.01953125,0.000976625,100.17945999999999,1.0,PKC412,Mefloquine,102,plasmodium_falciparum_HB3
0.01953125,0.0,109.69395,1.0,PKC412,Mefloquine,102,plasmodium_falciparum_HB3
0.009765625,0.25,0.325848,1.0,PKC412,Mefloquine,102,plasmodium_falciparum_HB3
0.009765625,0.125,1.857947,1.0,PKC412,Mefloquine,102,plasmodium_falciparum_HB3
0.009765625,0.0625,7.640416,1.0,PKC412,Mefloquine,102,plasmodium_falciparum_HB3
0.009765625,0.03125,24.555578,1.0,PKC412,Mefloquine,102,plasmodium_falciparum_HB3
0.009765625,0.015625,63.504709999999996,1.0,PKC412,Mefloquine,102,plasmodium_falciparum_HB3
0.009765625,0.0078125,90.495255,1.0,PKC412,Mefloquine,102,plasmodium_falciparum_HB3
0.009765625,0.00390625,100.25960500000001,1.0,PKC412,Mefloquine,102,plasmodium_falciparum_HB3
0.009765625,0.001953125,107.10696999999999,1.0,PKC412,Mefloquine,102,plasmodium_falciparum_HB3
0.009765625,0.000976625,104.84432,1.0,PKC412,Mefloquine,102,plasmodium_falciparum_HB3
0.009765625,0.0,111.66781599999999,1.0,PKC412,Mefloquine,102,plasmodium_falciparum_HB3
0.0,0.25,0.466503,1.0,PKC412,Mefloquine,102,plasmodium_falciparum_HB3
0.0,0.125,2.015487,1.0,PKC412,Mefloquine,102,plasmodium_falciparum_HB3
0.0,0.0625,6.642414,1.0,PKC412,Mefloquine,102,plasmodium_falciparum_HB3
0.0,0.03125,23.570023000000003,1.0,PKC412,Mefloquine,102,plasmodium_falciparum_HB3
0.0,0.015625,60.009567000000004,1.0,PKC412,Mefloquine,102,plasmodium_falciparum_HB3
0.0,0.0078125,85.82361999999999,1.0,PKC412,Mefloquine,102,plasmodium_falciparum_HB3
0.0,0.00390625,100.50276,1.0,PKC412,Mefloquine,102,plasmodium_falciparum_HB3
0.0,0.001953125,104.93806000000001,1.0,PKC412,Mefloquine,102,plasmodium_falciparum_HB3
0.0,0.000976625,106.64577,1.0,PKC412,Mefloquine,102,plasmodium_falciparum_HB3
0.0,0.0,106.49445,1.0,PKC412,Mefloquine,102,plasmodium_falciparum_HB3
