drug1.conc,drug2.conc,effect,effect.95ci,drug1,drug2,expt,sample
0.17500000000000002,0.05,1.9864099999999998,1.0,Proguanil,Artesunate,206,plasmodium_falciparum_Dd2
0.17500000000000002,0.025,4.520587,1.0,Proguanil,Artesunate,206,plasmodium_falciparum_Dd2
0.17500000000000002,0.0125,8.057238,1.0,Proguanil,Artesunate,206,plasmodium_falciparum_Dd2
0.17500000000000002,0.00625,31.421604,1.0,Proguanil,Artesunate,206,plasmodium_falciparum_Dd2
0.17500000000000002,0.003125,37.85538,1.0,Proguanil,Artesunate,206,plasmodium_falciparum_Dd2
0.17500000000000002,0.0015625,45.503525,1.0,Proguanil,Artesunate,206,plasmodium_falciparum_Dd2
0.17500000000000002,0.00078125,38.239326,1.0,Proguanil,Artesunate,206,plasmodium_falciparum_Dd2
0.17500000000000002,0.000390625,35.108006,1.0,Proguanil,Artesunate,206,plasmodium_falciparum_Dd2
0.17500000000000002,0.000195375,39.70435,1.0,Proguanil,Artesunate,206,plasmodium_falciparum_Dd2
0.17500000000000002,0.0,34.16675,1.0,Proguanil,Artesunate,206,plasmodium_falciparum_Dd2
0.08750000000000001,0.05,1.305583,1.0,Proguanil,Artesunate,206,plasmodium_falciparum_Dd2
0.08750000000000001,0.025,2.9707310000000002,1.0,Proguanil,Artesunate,206,plasmodium_falciparum_Dd2
0.08750000000000001,0.0125,5.829708999999999,1.0,Proguanil,Artesunate,206,plasmodium_falciparum_Dd2
0.08750000000000001,0.00625,54.728367000000006,1.0,Proguanil,Artesunate,206,plasmodium_falciparum_Dd2
0.08750000000000001,0.003125,74.49271,1.0,Proguanil,Artesunate,206,plasmodium_falciparum_Dd2
0.08750000000000001,0.0015625,70.2237,1.0,Proguanil,Artesunate,206,plasmodium_falciparum_Dd2
0.08750000000000001,0.00078125,57.240469999999995,1.0,Proguanil,Artesunate,206,plasmodium_falciparum_Dd2
0.08750000000000001,0.000390625,57.888454,1.0,Proguanil,Artesunate,206,plasmodium_falciparum_Dd2
0.08750000000000001,0.000195375,66.17412,1.0,Proguanil,Artesunate,206,plasmodium_falciparum_Dd2
0.08750000000000001,0.0,74.61838,1.0,Proguanil,Artesunate,206,plasmodium_falciparum_Dd2
0.043750000000000004,0.05,0.824575,1.0,Proguanil,Artesunate,206,plasmodium_falciparum_Dd2
0.043750000000000004,0.025,3.627407,1.0,Proguanil,Artesunate,206,plasmodium_falciparum_Dd2
0.043750000000000004,0.0125,6.190119,1.0,Proguanil,Artesunate,206,plasmodium_falciparum_Dd2
0.043750000000000004,0.00625,77.89076,1.0,Proguanil,Artesunate,206,plasmodium_falciparum_Dd2
0.043750000000000004,0.003125,105.0852,1.0,Proguanil,Artesunate,206,plasmodium_falciparum_Dd2
0.043750000000000004,0.0015625,96.15201,1.0,Proguanil,Artesunate,206,plasmodium_falciparum_Dd2
0.043750000000000004,0.00078125,82.58171,1.0,Proguanil,Artesunate,206,plasmodium_falciparum_Dd2
0.043750000000000004,0.000390625,93.08314,1.0,Proguanil,Artesunate,206,plasmodium_falciparum_Dd2
0.043750000000000004,0.000195375,85.70495600000001,1.0,Proguanil,Artesunate,206,plasmodium_falciparum_Dd2
0.043750000000000004,0.0,99.59536999999999,1.0,Proguanil,Artesunate,206,plasmodium_falciparum_Dd2
0.021875000000000002,0.05,1.288047,1.0,Proguanil,Artesunate,206,plasmodium_falciparum_Dd2
0.021875000000000002,0.025,1.814819,1.0,Proguanil,Artesunate,206,plasmodium_falciparum_Dd2
0.021875000000000002,0.0125,7.847499000000001,1.0,Proguanil,Artesunate,206,plasmodium_falciparum_Dd2
0.021875000000000002,0.00625,81.647385,1.0,Proguanil,Artesunate,206,plasmodium_falciparum_Dd2
0.021875000000000002,0.003125,99.23311,1.0,Proguanil,Artesunate,206,plasmodium_falciparum_Dd2
0.021875000000000002,0.0015625,95.62985,1.0,Proguanil,Artesunate,206,plasmodium_falciparum_Dd2
0.021875000000000002,0.00078125,99.77072,1.0,Proguanil,Artesunate,206,plasmodium_falciparum_Dd2
0.021875000000000002,0.000390625,97.42236,1.0,Proguanil,Artesunate,206,plasmodium_falciparum_Dd2
0.021875000000000002,0.000195375,95.78045,1.0,Proguanil,Artesunate,206,plasmodium_falciparum_Dd2
0.021875000000000002,0.0,104.15371999999999,1.0,Proguanil,Artesunate,206,plasmodium_falciparum_Dd2
0.010937500000000001,0.05,1.098536,1.0,Proguanil,Artesunate,206,plasmodium_falciparum_Dd2
0.010937500000000001,0.025,1.89873,1.0,Proguanil,Artesunate,206,plasmodium_falciparum_Dd2
0.010937500000000001,0.0125,5.112734,1.0,Proguanil,Artesunate,206,plasmodium_falciparum_Dd2
0.010937500000000001,0.00625,77.72778000000001,1.0,Proguanil,Artesunate,206,plasmodium_falciparum_Dd2
0.010937500000000001,0.003125,117.33561,1.0,Proguanil,Artesunate,206,plasmodium_falciparum_Dd2
0.010937500000000001,0.00078125,117.327225,1.0,Proguanil,Artesunate,206,plasmodium_falciparum_Dd2
0.010937500000000001,0.000390625,100.6073,1.0,Proguanil,Artesunate,206,plasmodium_falciparum_Dd2
0.010937500000000001,0.000195375,97.385216,1.0,Proguanil,Artesunate,206,plasmodium_falciparum_Dd2
0.010937500000000001,0.0,114.90365,1.0,Proguanil,Artesunate,206,plasmodium_falciparum_Dd2
0.0054687500000000005,0.05,1.200291,1.0,Proguanil,Artesunate,206,plasmodium_falciparum_Dd2
0.0054687500000000005,0.025,2.267677,1.0,Proguanil,Artesunate,206,plasmodium_falciparum_Dd2
0.0054687500000000005,0.0125,6.156816,1.0,Proguanil,Artesunate,206,plasmodium_falciparum_Dd2
0.0054687500000000005,0.00625,90.95198,1.0,Proguanil,Artesunate,206,plasmodium_falciparum_Dd2
0.0054687500000000005,0.003125,106.81042,1.0,Proguanil,Artesunate,206,plasmodium_falciparum_Dd2
0.0054687500000000005,0.0015625,112.29356000000001,1.0,Proguanil,Artesunate,206,plasmodium_falciparum_Dd2
0.0054687500000000005,0.00078125,100.07137,1.0,Proguanil,Artesunate,206,plasmodium_falciparum_Dd2
0.0054687500000000005,0.000390625,108.96873000000001,1.0,Proguanil,Artesunate,206,plasmodium_falciparum_Dd2
0.0054687500000000005,0.000195375,105.68265500000001,1.0,Proguanil,Artesunate,206,plasmodium_falciparum_Dd2
0.0054687500000000005,0.0,101.93626400000001,1.0,Proguanil,Artesunate,206,plasmodium_falciparum_Dd2
0.0027343750000000003,0.05,0.48577700000000007,1.0,Proguanil,Artesunate,206,plasmodium_falciparum_Dd2
0.0027343750000000003,0.025,2.607552,1.0,Proguanil,Artesunate,206,plasmodium_falciparum_Dd2
0.0027343750000000003,0.0125,7.222972,1.0,Proguanil,Artesunate,206,plasmodium_falciparum_Dd2
0.0027343750000000003,0.00625,74.78828,1.0,Proguanil,Artesunate,206,plasmodium_falciparum_Dd2
0.0027343750000000003,0.003125,102.64886,1.0,Proguanil,Artesunate,206,plasmodium_falciparum_Dd2
0.0027343750000000003,0.0015625,114.13768,1.0,Proguanil,Artesunate,206,plasmodium_falciparum_Dd2
0.0027343750000000003,0.00078125,106.2348,1.0,Proguanil,Artesunate,206,plasmodium_falciparum_Dd2
0.0027343750000000003,0.000390625,109.25945,1.0,Proguanil,Artesunate,206,plasmodium_falciparum_Dd2
0.0027343750000000003,0.000195375,112.15773,1.0,Proguanil,Artesunate,206,plasmodium_falciparum_Dd2
0.0027343750000000003,0.0,109.4685,1.0,Proguanil,Artesunate,206,plasmodium_falciparum_Dd2
0.0013672500000000002,0.05,2.042632,1.0,Proguanil,Artesunate,206,plasmodium_falciparum_Dd2
0.0013672500000000002,0.025,2.523949,1.0,Proguanil,Artesunate,206,plasmodium_falciparum_Dd2
0.0013672500000000002,0.0125,6.241343,1.0,Proguanil,Artesunate,206,plasmodium_falciparum_Dd2
0.0013672500000000002,0.00625,102.83844,1.0,Proguanil,Artesunate,206,plasmodium_falciparum_Dd2
0.0013672500000000002,0.003125,102.17591999999999,1.0,Proguanil,Artesunate,206,plasmodium_falciparum_Dd2
0.0013672500000000002,0.0015625,110.64756000000001,1.0,Proguanil,Artesunate,206,plasmodium_falciparum_Dd2
0.0013672500000000002,0.00078125,111.04812,1.0,Proguanil,Artesunate,206,plasmodium_falciparum_Dd2
0.0013672500000000002,0.000390625,114.77813,1.0,Proguanil,Artesunate,206,plasmodium_falciparum_Dd2
0.0013672500000000002,0.0,111.82978,1.0,Proguanil,Artesunate,206,plasmodium_falciparum_Dd2
0.0006836250000000001,0.05,2.107854,1.0,Proguanil,Artesunate,206,plasmodium_falciparum_Dd2
0.0006836250000000001,0.025,3.665632,1.0,Proguanil,Artesunate,206,plasmodium_falciparum_Dd2
0.0006836250000000001,0.0125,9.696082,1.0,Proguanil,Artesunate,206,plasmodium_falciparum_Dd2
0.0006836250000000001,0.00625,87.08861,1.0,Proguanil,Artesunate,206,plasmodium_falciparum_Dd2
0.0006836250000000001,0.003125,106.71027,1.0,Proguanil,Artesunate,206,plasmodium_falciparum_Dd2
0.0006836250000000001,0.0015625,111.3823,1.0,Proguanil,Artesunate,206,plasmodium_falciparum_Dd2
0.0006836250000000001,0.00078125,109.04748500000001,1.0,Proguanil,Artesunate,206,plasmodium_falciparum_Dd2
0.0006836250000000001,0.000390625,109.0874,1.0,Proguanil,Artesunate,206,plasmodium_falciparum_Dd2
0.0006836250000000001,0.000195375,106.44201000000001,1.0,Proguanil,Artesunate,206,plasmodium_falciparum_Dd2
0.0006836250000000001,0.0,104.078186,1.0,Proguanil,Artesunate,206,plasmodium_falciparum_Dd2
0.0,0.025,2.313209,1.0,Proguanil,Artesunate,206,plasmodium_falciparum_Dd2
0.0,0.0125,6.057983999999999,1.0,Proguanil,Artesunate,206,plasmodium_falciparum_Dd2
0.0,0.00625,90.89929000000001,1.0,Proguanil,Artesunate,206,plasmodium_falciparum_Dd2
0.0,0.003125,99.65520500000001,1.0,Proguanil,Artesunate,206,plasmodium_falciparum_Dd2
0.0,0.0015625,113.16873999999999,1.0,Proguanil,Artesunate,206,plasmodium_falciparum_Dd2
0.0,0.00078125,104.89738,1.0,Proguanil,Artesunate,206,plasmodium_falciparum_Dd2
0.0,0.000390625,99.46239,1.0,Proguanil,Artesunate,206,plasmodium_falciparum_Dd2
0.0,0.000195375,117.33423,1.0,Proguanil,Artesunate,206,plasmodium_falciparum_Dd2
0.0,0.0,115.71953,1.0,Proguanil,Artesunate,206,plasmodium_falciparum_Dd2
