drug1.conc,drug2.conc,effect,effect.95ci,drug1,drug2,expt,sample
0.17500000000000002,0.05,0.211121,1.0,Pyronaridine,Artesunate,62,plasmodium_falciparum_HB3
0.17500000000000002,0.025,0.864808,1.0,Pyronaridine,Artesunate,62,plasmodium_falciparum_HB3
0.17500000000000002,0.0125,0.406908,1.0,Pyronaridine,Artesunate,62,plasmodium_falciparum_HB3
0.17500000000000002,0.00625,0.722997,1.0,Pyronaridine,Artesunate,62,plasmodium_falciparum_HB3
0.17500000000000002,0.003125,1.005641,1.0,Pyronaridine,Artesunate,62,plasmodium_falciparum_HB3
0.17500000000000002,0.0015625,1.0915709999999998,1.0,Pyronaridine,Artesunate,62,plasmodium_falciparum_HB3
0.17500000000000002,0.00078125,0.9360729999999999,1.0,Pyronaridine,Artesunate,62,plasmodium_falciparum_HB3
0.17500000000000002,0.000390625,0.7143010000000001,1.0,Pyronaridine,Artesunate,62,plasmodium_falciparum_HB3
0.17500000000000002,0.000195375,1.040836,1.0,Pyronaridine,Artesunate,62,plasmodium_falciparum_HB3
0.17500000000000002,0.0,1.052619,1.0,Pyronaridine,Artesunate,62,plasmodium_falciparum_HB3
0.08750000000000001,0.05,0.293243,1.0,Pyronaridine,Artesunate,62,plasmodium_falciparum_HB3
0.08750000000000001,0.025,0.610928,1.0,Pyronaridine,Artesunate,62,plasmodium_falciparum_HB3
0.08750000000000001,0.0125,0.78464,1.0,Pyronaridine,Artesunate,62,plasmodium_falciparum_HB3
0.08750000000000001,0.00625,1.398347,1.0,Pyronaridine,Artesunate,62,plasmodium_falciparum_HB3
0.08750000000000001,0.003125,1.638591,1.0,Pyronaridine,Artesunate,62,plasmodium_falciparum_HB3
0.08750000000000001,0.0015625,1.496832,1.0,Pyronaridine,Artesunate,62,plasmodium_falciparum_HB3
0.08750000000000001,0.00078125,1.181463,1.0,Pyronaridine,Artesunate,62,plasmodium_falciparum_HB3
0.08750000000000001,0.000390625,1.671625,1.0,Pyronaridine,Artesunate,62,plasmodium_falciparum_HB3
0.08750000000000001,0.000195375,1.797279,1.0,Pyronaridine,Artesunate,62,plasmodium_falciparum_HB3
0.08750000000000001,0.0,1.943412,1.0,Pyronaridine,Artesunate,62,plasmodium_falciparum_HB3
0.043750000000000004,0.05,0.5054960000000001,1.0,Pyronaridine,Artesunate,62,plasmodium_falciparum_HB3
0.043750000000000004,0.025,0.591683,1.0,Pyronaridine,Artesunate,62,plasmodium_falciparum_HB3
0.043750000000000004,0.0125,0.5060100000000001,1.0,Pyronaridine,Artesunate,62,plasmodium_falciparum_HB3
0.043750000000000004,0.00625,0.7534069999999999,1.0,Pyronaridine,Artesunate,62,plasmodium_falciparum_HB3
0.043750000000000004,0.003125,0.8918219999999999,1.0,Pyronaridine,Artesunate,62,plasmodium_falciparum_HB3
0.043750000000000004,0.0015625,1.395259,1.0,Pyronaridine,Artesunate,62,plasmodium_falciparum_HB3
0.043750000000000004,0.00078125,0.8893,1.0,Pyronaridine,Artesunate,62,plasmodium_falciparum_HB3
0.043750000000000004,0.000390625,1.120643,1.0,Pyronaridine,Artesunate,62,plasmodium_falciparum_HB3
0.043750000000000004,0.000195375,1.067387,1.0,Pyronaridine,Artesunate,62,plasmodium_falciparum_HB3
0.043750000000000004,0.0,1.146216,1.0,Pyronaridine,Artesunate,62,plasmodium_falciparum_HB3
0.021875000000000002,0.05,2.108274,1.0,Pyronaridine,Artesunate,62,plasmodium_falciparum_HB3
0.021875000000000002,0.025,2.938247,1.0,Pyronaridine,Artesunate,62,plasmodium_falciparum_HB3
0.021875000000000002,0.0125,20.007482999999997,1.0,Pyronaridine,Artesunate,62,plasmodium_falciparum_HB3
0.021875000000000002,0.00625,70.75142,1.0,Pyronaridine,Artesunate,62,plasmodium_falciparum_HB3
0.021875000000000002,0.003125,73.27802,1.0,Pyronaridine,Artesunate,62,plasmodium_falciparum_HB3
0.021875000000000002,0.0015625,90.52951999999999,1.0,Pyronaridine,Artesunate,62,plasmodium_falciparum_HB3
0.021875000000000002,0.00078125,80.517365,1.0,Pyronaridine,Artesunate,62,plasmodium_falciparum_HB3
0.021875000000000002,0.000390625,91.479485,1.0,Pyronaridine,Artesunate,62,plasmodium_falciparum_HB3
0.021875000000000002,0.000195375,86.49954,1.0,Pyronaridine,Artesunate,62,plasmodium_falciparum_HB3
0.021875000000000002,0.0,88.74258,1.0,Pyronaridine,Artesunate,62,plasmodium_falciparum_HB3
0.010937500000000001,0.05,3.100896,1.0,Pyronaridine,Artesunate,62,plasmodium_falciparum_HB3
0.010937500000000001,0.025,5.805485,1.0,Pyronaridine,Artesunate,62,plasmodium_falciparum_HB3
0.010937500000000001,0.0125,19.944295999999998,1.0,Pyronaridine,Artesunate,62,plasmodium_falciparum_HB3
0.010937500000000001,0.00625,88.78781,1.0,Pyronaridine,Artesunate,62,plasmodium_falciparum_HB3
0.010937500000000001,0.003125,98.120544,1.0,Pyronaridine,Artesunate,62,plasmodium_falciparum_HB3
0.010937500000000001,0.0015625,106.64935,1.0,Pyronaridine,Artesunate,62,plasmodium_falciparum_HB3
0.010937500000000001,0.00078125,105.78171499999999,1.0,Pyronaridine,Artesunate,62,plasmodium_falciparum_HB3
0.010937500000000001,0.000390625,101.75967,1.0,Pyronaridine,Artesunate,62,plasmodium_falciparum_HB3
0.010937500000000001,0.000195375,105.92584,1.0,Pyronaridine,Artesunate,62,plasmodium_falciparum_HB3
0.010937500000000001,0.0,101.729614,1.0,Pyronaridine,Artesunate,62,plasmodium_falciparum_HB3
0.0054687500000000005,0.05,2.932586,1.0,Pyronaridine,Artesunate,62,plasmodium_falciparum_HB3
0.0054687500000000005,0.025,5.34954,1.0,Pyronaridine,Artesunate,62,plasmodium_falciparum_HB3
0.0054687500000000005,0.0125,46.767070000000004,1.0,Pyronaridine,Artesunate,62,plasmodium_falciparum_HB3
0.0054687500000000005,0.00625,85.6706,1.0,Pyronaridine,Artesunate,62,plasmodium_falciparum_HB3
0.0054687500000000005,0.003125,101.00281,1.0,Pyronaridine,Artesunate,62,plasmodium_falciparum_HB3
0.0054687500000000005,0.0015625,107.38803999999999,1.0,Pyronaridine,Artesunate,62,plasmodium_falciparum_HB3
0.0054687500000000005,0.00078125,109.94521,1.0,Pyronaridine,Artesunate,62,plasmodium_falciparum_HB3
0.0054687500000000005,0.000390625,107.49491,1.0,Pyronaridine,Artesunate,62,plasmodium_falciparum_HB3
0.0054687500000000005,0.000195375,110.86733999999998,1.0,Pyronaridine,Artesunate,62,plasmodium_falciparum_HB3
0.0054687500000000005,0.0,106.60531,1.0,Pyronaridine,Artesunate,62,plasmodium_falciparum_HB3
0.0027343750000000003,0.05,2.03176,1.0,Pyronaridine,Artesunate,62,plasmodium_falciparum_HB3
0.0027343750000000003,0.025,6.756943,1.0,Pyronaridine,Artesunate,62,plasmodium_falciparum_HB3
0.0027343750000000003,0.0125,58.18281999999999,1.0,Pyronaridine,Artesunate,62,plasmodium_falciparum_HB3
0.0027343750000000003,0.00625,84.55984000000001,1.0,Pyronaridine,Artesunate,62,plasmodium_falciparum_HB3
0.0027343750000000003,0.003125,99.57647,1.0,Pyronaridine,Artesunate,62,plasmodium_falciparum_HB3
0.0027343750000000003,0.0015625,100.20561,1.0,Pyronaridine,Artesunate,62,plasmodium_falciparum_HB3
0.0027343750000000003,0.00078125,105.65987,1.0,Pyronaridine,Artesunate,62,plasmodium_falciparum_HB3
0.0027343750000000003,0.000390625,106.674255,1.0,Pyronaridine,Artesunate,62,plasmodium_falciparum_HB3
0.0027343750000000003,0.000195375,111.89243,1.0,Pyronaridine,Artesunate,62,plasmodium_falciparum_HB3
0.0027343750000000003,0.0,104.62464,1.0,Pyronaridine,Artesunate,62,plasmodium_falciparum_HB3
0.0013672500000000002,0.05,1.936362,1.0,Pyronaridine,Artesunate,62,plasmodium_falciparum_HB3
0.0013672500000000002,0.025,5.517284,1.0,Pyronaridine,Artesunate,62,plasmodium_falciparum_HB3
0.0013672500000000002,0.0125,37.95228,1.0,Pyronaridine,Artesunate,62,plasmodium_falciparum_HB3
0.0013672500000000002,0.00625,90.15878000000001,1.0,Pyronaridine,Artesunate,62,plasmodium_falciparum_HB3
0.0013672500000000002,0.003125,99.14862,1.0,Pyronaridine,Artesunate,62,plasmodium_falciparum_HB3
0.0013672500000000002,0.0015625,104.42031,1.0,Pyronaridine,Artesunate,62,plasmodium_falciparum_HB3
0.0013672500000000002,0.00078125,104.0735,1.0,Pyronaridine,Artesunate,62,plasmodium_falciparum_HB3
0.0013672500000000002,0.000390625,103.6192,1.0,Pyronaridine,Artesunate,62,plasmodium_falciparum_HB3
0.0013672500000000002,0.000195375,110.90608,1.0,Pyronaridine,Artesunate,62,plasmodium_falciparum_HB3
0.0013672500000000002,0.0,108.8874,1.0,Pyronaridine,Artesunate,62,plasmodium_falciparum_HB3
0.0006836250000000001,0.05,2.342755,1.0,Pyronaridine,Artesunate,62,plasmodium_falciparum_HB3
0.0006836250000000001,0.025,5.55814,1.0,Pyronaridine,Artesunate,62,plasmodium_falciparum_HB3
0.0006836250000000001,0.0125,47.27411,1.0,Pyronaridine,Artesunate,62,plasmodium_falciparum_HB3
0.0006836250000000001,0.00625,89.21514,1.0,Pyronaridine,Artesunate,62,plasmodium_falciparum_HB3
0.0006836250000000001,0.003125,97.697586,1.0,Pyronaridine,Artesunate,62,plasmodium_falciparum_HB3
0.0006836250000000001,0.0015625,101.39809,1.0,Pyronaridine,Artesunate,62,plasmodium_falciparum_HB3
0.0006836250000000001,0.00078125,104.63447,1.0,Pyronaridine,Artesunate,62,plasmodium_falciparum_HB3
0.0006836250000000001,0.000390625,104.04685,1.0,Pyronaridine,Artesunate,62,plasmodium_falciparum_HB3
0.0006836250000000001,0.000195375,104.551674,1.0,Pyronaridine,Artesunate,62,plasmodium_falciparum_HB3
0.0006836250000000001,0.0,103.70286999999999,1.0,Pyronaridine,Artesunate,62,plasmodium_falciparum_HB3
0.0,0.05,2.366888,1.0,Pyronaridine,Artesunate,62,plasmodium_falciparum_HB3
0.0,0.025,5.082333,1.0,Pyronaridine,Artesunate,62,plasmodium_falciparum_HB3
0.0,0.0125,34.28795,1.0,Pyronaridine,Artesunate,62,plasmodium_falciparum_HB3
0.0,0.00625,89.01184,1.0,Pyronaridine,Artesunate,62,plasmodium_falciparum_HB3
0.0,0.003125,102.87711999999999,1.0,Pyronaridine,Artesunate,62,plasmodium_falciparum_HB3
0.0,0.0015625,102.211235,1.0,Pyronaridine,Artesunate,62,plasmodium_falciparum_HB3
0.0,0.00078125,101.22999,1.0,Pyronaridine,Artesunate,62,plasmodium_falciparum_HB3
0.0,0.000390625,106.86809,1.0,Pyronaridine,Artesunate,62,plasmodium_falciparum_HB3
0.0,0.000195375,103.51032,1.0,Pyronaridine,Artesunate,62,plasmodium_falciparum_HB3
0.0,0.0,104.049835,1.0,Pyronaridine,Artesunate,62,plasmodium_falciparum_HB3
