drug1.conc,drug2.conc,effect,effect.95ci,drug1,drug2,expt,sample
0.025,0.375,0.208713,1.0,Quisinostathydrochloride,Tafenoquine,177,plasmodium_falciparum_Dd2
0.025,0.1875,-0.415604,1.0,Quisinostathydrochloride,Tafenoquine,177,plasmodium_falciparum_Dd2
0.025,0.09375,0.692388,1.0,Quisinostathydrochloride,Tafenoquine,177,plasmodium_falciparum_Dd2
0.025,0.046875,0.663092,1.0,Quisinostathydrochloride,Tafenoquine,177,plasmodium_falciparum_Dd2
0.025,0.0234375,0.9879709999999999,1.0,Quisinostathydrochloride,Tafenoquine,177,plasmodium_falciparum_Dd2
0.025,0.011718800000000001,0.829441,1.0,Quisinostathydrochloride,Tafenoquine,177,plasmodium_falciparum_Dd2
0.025,0.005859400000000001,0.14240899999999998,1.0,Quisinostathydrochloride,Tafenoquine,177,plasmodium_falciparum_Dd2
0.025,0.0029297000000000004,0.9623700000000001,1.0,Quisinostathydrochloride,Tafenoquine,177,plasmodium_falciparum_Dd2
0.025,0.0014648000000000003,0.8802129999999999,1.0,Quisinostathydrochloride,Tafenoquine,177,plasmodium_falciparum_Dd2
0.025,0.0,0.566475,1.0,Quisinostathydrochloride,Tafenoquine,177,plasmodium_falciparum_Dd2
0.0125,0.375,0.8628610000000001,1.0,Quisinostathydrochloride,Tafenoquine,177,plasmodium_falciparum_Dd2
0.0125,0.1875,0.611784,1.0,Quisinostathydrochloride,Tafenoquine,177,plasmodium_falciparum_Dd2
0.0125,0.09375,-0.11804,1.0,Quisinostathydrochloride,Tafenoquine,177,plasmodium_falciparum_Dd2
0.0125,0.046875,1.7668540000000001,1.0,Quisinostathydrochloride,Tafenoquine,177,plasmodium_falciparum_Dd2
0.0125,0.0234375,1.9268830000000001,1.0,Quisinostathydrochloride,Tafenoquine,177,plasmodium_falciparum_Dd2
0.0125,0.011718800000000001,1.795882,1.0,Quisinostathydrochloride,Tafenoquine,177,plasmodium_falciparum_Dd2
0.0125,0.005859400000000001,2.3525560000000003,1.0,Quisinostathydrochloride,Tafenoquine,177,plasmodium_falciparum_Dd2
0.0125,0.0029297000000000004,0.404625,1.0,Quisinostathydrochloride,Tafenoquine,177,plasmodium_falciparum_Dd2
0.0125,0.0014648000000000003,2.255403,1.0,Quisinostathydrochloride,Tafenoquine,177,plasmodium_falciparum_Dd2
0.0125,0.0,2.12965,1.0,Quisinostathydrochloride,Tafenoquine,177,plasmodium_falciparum_Dd2
0.00625,0.375,2.549325,1.0,Quisinostathydrochloride,Tafenoquine,177,plasmodium_falciparum_Dd2
0.00625,0.1875,2.78262,1.0,Quisinostathydrochloride,Tafenoquine,177,plasmodium_falciparum_Dd2
0.00625,0.09375,6.212962,1.0,Quisinostathydrochloride,Tafenoquine,177,plasmodium_falciparum_Dd2
0.00625,0.046875,5.091098000000001,1.0,Quisinostathydrochloride,Tafenoquine,177,plasmodium_falciparum_Dd2
0.00625,0.0234375,6.006819999999999,1.0,Quisinostathydrochloride,Tafenoquine,177,plasmodium_falciparum_Dd2
0.00625,0.011718800000000001,5.965205999999999,1.0,Quisinostathydrochloride,Tafenoquine,177,plasmodium_falciparum_Dd2
0.00625,0.005859400000000001,7.275322999999999,1.0,Quisinostathydrochloride,Tafenoquine,177,plasmodium_falciparum_Dd2
0.00625,0.0029297000000000004,10.684296,1.0,Quisinostathydrochloride,Tafenoquine,177,plasmodium_falciparum_Dd2
0.00625,0.0014648000000000003,7.579046000000001,1.0,Quisinostathydrochloride,Tafenoquine,177,plasmodium_falciparum_Dd2
0.00625,0.0,6.228386,1.0,Quisinostathydrochloride,Tafenoquine,177,plasmodium_falciparum_Dd2
0.003125,0.375,7.6443330000000005,1.0,Quisinostathydrochloride,Tafenoquine,177,plasmodium_falciparum_Dd2
0.003125,0.1875,16.710236,1.0,Quisinostathydrochloride,Tafenoquine,177,plasmodium_falciparum_Dd2
0.003125,0.09375,18.722704,1.0,Quisinostathydrochloride,Tafenoquine,177,plasmodium_falciparum_Dd2
0.003125,0.046875,30.276714000000002,1.0,Quisinostathydrochloride,Tafenoquine,177,plasmodium_falciparum_Dd2
0.003125,0.0234375,36.940090000000005,1.0,Quisinostathydrochloride,Tafenoquine,177,plasmodium_falciparum_Dd2
0.003125,0.011718800000000001,38.424484,1.0,Quisinostathydrochloride,Tafenoquine,177,plasmodium_falciparum_Dd2
0.003125,0.005859400000000001,37.66697,1.0,Quisinostathydrochloride,Tafenoquine,177,plasmodium_falciparum_Dd2
0.003125,0.0029297000000000004,39.329066999999995,1.0,Quisinostathydrochloride,Tafenoquine,177,plasmodium_falciparum_Dd2
0.003125,0.0014648000000000003,30.68905,1.0,Quisinostathydrochloride,Tafenoquine,177,plasmodium_falciparum_Dd2
0.003125,0.0,37.983707,1.0,Quisinostathydrochloride,Tafenoquine,177,plasmodium_falciparum_Dd2
0.0015625,0.375,12.864289999999999,1.0,Quisinostathydrochloride,Tafenoquine,177,plasmodium_falciparum_Dd2
0.0015625,0.1875,10.341797,1.0,Quisinostathydrochloride,Tafenoquine,177,plasmodium_falciparum_Dd2
0.0015625,0.09375,49.05881,1.0,Quisinostathydrochloride,Tafenoquine,177,plasmodium_falciparum_Dd2
0.0015625,0.046875,79.097626,1.0,Quisinostathydrochloride,Tafenoquine,177,plasmodium_falciparum_Dd2
0.0015625,0.0234375,90.129616,1.0,Quisinostathydrochloride,Tafenoquine,177,plasmodium_falciparum_Dd2
0.0015625,0.011718800000000001,86.19144399999999,1.0,Quisinostathydrochloride,Tafenoquine,177,plasmodium_falciparum_Dd2
0.0015625,0.005859400000000001,98.0525,1.0,Quisinostathydrochloride,Tafenoquine,177,plasmodium_falciparum_Dd2
0.0015625,0.0029297000000000004,99.73543000000001,1.0,Quisinostathydrochloride,Tafenoquine,177,plasmodium_falciparum_Dd2
0.0015625,0.0014648000000000003,95.789116,1.0,Quisinostathydrochloride,Tafenoquine,177,plasmodium_falciparum_Dd2
0.0015625,0.0,86.804886,1.0,Quisinostathydrochloride,Tafenoquine,177,plasmodium_falciparum_Dd2
0.0007813000000000001,0.375,2.227553,1.0,Quisinostathydrochloride,Tafenoquine,177,plasmodium_falciparum_Dd2
0.0007813000000000001,0.1875,20.210736999999998,1.0,Quisinostathydrochloride,Tafenoquine,177,plasmodium_falciparum_Dd2
0.0007813000000000001,0.09375,24.258968,1.0,Quisinostathydrochloride,Tafenoquine,177,plasmodium_falciparum_Dd2
0.0007813000000000001,0.046875,80.75527,1.0,Quisinostathydrochloride,Tafenoquine,177,plasmodium_falciparum_Dd2
0.0007813000000000001,0.0234375,81.86809000000001,1.0,Quisinostathydrochloride,Tafenoquine,177,plasmodium_falciparum_Dd2
0.0007813000000000001,0.011718800000000001,94.232475,1.0,Quisinostathydrochloride,Tafenoquine,177,plasmodium_falciparum_Dd2
0.0007813000000000001,0.005859400000000001,105.71836,1.0,Quisinostathydrochloride,Tafenoquine,177,plasmodium_falciparum_Dd2
0.0007813000000000001,0.0029297000000000004,86.42811,1.0,Quisinostathydrochloride,Tafenoquine,177,plasmodium_falciparum_Dd2
0.0007813000000000001,0.0,92.05039000000001,1.0,Quisinostathydrochloride,Tafenoquine,177,plasmodium_falciparum_Dd2
0.00039060000000000006,0.375,11.881621,1.0,Quisinostathydrochloride,Tafenoquine,177,plasmodium_falciparum_Dd2
0.00039060000000000006,0.1875,13.890447,1.0,Quisinostathydrochloride,Tafenoquine,177,plasmodium_falciparum_Dd2
0.00039060000000000006,0.09375,36.57842,1.0,Quisinostathydrochloride,Tafenoquine,177,plasmodium_falciparum_Dd2
0.00039060000000000006,0.046875,74.30736,1.0,Quisinostathydrochloride,Tafenoquine,177,plasmodium_falciparum_Dd2
0.00039060000000000006,0.0234375,107.08856999999999,1.0,Quisinostathydrochloride,Tafenoquine,177,plasmodium_falciparum_Dd2
0.00039060000000000006,0.011718800000000001,104.93498000000001,1.0,Quisinostathydrochloride,Tafenoquine,177,plasmodium_falciparum_Dd2
0.00039060000000000006,0.0029297000000000004,104.68904,1.0,Quisinostathydrochloride,Tafenoquine,177,plasmodium_falciparum_Dd2
0.00039060000000000006,0.0014648000000000003,99.28801,1.0,Quisinostathydrochloride,Tafenoquine,177,plasmodium_falciparum_Dd2
0.00039060000000000006,0.0,103.32462,1.0,Quisinostathydrochloride,Tafenoquine,177,plasmodium_falciparum_Dd2
0.00019530000000000003,0.375,6.592897,1.0,Quisinostathydrochloride,Tafenoquine,177,plasmodium_falciparum_Dd2
0.00019530000000000003,0.1875,8.78387,1.0,Quisinostathydrochloride,Tafenoquine,177,plasmodium_falciparum_Dd2
0.00019530000000000003,0.09375,28.059444,1.0,Quisinostathydrochloride,Tafenoquine,177,plasmodium_falciparum_Dd2
0.00019530000000000003,0.046875,85.72544,1.0,Quisinostathydrochloride,Tafenoquine,177,plasmodium_falciparum_Dd2
0.00019530000000000003,0.0234375,103.64029000000001,1.0,Quisinostathydrochloride,Tafenoquine,177,plasmodium_falciparum_Dd2
0.00019530000000000003,0.011718800000000001,114.40754,1.0,Quisinostathydrochloride,Tafenoquine,177,plasmodium_falciparum_Dd2
0.00019530000000000003,0.005859400000000001,97.37269599999999,1.0,Quisinostathydrochloride,Tafenoquine,177,plasmodium_falciparum_Dd2
0.00019530000000000003,0.0029297000000000004,106.3648,1.0,Quisinostathydrochloride,Tafenoquine,177,plasmodium_falciparum_Dd2
0.00019530000000000003,0.0014648000000000003,107.11696,1.0,Quisinostathydrochloride,Tafenoquine,177,plasmodium_falciparum_Dd2
0.00019530000000000003,0.0,104.478134,1.0,Quisinostathydrochloride,Tafenoquine,177,plasmodium_falciparum_Dd2
9.77e-05,0.375,7.529399000000001,1.0,Quisinostathydrochloride,Tafenoquine,177,plasmodium_falciparum_Dd2
9.77e-05,0.1875,15.092753,1.0,Quisinostathydrochloride,Tafenoquine,177,plasmodium_falciparum_Dd2
9.77e-05,0.09375,29.056358000000003,1.0,Quisinostathydrochloride,Tafenoquine,177,plasmodium_falciparum_Dd2
9.77e-05,0.046875,58.598533999999994,1.0,Quisinostathydrochloride,Tafenoquine,177,plasmodium_falciparum_Dd2
9.77e-05,0.0234375,102.84142,1.0,Quisinostathydrochloride,Tafenoquine,177,plasmodium_falciparum_Dd2
9.77e-05,0.011718800000000001,104.08979000000001,1.0,Quisinostathydrochloride,Tafenoquine,177,plasmodium_falciparum_Dd2
9.77e-05,0.005859400000000001,106.01763999999999,1.0,Quisinostathydrochloride,Tafenoquine,177,plasmodium_falciparum_Dd2
9.77e-05,0.0029297000000000004,86.69906,1.0,Quisinostathydrochloride,Tafenoquine,177,plasmodium_falciparum_Dd2
9.77e-05,0.0014648000000000003,105.75451000000001,1.0,Quisinostathydrochloride,Tafenoquine,177,plasmodium_falciparum_Dd2
9.77e-05,0.0,93.34744,1.0,Quisinostathydrochloride,Tafenoquine,177,plasmodium_falciparum_Dd2
0.0,0.375,7.324542,1.0,Quisinostathydrochloride,Tafenoquine,177,plasmodium_falciparum_Dd2
0.0,0.1875,9.606883999999999,1.0,Quisinostathydrochloride,Tafenoquine,177,plasmodium_falciparum_Dd2
0.0,0.09375,30.695371999999995,1.0,Quisinostathydrochloride,Tafenoquine,177,plasmodium_falciparum_Dd2
0.0,0.046875,70.24825,1.0,Quisinostathydrochloride,Tafenoquine,177,plasmodium_falciparum_Dd2
0.0,0.0234375,77.33382399999999,1.0,Quisinostathydrochloride,Tafenoquine,177,plasmodium_falciparum_Dd2
0.0,0.011718800000000001,105.35417,1.0,Quisinostathydrochloride,Tafenoquine,177,plasmodium_falciparum_Dd2
0.0,0.005859400000000001,98.68158000000001,1.0,Quisinostathydrochloride,Tafenoquine,177,plasmodium_falciparum_Dd2
0.0,0.0029297000000000004,89.4113,1.0,Quisinostathydrochloride,Tafenoquine,177,plasmodium_falciparum_Dd2
0.0,0.0014648000000000003,110.96146,1.0,Quisinostathydrochloride,Tafenoquine,177,plasmodium_falciparum_Dd2
0.0,0.0,115.03175,1.0,Quisinostathydrochloride,Tafenoquine,177,plasmodium_falciparum_Dd2
