drug1.conc,drug2.conc,effect,effect.95ci,drug1,drug2,expt,sample
0.05,0.05,23.543047,1.0,Quisinostathydrochloride,Lumefantrine,165,plasmodium_falciparum_3D7
0.05,0.025,15.293060999999998,1.0,Quisinostathydrochloride,Lumefantrine,165,plasmodium_falciparum_3D7
0.05,0.0125,41.87008,1.0,Quisinostathydrochloride,Lumefantrine,165,plasmodium_falciparum_3D7
0.05,0.00625,28.134724,1.0,Quisinostathydrochloride,Lumefantrine,165,plasmodium_falciparum_3D7
0.05,0.003125,70.14471,1.0,Quisinostathydrochloride,Lumefantrine,165,plasmodium_falciparum_3D7
0.05,0.0015625,30.166420000000002,1.0,Quisinostathydrochloride,Lumefantrine,165,plasmodium_falciparum_3D7
0.05,0.00078125,59.520576,1.0,Quisinostathydrochloride,Lumefantrine,165,plasmodium_falciparum_3D7
0.05,0.000390625,45.336285,1.0,Quisinostathydrochloride,Lumefantrine,165,plasmodium_falciparum_3D7
0.05,0.000195375,113.17158,1.0,Quisinostathydrochloride,Lumefantrine,165,plasmodium_falciparum_3D7
0.05,0.0,114.39101399999998,1.0,Quisinostathydrochloride,Lumefantrine,165,plasmodium_falciparum_3D7
0.025,0.05,23.78735,1.0,Quisinostathydrochloride,Lumefantrine,165,plasmodium_falciparum_3D7
0.025,0.025,10.308826,1.0,Quisinostathydrochloride,Lumefantrine,165,plasmodium_falciparum_3D7
0.025,0.0125,28.287151,1.0,Quisinostathydrochloride,Lumefantrine,165,plasmodium_falciparum_3D7
0.025,0.00625,36.036,1.0,Quisinostathydrochloride,Lumefantrine,165,plasmodium_falciparum_3D7
0.025,0.003125,43.210625,1.0,Quisinostathydrochloride,Lumefantrine,165,plasmodium_falciparum_3D7
0.025,0.0015625,73.77795400000001,1.0,Quisinostathydrochloride,Lumefantrine,165,plasmodium_falciparum_3D7
0.025,0.00078125,42.866093,1.0,Quisinostathydrochloride,Lumefantrine,165,plasmodium_falciparum_3D7
0.025,0.000390625,75.82218,1.0,Quisinostathydrochloride,Lumefantrine,165,plasmodium_falciparum_3D7
0.025,0.000195375,95.92825,1.0,Quisinostathydrochloride,Lumefantrine,165,plasmodium_falciparum_3D7
0.025,0.0,87.830696,1.0,Quisinostathydrochloride,Lumefantrine,165,plasmodium_falciparum_3D7
0.0125,0.05,21.033179999999998,1.0,Quisinostathydrochloride,Lumefantrine,165,plasmodium_falciparum_3D7
0.0125,0.025,14.883799,1.0,Quisinostathydrochloride,Lumefantrine,165,plasmodium_falciparum_3D7
0.0125,0.0125,48.211563,1.0,Quisinostathydrochloride,Lumefantrine,165,plasmodium_falciparum_3D7
0.0125,0.00625,63.02019,1.0,Quisinostathydrochloride,Lumefantrine,165,plasmodium_falciparum_3D7
0.0125,0.0015625,69.998535,1.0,Quisinostathydrochloride,Lumefantrine,165,plasmodium_falciparum_3D7
0.0125,0.00078125,97.75741,1.0,Quisinostathydrochloride,Lumefantrine,165,plasmodium_falciparum_3D7
0.0125,0.000390625,45.597294,1.0,Quisinostathydrochloride,Lumefantrine,165,plasmodium_falciparum_3D7
0.0125,0.000195375,48.10716,1.0,Quisinostathydrochloride,Lumefantrine,165,plasmodium_falciparum_3D7
0.0125,0.0,68.61414,1.0,Quisinostathydrochloride,Lumefantrine,165,plasmodium_falciparum_3D7
0.00625,0.05,29.984756,1.0,Quisinostathydrochloride,Lumefantrine,165,plasmodium_falciparum_3D7
0.00625,0.025,60.086445,1.0,Quisinostathydrochloride,Lumefantrine,165,plasmodium_falciparum_3D7
0.00625,0.0125,92.40358,1.0,Quisinostathydrochloride,Lumefantrine,165,plasmodium_falciparum_3D7
0.003125,0.05,1.7602470000000001,1.0,Quisinostathydrochloride,Lumefantrine,165,plasmodium_falciparum_3D7
0.003125,0.025,74.66121,1.0,Quisinostathydrochloride,Lumefantrine,165,plasmodium_falciparum_3D7
0.003125,0.0125,101.864655,1.0,Quisinostathydrochloride,Lumefantrine,165,plasmodium_falciparum_3D7
0.0015625,0.05,25.171743,1.0,Quisinostathydrochloride,Lumefantrine,165,plasmodium_falciparum_3D7
0.0015625,0.025,44.194107,1.0,Quisinostathydrochloride,Lumefantrine,165,plasmodium_falciparum_3D7
0.0015625,0.0125,101.69552,1.0,Quisinostathydrochloride,Lumefantrine,165,plasmodium_falciparum_3D7
0.00078125,0.05,35.802135,1.0,Quisinostathydrochloride,Lumefantrine,165,plasmodium_falciparum_3D7
0.00078125,0.025,28.750706,1.0,Quisinostathydrochloride,Lumefantrine,165,plasmodium_falciparum_3D7
0.00078125,0.00625,99.09795,1.0,Quisinostathydrochloride,Lumefantrine,165,plasmodium_falciparum_3D7
0.00078125,0.00078125,78.91044000000001,1.0,Quisinostathydrochloride,Lumefantrine,165,plasmodium_falciparum_3D7
0.000390625,0.05,30.19983,1.0,Quisinostathydrochloride,Lumefantrine,165,plasmodium_falciparum_3D7
0.000390625,0.025,55.509384,1.0,Quisinostathydrochloride,Lumefantrine,165,plasmodium_falciparum_3D7
0.000390625,0.0125,93.919525,1.0,Quisinostathydrochloride,Lumefantrine,165,plasmodium_falciparum_3D7
0.000195375,0.05,75.8368,1.0,Quisinostathydrochloride,Lumefantrine,165,plasmodium_falciparum_3D7
0.000195375,0.025,62.951285999999996,1.0,Quisinostathydrochloride,Lumefantrine,165,plasmodium_falciparum_3D7
0.000195375,0.0,119.40448,1.0,Quisinostathydrochloride,Lumefantrine,165,plasmodium_falciparum_3D7
0.0,0.05,81.42866,1.0,Quisinostathydrochloride,Lumefantrine,165,plasmodium_falciparum_3D7
0.0,0.025,63.98696999999999,1.0,Quisinostathydrochloride,Lumefantrine,165,plasmodium_falciparum_3D7
0.0,0.000195375,114.94435,1.0,Quisinostathydrochloride,Lumefantrine,165,plasmodium_falciparum_3D7
