drug1.conc,drug2.conc,effect,effect.95ci,drug1,drug2,expt,sample
0.05,0.075,-0.593945,1.0,Quisinostathydrochloride,Methyleneblue,166,plasmodium_falciparum_HB3
0.05,0.0375,-0.277346,1.0,Quisinostathydrochloride,Methyleneblue,166,plasmodium_falciparum_HB3
0.05,0.01875,-0.628506,1.0,Quisinostathydrochloride,Methyleneblue,166,plasmodium_falciparum_HB3
0.05,0.009375,-0.35065599999999997,1.0,Quisinostathydrochloride,Methyleneblue,166,plasmodium_falciparum_HB3
0.05,0.0046875,-0.595004,1.0,Quisinostathydrochloride,Methyleneblue,166,plasmodium_falciparum_HB3
0.05,0.00234375,-0.396821,1.0,Quisinostathydrochloride,Methyleneblue,166,plasmodium_falciparum_HB3
0.05,0.001171875,-0.728708,1.0,Quisinostathydrochloride,Methyleneblue,166,plasmodium_falciparum_HB3
0.05,0.000586,-0.521644,1.0,Quisinostathydrochloride,Methyleneblue,166,plasmodium_falciparum_HB3
0.05,0.000293,-0.88234,1.0,Quisinostathydrochloride,Methyleneblue,166,plasmodium_falciparum_HB3
0.05,0.0,-0.63012,1.0,Quisinostathydrochloride,Methyleneblue,166,plasmodium_falciparum_HB3
0.025,0.075,1.132239,1.0,Quisinostathydrochloride,Methyleneblue,166,plasmodium_falciparum_HB3
0.025,0.0375,0.795004,1.0,Quisinostathydrochloride,Methyleneblue,166,plasmodium_falciparum_HB3
0.025,0.01875,0.9866290000000001,1.0,Quisinostathydrochloride,Methyleneblue,166,plasmodium_falciparum_HB3
0.025,0.009375,0.877093,1.0,Quisinostathydrochloride,Methyleneblue,166,plasmodium_falciparum_HB3
0.025,0.0046875,1.3921780000000001,1.0,Quisinostathydrochloride,Methyleneblue,166,plasmodium_falciparum_HB3
0.025,0.00234375,1.163975,1.0,Quisinostathydrochloride,Methyleneblue,166,plasmodium_falciparum_HB3
0.025,0.001171875,0.255651,1.0,Quisinostathydrochloride,Methyleneblue,166,plasmodium_falciparum_HB3
0.025,0.000586,0.702623,1.0,Quisinostathydrochloride,Methyleneblue,166,plasmodium_falciparum_HB3
0.025,0.000293,0.5915229999999999,1.0,Quisinostathydrochloride,Methyleneblue,166,plasmodium_falciparum_HB3
0.025,0.0,0.035166,1.0,Quisinostathydrochloride,Methyleneblue,166,plasmodium_falciparum_HB3
0.0125,0.075,1.460089,1.0,Quisinostathydrochloride,Methyleneblue,166,plasmodium_falciparum_HB3
0.0125,0.0375,2.23466,1.0,Quisinostathydrochloride,Methyleneblue,166,plasmodium_falciparum_HB3
0.0125,0.01875,3.4340029999999997,1.0,Quisinostathydrochloride,Methyleneblue,166,plasmodium_falciparum_HB3
0.0125,0.009375,5.694343,1.0,Quisinostathydrochloride,Methyleneblue,166,plasmodium_falciparum_HB3
0.0125,0.0046875,9.187579,1.0,Quisinostathydrochloride,Methyleneblue,166,plasmodium_falciparum_HB3
0.0125,0.00234375,10.081776,1.0,Quisinostathydrochloride,Methyleneblue,166,plasmodium_falciparum_HB3
0.0125,0.001171875,8.141869,1.0,Quisinostathydrochloride,Methyleneblue,166,plasmodium_falciparum_HB3
0.0125,0.000586,10.970322,1.0,Quisinostathydrochloride,Methyleneblue,166,plasmodium_falciparum_HB3
0.0125,0.000293,9.768355,1.0,Quisinostathydrochloride,Methyleneblue,166,plasmodium_falciparum_HB3
0.0125,0.0,8.198226,1.0,Quisinostathydrochloride,Methyleneblue,166,plasmodium_falciparum_HB3
0.00625,0.075,2.089251,1.0,Quisinostathydrochloride,Methyleneblue,166,plasmodium_falciparum_HB3
0.00625,0.0375,1.9343569999999999,1.0,Quisinostathydrochloride,Methyleneblue,166,plasmodium_falciparum_HB3
0.00625,0.01875,4.69384,1.0,Quisinostathydrochloride,Methyleneblue,166,plasmodium_falciparum_HB3
0.00625,0.009375,11.679857,1.0,Quisinostathydrochloride,Methyleneblue,166,plasmodium_falciparum_HB3
0.00625,0.0046875,19.663048,1.0,Quisinostathydrochloride,Methyleneblue,166,plasmodium_falciparum_HB3
0.00625,0.00234375,24.83277,1.0,Quisinostathydrochloride,Methyleneblue,166,plasmodium_falciparum_HB3
0.00625,0.001171875,25.822123,1.0,Quisinostathydrochloride,Methyleneblue,166,plasmodium_falciparum_HB3
0.00625,0.000586,37.762221999999994,1.0,Quisinostathydrochloride,Methyleneblue,166,plasmodium_falciparum_HB3
0.00625,0.000293,24.50835,1.0,Quisinostathydrochloride,Methyleneblue,166,plasmodium_falciparum_HB3
0.00625,0.0,14.178189999999999,1.0,Quisinostathydrochloride,Methyleneblue,166,plasmodium_falciparum_HB3
0.003125,0.075,1.688797,1.0,Quisinostathydrochloride,Methyleneblue,166,plasmodium_falciparum_HB3
0.003125,0.0375,1.8737119999999998,1.0,Quisinostathydrochloride,Methyleneblue,166,plasmodium_falciparum_HB3
0.003125,0.01875,5.542073,1.0,Quisinostathydrochloride,Methyleneblue,166,plasmodium_falciparum_HB3
0.003125,0.009375,37.259296,1.0,Quisinostathydrochloride,Methyleneblue,166,plasmodium_falciparum_HB3
0.003125,0.0046875,65.21598,1.0,Quisinostathydrochloride,Methyleneblue,166,plasmodium_falciparum_HB3
0.003125,0.00234375,54.111954000000004,1.0,Quisinostathydrochloride,Methyleneblue,166,plasmodium_falciparum_HB3
0.003125,0.001171875,65.76356,1.0,Quisinostathydrochloride,Methyleneblue,166,plasmodium_falciparum_HB3
0.003125,0.000586,69.650986,1.0,Quisinostathydrochloride,Methyleneblue,166,plasmodium_falciparum_HB3
0.003125,0.000293,74.64891999999999,1.0,Quisinostathydrochloride,Methyleneblue,166,plasmodium_falciparum_HB3
0.003125,0.0,50.454895,1.0,Quisinostathydrochloride,Methyleneblue,166,plasmodium_falciparum_HB3
0.0015625,0.075,2.5586759999999997,1.0,Quisinostathydrochloride,Methyleneblue,166,plasmodium_falciparum_HB3
0.0015625,0.0375,2.203933,1.0,Quisinostathydrochloride,Methyleneblue,166,plasmodium_falciparum_HB3
0.0015625,0.01875,11.33238,1.0,Quisinostathydrochloride,Methyleneblue,166,plasmodium_falciparum_HB3
0.0015625,0.009375,60.471584,1.0,Quisinostathydrochloride,Methyleneblue,166,plasmodium_falciparum_HB3
0.0015625,0.0046875,88.75076999999999,1.0,Quisinostathydrochloride,Methyleneblue,166,plasmodium_falciparum_HB3
0.0015625,0.00234375,86.085884,1.0,Quisinostathydrochloride,Methyleneblue,166,plasmodium_falciparum_HB3
0.0015625,0.001171875,86.89184,1.0,Quisinostathydrochloride,Methyleneblue,166,plasmodium_falciparum_HB3
0.0015625,0.000586,90.2213,1.0,Quisinostathydrochloride,Methyleneblue,166,plasmodium_falciparum_HB3
0.0015625,0.000293,90.01888000000001,1.0,Quisinostathydrochloride,Methyleneblue,166,plasmodium_falciparum_HB3
0.0015625,0.0,90.10127,1.0,Quisinostathydrochloride,Methyleneblue,166,plasmodium_falciparum_HB3
0.00078125,0.075,2.121693,1.0,Quisinostathydrochloride,Methyleneblue,166,plasmodium_falciparum_HB3
0.00078125,0.0375,2.532389,1.0,Quisinostathydrochloride,Methyleneblue,166,plasmodium_falciparum_HB3
0.00078125,0.01875,12.094438,1.0,Quisinostathydrochloride,Methyleneblue,166,plasmodium_falciparum_HB3
0.00078125,0.009375,72.2917,1.0,Quisinostathydrochloride,Methyleneblue,166,plasmodium_falciparum_HB3
0.00078125,0.0046875,93.71545,1.0,Quisinostathydrochloride,Methyleneblue,166,plasmodium_falciparum_HB3
0.00078125,0.00234375,93.053185,1.0,Quisinostathydrochloride,Methyleneblue,166,plasmodium_falciparum_HB3
0.00078125,0.001171875,94.55863000000001,1.0,Quisinostathydrochloride,Methyleneblue,166,plasmodium_falciparum_HB3
0.00078125,0.000586,94.04415,1.0,Quisinostathydrochloride,Methyleneblue,166,plasmodium_falciparum_HB3
0.00078125,0.000293,98.65883000000001,1.0,Quisinostathydrochloride,Methyleneblue,166,plasmodium_falciparum_HB3
0.00078125,0.0,93.85263,1.0,Quisinostathydrochloride,Methyleneblue,166,plasmodium_falciparum_HB3
0.000390625,0.075,2.436476,1.0,Quisinostathydrochloride,Methyleneblue,166,plasmodium_falciparum_HB3
0.000390625,0.0375,2.8220959999999997,1.0,Quisinostathydrochloride,Methyleneblue,166,plasmodium_falciparum_HB3
0.000390625,0.01875,13.453014000000001,1.0,Quisinostathydrochloride,Methyleneblue,166,plasmodium_falciparum_HB3
0.000390625,0.009375,67.95316,1.0,Quisinostathydrochloride,Methyleneblue,166,plasmodium_falciparum_HB3
0.000390625,0.0046875,91.88719,1.0,Quisinostathydrochloride,Methyleneblue,166,plasmodium_falciparum_HB3
0.000390625,0.00234375,95.50656,1.0,Quisinostathydrochloride,Methyleneblue,166,plasmodium_falciparum_HB3
0.000390625,0.001171875,100.81095,1.0,Quisinostathydrochloride,Methyleneblue,166,plasmodium_falciparum_HB3
0.000390625,0.000586,99.865135,1.0,Quisinostathydrochloride,Methyleneblue,166,plasmodium_falciparum_HB3
0.000390625,0.000293,96.638954,1.0,Quisinostathydrochloride,Methyleneblue,166,plasmodium_falciparum_HB3
0.000390625,0.0,98.36907,1.0,Quisinostathydrochloride,Methyleneblue,166,plasmodium_falciparum_HB3
0.000195375,0.075,1.8934900000000001,1.0,Quisinostathydrochloride,Methyleneblue,166,plasmodium_falciparum_HB3
0.000195375,0.0375,2.3309759999999997,1.0,Quisinostathydrochloride,Methyleneblue,166,plasmodium_falciparum_HB3
0.000195375,0.01875,9.895853,1.0,Quisinostathydrochloride,Methyleneblue,166,plasmodium_falciparum_HB3
0.000195375,0.009375,60.387074,1.0,Quisinostathydrochloride,Methyleneblue,166,plasmodium_falciparum_HB3
0.000195375,0.0046875,97.0942,1.0,Quisinostathydrochloride,Methyleneblue,166,plasmodium_falciparum_HB3
0.000195375,0.00234375,101.91553499999999,1.0,Quisinostathydrochloride,Methyleneblue,166,plasmodium_falciparum_HB3
0.000195375,0.001171875,98.21478,1.0,Quisinostathydrochloride,Methyleneblue,166,plasmodium_falciparum_HB3
0.000195375,0.000586,97.36216,1.0,Quisinostathydrochloride,Methyleneblue,166,plasmodium_falciparum_HB3
0.000195375,0.000293,89.418625,1.0,Quisinostathydrochloride,Methyleneblue,166,plasmodium_falciparum_HB3
0.000195375,0.0,96.738045,1.0,Quisinostathydrochloride,Methyleneblue,166,plasmodium_falciparum_HB3
0.0,0.075,2.009635,1.0,Quisinostathydrochloride,Methyleneblue,166,plasmodium_falciparum_HB3
0.0,0.0375,2.1222990000000004,1.0,Quisinostathydrochloride,Methyleneblue,166,plasmodium_falciparum_HB3
0.0,0.01875,11.18455,1.0,Quisinostathydrochloride,Methyleneblue,166,plasmodium_falciparum_HB3
0.0,0.009375,73.20078000000001,1.0,Quisinostathydrochloride,Methyleneblue,166,plasmodium_falciparum_HB3
0.0,0.0046875,94.93129,1.0,Quisinostathydrochloride,Methyleneblue,166,plasmodium_falciparum_HB3
0.0,0.00234375,103.79711999999999,1.0,Quisinostathydrochloride,Methyleneblue,166,plasmodium_falciparum_HB3
0.0,0.001171875,99.38673399999999,1.0,Quisinostathydrochloride,Methyleneblue,166,plasmodium_falciparum_HB3
0.0,0.000586,103.21614,1.0,Quisinostathydrochloride,Methyleneblue,166,plasmodium_falciparum_HB3
0.0,0.000293,101.61655,1.0,Quisinostathydrochloride,Methyleneblue,166,plasmodium_falciparum_HB3
0.0,0.0,97.053535,1.0,Quisinostathydrochloride,Methyleneblue,166,plasmodium_falciparum_HB3
