drug1.conc,drug2.conc,effect,effect.95ci,drug1,drug2,expt,sample
0.05,0.025,92.53513000000001,1.0,Quisinostathydrochloride,Artenimol,164,plasmodium_falciparum_3D7
0.05,0.003125,82.03003000000001,1.0,Quisinostathydrochloride,Artenimol,164,plasmodium_falciparum_3D7
0.05,0.00078125,90.474205,1.0,Quisinostathydrochloride,Artenimol,164,plasmodium_falciparum_3D7
0.05,0.000195375,45.532562,1.0,Quisinostathydrochloride,Artenimol,164,plasmodium_falciparum_3D7
0.05,9.7625e-05,113.39708999999999,1.0,Quisinostathydrochloride,Artenimol,164,plasmodium_falciparum_3D7
0.025,0.025,63.178886,1.0,Quisinostathydrochloride,Artenimol,164,plasmodium_falciparum_3D7
0.025,0.0125,99.55733000000001,1.0,Quisinostathydrochloride,Artenimol,164,plasmodium_falciparum_3D7
0.025,0.00625,77.36318,1.0,Quisinostathydrochloride,Artenimol,164,plasmodium_falciparum_3D7
0.025,0.003125,81.0006,1.0,Quisinostathydrochloride,Artenimol,164,plasmodium_falciparum_3D7
0.025,0.0015625,69.51411,1.0,Quisinostathydrochloride,Artenimol,164,plasmodium_falciparum_3D7
0.025,0.00078125,100.46773,1.0,Quisinostathydrochloride,Artenimol,164,plasmodium_falciparum_3D7
0.025,0.000390625,58.72084399999999,1.0,Quisinostathydrochloride,Artenimol,164,plasmodium_falciparum_3D7
0.025,0.000195375,61.422813,1.0,Quisinostathydrochloride,Artenimol,164,plasmodium_falciparum_3D7
0.025,9.7625e-05,62.692364000000005,1.0,Quisinostathydrochloride,Artenimol,164,plasmodium_falciparum_3D7
0.0125,0.025,66.638824,1.0,Quisinostathydrochloride,Artenimol,164,plasmodium_falciparum_3D7
0.0125,0.0125,73.31023,1.0,Quisinostathydrochloride,Artenimol,164,plasmodium_falciparum_3D7
0.0125,0.00625,82.35159,1.0,Quisinostathydrochloride,Artenimol,164,plasmodium_falciparum_3D7
0.0125,0.003125,69.2009,1.0,Quisinostathydrochloride,Artenimol,164,plasmodium_falciparum_3D7
0.0125,0.0015625,77.45923,1.0,Quisinostathydrochloride,Artenimol,164,plasmodium_falciparum_3D7
0.0125,0.00078125,62.790504000000006,1.0,Quisinostathydrochloride,Artenimol,164,plasmodium_falciparum_3D7
0.0125,0.000390625,46.217453000000006,1.0,Quisinostathydrochloride,Artenimol,164,plasmodium_falciparum_3D7
0.0125,0.000195375,65.31081,1.0,Quisinostathydrochloride,Artenimol,164,plasmodium_falciparum_3D7
0.0125,9.7625e-05,40.207972999999996,1.0,Quisinostathydrochloride,Artenimol,164,plasmodium_falciparum_3D7
0.0125,0.0,33.35282,1.0,Quisinostathydrochloride,Artenimol,164,plasmodium_falciparum_3D7
0.00625,0.025,36.961018,1.0,Quisinostathydrochloride,Artenimol,164,plasmodium_falciparum_3D7
0.00625,0.0125,39.268337,1.0,Quisinostathydrochloride,Artenimol,164,plasmodium_falciparum_3D7
0.00625,0.00625,81.16974,1.0,Quisinostathydrochloride,Artenimol,164,plasmodium_falciparum_3D7
0.00625,0.003125,82.9091,1.0,Quisinostathydrochloride,Artenimol,164,plasmodium_falciparum_3D7
0.00625,0.0015625,66.93324,1.0,Quisinostathydrochloride,Artenimol,164,plasmodium_falciparum_3D7
0.00625,0.00078125,111.95423000000001,1.0,Quisinostathydrochloride,Artenimol,164,plasmodium_falciparum_3D7
0.003125,0.025,71.67735,1.0,Quisinostathydrochloride,Artenimol,164,plasmodium_falciparum_3D7
0.003125,0.00625,81.76902,1.0,Quisinostathydrochloride,Artenimol,164,plasmodium_falciparum_3D7
0.003125,0.003125,64.07467,1.0,Quisinostathydrochloride,Artenimol,164,plasmodium_falciparum_3D7
0.0015625,0.025,27.969765000000002,1.0,Quisinostathydrochloride,Artenimol,164,plasmodium_falciparum_3D7
0.0015625,0.0125,51.631832,1.0,Quisinostathydrochloride,Artenimol,164,plasmodium_falciparum_3D7
0.0015625,0.00625,50.218204,1.0,Quisinostathydrochloride,Artenimol,164,plasmodium_falciparum_3D7
0.00078125,0.0125,27.85701,1.0,Quisinostathydrochloride,Artenimol,164,plasmodium_falciparum_3D7
0.00078125,0.00625,7.458603999999999,1.0,Quisinostathydrochloride,Artenimol,164,plasmodium_falciparum_3D7
0.00078125,0.003125,59.148903000000004,1.0,Quisinostathydrochloride,Artenimol,164,plasmodium_falciparum_3D7
0.000390625,0.025,10.200246,1.0,Quisinostathydrochloride,Artenimol,164,plasmodium_falciparum_3D7
0.000390625,0.0125,1.726838,1.0,Quisinostathydrochloride,Artenimol,164,plasmodium_falciparum_3D7
0.000390625,0.00625,62.30607,1.0,Quisinostathydrochloride,Artenimol,164,plasmodium_falciparum_3D7
0.000390625,0.003125,86.63632,1.0,Quisinostathydrochloride,Artenimol,164,plasmodium_falciparum_3D7
0.000195375,0.025,21.008123,1.0,Quisinostathydrochloride,Artenimol,164,plasmodium_falciparum_3D7
0.000195375,0.0125,7.8950119999999995,1.0,Quisinostathydrochloride,Artenimol,164,plasmodium_falciparum_3D7
0.000195375,0.00625,31.715770000000003,1.0,Quisinostathydrochloride,Artenimol,164,plasmodium_falciparum_3D7
0.000195375,0.003125,36.12161,1.0,Quisinostathydrochloride,Artenimol,164,plasmodium_falciparum_3D7
0.000195375,0.0015625,91.3157,1.0,Quisinostathydrochloride,Artenimol,164,plasmodium_falciparum_3D7
0.000195375,0.000195375,112.90639499999999,1.0,Quisinostathydrochloride,Artenimol,164,plasmodium_falciparum_3D7
0.0,0.025,13.992191,1.0,Quisinostathydrochloride,Artenimol,164,plasmodium_falciparum_3D7
0.0,0.0125,16.074001000000003,1.0,Quisinostathydrochloride,Artenimol,164,plasmodium_falciparum_3D7
0.0,0.00625,39.523083,1.0,Quisinostathydrochloride,Artenimol,164,plasmodium_falciparum_3D7
0.0,0.003125,32.047775,1.0,Quisinostathydrochloride,Artenimol,164,plasmodium_falciparum_3D7
0.0,0.0015625,91.00457,1.0,Quisinostathydrochloride,Artenimol,164,plasmodium_falciparum_3D7
0.0,0.000195375,86.41080500000001,1.0,Quisinostathydrochloride,Artenimol,164,plasmodium_falciparum_3D7
0.0,0.0,99.04157,1.0,Quisinostathydrochloride,Artenimol,164,plasmodium_falciparum_3D7
