drug1.conc,drug2.conc,effect,effect.95ci,drug1,drug2,expt,sample
0.75,0.25,-18.907984,1.0,Rifampicin,Mefloquine,16,plasmodium_falciparum_3D7
0.75,0.015625,-2.2720700000000003,1.0,Rifampicin,Mefloquine,16,plasmodium_falciparum_3D7
0.75,0.0078125,3.9616730000000002,1.0,Rifampicin,Mefloquine,16,plasmodium_falciparum_3D7
0.75,0.00390625,43.320515,1.0,Rifampicin,Mefloquine,16,plasmodium_falciparum_3D7
0.75,0.001953125,41.479735999999995,1.0,Rifampicin,Mefloquine,16,plasmodium_falciparum_3D7
0.75,0.000976625,17.611881,1.0,Rifampicin,Mefloquine,16,plasmodium_falciparum_3D7
0.75,0.0,23.154220000000002,1.0,Rifampicin,Mefloquine,16,plasmodium_falciparum_3D7
0.375,0.125,39.536694,1.0,Rifampicin,Mefloquine,16,plasmodium_falciparum_3D7
0.375,0.0625,-2.512172,1.0,Rifampicin,Mefloquine,16,plasmodium_falciparum_3D7
0.375,0.03125,-0.629155,1.0,Rifampicin,Mefloquine,16,plasmodium_falciparum_3D7
0.375,0.015625,39.41664,1.0,Rifampicin,Mefloquine,16,plasmodium_falciparum_3D7
0.375,0.0078125,63.377871999999996,1.0,Rifampicin,Mefloquine,16,plasmodium_falciparum_3D7
0.375,0.00390625,45.89938,1.0,Rifampicin,Mefloquine,16,plasmodium_falciparum_3D7
0.375,0.001953125,60.449966,1.0,Rifampicin,Mefloquine,16,plasmodium_falciparum_3D7
0.375,0.000976625,83.91320999999999,1.0,Rifampicin,Mefloquine,16,plasmodium_falciparum_3D7
0.375,0.0,65.64771999999999,1.0,Rifampicin,Mefloquine,16,plasmodium_falciparum_3D7
0.1875,0.25,-11.258087,1.0,Rifampicin,Mefloquine,16,plasmodium_falciparum_3D7
0.1875,0.125,6.974056,1.0,Rifampicin,Mefloquine,16,plasmodium_falciparum_3D7
0.1875,0.0625,27.845090000000003,1.0,Rifampicin,Mefloquine,16,plasmodium_falciparum_3D7
0.1875,0.03125,51.501743,1.0,Rifampicin,Mefloquine,16,plasmodium_falciparum_3D7
0.1875,0.015625,68.47113,1.0,Rifampicin,Mefloquine,16,plasmodium_falciparum_3D7
0.1875,0.0078125,103.31029000000001,1.0,Rifampicin,Mefloquine,16,plasmodium_falciparum_3D7
0.1875,0.00390625,58.509147999999996,1.0,Rifampicin,Mefloquine,16,plasmodium_falciparum_3D7
0.1875,0.001953125,94.44431999999999,1.0,Rifampicin,Mefloquine,16,plasmodium_falciparum_3D7
0.1875,0.000976625,108.986015,1.0,Rifampicin,Mefloquine,16,plasmodium_falciparum_3D7
0.09375,0.25,5.746871,1.0,Rifampicin,Mefloquine,16,plasmodium_falciparum_3D7
0.09375,0.0625,10.800116000000001,1.0,Rifampicin,Mefloquine,16,plasmodium_falciparum_3D7
0.09375,0.03125,42.346767,1.0,Rifampicin,Mefloquine,16,plasmodium_falciparum_3D7
0.09375,0.015625,66.76819,1.0,Rifampicin,Mefloquine,16,plasmodium_falciparum_3D7
0.09375,0.0078125,74.49812,1.0,Rifampicin,Mefloquine,16,plasmodium_falciparum_3D7
0.09375,0.00390625,88.19724000000001,1.0,Rifampicin,Mefloquine,16,plasmodium_falciparum_3D7
0.09375,0.001953125,49.460884,1.0,Rifampicin,Mefloquine,16,plasmodium_falciparum_3D7
0.09375,0.000976625,63.25115,1.0,Rifampicin,Mefloquine,16,plasmodium_falciparum_3D7
0.09375,0.0,69.53380600000001,1.0,Rifampicin,Mefloquine,16,plasmodium_falciparum_3D7
0.046875,0.125,-1.93415,1.0,Rifampicin,Mefloquine,16,plasmodium_falciparum_3D7
0.046875,0.0625,58.98713000000001,1.0,Rifampicin,Mefloquine,16,plasmodium_falciparum_3D7
0.046875,0.03125,75.49632,1.0,Rifampicin,Mefloquine,16,plasmodium_falciparum_3D7
0.046875,0.015625,83.577515,1.0,Rifampicin,Mefloquine,16,plasmodium_falciparum_3D7
0.046875,0.0078125,72.28163,1.0,Rifampicin,Mefloquine,16,plasmodium_falciparum_3D7
0.046875,0.00390625,67.94869,1.0,Rifampicin,Mefloquine,16,plasmodium_falciparum_3D7
0.046875,0.0,68.6312,1.0,Rifampicin,Mefloquine,16,plasmodium_falciparum_3D7
0.0234375,0.25,-3.3480800000000004,1.0,Rifampicin,Mefloquine,16,plasmodium_falciparum_3D7
0.0234375,0.125,0.38683,1.0,Rifampicin,Mefloquine,16,plasmodium_falciparum_3D7
0.0234375,0.0625,52.51550699999999,1.0,Rifampicin,Mefloquine,16,plasmodium_falciparum_3D7
0.0234375,0.03125,105.36671000000001,1.0,Rifampicin,Mefloquine,16,plasmodium_falciparum_3D7
0.0234375,0.015625,83.1929,1.0,Rifampicin,Mefloquine,16,plasmodium_falciparum_3D7
0.0234375,0.0078125,99.09962,1.0,Rifampicin,Mefloquine,16,plasmodium_falciparum_3D7
0.0234375,0.0,81.98795,1.0,Rifampicin,Mefloquine,16,plasmodium_falciparum_3D7
0.01171875,0.25,-3.030168,1.0,Rifampicin,Mefloquine,16,plasmodium_falciparum_3D7
0.01171875,0.125,18.885752,1.0,Rifampicin,Mefloquine,16,plasmodium_falciparum_3D7
0.01171875,0.0625,27.4716,1.0,Rifampicin,Mefloquine,16,plasmodium_falciparum_3D7
0.01171875,0.03125,70.48531,1.0,Rifampicin,Mefloquine,16,plasmodium_falciparum_3D7
0.01171875,0.0078125,69.993996,1.0,Rifampicin,Mefloquine,16,plasmodium_falciparum_3D7
0.01171875,0.00390625,105.9603,1.0,Rifampicin,Mefloquine,16,plasmodium_falciparum_3D7
0.01171875,0.001953125,89.02648,1.0,Rifampicin,Mefloquine,16,plasmodium_falciparum_3D7
0.01171875,0.0,74.84716,1.0,Rifampicin,Mefloquine,16,plasmodium_falciparum_3D7
0.005859375,0.25,9.152753,1.0,Rifampicin,Mefloquine,16,plasmodium_falciparum_3D7
0.005859375,0.125,17.936462,1.0,Rifampicin,Mefloquine,16,plasmodium_falciparum_3D7
0.005859375,0.0625,47.19993,1.0,Rifampicin,Mefloquine,16,plasmodium_falciparum_3D7
0.005859375,0.03125,93.96634,1.0,Rifampicin,Mefloquine,16,plasmodium_falciparum_3D7
0.005859375,0.0078125,69.77835,1.0,Rifampicin,Mefloquine,16,plasmodium_falciparum_3D7
0.005859375,0.001953125,110.80233999999999,1.0,Rifampicin,Mefloquine,16,plasmodium_falciparum_3D7
0.005859375,0.0,81.7523,1.0,Rifampicin,Mefloquine,16,plasmodium_falciparum_3D7
0.00292975,0.25,67.44403,1.0,Rifampicin,Mefloquine,16,plasmodium_falciparum_3D7
0.00292975,0.0,102.68113000000001,1.0,Rifampicin,Mefloquine,16,plasmodium_falciparum_3D7
0.0,0.25,32.738265999999996,1.0,Rifampicin,Mefloquine,16,plasmodium_falciparum_3D7
0.0,0.125,80.26723,1.0,Rifampicin,Mefloquine,16,plasmodium_falciparum_3D7
0.0,0.0625,84.65575,1.0,Rifampicin,Mefloquine,16,plasmodium_falciparum_3D7
0.0,0.03125,89.25546,1.0,Rifampicin,Mefloquine,16,plasmodium_falciparum_3D7
0.0,0.000976625,107.91668,1.0,Rifampicin,Mefloquine,16,plasmodium_falciparum_3D7
0.0,0.0,104.09284,1.0,Rifampicin,Mefloquine,16,plasmodium_falciparum_3D7
