drug1.conc,drug2.conc,effect,effect.95ci,drug1,drug2,expt,sample
0.75,0.075,1.324665,1.0,Tafenoquine,Methyleneblue,147,plasmodium_falciparum_Dd2
0.75,0.0375,1.759995,1.0,Tafenoquine,Methyleneblue,147,plasmodium_falciparum_Dd2
0.75,0.01875,4.638274,1.0,Tafenoquine,Methyleneblue,147,plasmodium_falciparum_Dd2
0.75,0.009375,3.5341699999999996,1.0,Tafenoquine,Methyleneblue,147,plasmodium_falciparum_Dd2
0.75,0.0046875,5.667244,1.0,Tafenoquine,Methyleneblue,147,plasmodium_falciparum_Dd2
0.75,0.00234375,6.908647,1.0,Tafenoquine,Methyleneblue,147,plasmodium_falciparum_Dd2
0.75,0.001171875,6.609061,1.0,Tafenoquine,Methyleneblue,147,plasmodium_falciparum_Dd2
0.75,0.000586,8.953097999999999,1.0,Tafenoquine,Methyleneblue,147,plasmodium_falciparum_Dd2
0.75,0.000293,8.95967,1.0,Tafenoquine,Methyleneblue,147,plasmodium_falciparum_Dd2
0.75,0.0,8.262882000000001,1.0,Tafenoquine,Methyleneblue,147,plasmodium_falciparum_Dd2
0.375,0.075,2.241063,1.0,Tafenoquine,Methyleneblue,147,plasmodium_falciparum_Dd2
0.375,0.0375,3.056561,1.0,Tafenoquine,Methyleneblue,147,plasmodium_falciparum_Dd2
0.375,0.01875,5.312062999999999,1.0,Tafenoquine,Methyleneblue,147,plasmodium_falciparum_Dd2
0.375,0.009375,6.554158,1.0,Tafenoquine,Methyleneblue,147,plasmodium_falciparum_Dd2
0.375,0.0046875,6.8545229999999995,1.0,Tafenoquine,Methyleneblue,147,plasmodium_falciparum_Dd2
0.375,0.00234375,9.980339,1.0,Tafenoquine,Methyleneblue,147,plasmodium_falciparum_Dd2
0.375,0.001171875,11.7182,1.0,Tafenoquine,Methyleneblue,147,plasmodium_falciparum_Dd2
0.375,0.000586,13.278039000000001,1.0,Tafenoquine,Methyleneblue,147,plasmodium_falciparum_Dd2
0.375,0.000293,14.870645999999999,1.0,Tafenoquine,Methyleneblue,147,plasmodium_falciparum_Dd2
0.375,0.0,17.600645,1.0,Tafenoquine,Methyleneblue,147,plasmodium_falciparum_Dd2
0.1875,0.075,1.435422,1.0,Tafenoquine,Methyleneblue,147,plasmodium_falciparum_Dd2
0.1875,0.0375,3.4129519999999998,1.0,Tafenoquine,Methyleneblue,147,plasmodium_falciparum_Dd2
0.1875,0.01875,4.951435,1.0,Tafenoquine,Methyleneblue,147,plasmodium_falciparum_Dd2
0.1875,0.009375,9.24646,1.0,Tafenoquine,Methyleneblue,147,plasmodium_falciparum_Dd2
0.1875,0.0046875,15.220293,1.0,Tafenoquine,Methyleneblue,147,plasmodium_falciparum_Dd2
0.1875,0.00234375,22.505823,1.0,Tafenoquine,Methyleneblue,147,plasmodium_falciparum_Dd2
0.1875,0.001171875,42.666656,1.0,Tafenoquine,Methyleneblue,147,plasmodium_falciparum_Dd2
0.1875,0.000586,79.39121,1.0,Tafenoquine,Methyleneblue,147,plasmodium_falciparum_Dd2
0.1875,0.000293,42.78355,1.0,Tafenoquine,Methyleneblue,147,plasmodium_falciparum_Dd2
0.1875,0.0,49.955729999999996,1.0,Tafenoquine,Methyleneblue,147,plasmodium_falciparum_Dd2
0.09375,0.075,2.029234,1.0,Tafenoquine,Methyleneblue,147,plasmodium_falciparum_Dd2
0.09375,0.0375,4.751711,1.0,Tafenoquine,Methyleneblue,147,plasmodium_falciparum_Dd2
0.09375,0.01875,6.7568220000000005,1.0,Tafenoquine,Methyleneblue,147,plasmodium_falciparum_Dd2
0.09375,0.009375,10.921205,1.0,Tafenoquine,Methyleneblue,147,plasmodium_falciparum_Dd2
0.09375,0.00234375,59.126884,1.0,Tafenoquine,Methyleneblue,147,plasmodium_falciparum_Dd2
0.09375,0.001171875,74.09609,1.0,Tafenoquine,Methyleneblue,147,plasmodium_falciparum_Dd2
0.09375,0.000586,71.421,1.0,Tafenoquine,Methyleneblue,147,plasmodium_falciparum_Dd2
0.09375,0.000293,86.53883,1.0,Tafenoquine,Methyleneblue,147,plasmodium_falciparum_Dd2
0.09375,0.0,88.532104,1.0,Tafenoquine,Methyleneblue,147,plasmodium_falciparum_Dd2
0.046875,0.075,1.826311,1.0,Tafenoquine,Methyleneblue,147,plasmodium_falciparum_Dd2
0.046875,0.0375,7.839138,1.0,Tafenoquine,Methyleneblue,147,plasmodium_falciparum_Dd2
0.046875,0.01875,7.773687,1.0,Tafenoquine,Methyleneblue,147,plasmodium_falciparum_Dd2
0.046875,0.009375,25.154203,1.0,Tafenoquine,Methyleneblue,147,plasmodium_falciparum_Dd2
0.046875,0.0046875,46.52661,1.0,Tafenoquine,Methyleneblue,147,plasmodium_falciparum_Dd2
0.046875,0.00234375,93.071465,1.0,Tafenoquine,Methyleneblue,147,plasmodium_falciparum_Dd2
0.046875,0.001171875,89.988884,1.0,Tafenoquine,Methyleneblue,147,plasmodium_falciparum_Dd2
0.046875,0.000586,96.7387,1.0,Tafenoquine,Methyleneblue,147,plasmodium_falciparum_Dd2
0.046875,0.000293,101.74339,1.0,Tafenoquine,Methyleneblue,147,plasmodium_falciparum_Dd2
0.046875,0.0,94.47438000000001,1.0,Tafenoquine,Methyleneblue,147,plasmodium_falciparum_Dd2
0.0234375,0.075,2.702591,1.0,Tafenoquine,Methyleneblue,147,plasmodium_falciparum_Dd2
0.0234375,0.0375,4.892208999999999,1.0,Tafenoquine,Methyleneblue,147,plasmodium_falciparum_Dd2
0.0234375,0.01875,13.897703,1.0,Tafenoquine,Methyleneblue,147,plasmodium_falciparum_Dd2
0.0234375,0.009375,44.575798,1.0,Tafenoquine,Methyleneblue,147,plasmodium_falciparum_Dd2
0.0234375,0.0046875,98.293175,1.0,Tafenoquine,Methyleneblue,147,plasmodium_falciparum_Dd2
0.0234375,0.00234375,99.06069000000001,1.0,Tafenoquine,Methyleneblue,147,plasmodium_falciparum_Dd2
0.0234375,0.001171875,106.16006999999999,1.0,Tafenoquine,Methyleneblue,147,plasmodium_falciparum_Dd2
0.0234375,0.000586,92.95198,1.0,Tafenoquine,Methyleneblue,147,plasmodium_falciparum_Dd2
0.0234375,0.000293,110.6945,1.0,Tafenoquine,Methyleneblue,147,plasmodium_falciparum_Dd2
0.0234375,0.0,97.185875,1.0,Tafenoquine,Methyleneblue,147,plasmodium_falciparum_Dd2
0.01171875,0.075,1.969057,1.0,Tafenoquine,Methyleneblue,147,plasmodium_falciparum_Dd2
0.01171875,0.0375,4.062273,1.0,Tafenoquine,Methyleneblue,147,plasmodium_falciparum_Dd2
0.01171875,0.01875,15.122333,1.0,Tafenoquine,Methyleneblue,147,plasmodium_falciparum_Dd2
0.01171875,0.009375,67.94078,1.0,Tafenoquine,Methyleneblue,147,plasmodium_falciparum_Dd2
0.01171875,0.0046875,110.0425,1.0,Tafenoquine,Methyleneblue,147,plasmodium_falciparum_Dd2
0.01171875,0.00234375,101.019806,1.0,Tafenoquine,Methyleneblue,147,plasmodium_falciparum_Dd2
0.01171875,0.001171875,97.02471,1.0,Tafenoquine,Methyleneblue,147,plasmodium_falciparum_Dd2
0.01171875,0.000586,102.593735,1.0,Tafenoquine,Methyleneblue,147,plasmodium_falciparum_Dd2
0.01171875,0.000293,114.15682,1.0,Tafenoquine,Methyleneblue,147,plasmodium_falciparum_Dd2
0.01171875,0.0,103.54066,1.0,Tafenoquine,Methyleneblue,147,plasmodium_falciparum_Dd2
0.005859375,0.075,2.086471,1.0,Tafenoquine,Methyleneblue,147,plasmodium_falciparum_Dd2
0.005859375,0.0375,3.873615,1.0,Tafenoquine,Methyleneblue,147,plasmodium_falciparum_Dd2
0.005859375,0.01875,18.297,1.0,Tafenoquine,Methyleneblue,147,plasmodium_falciparum_Dd2
0.005859375,0.009375,92.0578,1.0,Tafenoquine,Methyleneblue,147,plasmodium_falciparum_Dd2
0.005859375,0.0046875,104.15876,1.0,Tafenoquine,Methyleneblue,147,plasmodium_falciparum_Dd2
0.005859375,0.00234375,116.22471000000002,1.0,Tafenoquine,Methyleneblue,147,plasmodium_falciparum_Dd2
0.005859375,0.001171875,98.03777,1.0,Tafenoquine,Methyleneblue,147,plasmodium_falciparum_Dd2
0.005859375,0.000586,114.04581,1.0,Tafenoquine,Methyleneblue,147,plasmodium_falciparum_Dd2
0.005859375,0.000293,105.25266,1.0,Tafenoquine,Methyleneblue,147,plasmodium_falciparum_Dd2
0.005859375,0.0,98.30926,1.0,Tafenoquine,Methyleneblue,147,plasmodium_falciparum_Dd2
0.00292975,0.075,1.09615,1.0,Tafenoquine,Methyleneblue,147,plasmodium_falciparum_Dd2
0.00292975,0.0375,4.795026999999999,1.0,Tafenoquine,Methyleneblue,147,plasmodium_falciparum_Dd2
0.00292975,0.01875,24.115204000000002,1.0,Tafenoquine,Methyleneblue,147,plasmodium_falciparum_Dd2
0.00292975,0.009375,85.329254,1.0,Tafenoquine,Methyleneblue,147,plasmodium_falciparum_Dd2
0.00292975,0.0046875,106.28103,1.0,Tafenoquine,Methyleneblue,147,plasmodium_falciparum_Dd2
0.00292975,0.00234375,108.69605,1.0,Tafenoquine,Methyleneblue,147,plasmodium_falciparum_Dd2
0.00292975,0.001171875,106.38063000000001,1.0,Tafenoquine,Methyleneblue,147,plasmodium_falciparum_Dd2
0.00292975,0.000586,112.95761999999999,1.0,Tafenoquine,Methyleneblue,147,plasmodium_falciparum_Dd2
0.00292975,0.000293,114.01321399999999,1.0,Tafenoquine,Methyleneblue,147,plasmodium_falciparum_Dd2
0.00292975,0.0,113.495834,1.0,Tafenoquine,Methyleneblue,147,plasmodium_falciparum_Dd2
0.0,0.075,2.163594,1.0,Tafenoquine,Methyleneblue,147,plasmodium_falciparum_Dd2
0.0,0.0375,3.0187779999999997,1.0,Tafenoquine,Methyleneblue,147,plasmodium_falciparum_Dd2
0.0,0.01875,24.057016,1.0,Tafenoquine,Methyleneblue,147,plasmodium_falciparum_Dd2
0.0,0.009375,100.41994,1.0,Tafenoquine,Methyleneblue,147,plasmodium_falciparum_Dd2
0.0,0.0046875,102.66731,1.0,Tafenoquine,Methyleneblue,147,plasmodium_falciparum_Dd2
0.0,0.00234375,112.19546499999998,1.0,Tafenoquine,Methyleneblue,147,plasmodium_falciparum_Dd2
0.0,0.001171875,108.73305500000001,1.0,Tafenoquine,Methyleneblue,147,plasmodium_falciparum_Dd2
0.0,0.000586,107.73867,1.0,Tafenoquine,Methyleneblue,147,plasmodium_falciparum_Dd2
0.0,0.000293,111.19459499999999,1.0,Tafenoquine,Methyleneblue,147,plasmodium_falciparum_Dd2
0.0,0.0,101.05465,1.0,Tafenoquine,Methyleneblue,147,plasmodium_falciparum_Dd2
