drug1.conc,drug2.conc,effect,effect.95ci,drug1,drug2,expt,sample
0.75,0.05,3.3452669999999998,1.0,Tafenoquine,Artesunate,144,plasmodium_falciparum_HB3
0.75,0.025,12.081959,1.0,Tafenoquine,Artesunate,144,plasmodium_falciparum_HB3
0.75,0.0125,19.784615,1.0,Tafenoquine,Artesunate,144,plasmodium_falciparum_HB3
0.75,0.00625,20.109222,1.0,Tafenoquine,Artesunate,144,plasmodium_falciparum_HB3
0.75,0.003125,25.429005,1.0,Tafenoquine,Artesunate,144,plasmodium_falciparum_HB3
0.75,0.0015625,29.769748999999997,1.0,Tafenoquine,Artesunate,144,plasmodium_falciparum_HB3
0.75,0.00078125,30.206646000000003,1.0,Tafenoquine,Artesunate,144,plasmodium_falciparum_HB3
0.75,0.000390625,30.815525,1.0,Tafenoquine,Artesunate,144,plasmodium_falciparum_HB3
0.75,0.000195375,25.567331,1.0,Tafenoquine,Artesunate,144,plasmodium_falciparum_HB3
0.75,0.0,27.512836,1.0,Tafenoquine,Artesunate,144,plasmodium_falciparum_HB3
0.375,0.05,2.614496,1.0,Tafenoquine,Artesunate,144,plasmodium_falciparum_HB3
0.375,0.025,14.073225,1.0,Tafenoquine,Artesunate,144,plasmodium_falciparum_HB3
0.375,0.0125,20.905216,1.0,Tafenoquine,Artesunate,144,plasmodium_falciparum_HB3
0.375,0.00625,33.844640000000005,1.0,Tafenoquine,Artesunate,144,plasmodium_falciparum_HB3
0.375,0.003125,38.40579,1.0,Tafenoquine,Artesunate,144,plasmodium_falciparum_HB3
0.375,0.0015625,38.910778,1.0,Tafenoquine,Artesunate,144,plasmodium_falciparum_HB3
0.375,0.00078125,45.734159999999996,1.0,Tafenoquine,Artesunate,144,plasmodium_falciparum_HB3
0.375,0.000390625,43.505062,1.0,Tafenoquine,Artesunate,144,plasmodium_falciparum_HB3
0.375,0.000195375,45.74324,1.0,Tafenoquine,Artesunate,144,plasmodium_falciparum_HB3
0.375,0.0,44.0543,1.0,Tafenoquine,Artesunate,144,plasmodium_falciparum_HB3
0.1875,0.05,2.5757790000000003,1.0,Tafenoquine,Artesunate,144,plasmodium_falciparum_HB3
0.1875,0.025,9.855521000000001,1.0,Tafenoquine,Artesunate,144,plasmodium_falciparum_HB3
0.1875,0.0125,25.387575,1.0,Tafenoquine,Artesunate,144,plasmodium_falciparum_HB3
0.1875,0.00625,42.528890000000004,1.0,Tafenoquine,Artesunate,144,plasmodium_falciparum_HB3
0.1875,0.003125,60.251015,1.0,Tafenoquine,Artesunate,144,plasmodium_falciparum_HB3
0.1875,0.0015625,69.976814,1.0,Tafenoquine,Artesunate,144,plasmodium_falciparum_HB3
0.1875,0.00078125,71.27519000000001,1.0,Tafenoquine,Artesunate,144,plasmodium_falciparum_HB3
0.1875,0.000390625,69.09431,1.0,Tafenoquine,Artesunate,144,plasmodium_falciparum_HB3
0.1875,0.000195375,70.210945,1.0,Tafenoquine,Artesunate,144,plasmodium_falciparum_HB3
0.1875,0.0,65.686325,1.0,Tafenoquine,Artesunate,144,plasmodium_falciparum_HB3
0.09375,0.05,2.474186,1.0,Tafenoquine,Artesunate,144,plasmodium_falciparum_HB3
0.09375,0.025,8.940244,1.0,Tafenoquine,Artesunate,144,plasmodium_falciparum_HB3
0.09375,0.0125,26.805547999999998,1.0,Tafenoquine,Artesunate,144,plasmodium_falciparum_HB3
0.09375,0.00625,58.611435,1.0,Tafenoquine,Artesunate,144,plasmodium_falciparum_HB3
0.09375,0.003125,80.4538,1.0,Tafenoquine,Artesunate,144,plasmodium_falciparum_HB3
0.09375,0.0015625,88.22094,1.0,Tafenoquine,Artesunate,144,plasmodium_falciparum_HB3
0.09375,0.00078125,87.99595,1.0,Tafenoquine,Artesunate,144,plasmodium_falciparum_HB3
0.09375,0.000390625,89.5367,1.0,Tafenoquine,Artesunate,144,plasmodium_falciparum_HB3
0.09375,0.000195375,88.43211,1.0,Tafenoquine,Artesunate,144,plasmodium_falciparum_HB3
0.09375,0.0,90.454216,1.0,Tafenoquine,Artesunate,144,plasmodium_falciparum_HB3
0.046875,0.05,2.270895,1.0,Tafenoquine,Artesunate,144,plasmodium_falciparum_HB3
0.046875,0.025,6.78143,1.0,Tafenoquine,Artesunate,144,plasmodium_falciparum_HB3
0.046875,0.0125,19.869667,1.0,Tafenoquine,Artesunate,144,plasmodium_falciparum_HB3
0.046875,0.00625,50.298336,1.0,Tafenoquine,Artesunate,144,plasmodium_falciparum_HB3
0.046875,0.003125,87.21769,1.0,Tafenoquine,Artesunate,144,plasmodium_falciparum_HB3
0.046875,0.0015625,101.77039,1.0,Tafenoquine,Artesunate,144,plasmodium_falciparum_HB3
0.046875,0.00078125,100.06188,1.0,Tafenoquine,Artesunate,144,plasmodium_falciparum_HB3
0.046875,0.000390625,98.1181,1.0,Tafenoquine,Artesunate,144,plasmodium_falciparum_HB3
0.046875,0.000195375,93.80136,1.0,Tafenoquine,Artesunate,144,plasmodium_falciparum_HB3
0.046875,0.0,99.732635,1.0,Tafenoquine,Artesunate,144,plasmodium_falciparum_HB3
0.0234375,0.05,2.274861,1.0,Tafenoquine,Artesunate,144,plasmodium_falciparum_HB3
0.0234375,0.025,6.240226,1.0,Tafenoquine,Artesunate,144,plasmodium_falciparum_HB3
0.0234375,0.0125,17.64255,1.0,Tafenoquine,Artesunate,144,plasmodium_falciparum_HB3
0.0234375,0.00625,53.150769999999994,1.0,Tafenoquine,Artesunate,144,plasmodium_falciparum_HB3
0.0234375,0.003125,104.31126400000001,1.0,Tafenoquine,Artesunate,144,plasmodium_falciparum_HB3
0.0234375,0.0015625,105.73408500000001,1.0,Tafenoquine,Artesunate,144,plasmodium_falciparum_HB3
0.0234375,0.00078125,106.21847,1.0,Tafenoquine,Artesunate,144,plasmodium_falciparum_HB3
0.0234375,0.000390625,102.818565,1.0,Tafenoquine,Artesunate,144,plasmodium_falciparum_HB3
0.0234375,0.000195375,105.24689,1.0,Tafenoquine,Artesunate,144,plasmodium_falciparum_HB3
0.0234375,0.0,102.948494,1.0,Tafenoquine,Artesunate,144,plasmodium_falciparum_HB3
0.01171875,0.05,2.327614,1.0,Tafenoquine,Artesunate,144,plasmodium_falciparum_HB3
0.01171875,0.025,5.466512000000001,1.0,Tafenoquine,Artesunate,144,plasmodium_falciparum_HB3
0.01171875,0.0125,10.69159,1.0,Tafenoquine,Artesunate,144,plasmodium_falciparum_HB3
0.01171875,0.00625,49.61943,1.0,Tafenoquine,Artesunate,144,plasmodium_falciparum_HB3
0.01171875,0.003125,102.79592,1.0,Tafenoquine,Artesunate,144,plasmodium_falciparum_HB3
0.01171875,0.0015625,101.07411,1.0,Tafenoquine,Artesunate,144,plasmodium_falciparum_HB3
0.01171875,0.00078125,107.10285,1.0,Tafenoquine,Artesunate,144,plasmodium_falciparum_HB3
0.01171875,0.000390625,108.60118,1.0,Tafenoquine,Artesunate,144,plasmodium_falciparum_HB3
0.01171875,0.000195375,102.92403,1.0,Tafenoquine,Artesunate,144,plasmodium_falciparum_HB3
0.01171875,0.0,106.09188,1.0,Tafenoquine,Artesunate,144,plasmodium_falciparum_HB3
0.005859375,0.05,2.345564,1.0,Tafenoquine,Artesunate,144,plasmodium_falciparum_HB3
0.005859375,0.025,4.9335,1.0,Tafenoquine,Artesunate,144,plasmodium_falciparum_HB3
0.005859375,0.0125,11.711069,1.0,Tafenoquine,Artesunate,144,plasmodium_falciparum_HB3
0.005859375,0.00625,63.148006,1.0,Tafenoquine,Artesunate,144,plasmodium_falciparum_HB3
0.005859375,0.003125,106.75048999999999,1.0,Tafenoquine,Artesunate,144,plasmodium_falciparum_HB3
0.005859375,0.0015625,103.77538,1.0,Tafenoquine,Artesunate,144,plasmodium_falciparum_HB3
0.005859375,0.00078125,103.41566,1.0,Tafenoquine,Artesunate,144,plasmodium_falciparum_HB3
0.005859375,0.000390625,107.64088000000001,1.0,Tafenoquine,Artesunate,144,plasmodium_falciparum_HB3
0.005859375,0.000195375,105.71921499999999,1.0,Tafenoquine,Artesunate,144,plasmodium_falciparum_HB3
0.005859375,0.0,102.94682,1.0,Tafenoquine,Artesunate,144,plasmodium_falciparum_HB3
0.00292975,0.05,2.784757,1.0,Tafenoquine,Artesunate,144,plasmodium_falciparum_HB3
0.00292975,0.025,4.947693,1.0,Tafenoquine,Artesunate,144,plasmodium_falciparum_HB3
0.00292975,0.0125,60.715515,1.0,Tafenoquine,Artesunate,144,plasmodium_falciparum_HB3
0.00292975,0.00625,70.73608,1.0,Tafenoquine,Artesunate,144,plasmodium_falciparum_HB3
0.00292975,0.003125,100.20286999999999,1.0,Tafenoquine,Artesunate,144,plasmodium_falciparum_HB3
0.00292975,0.0015625,107.38337,1.0,Tafenoquine,Artesunate,144,plasmodium_falciparum_HB3
0.00292975,0.00078125,105.55228999999999,1.0,Tafenoquine,Artesunate,144,plasmodium_falciparum_HB3
0.00292975,0.000390625,102.61126,1.0,Tafenoquine,Artesunate,144,plasmodium_falciparum_HB3
0.00292975,0.000195375,104.25058,1.0,Tafenoquine,Artesunate,144,plasmodium_falciparum_HB3
0.00292975,0.0,105.25023,1.0,Tafenoquine,Artesunate,144,plasmodium_falciparum_HB3
0.0,0.05,2.1940869999999997,1.0,Tafenoquine,Artesunate,144,plasmodium_falciparum_HB3
0.0,0.025,13.598863,1.0,Tafenoquine,Artesunate,144,plasmodium_falciparum_HB3
0.0,0.0125,33.866608,1.0,Tafenoquine,Artesunate,144,plasmodium_falciparum_HB3
0.0,0.00625,72.49061,1.0,Tafenoquine,Artesunate,144,plasmodium_falciparum_HB3
0.0,0.003125,103.52873000000001,1.0,Tafenoquine,Artesunate,144,plasmodium_falciparum_HB3
0.0,0.0015625,108.35855,1.0,Tafenoquine,Artesunate,144,plasmodium_falciparum_HB3
0.0,0.00078125,105.95083999999999,1.0,Tafenoquine,Artesunate,144,plasmodium_falciparum_HB3
0.0,0.000390625,107.62433999999999,1.0,Tafenoquine,Artesunate,144,plasmodium_falciparum_HB3
0.0,0.000195375,106.61242,1.0,Tafenoquine,Artesunate,144,plasmodium_falciparum_HB3
0.0,0.0,110.74507,1.0,Tafenoquine,Artesunate,144,plasmodium_falciparum_HB3
