drug1.conc,drug2.conc,effect,effect.95ci,drug1,drug2,expt,sample
0.01,0.05,9.084612,1.0,Torin2,Artesunate,93,plasmodium_falciparum_3D7
0.01,0.025,14.225631,1.0,Torin2,Artesunate,93,plasmodium_falciparum_3D7
0.01,0.00625,44.653636999999996,1.0,Torin2,Artesunate,93,plasmodium_falciparum_3D7
0.01,0.003125,26.514103000000002,1.0,Torin2,Artesunate,93,plasmodium_falciparum_3D7
0.01,0.0015625,95.16328399999999,1.0,Torin2,Artesunate,93,plasmodium_falciparum_3D7
0.01,0.00078125,60.49728,1.0,Torin2,Artesunate,93,plasmodium_falciparum_3D7
0.01,0.000390625,52.112815999999995,1.0,Torin2,Artesunate,93,plasmodium_falciparum_3D7
0.01,0.000195375,107.70163000000001,1.0,Torin2,Artesunate,93,plasmodium_falciparum_3D7
0.005,0.05,37.612567999999996,1.0,Torin2,Artesunate,93,plasmodium_falciparum_3D7
0.005,0.025,15.309253,1.0,Torin2,Artesunate,93,plasmodium_falciparum_3D7
0.005,0.0125,65.64325,1.0,Torin2,Artesunate,93,plasmodium_falciparum_3D7
0.005,0.00625,66.47946999999999,1.0,Torin2,Artesunate,93,plasmodium_falciparum_3D7
0.005,0.003125,60.44285,1.0,Torin2,Artesunate,93,plasmodium_falciparum_3D7
0.005,0.0015625,95.6853,1.0,Torin2,Artesunate,93,plasmodium_falciparum_3D7
0.005,0.000390625,108.612076,1.0,Torin2,Artesunate,93,plasmodium_falciparum_3D7
0.005,0.000195375,103.11974000000001,1.0,Torin2,Artesunate,93,plasmodium_falciparum_3D7
0.0025,0.05,25.893122,1.0,Torin2,Artesunate,93,plasmodium_falciparum_3D7
0.0025,0.0125,26.662542,1.0,Torin2,Artesunate,93,plasmodium_falciparum_3D7
0.0025,0.00625,77.43691,1.0,Torin2,Artesunate,93,plasmodium_falciparum_3D7
0.0025,0.003125,100.205345,1.0,Torin2,Artesunate,93,plasmodium_falciparum_3D7
0.0025,0.000195375,104.33695999999999,1.0,Torin2,Artesunate,93,plasmodium_falciparum_3D7
0.0025,0.0,115.97971000000001,1.0,Torin2,Artesunate,93,plasmodium_falciparum_3D7
0.00125,0.05,20.220188,1.0,Torin2,Artesunate,93,plasmodium_falciparum_3D7
0.00125,0.025,93.5428,1.0,Torin2,Artesunate,93,plasmodium_falciparum_3D7
0.00125,0.0125,49.265217,1.0,Torin2,Artesunate,93,plasmodium_falciparum_3D7
0.000625,0.05,19.351807,1.0,Torin2,Artesunate,93,plasmodium_falciparum_3D7
0.000625,0.025,12.288471000000001,1.0,Torin2,Artesunate,93,plasmodium_falciparum_3D7
0.000625,0.0125,96.60069,1.0,Torin2,Artesunate,93,plasmodium_falciparum_3D7
0.000625,0.00625,93.16675,1.0,Torin2,Artesunate,93,plasmodium_falciparum_3D7
0.000625,0.00078125,68.24839,1.0,Torin2,Artesunate,93,plasmodium_falciparum_3D7
0.0003125,0.05,16.603167000000003,1.0,Torin2,Artesunate,93,plasmodium_falciparum_3D7
0.0003125,0.025,-1.9346860000000001,1.0,Torin2,Artesunate,93,plasmodium_falciparum_3D7
0.0003125,0.0125,39.831764,1.0,Torin2,Artesunate,93,plasmodium_falciparum_3D7
0.0003125,0.00625,107.59277,1.0,Torin2,Artesunate,93,plasmodium_falciparum_3D7
0.0003125,0.003125,113.34488,1.0,Torin2,Artesunate,93,plasmodium_falciparum_3D7
0.0003125,0.0015625,112.67193999999999,1.0,Torin2,Artesunate,93,plasmodium_falciparum_3D7
0.00015625,0.05,0.059377,1.0,Torin2,Artesunate,93,plasmodium_falciparum_3D7
0.00015625,0.025,16.157843,1.0,Torin2,Artesunate,93,plasmodium_falciparum_3D7
0.00015625,0.0125,25.128649,1.0,Torin2,Artesunate,93,plasmodium_falciparum_3D7
0.00015625,0.003125,76.62791,1.0,Torin2,Artesunate,93,plasmodium_falciparum_3D7
0.00015625,0.000390625,119.17615,1.0,Torin2,Artesunate,93,plasmodium_falciparum_3D7
7.8125e-05,0.05,21.895101999999998,1.0,Torin2,Artesunate,93,plasmodium_falciparum_3D7
7.8125e-05,0.025,0.16081099999999998,1.0,Torin2,Artesunate,93,plasmodium_falciparum_3D7
7.8125e-05,0.0125,48.273132000000004,1.0,Torin2,Artesunate,93,plasmodium_falciparum_3D7
7.8125e-05,0.00078125,113.27808,1.0,Torin2,Artesunate,93,plasmodium_falciparum_3D7
7.8125e-05,0.000195375,92.82039,1.0,Torin2,Artesunate,93,plasmodium_falciparum_3D7
7.8125e-05,0.0,110.80405400000001,1.0,Torin2,Artesunate,93,plasmodium_falciparum_3D7
3.9125e-05,0.05,2.664523,1.0,Torin2,Artesunate,93,plasmodium_falciparum_3D7
3.9125e-05,0.025,13.852053,1.0,Torin2,Artesunate,93,plasmodium_falciparum_3D7
3.9125e-05,0.0125,108.54775,1.0,Torin2,Artesunate,93,plasmodium_falciparum_3D7
3.9125e-05,0.00625,94.4186,1.0,Torin2,Artesunate,93,plasmodium_falciparum_3D7
3.9125e-05,0.0015625,116.49926,1.0,Torin2,Artesunate,93,plasmodium_falciparum_3D7
3.9125e-05,0.0,97.69915999999999,1.0,Torin2,Artesunate,93,plasmodium_falciparum_3D7
0.0,0.05,30.853539,1.0,Torin2,Artesunate,93,plasmodium_falciparum_3D7
0.0,0.025,58.40178,1.0,Torin2,Artesunate,93,plasmodium_falciparum_3D7
0.0,0.0125,119.30232,1.0,Torin2,Artesunate,93,plasmodium_falciparum_3D7
0.0,0.003125,101.855515,1.0,Torin2,Artesunate,93,plasmodium_falciparum_3D7
