drug1.conc,drug2.conc,effect,effect.95ci,drug1,drug2,expt,sample
0.5,0.01,-0.560547,1.0,TrichostatinA,NITD609,26,plasmodium_falciparum_Dd2
0.5,0.005,-0.746329,1.0,TrichostatinA,NITD609,26,plasmodium_falciparum_Dd2
0.5,0.0025,1.266918,1.0,TrichostatinA,NITD609,26,plasmodium_falciparum_Dd2
0.5,0.00125,1.311893,1.0,TrichostatinA,NITD609,26,plasmodium_falciparum_Dd2
0.5,0.000625,1.072486,1.0,TrichostatinA,NITD609,26,plasmodium_falciparum_Dd2
0.5,0.0003125,1.713816,1.0,TrichostatinA,NITD609,26,plasmodium_falciparum_Dd2
0.5,0.00015625,3.381618,1.0,TrichostatinA,NITD609,26,plasmodium_falciparum_Dd2
0.5,7.8125e-05,1.676452,1.0,TrichostatinA,NITD609,26,plasmodium_falciparum_Dd2
0.5,3.9125e-05,2.093337,1.0,TrichostatinA,NITD609,26,plasmodium_falciparum_Dd2
0.5,0.0,3.637458,1.0,TrichostatinA,NITD609,26,plasmodium_falciparum_Dd2
0.25,0.01,-0.285333,1.0,TrichostatinA,NITD609,26,plasmodium_falciparum_Dd2
0.25,0.005,-0.032780000000000004,1.0,TrichostatinA,NITD609,26,plasmodium_falciparum_Dd2
0.25,0.0025,1.7391580000000002,1.0,TrichostatinA,NITD609,26,plasmodium_falciparum_Dd2
0.25,0.00125,2.374087,1.0,TrichostatinA,NITD609,26,plasmodium_falciparum_Dd2
0.25,0.000625,2.283444,1.0,TrichostatinA,NITD609,26,plasmodium_falciparum_Dd2
0.25,0.0003125,3.516457,1.0,TrichostatinA,NITD609,26,plasmodium_falciparum_Dd2
0.25,0.00015625,3.3383730000000003,1.0,TrichostatinA,NITD609,26,plasmodium_falciparum_Dd2
0.25,7.8125e-05,4.029866999999999,1.0,TrichostatinA,NITD609,26,plasmodium_falciparum_Dd2
0.25,3.9125e-05,4.4569589999999994,1.0,TrichostatinA,NITD609,26,plasmodium_falciparum_Dd2
0.25,0.0,3.1716189999999997,1.0,TrichostatinA,NITD609,26,plasmodium_falciparum_Dd2
0.125,0.01,-0.369143,1.0,TrichostatinA,NITD609,26,plasmodium_falciparum_Dd2
0.125,0.005,-0.817857,1.0,TrichostatinA,NITD609,26,plasmodium_falciparum_Dd2
0.125,0.0025,0.021882,1.0,TrichostatinA,NITD609,26,plasmodium_falciparum_Dd2
0.125,0.00125,0.849599,1.0,TrichostatinA,NITD609,26,plasmodium_falciparum_Dd2
0.125,0.000625,5.874111,1.0,TrichostatinA,NITD609,26,plasmodium_falciparum_Dd2
0.125,0.0003125,5.788571,1.0,TrichostatinA,NITD609,26,plasmodium_falciparum_Dd2
0.125,0.00015625,10.39983,1.0,TrichostatinA,NITD609,26,plasmodium_falciparum_Dd2
0.125,7.8125e-05,6.041125,1.0,TrichostatinA,NITD609,26,plasmodium_falciparum_Dd2
0.125,3.9125e-05,14.702835,1.0,TrichostatinA,NITD609,26,plasmodium_falciparum_Dd2
0.125,0.0,5.6310720000000005,1.0,TrichostatinA,NITD609,26,plasmodium_falciparum_Dd2
0.0625,0.01,-0.9187059999999999,1.0,TrichostatinA,NITD609,26,plasmodium_falciparum_Dd2
0.0625,0.005,-0.9652379999999999,1.0,TrichostatinA,NITD609,26,plasmodium_falciparum_Dd2
0.0625,0.0025,-0.20014,1.0,TrichostatinA,NITD609,26,plasmodium_falciparum_Dd2
0.0625,0.00125,1.60674,1.0,TrichostatinA,NITD609,26,plasmodium_falciparum_Dd2
0.0625,0.000625,14.000962,1.0,TrichostatinA,NITD609,26,plasmodium_falciparum_Dd2
0.0625,0.0003125,43.448063,1.0,TrichostatinA,NITD609,26,plasmodium_falciparum_Dd2
0.0625,0.00015625,34.054120000000005,1.0,TrichostatinA,NITD609,26,plasmodium_falciparum_Dd2
0.0625,7.8125e-05,38.215107,1.0,TrichostatinA,NITD609,26,plasmodium_falciparum_Dd2
0.0625,3.9125e-05,36.90079,1.0,TrichostatinA,NITD609,26,plasmodium_falciparum_Dd2
0.0625,0.0,37.43833,1.0,TrichostatinA,NITD609,26,plasmodium_falciparum_Dd2
0.03125,0.01,-1.010991,1.0,TrichostatinA,NITD609,26,plasmodium_falciparum_Dd2
0.03125,0.005,-1.272885,1.0,TrichostatinA,NITD609,26,plasmodium_falciparum_Dd2
0.03125,0.0025,-0.7830010000000001,1.0,TrichostatinA,NITD609,26,plasmodium_falciparum_Dd2
0.03125,0.00125,1.506757,1.0,TrichostatinA,NITD609,26,plasmodium_falciparum_Dd2
0.03125,0.000625,29.837,1.0,TrichostatinA,NITD609,26,plasmodium_falciparum_Dd2
0.03125,0.0003125,71.09666999999999,1.0,TrichostatinA,NITD609,26,plasmodium_falciparum_Dd2
0.03125,0.00015625,76.63338,1.0,TrichostatinA,NITD609,26,plasmodium_falciparum_Dd2
0.03125,7.8125e-05,68.91027,1.0,TrichostatinA,NITD609,26,plasmodium_falciparum_Dd2
0.03125,3.9125e-05,66.60918000000001,1.0,TrichostatinA,NITD609,26,plasmodium_falciparum_Dd2
0.03125,0.0,71.00724,1.0,TrichostatinA,NITD609,26,plasmodium_falciparum_Dd2
0.015625,0.01,-1.26588,1.0,TrichostatinA,NITD609,26,plasmodium_falciparum_Dd2
0.015625,0.005,-0.9307280000000001,1.0,TrichostatinA,NITD609,26,plasmodium_falciparum_Dd2
0.015625,0.0025,-0.49144099999999996,1.0,TrichostatinA,NITD609,26,plasmodium_falciparum_Dd2
0.015625,0.00125,1.615216,1.0,TrichostatinA,NITD609,26,plasmodium_falciparum_Dd2
0.015625,0.000625,6.1109230000000005,1.0,TrichostatinA,NITD609,26,plasmodium_falciparum_Dd2
0.015625,0.0003125,16.906189,1.0,TrichostatinA,NITD609,26,plasmodium_falciparum_Dd2
0.015625,0.00015625,94.036804,1.0,TrichostatinA,NITD609,26,plasmodium_falciparum_Dd2
0.015625,7.8125e-05,73.91428,1.0,TrichostatinA,NITD609,26,plasmodium_falciparum_Dd2
0.015625,3.9125e-05,82.399895,1.0,TrichostatinA,NITD609,26,plasmodium_falciparum_Dd2
0.015625,0.0,89.60493000000001,1.0,TrichostatinA,NITD609,26,plasmodium_falciparum_Dd2
0.0078125,0.01,-0.873384,1.0,TrichostatinA,NITD609,26,plasmodium_falciparum_Dd2
0.0078125,0.005,0.9422309999999999,1.0,TrichostatinA,NITD609,26,plasmodium_falciparum_Dd2
0.0078125,0.0025,0.6095010000000001,1.0,TrichostatinA,NITD609,26,plasmodium_falciparum_Dd2
0.0078125,0.00125,0.273311,1.0,TrichostatinA,NITD609,26,plasmodium_falciparum_Dd2
0.0078125,0.000625,9.200289,1.0,TrichostatinA,NITD609,26,plasmodium_falciparum_Dd2
0.0078125,0.0003125,51.538933,1.0,TrichostatinA,NITD609,26,plasmodium_falciparum_Dd2
0.0078125,0.00015625,104.486626,1.0,TrichostatinA,NITD609,26,plasmodium_falciparum_Dd2
0.0078125,7.8125e-05,93.56664,1.0,TrichostatinA,NITD609,26,plasmodium_falciparum_Dd2
0.0078125,3.9125e-05,94.08601,1.0,TrichostatinA,NITD609,26,plasmodium_falciparum_Dd2
0.0078125,0.0,99.72081,1.0,TrichostatinA,NITD609,26,plasmodium_falciparum_Dd2
0.00390625,0.01,-0.318459,1.0,TrichostatinA,NITD609,26,plasmodium_falciparum_Dd2
0.00390625,0.005,0.091334,1.0,TrichostatinA,NITD609,26,plasmodium_falciparum_Dd2
0.00390625,0.0025,0.5320050000000001,1.0,TrichostatinA,NITD609,26,plasmodium_falciparum_Dd2
0.00390625,0.00125,0.19028,1.0,TrichostatinA,NITD609,26,plasmodium_falciparum_Dd2
0.00390625,0.000625,11.240261,1.0,TrichostatinA,NITD609,26,plasmodium_falciparum_Dd2
0.00390625,0.0003125,5.486632,1.0,TrichostatinA,NITD609,26,plasmodium_falciparum_Dd2
0.00390625,0.00015625,104.874886,1.0,TrichostatinA,NITD609,26,plasmodium_falciparum_Dd2
0.00390625,7.8125e-05,109.50889,1.0,TrichostatinA,NITD609,26,plasmodium_falciparum_Dd2
0.00390625,3.9125e-05,101.71693,1.0,TrichostatinA,NITD609,26,plasmodium_falciparum_Dd2
0.00390625,0.0,102.254295,1.0,TrichostatinA,NITD609,26,plasmodium_falciparum_Dd2
0.001953125,0.01,-0.235342,1.0,TrichostatinA,NITD609,26,plasmodium_falciparum_Dd2
0.001953125,0.005,-0.508999,1.0,TrichostatinA,NITD609,26,plasmodium_falciparum_Dd2
0.001953125,0.0025,0.209221,1.0,TrichostatinA,NITD609,26,plasmodium_falciparum_Dd2
0.001953125,0.00125,2.528127,1.0,TrichostatinA,NITD609,26,plasmodium_falciparum_Dd2
0.001953125,0.000625,7.783569,1.0,TrichostatinA,NITD609,26,plasmodium_falciparum_Dd2
0.001953125,0.0003125,9.712141,1.0,TrichostatinA,NITD609,26,plasmodium_falciparum_Dd2
0.001953125,0.00015625,102.08668,1.0,TrichostatinA,NITD609,26,plasmodium_falciparum_Dd2
0.001953125,7.8125e-05,109.59728,1.0,TrichostatinA,NITD609,26,plasmodium_falciparum_Dd2
0.0,0.01,-0.143921,1.0,TrichostatinA,NITD609,26,plasmodium_falciparum_Dd2
0.0,0.005,-0.284382,1.0,TrichostatinA,NITD609,26,plasmodium_falciparum_Dd2
0.0,0.0025,-0.055787,1.0,TrichostatinA,NITD609,26,plasmodium_falciparum_Dd2
0.0,0.00125,43.93457,1.0,TrichostatinA,NITD609,26,plasmodium_falciparum_Dd2
0.0,0.000625,77.72265,1.0,TrichostatinA,NITD609,26,plasmodium_falciparum_Dd2
0.0,0.0003125,82.36409,1.0,TrichostatinA,NITD609,26,plasmodium_falciparum_Dd2
0.0,0.00015625,88.84156,1.0,TrichostatinA,NITD609,26,plasmodium_falciparum_Dd2
0.0,7.8125e-05,97.63534,1.0,TrichostatinA,NITD609,26,plasmodium_falciparum_Dd2
0.0,3.9125e-05,101.14479,1.0,TrichostatinA,NITD609,26,plasmodium_falciparum_Dd2
0.0,0.0,95.51969,1.0,TrichostatinA,NITD609,26,plasmodium_falciparum_Dd2
